{
    "__llconfig__": true,
    "k": 31,
    "key_bits": 40,
    "value_bits": 32,
    "bucket_count": 8333334,
    "bucket_size": 16,
    "value_module": {
        "__llvaluefunctions__": true,
        "module": "gecocoo.valuemodules.default.counting",
        "parameters": []
    },
    "hash_functions": [
        {
            "__llhashfunction__": true,
            "name": "gecocoo.hashing.xorlinear.xorlinear",
            "seed": 3404568611099732182,
            "parameters": []
        },
        {
            "__llhashfunction__": true,
            "name": "gecocoo.hashing.xorlinear.xorlinear",
            "seed": 99523628097603691,
            "parameters": []
        }
    ],
    "storage": {
        "__llstorageconfig__": true,
        "mode": "BUCKETS",
        "concurrent": true,
        "disable_quotienting": false
    }
}