{
    "machine_info": {
        "node": "cstd01-198",
        "processor": "x86_64",
        "machine": "x86_64",
        "python_compiler": "GCC 7.3.0",
        "python_implementation": "CPython",
        "python_implementation_version": "3.7.9",
        "python_version": "3.7.9",
        "python_build": [
            "default",
            "Aug 31 2020 12:42:55"
        ],
        "release": "3.10.0-1160.6.1.el7.x86_64",
        "system": "Linux",
        "cpu": {
            "vendor_id": "unknown",
            "hardware": "unknown",
            "brand": "unknown"
        }
    },
    "commit_info": {
        "id": "unversioned",
        "time": null,
        "author_time": null,
        "dirty": false,
        "project": "gecocoo-2021-02-22T15_07_24.622469-origin_develop",
        "branch": "(unknown)"
    },
    "benchmarks": [
        {
            "group": "inserting",
            "name": "insert",
            "fullname": "bench_operations.py::test_cost_optimal",
            "params": null,
            "param": null,
            "extra_info": {
                "key_count": 100000000,
                "thread_count": 1,
                "config": "{\"__llconfig__\": true, \"k\": 31, \"key_bits\": 39, \"value_bits\": 32, \"bucket_count\": 13157895, \"bucket_size\": 8, \"value_module\": {\"__llvaluefunctions__\": true, \"module\": \"gecocoo.valuemodules.default.counting\", \"parameters\": []}, \"hash_functions\": [{\"__llhashfunction__\": true, \"name\": \"gecocoo.hashing.xorlinear.xorlinear\", \"seed\": 14339189132287170893, \"parameters\": []}, {\"__llhashfunction__\": true, \"name\": \"gecocoo.hashing.xorlinear.xorlinear\", \"seed\": 15657484853813791353, \"parameters\": []}, {\"__llhashfunction__\": true, \"name\": \"gecocoo.hashing.xorlinear.xorlinear\", \"seed\": 10745697135450483385, \"parameters\": []}], \"storage\": {\"__llstorageconfig__\": true, \"mode\": \"BUCKETS\", \"concurrent\": true, \"disable_quotienting\": false}}"
            },
            "options": {
                "disable_gc": false,
                "timer": "perf_counter",
                "min_rounds": 5,
                "max_time": 1.0,
                "min_time": 5e-06,
                "warmup": false
            },
            "stats": {
                "min": 1022.3108110619942,
                "max": 1022.3108110619942,
                "mean": 1022.3108110619942,
                "stddev": 0,
                "rounds": 1,
                "median": 1022.3108110619942,
                "iqr": 0.0,
                "q1": 1022.3108110619942,
                "q3": 1022.3108110619942,
                "iqr_outliers": 0,
                "stddev_outliers": 0,
                "outliers": "0;0",
                "ld15iqr": 1022.3108110619942,
                "hd15iqr": 1022.3108110619942,
                "ops": 0.0009781760978945168,
                "total": 1022.3108110619942,
                "data": [
                    1022.3108110619942
                ],
                "iterations": 1
            }
        },
        {
            "group": "searching",
            "name": "search",
            "fullname": "bench_operations.py::test_cost_optimal",
            "params": null,
            "param": null,
            "extra_info": {
                "key_count": 1000000,
                "thread_count": 1,
                "config": "{\"__llconfig__\": true, \"k\": 31, \"key_bits\": 39, \"value_bits\": 32, \"bucket_count\": 13157895, \"bucket_size\": 8, \"value_module\": {\"__llvaluefunctions__\": true, \"module\": \"gecocoo.valuemodules.default.counting\", \"parameters\": []}, \"hash_functions\": [{\"__llhashfunction__\": true, \"name\": \"gecocoo.hashing.xorlinear.xorlinear\", \"seed\": 14339189132287170893, \"parameters\": []}, {\"__llhashfunction__\": true, \"name\": \"gecocoo.hashing.xorlinear.xorlinear\", \"seed\": 15657484853813791353, \"parameters\": []}, {\"__llhashfunction__\": true, \"name\": \"gecocoo.hashing.xorlinear.xorlinear\", \"seed\": 10745697135450483385, \"parameters\": []}], \"storage\": {\"__llstorageconfig__\": true, \"mode\": \"BUCKETS\", \"concurrent\": true, \"disable_quotienting\": false}}"
            },
            "options": {
                "disable_gc": false,
                "timer": "perf_counter",
                "min_rounds": 5,
                "max_time": 1.0,
                "min_time": 5e-06,
                "warmup": false
            },
            "stats": {
                "min": 0.3331788689829409,
                "max": 0.500627672066912,
                "mean": 0.35011187951313333,
                "stddev": 0.05288611133573956,
                "rounds": 10,
                "median": 0.33337016304722056,
                "iqr": 0.0002795439213514328,
                "q1": 0.33325636701192707,
                "q3": 0.3335359109332785,
                "iqr_outliers": 1,
                "stddev_outliers": 1,
                "outliers": "1;1",
                "ld15iqr": 0.3331788689829409,
                "hd15iqr": 0.500627672066912,
                "ops": 2.8562298468438234,
                "total": 3.501118795131333,
                "data": [
                    0.500627672066912,
                    0.33374500507488847,
                    0.3334056220483035,
                    0.33333470404613763,
                    0.33325636701192707,
                    0.3333313970360905,
                    0.3335359109332785,
                    0.3331788689829409,
                    0.3332489059539512,
                    0.3334543419769034
                ],
                "iterations": 1
            }
        },
        {
            "group": "searching",
            "name": "search",
            "fullname": "bench_operations.py::test_cost_optimal",
            "params": null,
            "param": null,
            "extra_info": {
                "key_count": 10000000,
                "thread_count": 1,
                "config": "{\"__llconfig__\": true, \"k\": 31, \"key_bits\": 39, \"value_bits\": 32, \"bucket_count\": 13157895, \"bucket_size\": 8, \"value_module\": {\"__llvaluefunctions__\": true, \"module\": \"gecocoo.valuemodules.default.counting\", \"parameters\": []}, \"hash_functions\": [{\"__llhashfunction__\": true, \"name\": \"gecocoo.hashing.xorlinear.xorlinear\", \"seed\": 14339189132287170893, \"parameters\": []}, {\"__llhashfunction__\": true, \"name\": \"gecocoo.hashing.xorlinear.xorlinear\", \"seed\": 15657484853813791353, \"parameters\": []}, {\"__llhashfunction__\": true, \"name\": \"gecocoo.hashing.xorlinear.xorlinear\", \"seed\": 10745697135450483385, \"parameters\": []}], \"storage\": {\"__llstorageconfig__\": true, \"mode\": \"BUCKETS\", \"concurrent\": true, \"disable_quotienting\": false}}"
            },
            "options": {
                "disable_gc": false,
                "timer": "perf_counter",
                "min_rounds": 5,
                "max_time": 1.0,
                "min_time": 5e-06,
                "warmup": false
            },
            "stats": {
                "min": 3.329714393010363,
                "max": 3.493730988004245,
                "mean": 3.3484268053900452,
                "stddev": 0.051383566817494286,
                "rounds": 10,
                "median": 3.3304882959928364,
                "iqr": 0.0009426109027117491,
                "q1": 3.3298732300754637,
                "q3": 3.3308158409781754,
                "iqr_outliers": 2,
                "stddev_outliers": 1,
                "outliers": "1;2",
                "ld15iqr": 3.329714393010363,
                "hd15iqr": 3.3486625999212265,
                "ops": 0.29864771073695723,
                "total": 33.48426805390045,
                "data": [
                    3.493730988004245,
                    3.3305520969443023,
                    3.3486625999212265,
                    3.3308158409781754,
                    3.329714393010363,
                    3.329990694997832,
                    3.3304244950413704,
                    3.330702275969088,
                    3.3298732300754637,
                    3.329801438958384
                ],
                "iterations": 1
            }
        },
        {
            "group": "searching",
            "name": "search",
            "fullname": "bench_operations.py::test_cost_optimal",
            "params": null,
            "param": null,
            "extra_info": {
                "key_count": 100000000,
                "thread_count": 1,
                "config": "{\"__llconfig__\": true, \"k\": 31, \"key_bits\": 39, \"value_bits\": 32, \"bucket_count\": 13157895, \"bucket_size\": 8, \"value_module\": {\"__llvaluefunctions__\": true, \"module\": \"gecocoo.valuemodules.default.counting\", \"parameters\": []}, \"hash_functions\": [{\"__llhashfunction__\": true, \"name\": \"gecocoo.hashing.xorlinear.xorlinear\", \"seed\": 14339189132287170893, \"parameters\": []}, {\"__llhashfunction__\": true, \"name\": \"gecocoo.hashing.xorlinear.xorlinear\", \"seed\": 15657484853813791353, \"parameters\": []}, {\"__llhashfunction__\": true, \"name\": \"gecocoo.hashing.xorlinear.xorlinear\", \"seed\": 10745697135450483385, \"parameters\": []}], \"storage\": {\"__llstorageconfig__\": true, \"mode\": \"BUCKETS\", \"concurrent\": true, \"disable_quotienting\": false}}"
            },
            "options": {
                "disable_gc": false,
                "timer": "perf_counter",
                "min_rounds": 5,
                "max_time": 1.0,
                "min_time": 5e-06,
                "warmup": false
            },
            "stats": {
                "min": 33.09697038703598,
                "max": 33.450048913946375,
                "mean": 33.21214814109262,
                "stddev": 0.09007769783041251,
                "rounds": 10,
                "median": 33.197458413487766,
                "iqr": 0.026292058057151735,
                "q1": 33.18317231000401,
                "q3": 33.20946436806116,
                "iqr_outliers": 2,
                "stddev_outliers": 2,
                "outliers": "2;2",
                "ld15iqr": 33.1798594200518,
                "hd15iqr": 33.450048913946375,
                "ops": 0.030109464637811945,
                "total": 332.1214814109262,
                "data": [
                    33.450048913946375,
                    33.1798594200518,
                    33.2056777109392,
                    33.18637507397216,
                    33.205460379016586,
                    33.18317231000401,
                    33.20946436806116,
                    33.189456447958946,
                    33.09697038703598,
                    33.21499639993999
                ],
                "iterations": 1
            }
        },
        {
            "group": "searching",
            "name": "search",
            "fullname": "bench_operations.py::test_cost_optimal",
            "params": null,
            "param": null,
            "extra_info": {
                "key_count": 1000000,
                "thread_count": 8,
                "config": "{\"__llconfig__\": true, \"k\": 31, \"key_bits\": 39, \"value_bits\": 32, \"bucket_count\": 13157895, \"bucket_size\": 8, \"value_module\": {\"__llvaluefunctions__\": true, \"module\": \"gecocoo.valuemodules.default.counting\", \"parameters\": []}, \"hash_functions\": [{\"__llhashfunction__\": true, \"name\": \"gecocoo.hashing.xorlinear.xorlinear\", \"seed\": 14339189132287170893, \"parameters\": []}, {\"__llhashfunction__\": true, \"name\": \"gecocoo.hashing.xorlinear.xorlinear\", \"seed\": 15657484853813791353, \"parameters\": []}, {\"__llhashfunction__\": true, \"name\": \"gecocoo.hashing.xorlinear.xorlinear\", \"seed\": 10745697135450483385, \"parameters\": []}], \"storage\": {\"__llstorageconfig__\": true, \"mode\": \"BUCKETS\", \"concurrent\": true, \"disable_quotienting\": false}}"
            },
            "options": {
                "disable_gc": false,
                "timer": "perf_counter",
                "min_rounds": 5,
                "max_time": 1.0,
                "min_time": 5e-06,
                "warmup": false
            },
            "stats": {
                "min": 0.05013914103619754,
                "max": 0.29231553489807993,
                "mean": 0.09222002980532125,
                "stddev": 0.07113622692939588,
                "rounds": 10,
                "median": 0.07583972398424521,
                "iqr": 0.02067567699123174,
                "q1": 0.058352119056507945,
                "q3": 0.07902779604773968,
                "iqr_outliers": 1,
                "stddev_outliers": 1,
                "outliers": "1;1",
                "ld15iqr": 0.05013914103619754,
                "hd15iqr": 0.29231553489807993,
                "ops": 10.843631281740253,
                "total": 0.9222002980532125,
                "data": [
                    0.29231553489807993,
                    0.07410279603209347,
                    0.057054860051721334,
                    0.07563524600118399,
                    0.08058775402605534,
                    0.07604420196730644,
                    0.058352119056507945,
                    0.05013914103619754,
                    0.07902779604773968,
                    0.0789408489363268
                ],
                "iterations": 1
            }
        },
        {
            "group": "searching",
            "name": "search",
            "fullname": "bench_operations.py::test_cost_optimal",
            "params": null,
            "param": null,
            "extra_info": {
                "key_count": 10000000,
                "thread_count": 8,
                "config": "{\"__llconfig__\": true, \"k\": 31, \"key_bits\": 39, \"value_bits\": 32, \"bucket_count\": 13157895, \"bucket_size\": 8, \"value_module\": {\"__llvaluefunctions__\": true, \"module\": \"gecocoo.valuemodules.default.counting\", \"parameters\": []}, \"hash_functions\": [{\"__llhashfunction__\": true, \"name\": \"gecocoo.hashing.xorlinear.xorlinear\", \"seed\": 14339189132287170893, \"parameters\": []}, {\"__llhashfunction__\": true, \"name\": \"gecocoo.hashing.xorlinear.xorlinear\", \"seed\": 15657484853813791353, \"parameters\": []}, {\"__llhashfunction__\": true, \"name\": \"gecocoo.hashing.xorlinear.xorlinear\", \"seed\": 10745697135450483385, \"parameters\": []}], \"storage\": {\"__llstorageconfig__\": true, \"mode\": \"BUCKETS\", \"concurrent\": true, \"disable_quotienting\": false}}"
            },
            "options": {
                "disable_gc": false,
                "timer": "perf_counter",
                "min_rounds": 5,
                "max_time": 1.0,
                "min_time": 5e-06,
                "warmup": false
            },
            "stats": {
                "min": 0.4742535980185494,
                "max": 0.7625707220286131,
                "mean": 0.579929401690606,
                "stddev": 0.13400691018619723,
                "rounds": 10,
                "median": 0.4855847939616069,
                "iqr": 0.2786271160002798,
                "q1": 0.4776520309969783,
                "q3": 0.7562791469972581,
                "iqr_outliers": 0,
                "stddev_outliers": 3,
                "outliers": "3;0",
                "ld15iqr": 0.4742535980185494,
                "hd15iqr": 0.7625707220286131,
                "ops": 1.7243478207602636,
                "total": 5.79929401690606,
                "data": [
                    0.6410614959895611,
                    0.4742535980185494,
                    0.4776520309969783,
                    0.47791610402055085,
                    0.7613392259227112,
                    0.4925356509629637,
                    0.47863393696025014,
                    0.4770521050086245,
                    0.7562791469972581,
                    0.7625707220286131
                ],
                "iterations": 1
            }
        },
        {
            "group": "searching",
            "name": "search",
            "fullname": "bench_operations.py::test_cost_optimal",
            "params": null,
            "param": null,
            "extra_info": {
                "key_count": 100000000,
                "thread_count": 8,
                "config": "{\"__llconfig__\": true, \"k\": 31, \"key_bits\": 39, \"value_bits\": 32, \"bucket_count\": 13157895, \"bucket_size\": 8, \"value_module\": {\"__llvaluefunctions__\": true, \"module\": \"gecocoo.valuemodules.default.counting\", \"parameters\": []}, \"hash_functions\": [{\"__llhashfunction__\": true, \"name\": \"gecocoo.hashing.xorlinear.xorlinear\", \"seed\": 14339189132287170893, \"parameters\": []}, {\"__llhashfunction__\": true, \"name\": \"gecocoo.hashing.xorlinear.xorlinear\", \"seed\": 15657484853813791353, \"parameters\": []}, {\"__llhashfunction__\": true, \"name\": \"gecocoo.hashing.xorlinear.xorlinear\", \"seed\": 10745697135450483385, \"parameters\": []}], \"storage\": {\"__llstorageconfig__\": true, \"mode\": \"BUCKETS\", \"concurrent\": true, \"disable_quotienting\": false}}"
            },
            "options": {
                "disable_gc": false,
                "timer": "perf_counter",
                "min_rounds": 5,
                "max_time": 1.0,
                "min_time": 5e-06,
                "warmup": false
            },
            "stats": {
                "min": 4.61963721900247,
                "max": 7.639373488957062,
                "mean": 5.7526521510910245,
                "stddev": 1.398768266032135,
                "rounds": 10,
                "median": 4.7659815105143934,
                "iqr": 2.923547526006587,
                "q1": 4.682934185024351,
                "q3": 7.606481711030938,
                "iqr_outliers": 0,
                "stddev_outliers": 3,
                "outliers": "3;0",
                "ld15iqr": 4.61963721900247,
                "hd15iqr": 7.639373488957062,
                "ops": 0.17383286417037125,
                "total": 57.52652151091024,
                "data": [
                    4.795257459045388,
                    4.61963721900247,
                    6.419274851912633,
                    7.606481711030938,
                    4.708027868997306,
                    4.681364513002336,
                    4.682934185024351,
                    7.63746465195436,
                    4.736705561983399,
                    7.639373488957062
                ],
                "iterations": 1
            }
        },
        {
            "group": "searching",
            "name": "search",
            "fullname": "bench_operations.py::test_cost_optimal",
            "params": null,
            "param": null,
            "extra_info": {
                "key_count": 1000000,
                "thread_count": 16,
                "config": "{\"__llconfig__\": true, \"k\": 31, \"key_bits\": 39, \"value_bits\": 32, \"bucket_count\": 13157895, \"bucket_size\": 8, \"value_module\": {\"__llvaluefunctions__\": true, \"module\": \"gecocoo.valuemodules.default.counting\", \"parameters\": []}, \"hash_functions\": [{\"__llhashfunction__\": true, \"name\": \"gecocoo.hashing.xorlinear.xorlinear\", \"seed\": 14339189132287170893, \"parameters\": []}, {\"__llhashfunction__\": true, \"name\": \"gecocoo.hashing.xorlinear.xorlinear\", \"seed\": 15657484853813791353, \"parameters\": []}, {\"__llhashfunction__\": true, \"name\": \"gecocoo.hashing.xorlinear.xorlinear\", \"seed\": 10745697135450483385, \"parameters\": []}], \"storage\": {\"__llstorageconfig__\": true, \"mode\": \"BUCKETS\", \"concurrent\": true, \"disable_quotienting\": false}}"
            },
            "options": {
                "disable_gc": false,
                "timer": "perf_counter",
                "min_rounds": 5,
                "max_time": 1.0,
                "min_time": 5e-06,
                "warmup": false
            },
            "stats": {
                "min": 0.04930850293021649,
                "max": 0.21961384499445558,
                "mean": 0.07033867528662086,
                "stddev": 0.052762232787072705,
                "rounds": 10,
                "median": 0.05122314643813297,
                "iqr": 0.010318541899323463,
                "q1": 0.05014906299766153,
                "q3": 0.060467604896984994,
                "iqr_outliers": 1,
                "stddev_outliers": 1,
                "outliers": "1;1",
                "ld15iqr": 0.04930850293021649,
                "hd15iqr": 0.21961384499445558,
                "ops": 14.216929675248098,
                "total": 0.7033867528662086,
                "data": [
                    0.21961384499445558,
                    0.060467604896984994,
                    0.05014906299766153,
                    0.053451031097210944,
                    0.0508674499578774,
                    0.04930850293021649,
                    0.05129029194358736,
                    0.06722455006092787,
                    0.05115600093267858,
                    0.04985841305460781
                ],
                "iterations": 1
            }
        },
        {
            "group": "searching",
            "name": "search",
            "fullname": "bench_operations.py::test_cost_optimal",
            "params": null,
            "param": null,
            "extra_info": {
                "key_count": 10000000,
                "thread_count": 16,
                "config": "{\"__llconfig__\": true, \"k\": 31, \"key_bits\": 39, \"value_bits\": 32, \"bucket_count\": 13157895, \"bucket_size\": 8, \"value_module\": {\"__llvaluefunctions__\": true, \"module\": \"gecocoo.valuemodules.default.counting\", \"parameters\": []}, \"hash_functions\": [{\"__llhashfunction__\": true, \"name\": \"gecocoo.hashing.xorlinear.xorlinear\", \"seed\": 14339189132287170893, \"parameters\": []}, {\"__llhashfunction__\": true, \"name\": \"gecocoo.hashing.xorlinear.xorlinear\", \"seed\": 15657484853813791353, \"parameters\": []}, {\"__llhashfunction__\": true, \"name\": \"gecocoo.hashing.xorlinear.xorlinear\", \"seed\": 10745697135450483385, \"parameters\": []}], \"storage\": {\"__llstorageconfig__\": true, \"mode\": \"BUCKETS\", \"concurrent\": true, \"disable_quotienting\": false}}"
            },
            "options": {
                "disable_gc": false,
                "timer": "perf_counter",
                "min_rounds": 5,
                "max_time": 1.0,
                "min_time": 5e-06,
                "warmup": false
            },
            "stats": {
                "min": 0.40118536993395537,
                "max": 0.5254617099417374,
                "mean": 0.4503654280793853,
                "stddev": 0.039175888493394845,
                "rounds": 10,
                "median": 0.4471138384542428,
                "iqr": 0.061337375082075596,
                "q1": 0.4116820099297911,
                "q3": 0.4730193850118667,
                "iqr_outliers": 0,
                "stddev_outliers": 3,
                "outliers": "3;0",
                "ld15iqr": 0.40118536993395537,
                "hd15iqr": 0.5254617099417374,
                "ops": 2.2204191033591756,
                "total": 4.503654280793853,
                "data": [
                    0.5254617099417374,
                    0.4730193850118667,
                    0.48755649803206325,
                    0.43818780907895416,
                    0.40118536993395537,
                    0.46520582295488566,
                    0.4399484519381076,
                    0.40712799900211394,
                    0.4116820099297911,
                    0.454279224970378
                ],
                "iterations": 1
            }
        },
        {
            "group": "searching",
            "name": "search",
            "fullname": "bench_operations.py::test_cost_optimal",
            "params": null,
            "param": null,
            "extra_info": {
                "key_count": 100000000,
                "thread_count": 16,
                "config": "{\"__llconfig__\": true, \"k\": 31, \"key_bits\": 39, \"value_bits\": 32, \"bucket_count\": 13157895, \"bucket_size\": 8, \"value_module\": {\"__llvaluefunctions__\": true, \"module\": \"gecocoo.valuemodules.default.counting\", \"parameters\": []}, \"hash_functions\": [{\"__llhashfunction__\": true, \"name\": \"gecocoo.hashing.xorlinear.xorlinear\", \"seed\": 14339189132287170893, \"parameters\": []}, {\"__llhashfunction__\": true, \"name\": \"gecocoo.hashing.xorlinear.xorlinear\", \"seed\": 15657484853813791353, \"parameters\": []}, {\"__llhashfunction__\": true, \"name\": \"gecocoo.hashing.xorlinear.xorlinear\", \"seed\": 10745697135450483385, \"parameters\": []}], \"storage\": {\"__llstorageconfig__\": true, \"mode\": \"BUCKETS\", \"concurrent\": true, \"disable_quotienting\": false}}"
            },
            "options": {
                "disable_gc": false,
                "timer": "perf_counter",
                "min_rounds": 5,
                "max_time": 1.0,
                "min_time": 5e-06,
                "warmup": false
            },
            "stats": {
                "min": 3.5563350369920954,
                "max": 3.888428461039439,
                "mean": 3.6765269847935995,
                "stddev": 0.09562041086148214,
                "rounds": 10,
                "median": 3.65482986549614,
                "iqr": 0.11403784505091608,
                "q1": 3.6016652359394357,
                "q3": 3.7157030809903517,
                "iqr_outliers": 1,
                "stddev_outliers": 2,
                "outliers": "2;1",
                "ld15iqr": 3.5563350369920954,
                "hd15iqr": 3.888428461039439,
                "ops": 0.271995827621034,
                "total": 36.765269847936,
                "data": [
                    3.7556613020133227,
                    3.6318588849389926,
                    3.705156591022387,
                    3.6498816430103034,
                    3.600801524007693,
                    3.888428461039439,
                    3.6016652359394357,
                    3.7157030809903517,
                    3.6597780879819766,
                    3.5563350369920954
                ],
                "iterations": 1
            }
        }
    ],
    "datetime": "2021-02-22T14:36:12.508622",
    "version": "3.2.3"
}