{
    "machine_info": {
        "node": "cstd01-125",
        "processor": "x86_64",
        "machine": "x86_64",
        "python_compiler": "GCC 7.3.0",
        "python_implementation": "CPython",
        "python_implementation_version": "3.7.9",
        "python_version": "3.7.9",
        "python_build": [
            "default",
            "Aug 31 2020 12:42:55"
        ],
        "release": "3.10.0-1160.6.1.el7.x86_64",
        "system": "Linux",
        "cpu": {
            "vendor_id": "unknown",
            "hardware": "unknown",
            "brand": "unknown"
        }
    },
    "commit_info": {
        "id": "unversioned",
        "time": null,
        "author_time": null,
        "dirty": false,
        "project": "gecocoo-2021-02-22T15_07_24.622469-origin_develop",
        "branch": "(unknown)"
    },
    "benchmarks": [
        {
            "group": "inserting",
            "name": "insert",
            "fullname": "bench_operations.py::test_random_walk[1]",
            "params": {
                "thread_count": 1
            },
            "param": "1",
            "extra_info": {
                "key_count": 100000000,
                "thread_count": 1,
                "config": "{\"__llconfig__\": true, \"k\": 31, \"key_bits\": 39, \"value_bits\": 32, \"bucket_count\": 12886598, \"bucket_size\": 8, \"value_module\": {\"__llvaluefunctions__\": true, \"module\": \"gecocoo.valuemodules.default.counting\", \"parameters\": []}, \"hash_functions\": [{\"__llhashfunction__\": true, \"name\": \"gecocoo.hashing.xorlinear.xorlinear\", \"seed\": 4422573889147837135, \"parameters\": []}, {\"__llhashfunction__\": true, \"name\": \"gecocoo.hashing.xorlinear.xorlinear\", \"seed\": 10552789514069117198, \"parameters\": []}, {\"__llhashfunction__\": true, \"name\": \"gecocoo.hashing.xorlinear.xorlinear\", \"seed\": 12137086315540686717, \"parameters\": []}], \"storage\": {\"__llstorageconfig__\": true, \"mode\": \"BUCKETS\", \"concurrent\": true, \"disable_quotienting\": false}}"
            },
            "options": {
                "disable_gc": false,
                "timer": "perf_counter",
                "min_rounds": 5,
                "max_time": 1.0,
                "min_time": 5e-06,
                "warmup": false
            },
            "stats": {
                "min": 93.97499121306464,
                "max": 94.38381123391446,
                "mean": 94.12584170638584,
                "stddev": 0.1489199329972523,
                "rounds": 10,
                "median": 94.07004408596549,
                "iqr": 0.2148580199573189,
                "q1": 94.02984260604717,
                "q3": 94.24470062600449,
                "iqr_outliers": 0,
                "stddev_outliers": 3,
                "outliers": "3;0",
                "ld15iqr": 93.97499121306464,
                "hd15iqr": 94.38381123391446,
                "ops": 0.010624074981654654,
                "total": 941.2584170638584,
                "data": [
                    94.38381123391446,
                    94.02984260604717,
                    94.11500841996167,
                    93.97499121306464,
                    94.24470062600449,
                    93.98152075393591,
                    94.03646507905796,
                    94.35198895994108,
                    94.05210681492463,
                    94.08798135700636
                ],
                "iterations": 1
            }
        },
        {
            "group": "searching",
            "name": "search",
            "fullname": "bench_operations.py::test_random_walk[1]",
            "params": {
                "thread_count": 1
            },
            "param": "1",
            "extra_info": {
                "key_count": 1000000,
                "thread_count": 1,
                "config": "{\"__llconfig__\": true, \"k\": 31, \"key_bits\": 39, \"value_bits\": 32, \"bucket_count\": 12886598, \"bucket_size\": 8, \"value_module\": {\"__llvaluefunctions__\": true, \"module\": \"gecocoo.valuemodules.default.counting\", \"parameters\": []}, \"hash_functions\": [{\"__llhashfunction__\": true, \"name\": \"gecocoo.hashing.xorlinear.xorlinear\", \"seed\": 4422573889147837135, \"parameters\": []}, {\"__llhashfunction__\": true, \"name\": \"gecocoo.hashing.xorlinear.xorlinear\", \"seed\": 10552789514069117198, \"parameters\": []}, {\"__llhashfunction__\": true, \"name\": \"gecocoo.hashing.xorlinear.xorlinear\", \"seed\": 12137086315540686717, \"parameters\": []}], \"storage\": {\"__llstorageconfig__\": true, \"mode\": \"BUCKETS\", \"concurrent\": true, \"disable_quotienting\": false}}"
            },
            "options": {
                "disable_gc": false,
                "timer": "perf_counter",
                "min_rounds": 5,
                "max_time": 1.0,
                "min_time": 5e-06,
                "warmup": false
            },
            "stats": {
                "min": 0.35196883499156684,
                "max": 0.5181860800366849,
                "mean": 0.40176816933089865,
                "stddev": 0.07943716107011554,
                "rounds": 10,
                "median": 0.3527576600317843,
                "iqr": 0.16402196791023016,
                "q1": 0.3520213500596583,
                "q3": 0.5160433179698884,
                "iqr_outliers": 0,
                "stddev_outliers": 3,
                "outliers": "3;0",
                "ld15iqr": 0.35196883499156684,
                "hd15iqr": 0.5181860800366849,
                "ops": 2.4889975770489525,
                "total": 4.017681693308987,
                "data": [
                    0.5164101620903239,
                    0.3527687230380252,
                    0.35199540201574564,
                    0.35283213108778,
                    0.5160433179698884,
                    0.35274659702554345,
                    0.3520213500596583,
                    0.5181860800366849,
                    0.3527090949937701,
                    0.35196883499156684
                ],
                "iterations": 1
            }
        },
        {
            "group": "searching",
            "name": "search",
            "fullname": "bench_operations.py::test_random_walk[1]",
            "params": {
                "thread_count": 1
            },
            "param": "1",
            "extra_info": {
                "key_count": 10000000,
                "thread_count": 1,
                "config": "{\"__llconfig__\": true, \"k\": 31, \"key_bits\": 39, \"value_bits\": 32, \"bucket_count\": 12886598, \"bucket_size\": 8, \"value_module\": {\"__llvaluefunctions__\": true, \"module\": \"gecocoo.valuemodules.default.counting\", \"parameters\": []}, \"hash_functions\": [{\"__llhashfunction__\": true, \"name\": \"gecocoo.hashing.xorlinear.xorlinear\", \"seed\": 4422573889147837135, \"parameters\": []}, {\"__llhashfunction__\": true, \"name\": \"gecocoo.hashing.xorlinear.xorlinear\", \"seed\": 10552789514069117198, \"parameters\": []}, {\"__llhashfunction__\": true, \"name\": \"gecocoo.hashing.xorlinear.xorlinear\", \"seed\": 12137086315540686717, \"parameters\": []}], \"storage\": {\"__llstorageconfig__\": true, \"mode\": \"BUCKETS\", \"concurrent\": true, \"disable_quotienting\": false}}"
            },
            "options": {
                "disable_gc": false,
                "timer": "perf_counter",
                "min_rounds": 5,
                "max_time": 1.0,
                "min_time": 5e-06,
                "warmup": false
            },
            "stats": {
                "min": 3.4726635310798883,
                "max": 5.1965215869713575,
                "mean": 3.98878656787565,
                "stddev": 0.82319732755398,
                "rounds": 10,
                "median": 3.480844374455046,
                "iqr": 1.6980762579478323,
                "q1": 3.4737327030161396,
                "q3": 5.171808960963972,
                "iqr_outliers": 0,
                "stddev_outliers": 3,
                "outliers": "3;0",
                "ld15iqr": 3.4726635310798883,
                "hd15iqr": 5.1965215869713575,
                "ops": 0.2507028097350871,
                "total": 39.8878656787565,
                "data": [
                    5.176675320952199,
                    3.480760931968689,
                    3.472731412970461,
                    3.481957359937951,
                    5.171808960963972,
                    3.4800860539544374,
                    3.4737327030161396,
                    5.1965215869713575,
                    3.480927816941403,
                    3.4726635310798883
                ],
                "iterations": 1
            }
        },
        {
            "group": "searching",
            "name": "search",
            "fullname": "bench_operations.py::test_random_walk[1]",
            "params": {
                "thread_count": 1
            },
            "param": "1",
            "extra_info": {
                "key_count": 100000000,
                "thread_count": 1,
                "config": "{\"__llconfig__\": true, \"k\": 31, \"key_bits\": 39, \"value_bits\": 32, \"bucket_count\": 12886598, \"bucket_size\": 8, \"value_module\": {\"__llvaluefunctions__\": true, \"module\": \"gecocoo.valuemodules.default.counting\", \"parameters\": []}, \"hash_functions\": [{\"__llhashfunction__\": true, \"name\": \"gecocoo.hashing.xorlinear.xorlinear\", \"seed\": 4422573889147837135, \"parameters\": []}, {\"__llhashfunction__\": true, \"name\": \"gecocoo.hashing.xorlinear.xorlinear\", \"seed\": 10552789514069117198, \"parameters\": []}, {\"__llhashfunction__\": true, \"name\": \"gecocoo.hashing.xorlinear.xorlinear\", \"seed\": 12137086315540686717, \"parameters\": []}], \"storage\": {\"__llstorageconfig__\": true, \"mode\": \"BUCKETS\", \"concurrent\": true, \"disable_quotienting\": false}}"
            },
            "options": {
                "disable_gc": false,
                "timer": "perf_counter",
                "min_rounds": 5,
                "max_time": 1.0,
                "min_time": 5e-06,
                "warmup": false
            },
            "stats": {
                "min": 34.658126377966255,
                "max": 52.09068577201106,
                "mean": 39.87992271241965,
                "stddev": 8.323961078594724,
                "rounds": 10,
                "median": 34.74781177553814,
                "iqr": 17.188948819995858,
                "q1": 34.659603413078,
                "q3": 51.84855223307386,
                "iqr_outliers": 0,
                "stddev_outliers": 3,
                "outliers": "3;0",
                "ld15iqr": 34.658126377966255,
                "hd15iqr": 52.09068577201106,
                "ops": 0.025075274273000884,
                "total": 398.7992271241965,
                "data": [
                    51.88683627999853,
                    34.74448480003048,
                    34.659603413078,
                    34.756395358010195,
                    51.84855223307386,
                    34.74629346805159,
                    34.658126377966255,
                    52.09068577201106,
                    34.74933008302469,
                    34.65891933895182
                ],
                "iterations": 1
            }
        },
        {
            "group": "inserting",
            "name": "insert",
            "fullname": "bench_operations.py::test_random_walk[8]",
            "params": {
                "thread_count": 8
            },
            "param": "8",
            "extra_info": {
                "key_count": 100000000,
                "thread_count": 8,
                "config": "{\"__llconfig__\": true, \"k\": 31, \"key_bits\": 39, \"value_bits\": 32, \"bucket_count\": 12886598, \"bucket_size\": 8, \"value_module\": {\"__llvaluefunctions__\": true, \"module\": \"gecocoo.valuemodules.default.counting\", \"parameters\": []}, \"hash_functions\": [{\"__llhashfunction__\": true, \"name\": \"gecocoo.hashing.xorlinear.xorlinear\", \"seed\": 4422573889147837135, \"parameters\": []}, {\"__llhashfunction__\": true, \"name\": \"gecocoo.hashing.xorlinear.xorlinear\", \"seed\": 10552789514069117198, \"parameters\": []}, {\"__llhashfunction__\": true, \"name\": \"gecocoo.hashing.xorlinear.xorlinear\", \"seed\": 12137086315540686717, \"parameters\": []}], \"storage\": {\"__llstorageconfig__\": true, \"mode\": \"BUCKETS\", \"concurrent\": true, \"disable_quotienting\": false}}"
            },
            "options": {
                "disable_gc": false,
                "timer": "perf_counter",
                "min_rounds": 5,
                "max_time": 1.0,
                "min_time": 5e-06,
                "warmup": false
            },
            "stats": {
                "min": 16.53585868398659,
                "max": 17.453609974007122,
                "mean": 16.860081038984937,
                "stddev": 0.28863116494385405,
                "rounds": 10,
                "median": 16.806291032466106,
                "iqr": 0.3845783550059423,
                "q1": 16.655185900977813,
                "q3": 17.039764255983755,
                "iqr_outliers": 0,
                "stddev_outliers": 3,
                "outliers": "3;0",
                "ld15iqr": 16.53585868398659,
                "hd15iqr": 17.453609974007122,
                "ops": 0.05931169593359233,
                "total": 168.60081038984936,
                "data": [
                    17.453609974007122,
                    16.76186465495266,
                    16.855131844058633,
                    16.655185900977813,
                    16.581791761913337,
                    17.039764255983755,
                    16.68835190392565,
                    16.53585868398659,
                    16.850717409979552,
                    17.178534000064246
                ],
                "iterations": 1
            }
        },
        {
            "group": "searching",
            "name": "search",
            "fullname": "bench_operations.py::test_random_walk[8]",
            "params": {
                "thread_count": 8
            },
            "param": "8",
            "extra_info": {
                "key_count": 1000000,
                "thread_count": 8,
                "config": "{\"__llconfig__\": true, \"k\": 31, \"key_bits\": 39, \"value_bits\": 32, \"bucket_count\": 12886598, \"bucket_size\": 8, \"value_module\": {\"__llvaluefunctions__\": true, \"module\": \"gecocoo.valuemodules.default.counting\", \"parameters\": []}, \"hash_functions\": [{\"__llhashfunction__\": true, \"name\": \"gecocoo.hashing.xorlinear.xorlinear\", \"seed\": 4422573889147837135, \"parameters\": []}, {\"__llhashfunction__\": true, \"name\": \"gecocoo.hashing.xorlinear.xorlinear\", \"seed\": 10552789514069117198, \"parameters\": []}, {\"__llhashfunction__\": true, \"name\": \"gecocoo.hashing.xorlinear.xorlinear\", \"seed\": 12137086315540686717, \"parameters\": []}], \"storage\": {\"__llstorageconfig__\": true, \"mode\": \"BUCKETS\", \"concurrent\": true, \"disable_quotienting\": false}}"
            },
            "options": {
                "disable_gc": false,
                "timer": "perf_counter",
                "min_rounds": 5,
                "max_time": 1.0,
                "min_time": 5e-06,
                "warmup": false
            },
            "stats": {
                "min": 0.062422272050753236,
                "max": 0.06478771998081356,
                "mean": 0.06353438942460343,
                "stddev": 0.0009585822308470549,
                "rounds": 10,
                "median": 0.06352870905539021,
                "iqr": 0.0016163249965757132,
                "q1": 0.06265121803153306,
                "q3": 0.06426754302810878,
                "iqr_outliers": 0,
                "stddev_outliers": 4,
                "outliers": "4;0",
                "ld15iqr": 0.062422272050753236,
                "hd15iqr": 0.06478771998081356,
                "ops": 15.739507517998655,
                "total": 0.6353438942460343,
                "data": [
                    0.06478771998081356,
                    0.06426754302810878,
                    0.06471373199019581,
                    0.06426190701313317,
                    0.06399472104385495,
                    0.06306269706692547,
                    0.06251881900243461,
                    0.06266326503828168,
                    0.06265121803153306,
                    0.062422272050753236
                ],
                "iterations": 1
            }
        },
        {
            "group": "searching",
            "name": "search",
            "fullname": "bench_operations.py::test_random_walk[8]",
            "params": {
                "thread_count": 8
            },
            "param": "8",
            "extra_info": {
                "key_count": 10000000,
                "thread_count": 8,
                "config": "{\"__llconfig__\": true, \"k\": 31, \"key_bits\": 39, \"value_bits\": 32, \"bucket_count\": 12886598, \"bucket_size\": 8, \"value_module\": {\"__llvaluefunctions__\": true, \"module\": \"gecocoo.valuemodules.default.counting\", \"parameters\": []}, \"hash_functions\": [{\"__llhashfunction__\": true, \"name\": \"gecocoo.hashing.xorlinear.xorlinear\", \"seed\": 4422573889147837135, \"parameters\": []}, {\"__llhashfunction__\": true, \"name\": \"gecocoo.hashing.xorlinear.xorlinear\", \"seed\": 10552789514069117198, \"parameters\": []}, {\"__llhashfunction__\": true, \"name\": \"gecocoo.hashing.xorlinear.xorlinear\", \"seed\": 12137086315540686717, \"parameters\": []}], \"storage\": {\"__llstorageconfig__\": true, \"mode\": \"BUCKETS\", \"concurrent\": true, \"disable_quotienting\": false}}"
            },
            "options": {
                "disable_gc": false,
                "timer": "perf_counter",
                "min_rounds": 5,
                "max_time": 1.0,
                "min_time": 5e-06,
                "warmup": false
            },
            "stats": {
                "min": 0.5822603300912306,
                "max": 0.6098798349266872,
                "mean": 0.5874618280911819,
                "stddev": 0.008159048911051124,
                "rounds": 10,
                "median": 0.5850518035003915,
                "iqr": 0.00444387795869261,
                "q1": 0.583244826993905,
                "q3": 0.5876887049525976,
                "iqr_outliers": 1,
                "stddev_outliers": 1,
                "outliers": "1;1",
                "ld15iqr": 0.5822603300912306,
                "hd15iqr": 0.6098798349266872,
                "ops": 1.7022382598870522,
                "total": 5.874618280911818,
                "data": [
                    0.5860177440335974,
                    0.5834276980021968,
                    0.583244826993905,
                    0.5827903239987791,
                    0.5876887049525976,
                    0.6098798349266872,
                    0.5840858629671857,
                    0.5874548510182649,
                    0.5877681039273739,
                    0.5822603300912306
                ],
                "iterations": 1
            }
        },
        {
            "group": "searching",
            "name": "search",
            "fullname": "bench_operations.py::test_random_walk[8]",
            "params": {
                "thread_count": 8
            },
            "param": "8",
            "extra_info": {
                "key_count": 100000000,
                "thread_count": 8,
                "config": "{\"__llconfig__\": true, \"k\": 31, \"key_bits\": 39, \"value_bits\": 32, \"bucket_count\": 12886598, \"bucket_size\": 8, \"value_module\": {\"__llvaluefunctions__\": true, \"module\": \"gecocoo.valuemodules.default.counting\", \"parameters\": []}, \"hash_functions\": [{\"__llhashfunction__\": true, \"name\": \"gecocoo.hashing.xorlinear.xorlinear\", \"seed\": 4422573889147837135, \"parameters\": []}, {\"__llhashfunction__\": true, \"name\": \"gecocoo.hashing.xorlinear.xorlinear\", \"seed\": 10552789514069117198, \"parameters\": []}, {\"__llhashfunction__\": true, \"name\": \"gecocoo.hashing.xorlinear.xorlinear\", \"seed\": 12137086315540686717, \"parameters\": []}], \"storage\": {\"__llstorageconfig__\": true, \"mode\": \"BUCKETS\", \"concurrent\": true, \"disable_quotienting\": false}}"
            },
            "options": {
                "disable_gc": false,
                "timer": "perf_counter",
                "min_rounds": 5,
                "max_time": 1.0,
                "min_time": 5e-06,
                "warmup": false
            },
            "stats": {
                "min": 5.826682883081958,
                "max": 5.955396668985486,
                "mean": 5.855686340795364,
                "stddev": 0.04174240304736555,
                "rounds": 10,
                "median": 5.838819212978706,
                "iqr": 0.02325218601617962,
                "q1": 5.8283915020292625,
                "q3": 5.851643688045442,
                "iqr_outliers": 2,
                "stddev_outliers": 2,
                "outliers": "2;2",
                "ld15iqr": 5.826682883081958,
                "hd15iqr": 5.903789835982025,
                "ops": 0.17077417433259792,
                "total": 58.55686340795364,
                "data": [
                    5.903789835982025,
                    5.82811437395867,
                    5.839352788985707,
                    5.8283915020292625,
                    5.851643688045442,
                    5.833911734982394,
                    5.826682883081958,
                    5.838285636971705,
                    5.8512942949309945,
                    5.955396668985486
                ],
                "iterations": 1
            }
        },
        {
            "group": "inserting",
            "name": "insert",
            "fullname": "bench_operations.py::test_random_walk[16]",
            "params": {
                "thread_count": 16
            },
            "param": "16",
            "extra_info": {
                "key_count": 100000000,
                "thread_count": 16,
                "config": "{\"__llconfig__\": true, \"k\": 31, \"key_bits\": 39, \"value_bits\": 32, \"bucket_count\": 12886598, \"bucket_size\": 8, \"value_module\": {\"__llvaluefunctions__\": true, \"module\": \"gecocoo.valuemodules.default.counting\", \"parameters\": []}, \"hash_functions\": [{\"__llhashfunction__\": true, \"name\": \"gecocoo.hashing.xorlinear.xorlinear\", \"seed\": 4422573889147837135, \"parameters\": []}, {\"__llhashfunction__\": true, \"name\": \"gecocoo.hashing.xorlinear.xorlinear\", \"seed\": 10552789514069117198, \"parameters\": []}, {\"__llhashfunction__\": true, \"name\": \"gecocoo.hashing.xorlinear.xorlinear\", \"seed\": 12137086315540686717, \"parameters\": []}], \"storage\": {\"__llstorageconfig__\": true, \"mode\": \"BUCKETS\", \"concurrent\": true, \"disable_quotienting\": false}}"
            },
            "options": {
                "disable_gc": false,
                "timer": "perf_counter",
                "min_rounds": 5,
                "max_time": 1.0,
                "min_time": 5e-06,
                "warmup": false
            },
            "stats": {
                "min": 11.236800906946883,
                "max": 17.030887875938788,
                "mean": 14.659190875885542,
                "stddev": 2.575701899144727,
                "rounds": 10,
                "median": 15.940393643977586,
                "iqr": 5.247384835151024,
                "q1": 11.687831189949065,
                "q3": 16.93521602510009,
                "iqr_outliers": 0,
                "stddev_outliers": 3,
                "outliers": "3;0",
                "ld15iqr": 11.236800906946883,
                "hd15iqr": 17.030887875938788,
                "ops": 0.06821658906461243,
                "total": 146.59190875885542,
                "data": [
                    15.309288023039699,
                    16.571499264915474,
                    11.687831189949065,
                    11.400477171991952,
                    16.734786238987,
                    16.997448942041956,
                    12.68767311994452,
                    16.93521602510009,
                    17.030887875938788,
                    11.236800906946883
                ],
                "iterations": 1
            }
        },
        {
            "group": "searching",
            "name": "search",
            "fullname": "bench_operations.py::test_random_walk[16]",
            "params": {
                "thread_count": 16
            },
            "param": "16",
            "extra_info": {
                "key_count": 1000000,
                "thread_count": 16,
                "config": "{\"__llconfig__\": true, \"k\": 31, \"key_bits\": 39, \"value_bits\": 32, \"bucket_count\": 12886598, \"bucket_size\": 8, \"value_module\": {\"__llvaluefunctions__\": true, \"module\": \"gecocoo.valuemodules.default.counting\", \"parameters\": []}, \"hash_functions\": [{\"__llhashfunction__\": true, \"name\": \"gecocoo.hashing.xorlinear.xorlinear\", \"seed\": 4422573889147837135, \"parameters\": []}, {\"__llhashfunction__\": true, \"name\": \"gecocoo.hashing.xorlinear.xorlinear\", \"seed\": 10552789514069117198, \"parameters\": []}, {\"__llhashfunction__\": true, \"name\": \"gecocoo.hashing.xorlinear.xorlinear\", \"seed\": 12137086315540686717, \"parameters\": []}], \"storage\": {\"__llstorageconfig__\": true, \"mode\": \"BUCKETS\", \"concurrent\": true, \"disable_quotienting\": false}}"
            },
            "options": {
                "disable_gc": false,
                "timer": "perf_counter",
                "min_rounds": 5,
                "max_time": 1.0,
                "min_time": 5e-06,
                "warmup": false
            },
            "stats": {
                "min": 0.03566696809139103,
                "max": 0.06509160494897515,
                "mean": 0.05739728519693017,
                "stddev": 0.00877524423682772,
                "rounds": 10,
                "median": 0.06039142102235928,
                "iqr": 0.009554714080877602,
                "q1": 0.05242853192612529,
                "q3": 0.06198324600700289,
                "iqr_outliers": 1,
                "stddev_outliers": 1,
                "outliers": "1;1",
                "ld15iqr": 0.05231689405627549,
                "hd15iqr": 0.06509160494897515,
                "ops": 17.42242680240012,
                "total": 0.5739728519693017,
                "data": [
                    0.06193370197433978,
                    0.059543729992583394,
                    0.03566696809139103,
                    0.05231689405627549,
                    0.06422533292789012,
                    0.06509160494897515,
                    0.0599631640361622,
                    0.060819678008556366,
                    0.05242853192612529,
                    0.06198324600700289
                ],
                "iterations": 1
            }
        },
        {
            "group": "searching",
            "name": "search",
            "fullname": "bench_operations.py::test_random_walk[16]",
            "params": {
                "thread_count": 16
            },
            "param": "16",
            "extra_info": {
                "key_count": 10000000,
                "thread_count": 16,
                "config": "{\"__llconfig__\": true, \"k\": 31, \"key_bits\": 39, \"value_bits\": 32, \"bucket_count\": 12886598, \"bucket_size\": 8, \"value_module\": {\"__llvaluefunctions__\": true, \"module\": \"gecocoo.valuemodules.default.counting\", \"parameters\": []}, \"hash_functions\": [{\"__llhashfunction__\": true, \"name\": \"gecocoo.hashing.xorlinear.xorlinear\", \"seed\": 4422573889147837135, \"parameters\": []}, {\"__llhashfunction__\": true, \"name\": \"gecocoo.hashing.xorlinear.xorlinear\", \"seed\": 10552789514069117198, \"parameters\": []}, {\"__llhashfunction__\": true, \"name\": \"gecocoo.hashing.xorlinear.xorlinear\", \"seed\": 12137086315540686717, \"parameters\": []}], \"storage\": {\"__llstorageconfig__\": true, \"mode\": \"BUCKETS\", \"concurrent\": true, \"disable_quotienting\": false}}"
            },
            "options": {
                "disable_gc": false,
                "timer": "perf_counter",
                "min_rounds": 5,
                "max_time": 1.0,
                "min_time": 5e-06,
                "warmup": false
            },
            "stats": {
                "min": 0.31725468300282955,
                "max": 0.465937077999115,
                "mean": 0.441465450078249,
                "stddev": 0.04413333726168241,
                "rounds": 10,
                "median": 0.45342757797334343,
                "iqr": 0.013025330961681902,
                "q1": 0.4482670680154115,
                "q3": 0.4612923989770934,
                "iqr_outliers": 1,
                "stddev_outliers": 1,
                "outliers": "1;1",
                "ld15iqr": 0.44631227396894246,
                "hd15iqr": 0.465937077999115,
                "ops": 2.265182926144621,
                "total": 4.41465450078249,
                "data": [
                    0.4612923989770934,
                    0.4578512089792639,
                    0.31725468300282955,
                    0.465937077999115,
                    0.449269893928431,
                    0.4504155230242759,
                    0.45643963292241096,
                    0.4482670680154115,
                    0.44631227396894246,
                    0.46161473996471614
                ],
                "iterations": 1
            }
        },
        {
            "group": "searching",
            "name": "search",
            "fullname": "bench_operations.py::test_random_walk[16]",
            "params": {
                "thread_count": 16
            },
            "param": "16",
            "extra_info": {
                "key_count": 100000000,
                "thread_count": 16,
                "config": "{\"__llconfig__\": true, \"k\": 31, \"key_bits\": 39, \"value_bits\": 32, \"bucket_count\": 12886598, \"bucket_size\": 8, \"value_module\": {\"__llvaluefunctions__\": true, \"module\": \"gecocoo.valuemodules.default.counting\", \"parameters\": []}, \"hash_functions\": [{\"__llhashfunction__\": true, \"name\": \"gecocoo.hashing.xorlinear.xorlinear\", \"seed\": 4422573889147837135, \"parameters\": []}, {\"__llhashfunction__\": true, \"name\": \"gecocoo.hashing.xorlinear.xorlinear\", \"seed\": 10552789514069117198, \"parameters\": []}, {\"__llhashfunction__\": true, \"name\": \"gecocoo.hashing.xorlinear.xorlinear\", \"seed\": 12137086315540686717, \"parameters\": []}], \"storage\": {\"__llstorageconfig__\": true, \"mode\": \"BUCKETS\", \"concurrent\": true, \"disable_quotienting\": false}}"
            },
            "options": {
                "disable_gc": false,
                "timer": "perf_counter",
                "min_rounds": 5,
                "max_time": 1.0,
                "min_time": 5e-06,
                "warmup": false
            },
            "stats": {
                "min": 3.108208448975347,
                "max": 4.540390333975665,
                "mean": 4.330836877180263,
                "stddev": 0.43829806680995614,
                "rounds": 10,
                "median": 4.479782638431061,
                "iqr": 0.04213936801534146,
                "q1": 4.462400816031732,
                "q3": 4.504540184047073,
                "iqr_outliers": 2,
                "stddev_outliers": 1,
                "outliers": "1;2",
                "ld15iqr": 4.462400816031732,
                "hd15iqr": 4.540390333975665,
                "ops": 0.23090225477415893,
                "total": 43.308368771802634,
                "data": [
                    4.504540184047073,
                    4.2304648290155455,
                    4.527899633976631,
                    4.462400816031732,
                    4.4733506930060685,
                    3.108208448975347,
                    4.478975768899545,
                    4.540390333975665,
                    4.480589507962577,
                    4.50154855591245
                ],
                "iterations": 1
            }
        }
    ],
    "datetime": "2021-02-22T14:45:40.435395",
    "version": "3.2.3"
}