{
    "machine_info": {
        "node": "cstd01-136",
        "processor": "x86_64",
        "machine": "x86_64",
        "python_compiler": "GCC 7.3.0",
        "python_implementation": "CPython",
        "python_implementation_version": "3.7.9",
        "python_version": "3.7.9",
        "python_build": [
            "default",
            "Aug 31 2020 12:42:55"
        ],
        "release": "3.10.0-1160.6.1.el7.x86_64",
        "system": "Linux",
        "cpu": {
            "vendor_id": "unknown",
            "hardware": "unknown",
            "brand": "unknown"
        }
    },
    "commit_info": {
        "id": "unversioned",
        "time": null,
        "author_time": null,
        "dirty": false,
        "project": "gecocoo-2021-02-22T15_07_24.622469-origin_develop",
        "branch": "(unknown)"
    },
    "benchmarks": [
        {
            "group": "inserting",
            "name": "insert",
            "fullname": "bench_operations.py::test_random_walk[1]",
            "params": {
                "thread_count": 1
            },
            "param": "1",
            "extra_info": {
                "key_count": 100000000,
                "thread_count": 1,
                "config": "{\"__llconfig__\": true, \"k\": 31, \"key_bits\": 40, \"value_bits\": 32, \"bucket_count\": 8333334, \"bucket_size\": 16, \"value_module\": {\"__llvaluefunctions__\": true, \"module\": \"gecocoo.valuemodules.default.counting\", \"parameters\": []}, \"hash_functions\": [{\"__llhashfunction__\": true, \"name\": \"gecocoo.hashing.xorlinear.xorlinear\", \"seed\": 3404568611099732182, \"parameters\": []}, {\"__llhashfunction__\": true, \"name\": \"gecocoo.hashing.xorlinear.xorlinear\", \"seed\": 99523628097603691, \"parameters\": []}], \"storage\": {\"__llstorageconfig__\": true, \"mode\": \"BUCKETS\", \"concurrent\": true, \"disable_quotienting\": false}}"
            },
            "options": {
                "disable_gc": false,
                "timer": "perf_counter",
                "min_rounds": 5,
                "max_time": 1.0,
                "min_time": 5e-06,
                "warmup": false
            },
            "stats": {
                "min": 76.1111451301258,
                "max": 83.40388893987983,
                "mean": 76.93132442620117,
                "stddev": 2.2757095410360497,
                "rounds": 10,
                "median": 76.21674339007586,
                "iqr": 0.14852952398359776,
                "q1": 76.14960977900773,
                "q3": 76.29813930299133,
                "iqr_outliers": 1,
                "stddev_outliers": 1,
                "outliers": "1;1",
                "ld15iqr": 76.1111451301258,
                "hd15iqr": 83.40388893987983,
                "ops": 0.012998606321398794,
                "total": 769.3132442620117,
                "data": [
                    76.38106416002847,
                    76.24225373403169,
                    83.40388893987983,
                    76.1111451301258,
                    76.23619870701805,
                    76.19728807313368,
                    76.14960977900773,
                    76.16125165391713,
                    76.29813930299133,
                    76.132404781878
                ],
                "iterations": 1
            }
        },
        {
            "group": "searching",
            "name": "search",
            "fullname": "bench_operations.py::test_random_walk[1]",
            "params": {
                "thread_count": 1
            },
            "param": "1",
            "extra_info": {
                "key_count": 1000000,
                "thread_count": 1,
                "config": "{\"__llconfig__\": true, \"k\": 31, \"key_bits\": 40, \"value_bits\": 32, \"bucket_count\": 8333334, \"bucket_size\": 16, \"value_module\": {\"__llvaluefunctions__\": true, \"module\": \"gecocoo.valuemodules.default.counting\", \"parameters\": []}, \"hash_functions\": [{\"__llhashfunction__\": true, \"name\": \"gecocoo.hashing.xorlinear.xorlinear\", \"seed\": 3404568611099732182, \"parameters\": []}, {\"__llhashfunction__\": true, \"name\": \"gecocoo.hashing.xorlinear.xorlinear\", \"seed\": 99523628097603691, \"parameters\": []}], \"storage\": {\"__llstorageconfig__\": true, \"mode\": \"BUCKETS\", \"concurrent\": true, \"disable_quotienting\": false}}"
            },
            "options": {
                "disable_gc": false,
                "timer": "perf_counter",
                "min_rounds": 5,
                "max_time": 1.0,
                "min_time": 5e-06,
                "warmup": false
            },
            "stats": {
                "min": 0.3549936299677938,
                "max": 0.39458431606180966,
                "mean": 0.3601400701096281,
                "stddev": 0.012353859117786768,
                "rounds": 10,
                "median": 0.35553741198964417,
                "iqr": 0.000555726932361722,
                "q1": 0.35532361199148,
                "q3": 0.3558793389238417,
                "iqr_outliers": 2,
                "stddev_outliers": 1,
                "outliers": "1;2",
                "ld15iqr": 0.3549936299677938,
                "hd15iqr": 0.3632882928941399,
                "ops": 2.776697410248173,
                "total": 3.6014007010962814,
                "data": [
                    0.3632882928941399,
                    0.3558793389238417,
                    0.39458431606180966,
                    0.3549936299677938,
                    0.355636625085026,
                    0.35516457608900964,
                    0.3554381988942623,
                    0.35532361199148,
                    0.3557058919686824,
                    0.35538621922023594
                ],
                "iterations": 1
            }
        },
        {
            "group": "searching",
            "name": "search",
            "fullname": "bench_operations.py::test_random_walk[1]",
            "params": {
                "thread_count": 1
            },
            "param": "1",
            "extra_info": {
                "key_count": 10000000,
                "thread_count": 1,
                "config": "{\"__llconfig__\": true, \"k\": 31, \"key_bits\": 40, \"value_bits\": 32, \"bucket_count\": 8333334, \"bucket_size\": 16, \"value_module\": {\"__llvaluefunctions__\": true, \"module\": \"gecocoo.valuemodules.default.counting\", \"parameters\": []}, \"hash_functions\": [{\"__llhashfunction__\": true, \"name\": \"gecocoo.hashing.xorlinear.xorlinear\", \"seed\": 3404568611099732182, \"parameters\": []}, {\"__llhashfunction__\": true, \"name\": \"gecocoo.hashing.xorlinear.xorlinear\", \"seed\": 99523628097603691, \"parameters\": []}], \"storage\": {\"__llstorageconfig__\": true, \"mode\": \"BUCKETS\", \"concurrent\": true, \"disable_quotienting\": false}}"
            },
            "options": {
                "disable_gc": false,
                "timer": "perf_counter",
                "min_rounds": 5,
                "max_time": 1.0,
                "min_time": 5e-06,
                "warmup": false
            },
            "stats": {
                "min": 3.5129872718825936,
                "max": 3.642528200056404,
                "mean": 3.532413136959076,
                "stddev": 0.039389814485361975,
                "rounds": 10,
                "median": 3.5192352834856138,
                "iqr": 0.006254649721086025,
                "q1": 3.5164401261135936,
                "q3": 3.5226947758346796,
                "iqr_outliers": 2,
                "stddev_outliers": 1,
                "outliers": "1;2",
                "ld15iqr": 3.5129872718825936,
                "hd15iqr": 3.5394058590754867,
                "ops": 0.28309259456012076,
                "total": 35.32413136959076,
                "data": [
                    3.5226947758346796,
                    3.5198066330049187,
                    3.642528200056404,
                    3.5129872718825936,
                    3.518663933966309,
                    3.514141760999337,
                    3.5169069988187402,
                    3.5164401261135936,
                    3.5205558098386973,
                    3.5394058590754867
                ],
                "iterations": 1
            }
        },
        {
            "group": "searching",
            "name": "search",
            "fullname": "bench_operations.py::test_random_walk[1]",
            "params": {
                "thread_count": 1
            },
            "param": "1",
            "extra_info": {
                "key_count": 100000000,
                "thread_count": 1,
                "config": "{\"__llconfig__\": true, \"k\": 31, \"key_bits\": 40, \"value_bits\": 32, \"bucket_count\": 8333334, \"bucket_size\": 16, \"value_module\": {\"__llvaluefunctions__\": true, \"module\": \"gecocoo.valuemodules.default.counting\", \"parameters\": []}, \"hash_functions\": [{\"__llhashfunction__\": true, \"name\": \"gecocoo.hashing.xorlinear.xorlinear\", \"seed\": 3404568611099732182, \"parameters\": []}, {\"__llhashfunction__\": true, \"name\": \"gecocoo.hashing.xorlinear.xorlinear\", \"seed\": 99523628097603691, \"parameters\": []}], \"storage\": {\"__llstorageconfig__\": true, \"mode\": \"BUCKETS\", \"concurrent\": true, \"disable_quotienting\": false}}"
            },
            "options": {
                "disable_gc": false,
                "timer": "perf_counter",
                "min_rounds": 5,
                "max_time": 1.0,
                "min_time": 5e-06,
                "warmup": false
            },
            "stats": {
                "min": 35.13152145803906,
                "max": 52.98003899608739,
                "mean": 36.9649261965882,
                "stddev": 5.627324949166931,
                "rounds": 10,
                "median": 35.18274403747637,
                "iqr": 0.06519852811470628,
                "q1": 35.153645775979385,
                "q3": 35.21884430409409,
                "iqr_outliers": 1,
                "stddev_outliers": 1,
                "outliers": "1;1",
                "ld15iqr": 35.13152145803906,
                "hd15iqr": 52.98003899608739,
                "ops": 0.027052671353427406,
                "total": 369.64926196588203,
                "data": [
                    35.21884430409409,
                    35.192403649911284,
                    35.289952928898856,
                    35.13152145803906,
                    35.17308442504145,
                    35.14708694186993,
                    35.153645775979385,
                    52.98003899608739,
                    35.20751401595771,
                    35.155169470002875
                ],
                "iterations": 1
            }
        },
        {
            "group": "inserting",
            "name": "insert",
            "fullname": "bench_operations.py::test_random_walk[8]",
            "params": {
                "thread_count": 8
            },
            "param": "8",
            "extra_info": {
                "key_count": 100000000,
                "thread_count": 8,
                "config": "{\"__llconfig__\": true, \"k\": 31, \"key_bits\": 40, \"value_bits\": 32, \"bucket_count\": 8333334, \"bucket_size\": 16, \"value_module\": {\"__llvaluefunctions__\": true, \"module\": \"gecocoo.valuemodules.default.counting\", \"parameters\": []}, \"hash_functions\": [{\"__llhashfunction__\": true, \"name\": \"gecocoo.hashing.xorlinear.xorlinear\", \"seed\": 3404568611099732182, \"parameters\": []}, {\"__llhashfunction__\": true, \"name\": \"gecocoo.hashing.xorlinear.xorlinear\", \"seed\": 99523628097603691, \"parameters\": []}], \"storage\": {\"__llstorageconfig__\": true, \"mode\": \"BUCKETS\", \"concurrent\": true, \"disable_quotienting\": false}}"
            },
            "options": {
                "disable_gc": false,
                "timer": "perf_counter",
                "min_rounds": 5,
                "max_time": 1.0,
                "min_time": 5e-06,
                "warmup": false
            },
            "stats": {
                "min": 11.131953472038731,
                "max": 11.69394299108535,
                "mean": 11.38822875174228,
                "stddev": 0.19634988750326465,
                "rounds": 10,
                "median": 11.320476875058375,
                "iqr": 0.3605549018830061,
                "q1": 11.23511142609641,
                "q3": 11.595666327979416,
                "iqr_outliers": 0,
                "stddev_outliers": 4,
                "outliers": "4;0",
                "ld15iqr": 11.131953472038731,
                "hd15iqr": 11.69394299108535,
                "ops": 0.0878099678009199,
                "total": 113.88228751742281,
                "data": [
                    11.33747361204587,
                    11.69394299108535,
                    11.131953472038731,
                    11.303480138070881,
                    11.610046867048368,
                    11.23511142609641,
                    11.277101509971544,
                    11.595666327979416,
                    11.501952866092324,
                    11.195558306993917
                ],
                "iterations": 1
            }
        },
        {
            "group": "searching",
            "name": "search",
            "fullname": "bench_operations.py::test_random_walk[8]",
            "params": {
                "thread_count": 8
            },
            "param": "8",
            "extra_info": {
                "key_count": 1000000,
                "thread_count": 8,
                "config": "{\"__llconfig__\": true, \"k\": 31, \"key_bits\": 40, \"value_bits\": 32, \"bucket_count\": 8333334, \"bucket_size\": 16, \"value_module\": {\"__llvaluefunctions__\": true, \"module\": \"gecocoo.valuemodules.default.counting\", \"parameters\": []}, \"hash_functions\": [{\"__llhashfunction__\": true, \"name\": \"gecocoo.hashing.xorlinear.xorlinear\", \"seed\": 3404568611099732182, \"parameters\": []}, {\"__llhashfunction__\": true, \"name\": \"gecocoo.hashing.xorlinear.xorlinear\", \"seed\": 99523628097603691, \"parameters\": []}], \"storage\": {\"__llstorageconfig__\": true, \"mode\": \"BUCKETS\", \"concurrent\": true, \"disable_quotienting\": false}}"
            },
            "options": {
                "disable_gc": false,
                "timer": "perf_counter",
                "min_rounds": 5,
                "max_time": 1.0,
                "min_time": 5e-06,
                "warmup": false
            },
            "stats": {
                "min": 0.050177620025351644,
                "max": 0.07510220888070762,
                "mean": 0.061870284099131825,
                "stddev": 0.011645113491071734,
                "rounds": 10,
                "median": 0.061256199958734214,
                "iqr": 0.022154940059408545,
                "q1": 0.05051109194755554,
                "q3": 0.07266603200696409,
                "iqr_outliers": 0,
                "stddev_outliers": 3,
                "outliers": "3;0",
                "ld15iqr": 0.050177620025351644,
                "hd15iqr": 0.07510220888070762,
                "ops": 16.162848038611678,
                "total": 0.6187028409913182,
                "data": [
                    0.07238713302649558,
                    0.07510220888070762,
                    0.05051109194755554,
                    0.05136637296527624,
                    0.07266603200696409,
                    0.07363904709927738,
                    0.052037299843505025,
                    0.0704751000739634,
                    0.05034093512222171,
                    0.050177620025351644
                ],
                "iterations": 1
            }
        },
        {
            "group": "searching",
            "name": "search",
            "fullname": "bench_operations.py::test_random_walk[8]",
            "params": {
                "thread_count": 8
            },
            "param": "8",
            "extra_info": {
                "key_count": 10000000,
                "thread_count": 8,
                "config": "{\"__llconfig__\": true, \"k\": 31, \"key_bits\": 40, \"value_bits\": 32, \"bucket_count\": 8333334, \"bucket_size\": 16, \"value_module\": {\"__llvaluefunctions__\": true, \"module\": \"gecocoo.valuemodules.default.counting\", \"parameters\": []}, \"hash_functions\": [{\"__llhashfunction__\": true, \"name\": \"gecocoo.hashing.xorlinear.xorlinear\", \"seed\": 3404568611099732182, \"parameters\": []}, {\"__llhashfunction__\": true, \"name\": \"gecocoo.hashing.xorlinear.xorlinear\", \"seed\": 99523628097603691, \"parameters\": []}], \"storage\": {\"__llstorageconfig__\": true, \"mode\": \"BUCKETS\", \"concurrent\": true, \"disable_quotienting\": false}}"
            },
            "options": {
                "disable_gc": false,
                "timer": "perf_counter",
                "min_rounds": 5,
                "max_time": 1.0,
                "min_time": 5e-06,
                "warmup": false
            },
            "stats": {
                "min": 0.47729707206599414,
                "max": 0.6347449140157551,
                "mean": 0.5311125999083742,
                "stddev": 0.05117433520411006,
                "rounds": 10,
                "median": 0.5234314110130072,
                "iqr": 0.06842828984372318,
                "q1": 0.4884176410268992,
                "q3": 0.5568459308706224,
                "iqr_outliers": 0,
                "stddev_outliers": 2,
                "outliers": "2;0",
                "ld15iqr": 0.47729707206599414,
                "hd15iqr": 0.6347449140157551,
                "ops": 1.882839910355199,
                "total": 5.3111259990837425,
                "data": [
                    0.5808529539499432,
                    0.6347449140157551,
                    0.5420084521174431,
                    0.47729707206599414,
                    0.5048543699085712,
                    0.4934114199131727,
                    0.5503224791027606,
                    0.5568459308706224,
                    0.4884176410268992,
                    0.4823707661125809
                ],
                "iterations": 1
            }
        },
        {
            "group": "searching",
            "name": "search",
            "fullname": "bench_operations.py::test_random_walk[8]",
            "params": {
                "thread_count": 8
            },
            "param": "8",
            "extra_info": {
                "key_count": 100000000,
                "thread_count": 8,
                "config": "{\"__llconfig__\": true, \"k\": 31, \"key_bits\": 40, \"value_bits\": 32, \"bucket_count\": 8333334, \"bucket_size\": 16, \"value_module\": {\"__llvaluefunctions__\": true, \"module\": \"gecocoo.valuemodules.default.counting\", \"parameters\": []}, \"hash_functions\": [{\"__llhashfunction__\": true, \"name\": \"gecocoo.hashing.xorlinear.xorlinear\", \"seed\": 3404568611099732182, \"parameters\": []}, {\"__llhashfunction__\": true, \"name\": \"gecocoo.hashing.xorlinear.xorlinear\", \"seed\": 99523628097603691, \"parameters\": []}], \"storage\": {\"__llstorageconfig__\": true, \"mode\": \"BUCKETS\", \"concurrent\": true, \"disable_quotienting\": false}}"
            },
            "options": {
                "disable_gc": false,
                "timer": "perf_counter",
                "min_rounds": 5,
                "max_time": 1.0,
                "min_time": 5e-06,
                "warmup": false
            },
            "stats": {
                "min": 4.711701071122661,
                "max": 5.176213844213635,
                "mean": 4.952402175869793,
                "stddev": 0.15125313295237813,
                "rounds": 10,
                "median": 4.919112624484114,
                "iqr": 0.2697217909153551,
                "q1": 4.853790603112429,
                "q3": 5.1235123940277845,
                "iqr_outliers": 0,
                "stddev_outliers": 4,
                "outliers": "4;0",
                "ld15iqr": 4.711701071122661,
                "hd15iqr": 5.176213844213635,
                "ops": 0.20192221158298185,
                "total": 49.52402175869793,
                "data": [
                    4.900238988921046,
                    5.1235123940277845,
                    4.972199913114309,
                    4.937986260047182,
                    5.176213844213635,
                    4.835981449112296,
                    4.853790603112429,
                    4.8716562611516565,
                    5.140740973874927,
                    4.711701071122661
                ],
                "iterations": 1
            }
        },
        {
            "group": "inserting",
            "name": "insert",
            "fullname": "bench_operations.py::test_random_walk[16]",
            "params": {
                "thread_count": 16
            },
            "param": "16",
            "extra_info": {
                "key_count": 100000000,
                "thread_count": 16,
                "config": "{\"__llconfig__\": true, \"k\": 31, \"key_bits\": 40, \"value_bits\": 32, \"bucket_count\": 8333334, \"bucket_size\": 16, \"value_module\": {\"__llvaluefunctions__\": true, \"module\": \"gecocoo.valuemodules.default.counting\", \"parameters\": []}, \"hash_functions\": [{\"__llhashfunction__\": true, \"name\": \"gecocoo.hashing.xorlinear.xorlinear\", \"seed\": 3404568611099732182, \"parameters\": []}, {\"__llhashfunction__\": true, \"name\": \"gecocoo.hashing.xorlinear.xorlinear\", \"seed\": 99523628097603691, \"parameters\": []}], \"storage\": {\"__llstorageconfig__\": true, \"mode\": \"BUCKETS\", \"concurrent\": true, \"disable_quotienting\": false}}"
            },
            "options": {
                "disable_gc": false,
                "timer": "perf_counter",
                "min_rounds": 5,
                "max_time": 1.0,
                "min_time": 5e-06,
                "warmup": false
            },
            "stats": {
                "min": 9.21201971406117,
                "max": 9.978486342122778,
                "mean": 9.65248456185218,
                "stddev": 0.22527071933483908,
                "rounds": 10,
                "median": 9.664539235527627,
                "iqr": 0.16710726078599691,
                "q1": 9.54759878711775,
                "q3": 9.714706047903746,
                "iqr_outliers": 2,
                "stddev_outliers": 3,
                "outliers": "3;2",
                "ld15iqr": 9.447268258081749,
                "hd15iqr": 9.978486342122778,
                "ops": 0.10360026929772304,
                "total": 96.5248456185218,
                "data": [
                    9.447268258081749,
                    9.676381675992161,
                    9.21201971406117,
                    9.978486342122778,
                    9.686678687110543,
                    9.964955250034109,
                    9.644054061034694,
                    9.54759878711775,
                    9.652696795063093,
                    9.714706047903746
                ],
                "iterations": 1
            }
        },
        {
            "group": "searching",
            "name": "search",
            "fullname": "bench_operations.py::test_random_walk[16]",
            "params": {
                "thread_count": 16
            },
            "param": "16",
            "extra_info": {
                "key_count": 1000000,
                "thread_count": 16,
                "config": "{\"__llconfig__\": true, \"k\": 31, \"key_bits\": 40, \"value_bits\": 32, \"bucket_count\": 8333334, \"bucket_size\": 16, \"value_module\": {\"__llvaluefunctions__\": true, \"module\": \"gecocoo.valuemodules.default.counting\", \"parameters\": []}, \"hash_functions\": [{\"__llhashfunction__\": true, \"name\": \"gecocoo.hashing.xorlinear.xorlinear\", \"seed\": 3404568611099732182, \"parameters\": []}, {\"__llhashfunction__\": true, \"name\": \"gecocoo.hashing.xorlinear.xorlinear\", \"seed\": 99523628097603691, \"parameters\": []}], \"storage\": {\"__llstorageconfig__\": true, \"mode\": \"BUCKETS\", \"concurrent\": true, \"disable_quotienting\": false}}"
            },
            "options": {
                "disable_gc": false,
                "timer": "perf_counter",
                "min_rounds": 5,
                "max_time": 1.0,
                "min_time": 5e-06,
                "warmup": false
            },
            "stats": {
                "min": 0.05319925001822412,
                "max": 0.05640145903453231,
                "mean": 0.05488427912350744,
                "stddev": 0.0010162998443974183,
                "rounds": 10,
                "median": 0.05489797203335911,
                "iqr": 0.0016256398521363735,
                "q1": 0.0539104591589421,
                "q3": 0.05553609901107848,
                "iqr_outliers": 0,
                "stddev_outliers": 4,
                "outliers": "4;0",
                "ld15iqr": 0.05319925001822412,
                "hd15iqr": 0.05640145903453231,
                "ops": 18.220153675511988,
                "total": 0.5488427912350744,
                "data": [
                    0.055089853005483747,
                    0.055439108051359653,
                    0.05640145903453231,
                    0.05553609901107848,
                    0.054691760102286935,
                    0.05319925001822412,
                    0.05384865100495517,
                    0.054706091061234474,
                    0.0539104591589421,
                    0.05602006078697741
                ],
                "iterations": 1
            }
        },
        {
            "group": "searching",
            "name": "search",
            "fullname": "bench_operations.py::test_random_walk[16]",
            "params": {
                "thread_count": 16
            },
            "param": "16",
            "extra_info": {
                "key_count": 10000000,
                "thread_count": 16,
                "config": "{\"__llconfig__\": true, \"k\": 31, \"key_bits\": 40, \"value_bits\": 32, \"bucket_count\": 8333334, \"bucket_size\": 16, \"value_module\": {\"__llvaluefunctions__\": true, \"module\": \"gecocoo.valuemodules.default.counting\", \"parameters\": []}, \"hash_functions\": [{\"__llhashfunction__\": true, \"name\": \"gecocoo.hashing.xorlinear.xorlinear\", \"seed\": 3404568611099732182, \"parameters\": []}, {\"__llhashfunction__\": true, \"name\": \"gecocoo.hashing.xorlinear.xorlinear\", \"seed\": 99523628097603691, \"parameters\": []}], \"storage\": {\"__llstorageconfig__\": true, \"mode\": \"BUCKETS\", \"concurrent\": true, \"disable_quotienting\": false}}"
            },
            "options": {
                "disable_gc": false,
                "timer": "perf_counter",
                "min_rounds": 5,
                "max_time": 1.0,
                "min_time": 5e-06,
                "warmup": false
            },
            "stats": {
                "min": 0.4104860711377114,
                "max": 0.48133079591207206,
                "mean": 0.42968478351831435,
                "stddev": 0.021089704781846415,
                "rounds": 10,
                "median": 0.42389041604474187,
                "iqr": 0.016551605192944407,
                "q1": 0.4172250588890165,
                "q3": 0.4337766640819609,
                "iqr_outliers": 1,
                "stddev_outliers": 1,
                "outliers": "1;1",
                "ld15iqr": 0.4104860711377114,
                "hd15iqr": 0.48133079591207206,
                "ops": 2.327287440369359,
                "total": 4.296847835183144,
                "data": [
                    0.4276179471053183,
                    0.41876501706428826,
                    0.4120607350487262,
                    0.42016288498416543,
                    0.48133079591207206,
                    0.42930140206590295,
                    0.4461212588939816,
                    0.4104860711377114,
                    0.4172250588890165,
                    0.4337766640819609
                ],
                "iterations": 1
            }
        },
        {
            "group": "searching",
            "name": "search",
            "fullname": "bench_operations.py::test_random_walk[16]",
            "params": {
                "thread_count": 16
            },
            "param": "16",
            "extra_info": {
                "key_count": 100000000,
                "thread_count": 16,
                "config": "{\"__llconfig__\": true, \"k\": 31, \"key_bits\": 40, \"value_bits\": 32, \"bucket_count\": 8333334, \"bucket_size\": 16, \"value_module\": {\"__llvaluefunctions__\": true, \"module\": \"gecocoo.valuemodules.default.counting\", \"parameters\": []}, \"hash_functions\": [{\"__llhashfunction__\": true, \"name\": \"gecocoo.hashing.xorlinear.xorlinear\", \"seed\": 3404568611099732182, \"parameters\": []}, {\"__llhashfunction__\": true, \"name\": \"gecocoo.hashing.xorlinear.xorlinear\", \"seed\": 99523628097603691, \"parameters\": []}], \"storage\": {\"__llstorageconfig__\": true, \"mode\": \"BUCKETS\", \"concurrent\": true, \"disable_quotienting\": false}}"
            },
            "options": {
                "disable_gc": false,
                "timer": "perf_counter",
                "min_rounds": 5,
                "max_time": 1.0,
                "min_time": 5e-06,
                "warmup": false
            },
            "stats": {
                "min": 3.5073894769884646,
                "max": 4.341295049060136,
                "mean": 3.8498917726334185,
                "stddev": 0.2756351648398267,
                "rounds": 10,
                "median": 3.9029601274523884,
                "iqr": 0.3995578601025045,
                "q1": 3.588192044990137,
                "q3": 3.9877499050926417,
                "iqr_outliers": 0,
                "stddev_outliers": 2,
                "outliers": "2;0",
                "ld15iqr": 3.5073894769884646,
                "hd15iqr": 4.341295049060136,
                "ops": 0.25974756150507994,
                "total": 38.498917726334184,
                "data": [
                    4.111824706196785,
                    3.9877499050926417,
                    3.9486392030958086,
                    3.588192044990137,
                    3.5073894769884646,
                    3.9865782640408725,
                    3.857281051808968,
                    3.5801817050669342,
                    3.5897863199934363,
                    4.341295049060136
                ],
                "iterations": 1
            }
        }
    ],
    "datetime": "2021-02-22T14:59:10.637760",
    "version": "3.2.3"
}