{
    "machine_info": {
        "node": "cstd01-059",
        "processor": "x86_64",
        "machine": "x86_64",
        "python_compiler": "GCC 7.3.0",
        "python_implementation": "CPython",
        "python_implementation_version": "3.7.9",
        "python_version": "3.7.9",
        "python_build": [
            "default",
            "Aug 31 2020 12:42:55"
        ],
        "release": "3.10.0-1160.6.1.el7.x86_64",
        "system": "Linux",
        "cpu": {
            "vendor_id": "unknown",
            "hardware": "unknown",
            "brand": "unknown"
        }
    },
    "commit_info": {
        "id": "unversioned",
        "time": null,
        "author_time": null,
        "dirty": false,
        "project": "gecocoo-2021-02-22T15_07_24.622469-origin_develop",
        "branch": "(unknown)"
    },
    "benchmarks": [
        {
            "group": "inserting",
            "name": "insert",
            "fullname": "bench_operations.py::test_random_walk[1]",
            "params": {
                "thread_count": 1
            },
            "param": "1",
            "extra_info": {
                "key_count": 100000000,
                "thread_count": 1,
                "config": "{\"__llconfig__\": true, \"k\": 31, \"key_bits\": 38, \"value_bits\": 32, \"bucket_count\": 33333334, \"bucket_size\": 4, \"value_module\": {\"__llvaluefunctions__\": true, \"module\": \"gecocoo.valuemodules.default.counting\", \"parameters\": []}, \"hash_functions\": [{\"__llhashfunction__\": true, \"name\": \"gecocoo.hashing.xorlinear.xorlinear\", \"seed\": 4566644381259765426, \"parameters\": []}, {\"__llhashfunction__\": true, \"name\": \"gecocoo.hashing.xorlinear.xorlinear\", \"seed\": 16225794622113919993, \"parameters\": []}, {\"__llhashfunction__\": true, \"name\": \"gecocoo.hashing.xorlinear.xorlinear\", \"seed\": 12955984796037266803, \"parameters\": []}], \"storage\": {\"__llstorageconfig__\": true, \"mode\": \"BUCKETS\", \"concurrent\": true, \"disable_quotienting\": false}}"
            },
            "options": {
                "disable_gc": false,
                "timer": "perf_counter",
                "min_rounds": 5,
                "max_time": 1.0,
                "min_time": 5e-06,
                "warmup": false
            },
            "stats": {
                "min": 55.26527321804315,
                "max": 55.4374837030191,
                "mean": 55.35283208971377,
                "stddev": 0.05705492103170663,
                "rounds": 10,
                "median": 55.35156816756353,
                "iqr": 0.05793659598566592,
                "q1": 55.32010103401262,
                "q3": 55.37803762999829,
                "iqr_outliers": 0,
                "stddev_outliers": 4,
                "outliers": "4;0",
                "ld15iqr": 55.26527321804315,
                "hd15iqr": 55.4374837030191,
                "ops": 0.018065922957279545,
                "total": 553.5283208971377,
                "data": [
                    55.4374837030191,
                    55.37760730693117,
                    55.4332245120313,
                    55.37204130901955,
                    55.37803762999829,
                    55.32010103401262,
                    55.331095026107505,
                    55.323889127001166,
                    55.289568030973896,
                    55.26527321804315
                ],
                "iterations": 1
            }
        },
        {
            "group": "searching",
            "name": "search",
            "fullname": "bench_operations.py::test_random_walk[1]",
            "params": {
                "thread_count": 1
            },
            "param": "1",
            "extra_info": {
                "key_count": 1000000,
                "thread_count": 1,
                "config": "{\"__llconfig__\": true, \"k\": 31, \"key_bits\": 38, \"value_bits\": 32, \"bucket_count\": 33333334, \"bucket_size\": 4, \"value_module\": {\"__llvaluefunctions__\": true, \"module\": \"gecocoo.valuemodules.default.counting\", \"parameters\": []}, \"hash_functions\": [{\"__llhashfunction__\": true, \"name\": \"gecocoo.hashing.xorlinear.xorlinear\", \"seed\": 4566644381259765426, \"parameters\": []}, {\"__llhashfunction__\": true, \"name\": \"gecocoo.hashing.xorlinear.xorlinear\", \"seed\": 16225794622113919993, \"parameters\": []}, {\"__llhashfunction__\": true, \"name\": \"gecocoo.hashing.xorlinear.xorlinear\", \"seed\": 12955984796037266803, \"parameters\": []}], \"storage\": {\"__llstorageconfig__\": true, \"mode\": \"BUCKETS\", \"concurrent\": true, \"disable_quotienting\": false}}"
            },
            "options": {
                "disable_gc": false,
                "timer": "perf_counter",
                "min_rounds": 5,
                "max_time": 1.0,
                "min_time": 5e-06,
                "warmup": false
            },
            "stats": {
                "min": 0.28522336995229125,
                "max": 0.28594288195017725,
                "mean": 0.28553209828678516,
                "stddev": 0.00024349595889417585,
                "rounds": 10,
                "median": 0.2854387490078807,
                "iqr": 0.00037563801743090153,
                "q1": 0.2853451099945232,
                "q3": 0.28572074801195413,
                "iqr_outliers": 0,
                "stddev_outliers": 3,
                "outliers": "3;0",
                "ld15iqr": 0.28522336995229125,
                "hd15iqr": 0.28594288195017725,
                "ops": 3.5022332200130135,
                "total": 2.855320982867852,
                "data": [
                    0.2856190860038623,
                    0.2854439290240407,
                    0.28594288195017725,
                    0.28572074801195413,
                    0.28586994495708495,
                    0.2853451099945232,
                    0.2853874600259587,
                    0.2854335689917207,
                    0.28522336995229125,
                    0.2853348839562386
                ],
                "iterations": 1
            }
        },
        {
            "group": "searching",
            "name": "search",
            "fullname": "bench_operations.py::test_random_walk[1]",
            "params": {
                "thread_count": 1
            },
            "param": "1",
            "extra_info": {
                "key_count": 10000000,
                "thread_count": 1,
                "config": "{\"__llconfig__\": true, \"k\": 31, \"key_bits\": 38, \"value_bits\": 32, \"bucket_count\": 33333334, \"bucket_size\": 4, \"value_module\": {\"__llvaluefunctions__\": true, \"module\": \"gecocoo.valuemodules.default.counting\", \"parameters\": []}, \"hash_functions\": [{\"__llhashfunction__\": true, \"name\": \"gecocoo.hashing.xorlinear.xorlinear\", \"seed\": 4566644381259765426, \"parameters\": []}, {\"__llhashfunction__\": true, \"name\": \"gecocoo.hashing.xorlinear.xorlinear\", \"seed\": 16225794622113919993, \"parameters\": []}, {\"__llhashfunction__\": true, \"name\": \"gecocoo.hashing.xorlinear.xorlinear\", \"seed\": 12955984796037266803, \"parameters\": []}], \"storage\": {\"__llstorageconfig__\": true, \"mode\": \"BUCKETS\", \"concurrent\": true, \"disable_quotienting\": false}}"
            },
            "options": {
                "disable_gc": false,
                "timer": "perf_counter",
                "min_rounds": 5,
                "max_time": 1.0,
                "min_time": 5e-06,
                "warmup": false
            },
            "stats": {
                "min": 2.7970545300049707,
                "max": 2.802174512995407,
                "mean": 2.798766142013483,
                "stddev": 0.001654688259837522,
                "rounds": 10,
                "median": 2.7979888545232825,
                "iqr": 0.0024244230007752776,
                "q1": 2.7976661489810795,
                "q3": 2.8000905719818547,
                "iqr_outliers": 0,
                "stddev_outliers": 2,
                "outliers": "2;0",
                "ld15iqr": 2.7970545300049707,
                "hd15iqr": 2.802174512995407,
                "ops": 0.35730030637021426,
                "total": 27.987661420134827,
                "data": [
                    2.7995643850881606,
                    2.798123826039955,
                    2.802174512995407,
                    2.8001378470798954,
                    2.8000905719818547,
                    2.79785388300661,
                    2.797772253979929,
                    2.7976661489810795,
                    2.7970545300049707,
                    2.7972234609769657
                ],
                "iterations": 1
            }
        },
        {
            "group": "searching",
            "name": "search",
            "fullname": "bench_operations.py::test_random_walk[1]",
            "params": {
                "thread_count": 1
            },
            "param": "1",
            "extra_info": {
                "key_count": 100000000,
                "thread_count": 1,
                "config": "{\"__llconfig__\": true, \"k\": 31, \"key_bits\": 38, \"value_bits\": 32, \"bucket_count\": 33333334, \"bucket_size\": 4, \"value_module\": {\"__llvaluefunctions__\": true, \"module\": \"gecocoo.valuemodules.default.counting\", \"parameters\": []}, \"hash_functions\": [{\"__llhashfunction__\": true, \"name\": \"gecocoo.hashing.xorlinear.xorlinear\", \"seed\": 4566644381259765426, \"parameters\": []}, {\"__llhashfunction__\": true, \"name\": \"gecocoo.hashing.xorlinear.xorlinear\", \"seed\": 16225794622113919993, \"parameters\": []}, {\"__llhashfunction__\": true, \"name\": \"gecocoo.hashing.xorlinear.xorlinear\", \"seed\": 12955984796037266803, \"parameters\": []}], \"storage\": {\"__llstorageconfig__\": true, \"mode\": \"BUCKETS\", \"concurrent\": true, \"disable_quotienting\": false}}"
            },
            "options": {
                "disable_gc": false,
                "timer": "perf_counter",
                "min_rounds": 5,
                "max_time": 1.0,
                "min_time": 5e-06,
                "warmup": false
            },
            "stats": {
                "min": 27.909977172035724,
                "max": 27.961112095043063,
                "mean": 27.930847153509966,
                "stddev": 0.016816176492829998,
                "rounds": 10,
                "median": 27.930492266488727,
                "iqr": 0.024634233908727765,
                "q1": 27.917066222056746,
                "q3": 27.941700455965474,
                "iqr_outliers": 0,
                "stddev_outliers": 3,
                "outliers": "3;0",
                "ld15iqr": 27.909977172035724,
                "hd15iqr": 27.961112095043063,
                "ops": 0.03580270925919029,
                "total": 279.30847153509967,
                "data": [
                    27.935903451987542,
                    27.941297536017373,
                    27.961112095043063,
                    27.941700455965474,
                    27.94577292003669,
                    27.91755697503686,
                    27.925081080989912,
                    27.913003625930287,
                    27.917066222056746,
                    27.909977172035724
                ],
                "iterations": 1
            }
        },
        {
            "group": "inserting",
            "name": "insert",
            "fullname": "bench_operations.py::test_random_walk[8]",
            "params": {
                "thread_count": 8
            },
            "param": "8",
            "extra_info": {
                "key_count": 100000000,
                "thread_count": 8,
                "config": "{\"__llconfig__\": true, \"k\": 31, \"key_bits\": 38, \"value_bits\": 32, \"bucket_count\": 33333334, \"bucket_size\": 4, \"value_module\": {\"__llvaluefunctions__\": true, \"module\": \"gecocoo.valuemodules.default.counting\", \"parameters\": []}, \"hash_functions\": [{\"__llhashfunction__\": true, \"name\": \"gecocoo.hashing.xorlinear.xorlinear\", \"seed\": 4566644381259765426, \"parameters\": []}, {\"__llhashfunction__\": true, \"name\": \"gecocoo.hashing.xorlinear.xorlinear\", \"seed\": 16225794622113919993, \"parameters\": []}, {\"__llhashfunction__\": true, \"name\": \"gecocoo.hashing.xorlinear.xorlinear\", \"seed\": 12955984796037266803, \"parameters\": []}], \"storage\": {\"__llstorageconfig__\": true, \"mode\": \"BUCKETS\", \"concurrent\": true, \"disable_quotienting\": false}}"
            },
            "options": {
                "disable_gc": false,
                "timer": "perf_counter",
                "min_rounds": 5,
                "max_time": 1.0,
                "min_time": 5e-06,
                "warmup": false
            },
            "stats": {
                "min": 8.249130091047846,
                "max": 9.076930738054216,
                "mean": 8.532147599977908,
                "stddev": 0.21421475455443612,
                "rounds": 10,
                "median": 8.493781222437974,
                "iqr": 0.06812192499637604,
                "q1": 8.4456070989836,
                "q3": 8.513729023979977,
                "iqr_outliers": 3,
                "stddev_outliers": 2,
                "outliers": "2;3",
                "ld15iqr": 8.443244231981225,
                "hd15iqr": 8.640456564957276,
                "ops": 0.11720378583260672,
                "total": 85.32147599977907,
                "data": [
                    8.4456070989836,
                    9.076930738054216,
                    8.501754610915668,
                    8.640456564957276,
                    8.443244231981225,
                    8.494172211969271,
                    8.463061194983311,
                    8.513729023979977,
                    8.249130091047846,
                    8.493390232906677
                ],
                "iterations": 1
            }
        },
        {
            "group": "searching",
            "name": "search",
            "fullname": "bench_operations.py::test_random_walk[8]",
            "params": {
                "thread_count": 8
            },
            "param": "8",
            "extra_info": {
                "key_count": 1000000,
                "thread_count": 8,
                "config": "{\"__llconfig__\": true, \"k\": 31, \"key_bits\": 38, \"value_bits\": 32, \"bucket_count\": 33333334, \"bucket_size\": 4, \"value_module\": {\"__llvaluefunctions__\": true, \"module\": \"gecocoo.valuemodules.default.counting\", \"parameters\": []}, \"hash_functions\": [{\"__llhashfunction__\": true, \"name\": \"gecocoo.hashing.xorlinear.xorlinear\", \"seed\": 4566644381259765426, \"parameters\": []}, {\"__llhashfunction__\": true, \"name\": \"gecocoo.hashing.xorlinear.xorlinear\", \"seed\": 16225794622113919993, \"parameters\": []}, {\"__llhashfunction__\": true, \"name\": \"gecocoo.hashing.xorlinear.xorlinear\", \"seed\": 12955984796037266803, \"parameters\": []}], \"storage\": {\"__llstorageconfig__\": true, \"mode\": \"BUCKETS\", \"concurrent\": true, \"disable_quotienting\": false}}"
            },
            "options": {
                "disable_gc": false,
                "timer": "perf_counter",
                "min_rounds": 5,
                "max_time": 1.0,
                "min_time": 5e-06,
                "warmup": false
            },
            "stats": {
                "min": 0.0394335410092026,
                "max": 0.06271396100055426,
                "mean": 0.050594026723410936,
                "stddev": 0.009652769505649013,
                "rounds": 10,
                "median": 0.05349190952256322,
                "iqr": 0.019802280934527516,
                "q1": 0.03953090508002788,
                "q3": 0.059333186014555395,
                "iqr_outliers": 0,
                "stddev_outliers": 4,
                "outliers": "4;0",
                "ld15iqr": 0.0394335410092026,
                "hd15iqr": 0.06271396100055426,
                "ops": 19.765179108332934,
                "total": 0.5059402672341093,
                "data": [
                    0.05973209405783564,
                    0.06271396100055426,
                    0.03949088405352086,
                    0.05450896895490587,
                    0.059333186014555395,
                    0.0394335410092026,
                    0.05247485009022057,
                    0.03953090508002788,
                    0.041003920952789485,
                    0.057717956020496786
                ],
                "iterations": 1
            }
        },
        {
            "group": "searching",
            "name": "search",
            "fullname": "bench_operations.py::test_random_walk[8]",
            "params": {
                "thread_count": 8
            },
            "param": "8",
            "extra_info": {
                "key_count": 10000000,
                "thread_count": 8,
                "config": "{\"__llconfig__\": true, \"k\": 31, \"key_bits\": 38, \"value_bits\": 32, \"bucket_count\": 33333334, \"bucket_size\": 4, \"value_module\": {\"__llvaluefunctions__\": true, \"module\": \"gecocoo.valuemodules.default.counting\", \"parameters\": []}, \"hash_functions\": [{\"__llhashfunction__\": true, \"name\": \"gecocoo.hashing.xorlinear.xorlinear\", \"seed\": 4566644381259765426, \"parameters\": []}, {\"__llhashfunction__\": true, \"name\": \"gecocoo.hashing.xorlinear.xorlinear\", \"seed\": 16225794622113919993, \"parameters\": []}, {\"__llhashfunction__\": true, \"name\": \"gecocoo.hashing.xorlinear.xorlinear\", \"seed\": 12955984796037266803, \"parameters\": []}], \"storage\": {\"__llstorageconfig__\": true, \"mode\": \"BUCKETS\", \"concurrent\": true, \"disable_quotienting\": false}}"
            },
            "options": {
                "disable_gc": false,
                "timer": "perf_counter",
                "min_rounds": 5,
                "max_time": 1.0,
                "min_time": 5e-06,
                "warmup": false
            },
            "stats": {
                "min": 0.36513435596134514,
                "max": 0.5477553500095382,
                "mean": 0.41948733117897063,
                "stddev": 0.05572823526728326,
                "rounds": 10,
                "median": 0.406520266958978,
                "iqr": 0.07802131900098175,
                "q1": 0.36824687803164124,
                "q3": 0.446268197032623,
                "iqr_outliers": 0,
                "stddev_outliers": 1,
                "outliers": "1;0",
                "ld15iqr": 0.36513435596134514,
                "hd15iqr": 0.5477553500095382,
                "ops": 2.383862218650314,
                "total": 4.194873311789706,
                "data": [
                    0.4499249119544402,
                    0.5477553500095382,
                    0.44305417395662516,
                    0.40861789195332676,
                    0.446268197032623,
                    0.4044226419646293,
                    0.3671424189815298,
                    0.36513435596134514,
                    0.3943064919440076,
                    0.36824687803164124
                ],
                "iterations": 1
            }
        },
        {
            "group": "searching",
            "name": "search",
            "fullname": "bench_operations.py::test_random_walk[8]",
            "params": {
                "thread_count": 8
            },
            "param": "8",
            "extra_info": {
                "key_count": 100000000,
                "thread_count": 8,
                "config": "{\"__llconfig__\": true, \"k\": 31, \"key_bits\": 38, \"value_bits\": 32, \"bucket_count\": 33333334, \"bucket_size\": 4, \"value_module\": {\"__llvaluefunctions__\": true, \"module\": \"gecocoo.valuemodules.default.counting\", \"parameters\": []}, \"hash_functions\": [{\"__llhashfunction__\": true, \"name\": \"gecocoo.hashing.xorlinear.xorlinear\", \"seed\": 4566644381259765426, \"parameters\": []}, {\"__llhashfunction__\": true, \"name\": \"gecocoo.hashing.xorlinear.xorlinear\", \"seed\": 16225794622113919993, \"parameters\": []}, {\"__llhashfunction__\": true, \"name\": \"gecocoo.hashing.xorlinear.xorlinear\", \"seed\": 12955984796037266803, \"parameters\": []}], \"storage\": {\"__llstorageconfig__\": true, \"mode\": \"BUCKETS\", \"concurrent\": true, \"disable_quotienting\": false}}"
            },
            "options": {
                "disable_gc": false,
                "timer": "perf_counter",
                "min_rounds": 5,
                "max_time": 1.0,
                "min_time": 5e-06,
                "warmup": false
            },
            "stats": {
                "min": 3.6167537120636553,
                "max": 3.961440004990436,
                "mean": 3.683571183413733,
                "stddev": 0.11208929918800295,
                "rounds": 10,
                "median": 3.635888844029978,
                "iqr": 0.009100546943955123,
                "q1": 3.6357880770228803,
                "q3": 3.6448886239668354,
                "iqr_outliers": 3,
                "stddev_outliers": 2,
                "outliers": "2;3",
                "ld15iqr": 3.6256882899906486,
                "hd15iqr": 3.80699384608306,
                "ops": 0.2714756822137083,
                "total": 36.83571183413733,
                "data": [
                    3.961440004990436,
                    3.80699384608306,
                    3.6448886239668354,
                    3.6365643419558182,
                    3.6357880770228803,
                    3.63591621897649,
                    3.6358614690834656,
                    3.6256882899906486,
                    3.6167537120636553,
                    3.635817250004038
                ],
                "iterations": 1
            }
        },
        {
            "group": "inserting",
            "name": "insert",
            "fullname": "bench_operations.py::test_random_walk[16]",
            "params": {
                "thread_count": 16
            },
            "param": "16",
            "extra_info": {
                "key_count": 100000000,
                "thread_count": 16,
                "config": "{\"__llconfig__\": true, \"k\": 31, \"key_bits\": 38, \"value_bits\": 32, \"bucket_count\": 33333334, \"bucket_size\": 4, \"value_module\": {\"__llvaluefunctions__\": true, \"module\": \"gecocoo.valuemodules.default.counting\", \"parameters\": []}, \"hash_functions\": [{\"__llhashfunction__\": true, \"name\": \"gecocoo.hashing.xorlinear.xorlinear\", \"seed\": 4566644381259765426, \"parameters\": []}, {\"__llhashfunction__\": true, \"name\": \"gecocoo.hashing.xorlinear.xorlinear\", \"seed\": 16225794622113919993, \"parameters\": []}, {\"__llhashfunction__\": true, \"name\": \"gecocoo.hashing.xorlinear.xorlinear\", \"seed\": 12955984796037266803, \"parameters\": []}], \"storage\": {\"__llstorageconfig__\": true, \"mode\": \"BUCKETS\", \"concurrent\": true, \"disable_quotienting\": false}}"
            },
            "options": {
                "disable_gc": false,
                "timer": "perf_counter",
                "min_rounds": 5,
                "max_time": 1.0,
                "min_time": 5e-06,
                "warmup": false
            },
            "stats": {
                "min": 9.112365425913595,
                "max": 10.105920808040537,
                "mean": 9.609637626470066,
                "stddev": 0.2668615139551715,
                "rounds": 10,
                "median": 9.675677409453783,
                "iqr": 0.29223312495741993,
                "q1": 9.414146268041804,
                "q3": 9.706379392999224,
                "iqr_outliers": 0,
                "stddev_outliers": 2,
                "outliers": "2;0",
                "ld15iqr": 9.112365425913595,
                "hd15iqr": 10.105920808040537,
                "ops": 0.10406219660619322,
                "total": 96.09637626470067,
                "data": [
                    9.706379392999224,
                    9.681062759947963,
                    9.677136195939966,
                    9.6742186229676,
                    9.739652714924887,
                    9.637184006976895,
                    9.112365425913595,
                    9.348310068948194,
                    10.105920808040537,
                    9.414146268041804
                ],
                "iterations": 1
            }
        },
        {
            "group": "searching",
            "name": "search",
            "fullname": "bench_operations.py::test_random_walk[16]",
            "params": {
                "thread_count": 16
            },
            "param": "16",
            "extra_info": {
                "key_count": 1000000,
                "thread_count": 16,
                "config": "{\"__llconfig__\": true, \"k\": 31, \"key_bits\": 38, \"value_bits\": 32, \"bucket_count\": 33333334, \"bucket_size\": 4, \"value_module\": {\"__llvaluefunctions__\": true, \"module\": \"gecocoo.valuemodules.default.counting\", \"parameters\": []}, \"hash_functions\": [{\"__llhashfunction__\": true, \"name\": \"gecocoo.hashing.xorlinear.xorlinear\", \"seed\": 4566644381259765426, \"parameters\": []}, {\"__llhashfunction__\": true, \"name\": \"gecocoo.hashing.xorlinear.xorlinear\", \"seed\": 16225794622113919993, \"parameters\": []}, {\"__llhashfunction__\": true, \"name\": \"gecocoo.hashing.xorlinear.xorlinear\", \"seed\": 12955984796037266803, \"parameters\": []}], \"storage\": {\"__llstorageconfig__\": true, \"mode\": \"BUCKETS\", \"concurrent\": true, \"disable_quotienting\": false}}"
            },
            "options": {
                "disable_gc": false,
                "timer": "perf_counter",
                "min_rounds": 5,
                "max_time": 1.0,
                "min_time": 5e-06,
                "warmup": false
            },
            "stats": {
                "min": 0.04195150709711015,
                "max": 0.04899868101347238,
                "mean": 0.04374704930232838,
                "stddev": 0.0020736830866206384,
                "rounds": 10,
                "median": 0.04322716098977253,
                "iqr": 0.00138612010050565,
                "q1": 0.04233300394844264,
                "q3": 0.04371912404894829,
                "iqr_outliers": 1,
                "stddev_outliers": 1,
                "outliers": "1;1",
                "ld15iqr": 0.04195150709711015,
                "hd15iqr": 0.04899868101347238,
                "ops": 22.85868455010922,
                "total": 0.4374704930232838,
                "data": [
                    0.043125748983584344,
                    0.04344478796701878,
                    0.04233300394844264,
                    0.045326036983169615,
                    0.04195150709711015,
                    0.042951807961799204,
                    0.04899868101347238,
                    0.04332857299596071,
                    0.04371912404894829,
                    0.042291222023777664
                ],
                "iterations": 1
            }
        },
        {
            "group": "searching",
            "name": "search",
            "fullname": "bench_operations.py::test_random_walk[16]",
            "params": {
                "thread_count": 16
            },
            "param": "16",
            "extra_info": {
                "key_count": 10000000,
                "thread_count": 16,
                "config": "{\"__llconfig__\": true, \"k\": 31, \"key_bits\": 38, \"value_bits\": 32, \"bucket_count\": 33333334, \"bucket_size\": 4, \"value_module\": {\"__llvaluefunctions__\": true, \"module\": \"gecocoo.valuemodules.default.counting\", \"parameters\": []}, \"hash_functions\": [{\"__llhashfunction__\": true, \"name\": \"gecocoo.hashing.xorlinear.xorlinear\", \"seed\": 4566644381259765426, \"parameters\": []}, {\"__llhashfunction__\": true, \"name\": \"gecocoo.hashing.xorlinear.xorlinear\", \"seed\": 16225794622113919993, \"parameters\": []}, {\"__llhashfunction__\": true, \"name\": \"gecocoo.hashing.xorlinear.xorlinear\", \"seed\": 12955984796037266803, \"parameters\": []}], \"storage\": {\"__llstorageconfig__\": true, \"mode\": \"BUCKETS\", \"concurrent\": true, \"disable_quotienting\": false}}"
            },
            "options": {
                "disable_gc": false,
                "timer": "perf_counter",
                "min_rounds": 5,
                "max_time": 1.0,
                "min_time": 5e-06,
                "warmup": false
            },
            "stats": {
                "min": 0.3213073620572686,
                "max": 0.3537317489972338,
                "mean": 0.3349181598168798,
                "stddev": 0.011262470502624307,
                "rounds": 10,
                "median": 0.3344075760105625,
                "iqr": 0.012775684939697385,
                "q1": 0.3268331360304728,
                "q3": 0.3396088209701702,
                "iqr_outliers": 0,
                "stddev_outliers": 4,
                "outliers": "4;0",
                "ld15iqr": 0.3213073620572686,
                "hd15iqr": 0.3537317489972338,
                "ops": 2.9858040559722445,
                "total": 3.349181598168798,
                "data": [
                    0.3268331360304728,
                    0.3522784890374169,
                    0.33372414798941463,
                    0.3537317489972338,
                    0.3283868570579216,
                    0.3396088209701702,
                    0.33625322103034705,
                    0.3213073620572686,
                    0.3350910040317103,
                    0.3219668109668419
                ],
                "iterations": 1
            }
        },
        {
            "group": "searching",
            "name": "search",
            "fullname": "bench_operations.py::test_random_walk[16]",
            "params": {
                "thread_count": 16
            },
            "param": "16",
            "extra_info": {
                "key_count": 100000000,
                "thread_count": 16,
                "config": "{\"__llconfig__\": true, \"k\": 31, \"key_bits\": 38, \"value_bits\": 32, \"bucket_count\": 33333334, \"bucket_size\": 4, \"value_module\": {\"__llvaluefunctions__\": true, \"module\": \"gecocoo.valuemodules.default.counting\", \"parameters\": []}, \"hash_functions\": [{\"__llhashfunction__\": true, \"name\": \"gecocoo.hashing.xorlinear.xorlinear\", \"seed\": 4566644381259765426, \"parameters\": []}, {\"__llhashfunction__\": true, \"name\": \"gecocoo.hashing.xorlinear.xorlinear\", \"seed\": 16225794622113919993, \"parameters\": []}, {\"__llhashfunction__\": true, \"name\": \"gecocoo.hashing.xorlinear.xorlinear\", \"seed\": 12955984796037266803, \"parameters\": []}], \"storage\": {\"__llstorageconfig__\": true, \"mode\": \"BUCKETS\", \"concurrent\": true, \"disable_quotienting\": false}}"
            },
            "options": {
                "disable_gc": false,
                "timer": "perf_counter",
                "min_rounds": 5,
                "max_time": 1.0,
                "min_time": 5e-06,
                "warmup": false
            },
            "stats": {
                "min": 2.691823818953708,
                "max": 3.288949352921918,
                "mean": 2.9804314972716384,
                "stddev": 0.23651194661922176,
                "rounds": 10,
                "median": 3.0663450289866887,
                "iqr": 0.4864723690552637,
                "q1": 2.722293930943124,
                "q3": 3.2087662999983877,
                "iqr_outliers": 0,
                "stddev_outliers": 5,
                "outliers": "5;0",
                "ld15iqr": 2.691823818953708,
                "hd15iqr": 3.288949352921918,
                "ops": 0.33552188698697655,
                "total": 29.804314972716384,
                "data": [
                    2.7491351109929383,
                    3.078719776007347,
                    3.2087662999983877,
                    3.0791947949910536,
                    2.7133038860047236,
                    2.722293930943124,
                    3.288949352921918,
                    3.218157719937153,
                    2.691823818953708,
                    3.0539702819660306
                ],
                "iterations": 1
            }
        }
    ],
    "datetime": "2021-02-22T14:33:09.510590",
    "version": "3.2.3"
}