{
    "machine_info": {
        "node": "cstd01-167",
        "processor": "x86_64",
        "machine": "x86_64",
        "python_compiler": "GCC 7.3.0",
        "python_implementation": "CPython",
        "python_implementation_version": "3.7.9",
        "python_version": "3.7.9",
        "python_build": [
            "default",
            "Aug 31 2020 12:42:55"
        ],
        "release": "3.10.0-1160.6.1.el7.x86_64",
        "system": "Linux",
        "cpu": {
            "vendor_id": "unknown",
            "hardware": "unknown",
            "brand": "unknown"
        }
    },
    "commit_info": {
        "id": "unversioned",
        "time": null,
        "author_time": null,
        "dirty": false,
        "project": "gecocoo-2021-02-22T15_07_24.622469-origin_develop",
        "branch": "(unknown)"
    },
    "benchmarks": [
        {
            "group": "inserting",
            "name": "insert",
            "fullname": "bench_operations.py::test_random_walk[1]",
            "params": {
                "thread_count": 1
            },
            "param": "1",
            "extra_info": {
                "key_count": 100000000,
                "thread_count": 1,
                "config": "{\"__llconfig__\": true, \"k\": 31, \"key_bits\": 40, \"value_bits\": 32, \"bucket_count\": 6578948, \"bucket_size\": 16, \"value_module\": {\"__llvaluefunctions__\": true, \"module\": \"gecocoo.valuemodules.default.counting\", \"parameters\": []}, \"hash_functions\": [{\"__llhashfunction__\": true, \"name\": \"gecocoo.hashing.xorlinear.xorlinear\", \"seed\": 11728310857717933281, \"parameters\": []}, {\"__llhashfunction__\": true, \"name\": \"gecocoo.hashing.xorlinear.xorlinear\", \"seed\": 5053398138646193071, \"parameters\": []}, {\"__llhashfunction__\": true, \"name\": \"gecocoo.hashing.xorlinear.xorlinear\", \"seed\": 5722835726935190308, \"parameters\": []}, {\"__llhashfunction__\": true, \"name\": \"gecocoo.hashing.xorlinear.xorlinear\", \"seed\": 13508473599136362154, \"parameters\": []}], \"storage\": {\"__llstorageconfig__\": true, \"mode\": \"BUCKETS\", \"concurrent\": true, \"disable_quotienting\": false}}"
            },
            "options": {
                "disable_gc": false,
                "timer": "perf_counter",
                "min_rounds": 5,
                "max_time": 1.0,
                "min_time": 5e-06,
                "warmup": false
            },
            "stats": {
                "min": 149.75673193205148,
                "max": 176.74372876202688,
                "mean": 153.73930981096345,
                "stddev": 8.800387301132842,
                "rounds": 10,
                "median": 149.99266218196135,
                "iqr": 0.28193194209598005,
                "q1": 149.8769758839626,
                "q3": 150.15890782605857,
                "iqr_outliers": 2,
                "stddev_outliers": 1,
                "outliers": "1;2",
                "ld15iqr": 149.75673193205148,
                "hd15iqr": 161.02206603297964,
                "ops": 0.006504517297687829,
                "total": 1537.3930981096346,
                "data": [
                    149.96351281786337,
                    149.8769758839626,
                    161.02206603297964,
                    149.97895140200853,
                    149.75673193205148,
                    150.00637296191417,
                    176.74372876202688,
                    149.83142472989857,
                    150.0544257608708,
                    150.15890782605857
                ],
                "iterations": 1
            }
        },
        {
            "group": "searching",
            "name": "search",
            "fullname": "bench_operations.py::test_random_walk[1]",
            "params": {
                "thread_count": 1
            },
            "param": "1",
            "extra_info": {
                "key_count": 1000000,
                "thread_count": 1,
                "config": "{\"__llconfig__\": true, \"k\": 31, \"key_bits\": 40, \"value_bits\": 32, \"bucket_count\": 6578948, \"bucket_size\": 16, \"value_module\": {\"__llvaluefunctions__\": true, \"module\": \"gecocoo.valuemodules.default.counting\", \"parameters\": []}, \"hash_functions\": [{\"__llhashfunction__\": true, \"name\": \"gecocoo.hashing.xorlinear.xorlinear\", \"seed\": 11728310857717933281, \"parameters\": []}, {\"__llhashfunction__\": true, \"name\": \"gecocoo.hashing.xorlinear.xorlinear\", \"seed\": 5053398138646193071, \"parameters\": []}, {\"__llhashfunction__\": true, \"name\": \"gecocoo.hashing.xorlinear.xorlinear\", \"seed\": 5722835726935190308, \"parameters\": []}, {\"__llhashfunction__\": true, \"name\": \"gecocoo.hashing.xorlinear.xorlinear\", \"seed\": 13508473599136362154, \"parameters\": []}], \"storage\": {\"__llstorageconfig__\": true, \"mode\": \"BUCKETS\", \"concurrent\": true, \"disable_quotienting\": false}}"
            },
            "options": {
                "disable_gc": false,
                "timer": "perf_counter",
                "min_rounds": 5,
                "max_time": 1.0,
                "min_time": 5e-06,
                "warmup": false
            },
            "stats": {
                "min": 0.6438984160777181,
                "max": 0.707446978893131,
                "mean": 0.6530263436958194,
                "stddev": 0.02022016177712107,
                "rounds": 10,
                "median": 0.6446806165622547,
                "iqr": 0.001417514169588685,
                "q1": 0.6445484629366547,
                "q3": 0.6459659771062434,
                "iqr_outliers": 2,
                "stddev_outliers": 1,
                "outliers": "1;2",
                "ld15iqr": 0.6438984160777181,
                "hd15iqr": 0.6655124628450722,
                "ops": 1.5313317902926769,
                "total": 6.530263436958194,
                "data": [
                    0.6447861769702286,
                    0.6441073429305106,
                    0.6459659771062434,
                    0.6446601371280849,
                    0.6438984160777181,
                    0.6447010959964246,
                    0.707446978893131,
                    0.6446363860741258,
                    0.6655124628450722,
                    0.6445484629366547
                ],
                "iterations": 1
            }
        },
        {
            "group": "searching",
            "name": "search",
            "fullname": "bench_operations.py::test_random_walk[1]",
            "params": {
                "thread_count": 1
            },
            "param": "1",
            "extra_info": {
                "key_count": 10000000,
                "thread_count": 1,
                "config": "{\"__llconfig__\": true, \"k\": 31, \"key_bits\": 40, \"value_bits\": 32, \"bucket_count\": 6578948, \"bucket_size\": 16, \"value_module\": {\"__llvaluefunctions__\": true, \"module\": \"gecocoo.valuemodules.default.counting\", \"parameters\": []}, \"hash_functions\": [{\"__llhashfunction__\": true, \"name\": \"gecocoo.hashing.xorlinear.xorlinear\", \"seed\": 11728310857717933281, \"parameters\": []}, {\"__llhashfunction__\": true, \"name\": \"gecocoo.hashing.xorlinear.xorlinear\", \"seed\": 5053398138646193071, \"parameters\": []}, {\"__llhashfunction__\": true, \"name\": \"gecocoo.hashing.xorlinear.xorlinear\", \"seed\": 5722835726935190308, \"parameters\": []}, {\"__llhashfunction__\": true, \"name\": \"gecocoo.hashing.xorlinear.xorlinear\", \"seed\": 13508473599136362154, \"parameters\": []}], \"storage\": {\"__llstorageconfig__\": true, \"mode\": \"BUCKETS\", \"concurrent\": true, \"disable_quotienting\": false}}"
            },
            "options": {
                "disable_gc": false,
                "timer": "perf_counter",
                "min_rounds": 5,
                "max_time": 1.0,
                "min_time": 5e-06,
                "warmup": false
            },
            "stats": {
                "min": 6.397878633113578,
                "max": 6.517531147925183,
                "mean": 6.427809016290121,
                "stddev": 0.045399368621454675,
                "rounds": 10,
                "median": 6.409040925442241,
                "iqr": 0.015282087959349155,
                "q1": 6.403120475122705,
                "q3": 6.418402563082054,
                "iqr_outliers": 2,
                "stddev_outliers": 2,
                "outliers": "2;2",
                "ld15iqr": 6.397878633113578,
                "hd15iqr": 6.508683491032571,
                "ops": 0.15557400623846798,
                "total": 64.27809016290121,
                "data": [
                    6.403120475122705,
                    6.397878633113578,
                    6.4104416749905795,
                    6.404599198838696,
                    6.399053838802502,
                    6.407640175893903,
                    6.517531147925183,
                    6.508683491032571,
                    6.418402563082054,
                    6.410738964099437
                ],
                "iterations": 1
            }
        },
        {
            "group": "searching",
            "name": "search",
            "fullname": "bench_operations.py::test_random_walk[1]",
            "params": {
                "thread_count": 1
            },
            "param": "1",
            "extra_info": {
                "key_count": 100000000,
                "thread_count": 1,
                "config": "{\"__llconfig__\": true, \"k\": 31, \"key_bits\": 40, \"value_bits\": 32, \"bucket_count\": 6578948, \"bucket_size\": 16, \"value_module\": {\"__llvaluefunctions__\": true, \"module\": \"gecocoo.valuemodules.default.counting\", \"parameters\": []}, \"hash_functions\": [{\"__llhashfunction__\": true, \"name\": \"gecocoo.hashing.xorlinear.xorlinear\", \"seed\": 11728310857717933281, \"parameters\": []}, {\"__llhashfunction__\": true, \"name\": \"gecocoo.hashing.xorlinear.xorlinear\", \"seed\": 5053398138646193071, \"parameters\": []}, {\"__llhashfunction__\": true, \"name\": \"gecocoo.hashing.xorlinear.xorlinear\", \"seed\": 5722835726935190308, \"parameters\": []}, {\"__llhashfunction__\": true, \"name\": \"gecocoo.hashing.xorlinear.xorlinear\", \"seed\": 13508473599136362154, \"parameters\": []}], \"storage\": {\"__llstorageconfig__\": true, \"mode\": \"BUCKETS\", \"concurrent\": true, \"disable_quotienting\": false}}"
            },
            "options": {
                "disable_gc": false,
                "timer": "perf_counter",
                "min_rounds": 5,
                "max_time": 1.0,
                "min_time": 5e-06,
                "warmup": false
            },
            "stats": {
                "min": 64.02657143305987,
                "max": 64.79707223898731,
                "mean": 64.25538831220474,
                "stddev": 0.26771949522647853,
                "rounds": 10,
                "median": 64.15123473398853,
                "iqr": 0.14980656397528946,
                "q1": 64.10144246206619,
                "q3": 64.25124902604148,
                "iqr_outliers": 2,
                "stddev_outliers": 2,
                "outliers": "2;2",
                "ld15iqr": 64.02657143305987,
                "hd15iqr": 64.69442364899442,
                "ops": 0.01556289715566249,
                "total": 642.5538831220474,
                "data": [
                    64.12504774192348,
                    64.06162805994973,
                    64.17742172605358,
                    64.69442364899442,
                    64.02657143305987,
                    64.11579875904135,
                    64.20322802593,
                    64.25124902604148,
                    64.79707223898731,
                    64.10144246206619
                ],
                "iterations": 1
            }
        },
        {
            "group": "inserting",
            "name": "insert",
            "fullname": "bench_operations.py::test_random_walk[8]",
            "params": {
                "thread_count": 8
            },
            "param": "8",
            "extra_info": {
                "key_count": 100000000,
                "thread_count": 8,
                "config": "{\"__llconfig__\": true, \"k\": 31, \"key_bits\": 40, \"value_bits\": 32, \"bucket_count\": 6578948, \"bucket_size\": 16, \"value_module\": {\"__llvaluefunctions__\": true, \"module\": \"gecocoo.valuemodules.default.counting\", \"parameters\": []}, \"hash_functions\": [{\"__llhashfunction__\": true, \"name\": \"gecocoo.hashing.xorlinear.xorlinear\", \"seed\": 11728310857717933281, \"parameters\": []}, {\"__llhashfunction__\": true, \"name\": \"gecocoo.hashing.xorlinear.xorlinear\", \"seed\": 5053398138646193071, \"parameters\": []}, {\"__llhashfunction__\": true, \"name\": \"gecocoo.hashing.xorlinear.xorlinear\", \"seed\": 5722835726935190308, \"parameters\": []}, {\"__llhashfunction__\": true, \"name\": \"gecocoo.hashing.xorlinear.xorlinear\", \"seed\": 13508473599136362154, \"parameters\": []}], \"storage\": {\"__llstorageconfig__\": true, \"mode\": \"BUCKETS\", \"concurrent\": true, \"disable_quotienting\": false}}"
            },
            "options": {
                "disable_gc": false,
                "timer": "perf_counter",
                "min_rounds": 5,
                "max_time": 1.0,
                "min_time": 5e-06,
                "warmup": false
            },
            "stats": {
                "min": 20.588218869175762,
                "max": 28.633278633933514,
                "mean": 21.66447115431074,
                "stddev": 2.4625957428005103,
                "rounds": 10,
                "median": 20.945988609455526,
                "iqr": 0.5453016113024205,
                "q1": 20.648675565840676,
                "q3": 21.193977177143097,
                "iqr_outliers": 1,
                "stddev_outliers": 1,
                "outliers": "1;1",
                "ld15iqr": 20.588218869175762,
                "hd15iqr": 28.633278633933514,
                "ops": 0.04615852345885778,
                "total": 216.6447115431074,
                "data": [
                    21.267608670983464,
                    20.648675565840676,
                    20.790361638879403,
                    20.588218869175762,
                    20.67469466710463,
                    21.10161558003165,
                    28.633278633933514,
                    21.131169646047056,
                    21.193977177143097,
                    20.615111093968153
                ],
                "iterations": 1
            }
        },
        {
            "group": "searching",
            "name": "search",
            "fullname": "bench_operations.py::test_random_walk[8]",
            "params": {
                "thread_count": 8
            },
            "param": "8",
            "extra_info": {
                "key_count": 1000000,
                "thread_count": 8,
                "config": "{\"__llconfig__\": true, \"k\": 31, \"key_bits\": 40, \"value_bits\": 32, \"bucket_count\": 6578948, \"bucket_size\": 16, \"value_module\": {\"__llvaluefunctions__\": true, \"module\": \"gecocoo.valuemodules.default.counting\", \"parameters\": []}, \"hash_functions\": [{\"__llhashfunction__\": true, \"name\": \"gecocoo.hashing.xorlinear.xorlinear\", \"seed\": 11728310857717933281, \"parameters\": []}, {\"__llhashfunction__\": true, \"name\": \"gecocoo.hashing.xorlinear.xorlinear\", \"seed\": 5053398138646193071, \"parameters\": []}, {\"__llhashfunction__\": true, \"name\": \"gecocoo.hashing.xorlinear.xorlinear\", \"seed\": 5722835726935190308, \"parameters\": []}, {\"__llhashfunction__\": true, \"name\": \"gecocoo.hashing.xorlinear.xorlinear\", \"seed\": 13508473599136362154, \"parameters\": []}], \"storage\": {\"__llstorageconfig__\": true, \"mode\": \"BUCKETS\", \"concurrent\": true, \"disable_quotienting\": false}}"
            },
            "options": {
                "disable_gc": false,
                "timer": "perf_counter",
                "min_rounds": 5,
                "max_time": 1.0,
                "min_time": 5e-06,
                "warmup": false
            },
            "stats": {
                "min": 0.08859328692778945,
                "max": 0.09862493211403489,
                "mean": 0.09099517047870904,
                "stddev": 0.0029641899575438193,
                "rounds": 10,
                "median": 0.09009613236412406,
                "iqr": 0.0029253039974719286,
                "q1": 0.08899816102348268,
                "q3": 0.09192346502095461,
                "iqr_outliers": 1,
                "stddev_outliers": 1,
                "outliers": "1;1",
                "ld15iqr": 0.08859328692778945,
                "hd15iqr": 0.09862493211403489,
                "ops": 10.98959422504713,
                "total": 0.9099517047870904,
                "data": [
                    0.09115160093642771,
                    0.09210871905088425,
                    0.09192346502095461,
                    0.08899816102348268,
                    0.08859328692778945,
                    0.0895586519036442,
                    0.09862493211403489,
                    0.09063361282460392,
                    0.08886768901720643,
                    0.08949158596806228
                ],
                "iterations": 1
            }
        },
        {
            "group": "searching",
            "name": "search",
            "fullname": "bench_operations.py::test_random_walk[8]",
            "params": {
                "thread_count": 8
            },
            "param": "8",
            "extra_info": {
                "key_count": 10000000,
                "thread_count": 8,
                "config": "{\"__llconfig__\": true, \"k\": 31, \"key_bits\": 40, \"value_bits\": 32, \"bucket_count\": 6578948, \"bucket_size\": 16, \"value_module\": {\"__llvaluefunctions__\": true, \"module\": \"gecocoo.valuemodules.default.counting\", \"parameters\": []}, \"hash_functions\": [{\"__llhashfunction__\": true, \"name\": \"gecocoo.hashing.xorlinear.xorlinear\", \"seed\": 11728310857717933281, \"parameters\": []}, {\"__llhashfunction__\": true, \"name\": \"gecocoo.hashing.xorlinear.xorlinear\", \"seed\": 5053398138646193071, \"parameters\": []}, {\"__llhashfunction__\": true, \"name\": \"gecocoo.hashing.xorlinear.xorlinear\", \"seed\": 5722835726935190308, \"parameters\": []}, {\"__llhashfunction__\": true, \"name\": \"gecocoo.hashing.xorlinear.xorlinear\", \"seed\": 13508473599136362154, \"parameters\": []}], \"storage\": {\"__llstorageconfig__\": true, \"mode\": \"BUCKETS\", \"concurrent\": true, \"disable_quotienting\": false}}"
            },
            "options": {
                "disable_gc": false,
                "timer": "perf_counter",
                "min_rounds": 5,
                "max_time": 1.0,
                "min_time": 5e-06,
                "warmup": false
            },
            "stats": {
                "min": 0.8665217310190201,
                "max": 1.3475488759577274,
                "mean": 0.9313449934124947,
                "stddev": 0.14905815204280345,
                "rounds": 10,
                "median": 0.8738271564943716,
                "iqr": 0.033657685155048966,
                "q1": 0.8679332679603249,
                "q3": 0.9015909531153738,
                "iqr_outliers": 2,
                "stddev_outliers": 1,
                "outliers": "1;2",
                "ld15iqr": 0.8665217310190201,
                "hd15iqr": 0.960536610102281,
                "ops": 1.0737159775089895,
                "total": 9.313449934124947,
                "data": [
                    1.3475488759577274,
                    0.8692066019866616,
                    0.8679332679603249,
                    0.8665217310190201,
                    0.8665743060410023,
                    0.8782415699679404,
                    0.960536610102281,
                    0.8858832749538124,
                    0.9015909531153738,
                    0.8694127430208027
                ],
                "iterations": 1
            }
        },
        {
            "group": "searching",
            "name": "search",
            "fullname": "bench_operations.py::test_random_walk[8]",
            "params": {
                "thread_count": 8
            },
            "param": "8",
            "extra_info": {
                "key_count": 100000000,
                "thread_count": 8,
                "config": "{\"__llconfig__\": true, \"k\": 31, \"key_bits\": 40, \"value_bits\": 32, \"bucket_count\": 6578948, \"bucket_size\": 16, \"value_module\": {\"__llvaluefunctions__\": true, \"module\": \"gecocoo.valuemodules.default.counting\", \"parameters\": []}, \"hash_functions\": [{\"__llhashfunction__\": true, \"name\": \"gecocoo.hashing.xorlinear.xorlinear\", \"seed\": 11728310857717933281, \"parameters\": []}, {\"__llhashfunction__\": true, \"name\": \"gecocoo.hashing.xorlinear.xorlinear\", \"seed\": 5053398138646193071, \"parameters\": []}, {\"__llhashfunction__\": true, \"name\": \"gecocoo.hashing.xorlinear.xorlinear\", \"seed\": 5722835726935190308, \"parameters\": []}, {\"__llhashfunction__\": true, \"name\": \"gecocoo.hashing.xorlinear.xorlinear\", \"seed\": 13508473599136362154, \"parameters\": []}], \"storage\": {\"__llstorageconfig__\": true, \"mode\": \"BUCKETS\", \"concurrent\": true, \"disable_quotienting\": false}}"
            },
            "options": {
                "disable_gc": false,
                "timer": "perf_counter",
                "min_rounds": 5,
                "max_time": 1.0,
                "min_time": 5e-06,
                "warmup": false
            },
            "stats": {
                "min": 8.637901827925816,
                "max": 9.579779285937548,
                "mean": 8.897507853480056,
                "stddev": 0.3289581835668282,
                "rounds": 10,
                "median": 8.74724272848107,
                "iqr": 0.3619723618030548,
                "q1": 8.657045328058302,
                "q3": 9.019017689861357,
                "iqr_outliers": 1,
                "stddev_outliers": 2,
                "outliers": "2;1",
                "ld15iqr": 8.637901827925816,
                "hd15iqr": 9.579779285937548,
                "ops": 0.1123910218982131,
                "total": 88.97507853480056,
                "data": [
                    9.331745040835813,
                    8.657045328058302,
                    8.659745143959299,
                    8.652565175201744,
                    8.658280725125223,
                    8.944258004892617,
                    9.579779285937548,
                    8.83474031300284,
                    9.019017689861357,
                    8.637901827925816
                ],
                "iterations": 1
            }
        },
        {
            "group": "inserting",
            "name": "insert",
            "fullname": "bench_operations.py::test_random_walk[16]",
            "params": {
                "thread_count": 16
            },
            "param": "16",
            "extra_info": {
                "key_count": 100000000,
                "thread_count": 16,
                "config": "{\"__llconfig__\": true, \"k\": 31, \"key_bits\": 40, \"value_bits\": 32, \"bucket_count\": 6578948, \"bucket_size\": 16, \"value_module\": {\"__llvaluefunctions__\": true, \"module\": \"gecocoo.valuemodules.default.counting\", \"parameters\": []}, \"hash_functions\": [{\"__llhashfunction__\": true, \"name\": \"gecocoo.hashing.xorlinear.xorlinear\", \"seed\": 11728310857717933281, \"parameters\": []}, {\"__llhashfunction__\": true, \"name\": \"gecocoo.hashing.xorlinear.xorlinear\", \"seed\": 5053398138646193071, \"parameters\": []}, {\"__llhashfunction__\": true, \"name\": \"gecocoo.hashing.xorlinear.xorlinear\", \"seed\": 5722835726935190308, \"parameters\": []}, {\"__llhashfunction__\": true, \"name\": \"gecocoo.hashing.xorlinear.xorlinear\", \"seed\": 13508473599136362154, \"parameters\": []}], \"storage\": {\"__llstorageconfig__\": true, \"mode\": \"BUCKETS\", \"concurrent\": true, \"disable_quotienting\": false}}"
            },
            "options": {
                "disable_gc": false,
                "timer": "perf_counter",
                "min_rounds": 5,
                "max_time": 1.0,
                "min_time": 5e-06,
                "warmup": false
            },
            "stats": {
                "min": 15.018157222075388,
                "max": 15.715551093919203,
                "mean": 15.285060545592568,
                "stddev": 0.20576752019188332,
                "rounds": 10,
                "median": 15.289185067988,
                "iqr": 0.281191686168313,
                "q1": 15.125992032000795,
                "q3": 15.407183718169108,
                "iqr_outliers": 0,
                "stddev_outliers": 2,
                "outliers": "2;0",
                "ld15iqr": 15.018157222075388,
                "hd15iqr": 15.715551093919203,
                "ops": 0.0654233587768384,
                "total": 152.8506054559257,
                "data": [
                    15.101921366062015,
                    15.236428400035948,
                    15.125992032000795,
                    15.407183718169108,
                    15.715551093919203,
                    15.351920602843165,
                    15.341941735940054,
                    15.13344843685627,
                    15.418060848023742,
                    15.018157222075388
                ],
                "iterations": 1
            }
        },
        {
            "group": "searching",
            "name": "search",
            "fullname": "bench_operations.py::test_random_walk[16]",
            "params": {
                "thread_count": 16
            },
            "param": "16",
            "extra_info": {
                "key_count": 1000000,
                "thread_count": 16,
                "config": "{\"__llconfig__\": true, \"k\": 31, \"key_bits\": 40, \"value_bits\": 32, \"bucket_count\": 6578948, \"bucket_size\": 16, \"value_module\": {\"__llvaluefunctions__\": true, \"module\": \"gecocoo.valuemodules.default.counting\", \"parameters\": []}, \"hash_functions\": [{\"__llhashfunction__\": true, \"name\": \"gecocoo.hashing.xorlinear.xorlinear\", \"seed\": 11728310857717933281, \"parameters\": []}, {\"__llhashfunction__\": true, \"name\": \"gecocoo.hashing.xorlinear.xorlinear\", \"seed\": 5053398138646193071, \"parameters\": []}, {\"__llhashfunction__\": true, \"name\": \"gecocoo.hashing.xorlinear.xorlinear\", \"seed\": 5722835726935190308, \"parameters\": []}, {\"__llhashfunction__\": true, \"name\": \"gecocoo.hashing.xorlinear.xorlinear\", \"seed\": 13508473599136362154, \"parameters\": []}], \"storage\": {\"__llstorageconfig__\": true, \"mode\": \"BUCKETS\", \"concurrent\": true, \"disable_quotienting\": false}}"
            },
            "options": {
                "disable_gc": false,
                "timer": "perf_counter",
                "min_rounds": 5,
                "max_time": 1.0,
                "min_time": 5e-06,
                "warmup": false
            },
            "stats": {
                "min": 0.104484569048509,
                "max": 0.12261114595457911,
                "mean": 0.10824770552571863,
                "stddev": 0.005224989956314472,
                "rounds": 10,
                "median": 0.10686310904566199,
                "iqr": 0.0012032829690724611,
                "q1": 0.10645885905250907,
                "q3": 0.10766214202158153,
                "iqr_outliers": 3,
                "stddev_outliers": 1,
                "outliers": "1;3",
                "ld15iqr": 0.10645885905250907,
                "hd15iqr": 0.12261114595457911,
                "ops": 9.23807109946002,
                "total": 1.0824770552571863,
                "data": [
                    0.10748091782443225,
                    0.1089789632242173,
                    0.10766214202158153,
                    0.104484569048509,
                    0.10455807205289602,
                    0.10661443904973567,
                    0.12261114595457911,
                    0.10651616798713803,
                    0.1071117790415883,
                    0.10645885905250907
                ],
                "iterations": 1
            }
        },
        {
            "group": "searching",
            "name": "search",
            "fullname": "bench_operations.py::test_random_walk[16]",
            "params": {
                "thread_count": 16
            },
            "param": "16",
            "extra_info": {
                "key_count": 10000000,
                "thread_count": 16,
                "config": "{\"__llconfig__\": true, \"k\": 31, \"key_bits\": 40, \"value_bits\": 32, \"bucket_count\": 6578948, \"bucket_size\": 16, \"value_module\": {\"__llvaluefunctions__\": true, \"module\": \"gecocoo.valuemodules.default.counting\", \"parameters\": []}, \"hash_functions\": [{\"__llhashfunction__\": true, \"name\": \"gecocoo.hashing.xorlinear.xorlinear\", \"seed\": 11728310857717933281, \"parameters\": []}, {\"__llhashfunction__\": true, \"name\": \"gecocoo.hashing.xorlinear.xorlinear\", \"seed\": 5053398138646193071, \"parameters\": []}, {\"__llhashfunction__\": true, \"name\": \"gecocoo.hashing.xorlinear.xorlinear\", \"seed\": 5722835726935190308, \"parameters\": []}, {\"__llhashfunction__\": true, \"name\": \"gecocoo.hashing.xorlinear.xorlinear\", \"seed\": 13508473599136362154, \"parameters\": []}], \"storage\": {\"__llstorageconfig__\": true, \"mode\": \"BUCKETS\", \"concurrent\": true, \"disable_quotienting\": false}}"
            },
            "options": {
                "disable_gc": false,
                "timer": "perf_counter",
                "min_rounds": 5,
                "max_time": 1.0,
                "min_time": 5e-06,
                "warmup": false
            },
            "stats": {
                "min": 0.6441111620515585,
                "max": 0.7736160540953279,
                "mean": 0.7140212185215205,
                "stddev": 0.042183738828998264,
                "rounds": 10,
                "median": 0.7121923710219562,
                "iqr": 0.06493738084100187,
                "q1": 0.6807638490572572,
                "q3": 0.745701229898259,
                "iqr_outliers": 0,
                "stddev_outliers": 4,
                "outliers": "4;0",
                "ld15iqr": 0.6441111620515585,
                "hd15iqr": 0.7736160540953279,
                "ops": 1.400518603733707,
                "total": 7.140212185215205,
                "data": [
                    0.7368003008887172,
                    0.6441111620515585,
                    0.7650777380913496,
                    0.7066330590751022,
                    0.6679400119464844,
                    0.7018170971423388,
                    0.745701229898259,
                    0.7177516829688102,
                    0.6807638490572572,
                    0.7736160540953279
                ],
                "iterations": 1
            }
        },
        {
            "group": "searching",
            "name": "search",
            "fullname": "bench_operations.py::test_random_walk[16]",
            "params": {
                "thread_count": 16
            },
            "param": "16",
            "extra_info": {
                "key_count": 100000000,
                "thread_count": 16,
                "config": "{\"__llconfig__\": true, \"k\": 31, \"key_bits\": 40, \"value_bits\": 32, \"bucket_count\": 6578948, \"bucket_size\": 16, \"value_module\": {\"__llvaluefunctions__\": true, \"module\": \"gecocoo.valuemodules.default.counting\", \"parameters\": []}, \"hash_functions\": [{\"__llhashfunction__\": true, \"name\": \"gecocoo.hashing.xorlinear.xorlinear\", \"seed\": 11728310857717933281, \"parameters\": []}, {\"__llhashfunction__\": true, \"name\": \"gecocoo.hashing.xorlinear.xorlinear\", \"seed\": 5053398138646193071, \"parameters\": []}, {\"__llhashfunction__\": true, \"name\": \"gecocoo.hashing.xorlinear.xorlinear\", \"seed\": 5722835726935190308, \"parameters\": []}, {\"__llhashfunction__\": true, \"name\": \"gecocoo.hashing.xorlinear.xorlinear\", \"seed\": 13508473599136362154, \"parameters\": []}], \"storage\": {\"__llstorageconfig__\": true, \"mode\": \"BUCKETS\", \"concurrent\": true, \"disable_quotienting\": false}}"
            },
            "options": {
                "disable_gc": false,
                "timer": "perf_counter",
                "min_rounds": 5,
                "max_time": 1.0,
                "min_time": 5e-06,
                "warmup": false
            },
            "stats": {
                "min": 6.065091355936602,
                "max": 6.619651629123837,
                "mean": 6.3430190873099495,
                "stddev": 0.18331998657568355,
                "rounds": 10,
                "median": 6.3848044408950955,
                "iqr": 0.30883296695537865,
                "q1": 6.178372737020254,
                "q3": 6.487205703975633,
                "iqr_outliers": 0,
                "stddev_outliers": 3,
                "outliers": "3;0",
                "ld15iqr": 6.065091355936602,
                "hd15iqr": 6.619651629123837,
                "ops": 0.15765363247930825,
                "total": 63.43019087309949,
                "data": [
                    6.429477147990838,
                    6.359429555945098,
                    6.111888876184821,
                    6.4101793258450925,
                    6.5103039520327,
                    6.619651629123837,
                    6.178372737020254,
                    6.258590589044616,
                    6.487205703975633,
                    6.065091355936602
                ],
                "iterations": 1
            }
        }
    ],
    "datetime": "2021-02-22T15:03:39.112873",
    "version": "3.2.3"
}