{
    "machine_info": {
        "node": "cstd01-178",
        "processor": "x86_64",
        "machine": "x86_64",
        "python_compiler": "GCC 7.3.0",
        "python_implementation": "CPython",
        "python_implementation_version": "3.7.9",
        "python_version": "3.7.9",
        "python_build": [
            "default",
            "Aug 31 2020 12:42:55"
        ],
        "release": "3.10.0-1160.6.1.el7.x86_64",
        "system": "Linux",
        "cpu": {
            "vendor_id": "unknown",
            "hardware": "unknown",
            "brand": "unknown"
        }
    },
    "commit_info": {
        "id": "unversioned",
        "time": null,
        "author_time": null,
        "dirty": false,
        "project": "gecocoo-2021-02-22T15_07_24.622469-origin_develop",
        "branch": "(unknown)"
    },
    "benchmarks": [
        {
            "group": "inserting",
            "name": "insert",
            "fullname": "bench_operations.py::test_random_walk[1]",
            "params": {
                "thread_count": 1
            },
            "param": "1",
            "extra_info": {
                "key_count": 100000000,
                "thread_count": 1,
                "config": "{\"__llconfig__\": true, \"k\": 31, \"key_bits\": 38, \"value_bits\": 32, \"bucket_count\": 33333334, \"bucket_size\": 4, \"value_module\": {\"__llvaluefunctions__\": true, \"module\": \"gecocoo.valuemodules.default.counting\", \"parameters\": []}, \"hash_functions\": [{\"__llhashfunction__\": true, \"name\": \"gecocoo.hashing.xorlinear.xorlinear\", \"seed\": 13705323683090591100, \"parameters\": []}, {\"__llhashfunction__\": true, \"name\": \"gecocoo.hashing.xorlinear.xorlinear\", \"seed\": 9010486988497971350, \"parameters\": []}, {\"__llhashfunction__\": true, \"name\": \"gecocoo.hashing.xorlinear.xorlinear\", \"seed\": 16521414532126319358, \"parameters\": []}, {\"__llhashfunction__\": true, \"name\": \"gecocoo.hashing.xorlinear.xorlinear\", \"seed\": 6778475259378763626, \"parameters\": []}], \"storage\": {\"__llstorageconfig__\": true, \"mode\": \"BUCKETS\", \"concurrent\": true, \"disable_quotienting\": false}}"
            },
            "options": {
                "disable_gc": false,
                "timer": "perf_counter",
                "min_rounds": 5,
                "max_time": 1.0,
                "min_time": 5e-06,
                "warmup": false
            },
            "stats": {
                "min": 68.33081630198285,
                "max": 68.37067173200194,
                "mean": 68.35024745741393,
                "stddev": 0.0136223084267768,
                "rounds": 10,
                "median": 68.35136773053091,
                "iqr": 0.022002403042279184,
                "q1": 68.33824106201064,
                "q3": 68.36024346505292,
                "iqr_outliers": 0,
                "stddev_outliers": 3,
                "outliers": "3;0",
                "ld15iqr": 68.33081630198285,
                "hd15iqr": 68.37067173200194,
                "ops": 0.014630524938816886,
                "total": 683.5024745741393,
                "data": [
                    68.35539390705526,
                    68.37067173200194,
                    68.33824106201064,
                    68.33081630198285,
                    68.36024346505292,
                    68.34734155400656,
                    68.3584955970291,
                    68.36312601901591,
                    68.33156477403827,
                    68.3465801619459
                ],
                "iterations": 1
            }
        },
        {
            "group": "searching",
            "name": "search",
            "fullname": "bench_operations.py::test_random_walk[1]",
            "params": {
                "thread_count": 1
            },
            "param": "1",
            "extra_info": {
                "key_count": 1000000,
                "thread_count": 1,
                "config": "{\"__llconfig__\": true, \"k\": 31, \"key_bits\": 38, \"value_bits\": 32, \"bucket_count\": 33333334, \"bucket_size\": 4, \"value_module\": {\"__llvaluefunctions__\": true, \"module\": \"gecocoo.valuemodules.default.counting\", \"parameters\": []}, \"hash_functions\": [{\"__llhashfunction__\": true, \"name\": \"gecocoo.hashing.xorlinear.xorlinear\", \"seed\": 13705323683090591100, \"parameters\": []}, {\"__llhashfunction__\": true, \"name\": \"gecocoo.hashing.xorlinear.xorlinear\", \"seed\": 9010486988497971350, \"parameters\": []}, {\"__llhashfunction__\": true, \"name\": \"gecocoo.hashing.xorlinear.xorlinear\", \"seed\": 16521414532126319358, \"parameters\": []}, {\"__llhashfunction__\": true, \"name\": \"gecocoo.hashing.xorlinear.xorlinear\", \"seed\": 6778475259378763626, \"parameters\": []}], \"storage\": {\"__llstorageconfig__\": true, \"mode\": \"BUCKETS\", \"concurrent\": true, \"disable_quotienting\": false}}"
            },
            "options": {
                "disable_gc": false,
                "timer": "perf_counter",
                "min_rounds": 5,
                "max_time": 1.0,
                "min_time": 5e-06,
                "warmup": false
            },
            "stats": {
                "min": 0.34679091291036457,
                "max": 0.34710658993571997,
                "mean": 0.34695977667579425,
                "stddev": 8.640251736334455e-05,
                "rounds": 10,
                "median": 0.34694726346060634,
                "iqr": 8.720101322978735e-05,
                "q1": 0.34693257801700383,
                "q3": 0.3470197790302336,
                "iqr_outliers": 1,
                "stddev_outliers": 3,
                "outliers": "3;1",
                "ld15iqr": 0.34689580101985484,
                "hd15iqr": 0.34710658993571997,
                "ops": 2.8821784749256936,
                "total": 3.4695977667579427,
                "data": [
                    0.3469740989385173,
                    0.3470197790302336,
                    0.34689580101985484,
                    0.3469492719741538,
                    0.3470470430329442,
                    0.34679091291036457,
                    0.34710658993571997,
                    0.34694525494705886,
                    0.34693257801700383,
                    0.34693643695209175
                ],
                "iterations": 1
            }
        },
        {
            "group": "searching",
            "name": "search",
            "fullname": "bench_operations.py::test_random_walk[1]",
            "params": {
                "thread_count": 1
            },
            "param": "1",
            "extra_info": {
                "key_count": 10000000,
                "thread_count": 1,
                "config": "{\"__llconfig__\": true, \"k\": 31, \"key_bits\": 38, \"value_bits\": 32, \"bucket_count\": 33333334, \"bucket_size\": 4, \"value_module\": {\"__llvaluefunctions__\": true, \"module\": \"gecocoo.valuemodules.default.counting\", \"parameters\": []}, \"hash_functions\": [{\"__llhashfunction__\": true, \"name\": \"gecocoo.hashing.xorlinear.xorlinear\", \"seed\": 13705323683090591100, \"parameters\": []}, {\"__llhashfunction__\": true, \"name\": \"gecocoo.hashing.xorlinear.xorlinear\", \"seed\": 9010486988497971350, \"parameters\": []}, {\"__llhashfunction__\": true, \"name\": \"gecocoo.hashing.xorlinear.xorlinear\", \"seed\": 16521414532126319358, \"parameters\": []}, {\"__llhashfunction__\": true, \"name\": \"gecocoo.hashing.xorlinear.xorlinear\", \"seed\": 6778475259378763626, \"parameters\": []}], \"storage\": {\"__llstorageconfig__\": true, \"mode\": \"BUCKETS\", \"concurrent\": true, \"disable_quotienting\": false}}"
            },
            "options": {
                "disable_gc": false,
                "timer": "perf_counter",
                "min_rounds": 5,
                "max_time": 1.0,
                "min_time": 5e-06,
                "warmup": false
            },
            "stats": {
                "min": 3.4241904510417953,
                "max": 3.439131821040064,
                "mean": 3.4272184118046427,
                "stddev": 0.005255390440625597,
                "rounds": 10,
                "median": 3.425031434453558,
                "iqr": 0.0007907629478722811,
                "q1": 3.42454734898638,
                "q3": 3.425338111934252,
                "iqr_outliers": 2,
                "stddev_outliers": 2,
                "outliers": "2;2",
                "ld15iqr": 3.4241904510417953,
                "hd15iqr": 3.4348050620174035,
                "ops": 0.29178181249132534,
                "total": 34.272184118046425,
                "data": [
                    3.4241977189667523,
                    3.439131821040064,
                    3.4252558469306678,
                    3.4248070219764486,
                    3.425281819072552,
                    3.4241904510417953,
                    3.425338111934252,
                    3.4246289160801098,
                    3.42454734898638,
                    3.4348050620174035
                ],
                "iterations": 1
            }
        },
        {
            "group": "searching",
            "name": "search",
            "fullname": "bench_operations.py::test_random_walk[1]",
            "params": {
                "thread_count": 1
            },
            "param": "1",
            "extra_info": {
                "key_count": 100000000,
                "thread_count": 1,
                "config": "{\"__llconfig__\": true, \"k\": 31, \"key_bits\": 38, \"value_bits\": 32, \"bucket_count\": 33333334, \"bucket_size\": 4, \"value_module\": {\"__llvaluefunctions__\": true, \"module\": \"gecocoo.valuemodules.default.counting\", \"parameters\": []}, \"hash_functions\": [{\"__llhashfunction__\": true, \"name\": \"gecocoo.hashing.xorlinear.xorlinear\", \"seed\": 13705323683090591100, \"parameters\": []}, {\"__llhashfunction__\": true, \"name\": \"gecocoo.hashing.xorlinear.xorlinear\", \"seed\": 9010486988497971350, \"parameters\": []}, {\"__llhashfunction__\": true, \"name\": \"gecocoo.hashing.xorlinear.xorlinear\", \"seed\": 16521414532126319358, \"parameters\": []}, {\"__llhashfunction__\": true, \"name\": \"gecocoo.hashing.xorlinear.xorlinear\", \"seed\": 6778475259378763626, \"parameters\": []}], \"storage\": {\"__llstorageconfig__\": true, \"mode\": \"BUCKETS\", \"concurrent\": true, \"disable_quotienting\": false}}"
            },
            "options": {
                "disable_gc": false,
                "timer": "perf_counter",
                "min_rounds": 5,
                "max_time": 1.0,
                "min_time": 5e-06,
                "warmup": false
            },
            "stats": {
                "min": 34.19465849001426,
                "max": 34.21957018098328,
                "mean": 34.20641422029585,
                "stddev": 0.009073149922772136,
                "rounds": 10,
                "median": 34.20597063098103,
                "iqr": 0.014763611950911582,
                "q1": 34.19895637105219,
                "q3": 34.2137199830031,
                "iqr_outliers": 0,
                "stddev_outliers": 4,
                "outliers": "4;0",
                "ld15iqr": 34.19465849001426,
                "hd15iqr": 34.21957018098328,
                "ops": 0.029234283183259397,
                "total": 342.06414220295846,
                "data": [
                    34.203718067961745,
                    34.19895637105219,
                    34.218728150008246,
                    34.19635274191387,
                    34.2137199830031,
                    34.199920727987774,
                    34.21957018098328,
                    34.21029429603368,
                    34.19465849001426,
                    34.20822319400031
                ],
                "iterations": 1
            }
        },
        {
            "group": "inserting",
            "name": "insert",
            "fullname": "bench_operations.py::test_random_walk[8]",
            "params": {
                "thread_count": 8
            },
            "param": "8",
            "extra_info": {
                "key_count": 100000000,
                "thread_count": 8,
                "config": "{\"__llconfig__\": true, \"k\": 31, \"key_bits\": 38, \"value_bits\": 32, \"bucket_count\": 33333334, \"bucket_size\": 4, \"value_module\": {\"__llvaluefunctions__\": true, \"module\": \"gecocoo.valuemodules.default.counting\", \"parameters\": []}, \"hash_functions\": [{\"__llhashfunction__\": true, \"name\": \"gecocoo.hashing.xorlinear.xorlinear\", \"seed\": 13705323683090591100, \"parameters\": []}, {\"__llhashfunction__\": true, \"name\": \"gecocoo.hashing.xorlinear.xorlinear\", \"seed\": 9010486988497971350, \"parameters\": []}, {\"__llhashfunction__\": true, \"name\": \"gecocoo.hashing.xorlinear.xorlinear\", \"seed\": 16521414532126319358, \"parameters\": []}, {\"__llhashfunction__\": true, \"name\": \"gecocoo.hashing.xorlinear.xorlinear\", \"seed\": 6778475259378763626, \"parameters\": []}], \"storage\": {\"__llstorageconfig__\": true, \"mode\": \"BUCKETS\", \"concurrent\": true, \"disable_quotienting\": false}}"
            },
            "options": {
                "disable_gc": false,
                "timer": "perf_counter",
                "min_rounds": 5,
                "max_time": 1.0,
                "min_time": 5e-06,
                "warmup": false
            },
            "stats": {
                "min": 9.827550588990562,
                "max": 10.480890367063694,
                "mean": 9.966756912821438,
                "stddev": 0.1875911256346287,
                "rounds": 10,
                "median": 9.914046513556968,
                "iqr": 0.0628718570806086,
                "q1": 9.900535252992995,
                "q3": 9.963407110073604,
                "iqr_outliers": 1,
                "stddev_outliers": 1,
                "outliers": "1;1",
                "ld15iqr": 9.827550588990562,
                "hd15iqr": 10.480890367063694,
                "ops": 0.10033353966058706,
                "total": 99.66756912821438,
                "data": [
                    9.827550588990562,
                    9.903781934059225,
                    9.963407110073604,
                    9.903470883029513,
                    10.480890367063694,
                    9.924311093054712,
                    9.835518374922685,
                    9.935812353971414,
                    9.992291170055978,
                    9.900535252992995
                ],
                "iterations": 1
            }
        },
        {
            "group": "searching",
            "name": "search",
            "fullname": "bench_operations.py::test_random_walk[8]",
            "params": {
                "thread_count": 8
            },
            "param": "8",
            "extra_info": {
                "key_count": 1000000,
                "thread_count": 8,
                "config": "{\"__llconfig__\": true, \"k\": 31, \"key_bits\": 38, \"value_bits\": 32, \"bucket_count\": 33333334, \"bucket_size\": 4, \"value_module\": {\"__llvaluefunctions__\": true, \"module\": \"gecocoo.valuemodules.default.counting\", \"parameters\": []}, \"hash_functions\": [{\"__llhashfunction__\": true, \"name\": \"gecocoo.hashing.xorlinear.xorlinear\", \"seed\": 13705323683090591100, \"parameters\": []}, {\"__llhashfunction__\": true, \"name\": \"gecocoo.hashing.xorlinear.xorlinear\", \"seed\": 9010486988497971350, \"parameters\": []}, {\"__llhashfunction__\": true, \"name\": \"gecocoo.hashing.xorlinear.xorlinear\", \"seed\": 16521414532126319358, \"parameters\": []}, {\"__llhashfunction__\": true, \"name\": \"gecocoo.hashing.xorlinear.xorlinear\", \"seed\": 6778475259378763626, \"parameters\": []}], \"storage\": {\"__llstorageconfig__\": true, \"mode\": \"BUCKETS\", \"concurrent\": true, \"disable_quotienting\": false}}"
            },
            "options": {
                "disable_gc": false,
                "timer": "perf_counter",
                "min_rounds": 5,
                "max_time": 1.0,
                "min_time": 5e-06,
                "warmup": false
            },
            "stats": {
                "min": 0.04753236391115934,
                "max": 0.04951183404773474,
                "mean": 0.04780022468185052,
                "stddev": 0.0006041117543829709,
                "rounds": 10,
                "median": 0.04760862252442166,
                "iqr": 7.117190398275852e-05,
                "q1": 0.04756963101681322,
                "q3": 0.04764080292079598,
                "iqr_outliers": 1,
                "stddev_outliers": 1,
                "outliers": "1;1",
                "ld15iqr": 0.04753236391115934,
                "hd15iqr": 0.04951183404773474,
                "ops": 20.920403756589337,
                "total": 0.4780022468185052,
                "data": [
                    0.047747036907821894,
                    0.04764080292079598,
                    0.04760857706423849,
                    0.047597561962902546,
                    0.04951183404773474,
                    0.04761849204078317,
                    0.04756727896165103,
                    0.04756963101681322,
                    0.047608667984604836,
                    0.04753236391115934
                ],
                "iterations": 1
            }
        },
        {
            "group": "searching",
            "name": "search",
            "fullname": "bench_operations.py::test_random_walk[8]",
            "params": {
                "thread_count": 8
            },
            "param": "8",
            "extra_info": {
                "key_count": 10000000,
                "thread_count": 8,
                "config": "{\"__llconfig__\": true, \"k\": 31, \"key_bits\": 38, \"value_bits\": 32, \"bucket_count\": 33333334, \"bucket_size\": 4, \"value_module\": {\"__llvaluefunctions__\": true, \"module\": \"gecocoo.valuemodules.default.counting\", \"parameters\": []}, \"hash_functions\": [{\"__llhashfunction__\": true, \"name\": \"gecocoo.hashing.xorlinear.xorlinear\", \"seed\": 13705323683090591100, \"parameters\": []}, {\"__llhashfunction__\": true, \"name\": \"gecocoo.hashing.xorlinear.xorlinear\", \"seed\": 9010486988497971350, \"parameters\": []}, {\"__llhashfunction__\": true, \"name\": \"gecocoo.hashing.xorlinear.xorlinear\", \"seed\": 16521414532126319358, \"parameters\": []}, {\"__llhashfunction__\": true, \"name\": \"gecocoo.hashing.xorlinear.xorlinear\", \"seed\": 6778475259378763626, \"parameters\": []}], \"storage\": {\"__llstorageconfig__\": true, \"mode\": \"BUCKETS\", \"concurrent\": true, \"disable_quotienting\": false}}"
            },
            "options": {
                "disable_gc": false,
                "timer": "perf_counter",
                "min_rounds": 5,
                "max_time": 1.0,
                "min_time": 5e-06,
                "warmup": false
            },
            "stats": {
                "min": 0.4487959559774026,
                "max": 0.464998972020112,
                "mean": 0.45074083779472857,
                "stddev": 0.005014506551436135,
                "rounds": 10,
                "median": 0.4491845119628124,
                "iqr": 0.00024801993276923895,
                "q1": 0.44906750007066876,
                "q3": 0.449315520003438,
                "iqr_outliers": 1,
                "stddev_outliers": 1,
                "outliers": "1;1",
                "ld15iqr": 0.4487959559774026,
                "hd15iqr": 0.464998972020112,
                "ops": 2.2185697770198693,
                "total": 4.507408377947286,
                "data": [
                    0.4492405540077016,
                    0.4492363359313458,
                    0.44913268799427897,
                    0.44906750007066876,
                    0.464998972020112,
                    0.449315520003438,
                    0.44910573307424784,
                    0.4489224349381402,
                    0.44959268392995,
                    0.4487959559774026
                ],
                "iterations": 1
            }
        },
        {
            "group": "searching",
            "name": "search",
            "fullname": "bench_operations.py::test_random_walk[8]",
            "params": {
                "thread_count": 8
            },
            "param": "8",
            "extra_info": {
                "key_count": 100000000,
                "thread_count": 8,
                "config": "{\"__llconfig__\": true, \"k\": 31, \"key_bits\": 38, \"value_bits\": 32, \"bucket_count\": 33333334, \"bucket_size\": 4, \"value_module\": {\"__llvaluefunctions__\": true, \"module\": \"gecocoo.valuemodules.default.counting\", \"parameters\": []}, \"hash_functions\": [{\"__llhashfunction__\": true, \"name\": \"gecocoo.hashing.xorlinear.xorlinear\", \"seed\": 13705323683090591100, \"parameters\": []}, {\"__llhashfunction__\": true, \"name\": \"gecocoo.hashing.xorlinear.xorlinear\", \"seed\": 9010486988497971350, \"parameters\": []}, {\"__llhashfunction__\": true, \"name\": \"gecocoo.hashing.xorlinear.xorlinear\", \"seed\": 16521414532126319358, \"parameters\": []}, {\"__llhashfunction__\": true, \"name\": \"gecocoo.hashing.xorlinear.xorlinear\", \"seed\": 6778475259378763626, \"parameters\": []}], \"storage\": {\"__llstorageconfig__\": true, \"mode\": \"BUCKETS\", \"concurrent\": true, \"disable_quotienting\": false}}"
            },
            "options": {
                "disable_gc": false,
                "timer": "perf_counter",
                "min_rounds": 5,
                "max_time": 1.0,
                "min_time": 5e-06,
                "warmup": false
            },
            "stats": {
                "min": 4.459847147925757,
                "max": 4.483480846974999,
                "mean": 4.465626230579801,
                "stddev": 0.007821296609217402,
                "rounds": 10,
                "median": 4.462361194542609,
                "iqr": 0.004541486967355013,
                "q1": 4.460982008953579,
                "q3": 4.465523495920934,
                "iqr_outliers": 2,
                "stddev_outliers": 2,
                "outliers": "2;2",
                "ld15iqr": 4.459847147925757,
                "hd15iqr": 4.475880015990697,
                "ops": 0.2239327584454294,
                "total": 44.65626230579801,
                "data": [
                    4.459847147925757,
                    4.461680163978599,
                    4.464243202004582,
                    4.459903034963645,
                    4.483480846974999,
                    4.462149723083712,
                    4.462572666001506,
                    4.460982008953579,
                    4.475880015990697,
                    4.465523495920934
                ],
                "iterations": 1
            }
        },
        {
            "group": "inserting",
            "name": "insert",
            "fullname": "bench_operations.py::test_random_walk[16]",
            "params": {
                "thread_count": 16
            },
            "param": "16",
            "extra_info": {
                "key_count": 100000000,
                "thread_count": 16,
                "config": "{\"__llconfig__\": true, \"k\": 31, \"key_bits\": 38, \"value_bits\": 32, \"bucket_count\": 33333334, \"bucket_size\": 4, \"value_module\": {\"__llvaluefunctions__\": true, \"module\": \"gecocoo.valuemodules.default.counting\", \"parameters\": []}, \"hash_functions\": [{\"__llhashfunction__\": true, \"name\": \"gecocoo.hashing.xorlinear.xorlinear\", \"seed\": 13705323683090591100, \"parameters\": []}, {\"__llhashfunction__\": true, \"name\": \"gecocoo.hashing.xorlinear.xorlinear\", \"seed\": 9010486988497971350, \"parameters\": []}, {\"__llhashfunction__\": true, \"name\": \"gecocoo.hashing.xorlinear.xorlinear\", \"seed\": 16521414532126319358, \"parameters\": []}, {\"__llhashfunction__\": true, \"name\": \"gecocoo.hashing.xorlinear.xorlinear\", \"seed\": 6778475259378763626, \"parameters\": []}], \"storage\": {\"__llstorageconfig__\": true, \"mode\": \"BUCKETS\", \"concurrent\": true, \"disable_quotienting\": false}}"
            },
            "options": {
                "disable_gc": false,
                "timer": "perf_counter",
                "min_rounds": 5,
                "max_time": 1.0,
                "min_time": 5e-06,
                "warmup": false
            },
            "stats": {
                "min": 10.238623529090546,
                "max": 11.591863727895543,
                "mean": 10.973181765701156,
                "stddev": 0.5082282371438451,
                "rounds": 10,
                "median": 11.062505498470273,
                "iqr": 1.0498476449865848,
                "q1": 10.334970235009678,
                "q3": 11.384817879996262,
                "iqr_outliers": 0,
                "stddev_outliers": 5,
                "outliers": "5;0",
                "ld15iqr": 10.238623529090546,
                "hd15iqr": 11.591863727895543,
                "ops": 0.09113127088860382,
                "total": 109.73181765701156,
                "data": [
                    11.591863727895543,
                    11.136816411046311,
                    11.044991238974035,
                    10.238623529090546,
                    10.327419186010957,
                    11.080019757966511,
                    11.384817879996262,
                    11.016334241023287,
                    10.334970235009678,
                    11.575961449998431
                ],
                "iterations": 1
            }
        },
        {
            "group": "searching",
            "name": "search",
            "fullname": "bench_operations.py::test_random_walk[16]",
            "params": {
                "thread_count": 16
            },
            "param": "16",
            "extra_info": {
                "key_count": 1000000,
                "thread_count": 16,
                "config": "{\"__llconfig__\": true, \"k\": 31, \"key_bits\": 38, \"value_bits\": 32, \"bucket_count\": 33333334, \"bucket_size\": 4, \"value_module\": {\"__llvaluefunctions__\": true, \"module\": \"gecocoo.valuemodules.default.counting\", \"parameters\": []}, \"hash_functions\": [{\"__llhashfunction__\": true, \"name\": \"gecocoo.hashing.xorlinear.xorlinear\", \"seed\": 13705323683090591100, \"parameters\": []}, {\"__llhashfunction__\": true, \"name\": \"gecocoo.hashing.xorlinear.xorlinear\", \"seed\": 9010486988497971350, \"parameters\": []}, {\"__llhashfunction__\": true, \"name\": \"gecocoo.hashing.xorlinear.xorlinear\", \"seed\": 16521414532126319358, \"parameters\": []}, {\"__llhashfunction__\": true, \"name\": \"gecocoo.hashing.xorlinear.xorlinear\", \"seed\": 6778475259378763626, \"parameters\": []}], \"storage\": {\"__llstorageconfig__\": true, \"mode\": \"BUCKETS\", \"concurrent\": true, \"disable_quotienting\": false}}"
            },
            "options": {
                "disable_gc": false,
                "timer": "perf_counter",
                "min_rounds": 5,
                "max_time": 1.0,
                "min_time": 5e-06,
                "warmup": false
            },
            "stats": {
                "min": 0.052597722969949245,
                "max": 0.06698435498401523,
                "mean": 0.05728919489774853,
                "stddev": 0.005186234315789517,
                "rounds": 10,
                "median": 0.05498073645867407,
                "iqr": 0.009174461010843515,
                "q1": 0.0535767930559814,
                "q3": 0.06275125406682491,
                "iqr_outliers": 0,
                "stddev_outliers": 3,
                "outliers": "3;0",
                "ld15iqr": 0.052597722969949245,
                "hd15iqr": 0.06698435498401523,
                "ops": 17.45529853901473,
                "total": 0.5728919489774853,
                "data": [
                    0.05612424004357308,
                    0.053879863931797445,
                    0.0535767930559814,
                    0.06377724092453718,
                    0.05323900608345866,
                    0.05458463495597243,
                    0.052597722969949245,
                    0.06698435498401523,
                    0.06275125406682491,
                    0.05537683796137571
                ],
                "iterations": 1
            }
        },
        {
            "group": "searching",
            "name": "search",
            "fullname": "bench_operations.py::test_random_walk[16]",
            "params": {
                "thread_count": 16
            },
            "param": "16",
            "extra_info": {
                "key_count": 10000000,
                "thread_count": 16,
                "config": "{\"__llconfig__\": true, \"k\": 31, \"key_bits\": 38, \"value_bits\": 32, \"bucket_count\": 33333334, \"bucket_size\": 4, \"value_module\": {\"__llvaluefunctions__\": true, \"module\": \"gecocoo.valuemodules.default.counting\", \"parameters\": []}, \"hash_functions\": [{\"__llhashfunction__\": true, \"name\": \"gecocoo.hashing.xorlinear.xorlinear\", \"seed\": 13705323683090591100, \"parameters\": []}, {\"__llhashfunction__\": true, \"name\": \"gecocoo.hashing.xorlinear.xorlinear\", \"seed\": 9010486988497971350, \"parameters\": []}, {\"__llhashfunction__\": true, \"name\": \"gecocoo.hashing.xorlinear.xorlinear\", \"seed\": 16521414532126319358, \"parameters\": []}, {\"__llhashfunction__\": true, \"name\": \"gecocoo.hashing.xorlinear.xorlinear\", \"seed\": 6778475259378763626, \"parameters\": []}], \"storage\": {\"__llstorageconfig__\": true, \"mode\": \"BUCKETS\", \"concurrent\": true, \"disable_quotienting\": false}}"
            },
            "options": {
                "disable_gc": false,
                "timer": "perf_counter",
                "min_rounds": 5,
                "max_time": 1.0,
                "min_time": 5e-06,
                "warmup": false
            },
            "stats": {
                "min": 0.44242933101486415,
                "max": 0.5047704339958727,
                "mean": 0.4633112872252241,
                "stddev": 0.01769068734123894,
                "rounds": 10,
                "median": 0.4601967910421081,
                "iqr": 0.018951060017570853,
                "q1": 0.4499765080399811,
                "q3": 0.468927568057552,
                "iqr_outliers": 1,
                "stddev_outliers": 2,
                "outliers": "2;1",
                "ld15iqr": 0.44242933101486415,
                "hd15iqr": 0.5047704339958727,
                "ops": 2.1583760801274883,
                "total": 4.633112872252241,
                "data": [
                    0.4480330169899389,
                    0.44242933101486415,
                    0.46255728602409363,
                    0.5047704339958727,
                    0.4767739310627803,
                    0.468927568057552,
                    0.4594072730978951,
                    0.4609863089863211,
                    0.4499765080399811,
                    0.45925121498294175
                ],
                "iterations": 1
            }
        },
        {
            "group": "searching",
            "name": "search",
            "fullname": "bench_operations.py::test_random_walk[16]",
            "params": {
                "thread_count": 16
            },
            "param": "16",
            "extra_info": {
                "key_count": 100000000,
                "thread_count": 16,
                "config": "{\"__llconfig__\": true, \"k\": 31, \"key_bits\": 38, \"value_bits\": 32, \"bucket_count\": 33333334, \"bucket_size\": 4, \"value_module\": {\"__llvaluefunctions__\": true, \"module\": \"gecocoo.valuemodules.default.counting\", \"parameters\": []}, \"hash_functions\": [{\"__llhashfunction__\": true, \"name\": \"gecocoo.hashing.xorlinear.xorlinear\", \"seed\": 13705323683090591100, \"parameters\": []}, {\"__llhashfunction__\": true, \"name\": \"gecocoo.hashing.xorlinear.xorlinear\", \"seed\": 9010486988497971350, \"parameters\": []}, {\"__llhashfunction__\": true, \"name\": \"gecocoo.hashing.xorlinear.xorlinear\", \"seed\": 16521414532126319358, \"parameters\": []}, {\"__llhashfunction__\": true, \"name\": \"gecocoo.hashing.xorlinear.xorlinear\", \"seed\": 6778475259378763626, \"parameters\": []}], \"storage\": {\"__llstorageconfig__\": true, \"mode\": \"BUCKETS\", \"concurrent\": true, \"disable_quotienting\": false}}"
            },
            "options": {
                "disable_gc": false,
                "timer": "perf_counter",
                "min_rounds": 5,
                "max_time": 1.0,
                "min_time": 5e-06,
                "warmup": false
            },
            "stats": {
                "min": 3.3380433479323983,
                "max": 4.030747061944567,
                "mean": 3.817322475381661,
                "stddev": 0.1863120589366469,
                "rounds": 10,
                "median": 3.852244268520735,
                "iqr": 0.102384596131742,
                "q1": 3.7787556959083304,
                "q3": 3.8811402920400724,
                "iqr_outliers": 1,
                "stddev_outliers": 2,
                "outliers": "2;1",
                "ld15iqr": 3.773584562004544,
                "hd15iqr": 4.030747061944567,
                "ops": 0.261963721024124,
                "total": 38.17322475381661,
                "data": [
                    3.8685230730334297,
                    3.877177192014642,
                    3.3380433479323983,
                    3.8811402920400724,
                    3.819914176943712,
                    3.7787556959083304,
                    3.969373887986876,
                    3.773584562004544,
                    3.8359654640080407,
                    4.030747061944567
                ],
                "iterations": 1
            }
        }
    ],
    "datetime": "2021-02-22T14:37:34.842231",
    "version": "3.2.3"
}