{
    "machine_info": {
        "node": "cstd01-136",
        "processor": "x86_64",
        "machine": "x86_64",
        "python_compiler": "GCC 7.3.0",
        "python_implementation": "CPython",
        "python_implementation_version": "3.7.9",
        "python_version": "3.7.9",
        "python_build": [
            "default",
            "Aug 31 2020 12:42:55"
        ],
        "release": "3.10.0-1160.6.1.el7.x86_64",
        "system": "Linux",
        "cpu": {
            "vendor_id": "unknown",
            "hardware": "unknown",
            "brand": "unknown"
        }
    },
    "commit_info": {
        "id": "unversioned",
        "time": null,
        "author_time": null,
        "dirty": false,
        "project": "gecocoo-2021-02-22T15_07_24.622469-origin_develop",
        "branch": "(unknown)"
    },
    "benchmarks": [
        {
            "group": "inserting",
            "name": "insert",
            "fullname": "bench_operations.py::test_cost_optimal",
            "params": null,
            "param": null,
            "extra_info": {
                "key_count": 100000000,
                "thread_count": 1,
                "config": "{\"__llconfig__\": true, \"k\": 31, \"key_bits\": 39, \"value_bits\": 32, \"bucket_count\": 16666667, \"bucket_size\": 8, \"value_module\": {\"__llvaluefunctions__\": true, \"module\": \"gecocoo.valuemodules.default.counting\", \"parameters\": []}, \"hash_functions\": [{\"__llhashfunction__\": true, \"name\": \"gecocoo.hashing.xorlinear.xorlinear\", \"seed\": 15339837657306786834, \"parameters\": []}, {\"__llhashfunction__\": true, \"name\": \"gecocoo.hashing.xorlinear.xorlinear\", \"seed\": 7524216842964605927, \"parameters\": []}, {\"__llhashfunction__\": true, \"name\": \"gecocoo.hashing.xorlinear.xorlinear\", \"seed\": 15890678032468399113, \"parameters\": []}], \"storage\": {\"__llstorageconfig__\": true, \"mode\": \"BUCKETS\", \"concurrent\": true, \"disable_quotienting\": false}}"
            },
            "options": {
                "disable_gc": false,
                "timer": "perf_counter",
                "min_rounds": 5,
                "max_time": 1.0,
                "min_time": 5e-06,
                "warmup": false
            },
            "stats": {
                "min": 550.1363092688844,
                "max": 550.1363092688844,
                "mean": 550.1363092688844,
                "stddev": 0,
                "rounds": 1,
                "median": 550.1363092688844,
                "iqr": 0.0,
                "q1": 550.1363092688844,
                "q3": 550.1363092688844,
                "iqr_outliers": 0,
                "stddev_outliers": 0,
                "outliers": "0;0",
                "ld15iqr": 550.1363092688844,
                "hd15iqr": 550.1363092688844,
                "ops": 0.0018177313206775459,
                "total": 550.1363092688844,
                "data": [
                    550.1363092688844
                ],
                "iterations": 1
            }
        },
        {
            "group": "searching",
            "name": "search",
            "fullname": "bench_operations.py::test_cost_optimal",
            "params": null,
            "param": null,
            "extra_info": {
                "key_count": 1000000,
                "thread_count": 1,
                "config": "{\"__llconfig__\": true, \"k\": 31, \"key_bits\": 39, \"value_bits\": 32, \"bucket_count\": 16666667, \"bucket_size\": 8, \"value_module\": {\"__llvaluefunctions__\": true, \"module\": \"gecocoo.valuemodules.default.counting\", \"parameters\": []}, \"hash_functions\": [{\"__llhashfunction__\": true, \"name\": \"gecocoo.hashing.xorlinear.xorlinear\", \"seed\": 15339837657306786834, \"parameters\": []}, {\"__llhashfunction__\": true, \"name\": \"gecocoo.hashing.xorlinear.xorlinear\", \"seed\": 7524216842964605927, \"parameters\": []}, {\"__llhashfunction__\": true, \"name\": \"gecocoo.hashing.xorlinear.xorlinear\", \"seed\": 15890678032468399113, \"parameters\": []}], \"storage\": {\"__llstorageconfig__\": true, \"mode\": \"BUCKETS\", \"concurrent\": true, \"disable_quotienting\": false}}"
            },
            "options": {
                "disable_gc": false,
                "timer": "perf_counter",
                "min_rounds": 5,
                "max_time": 1.0,
                "min_time": 5e-06,
                "warmup": false
            },
            "stats": {
                "min": 0.3326507459860295,
                "max": 0.5085061460267752,
                "mean": 0.3503855994204059,
                "stddev": 0.055558061989282974,
                "rounds": 10,
                "median": 0.33280204283073545,
                "iqr": 0.00021118787117302418,
                "q1": 0.33272343198768795,
                "q3": 0.33293461985886097,
                "iqr_outliers": 1,
                "stddev_outliers": 1,
                "outliers": "1;1",
                "ld15iqr": 0.3326507459860295,
                "hd15iqr": 0.5085061460267752,
                "ops": 2.8539985708720925,
                "total": 3.5038559942040592,
                "data": [
                    0.5085061460267752,
                    0.33312372607178986,
                    0.33293461985886097,
                    0.33281493885442615,
                    0.3327830908820033,
                    0.33278914680704474,
                    0.33272343198768795,
                    0.3328471079003066,
                    0.3326507459860295,
                    0.33268303982913494
                ],
                "iterations": 1
            }
        },
        {
            "group": "searching",
            "name": "search",
            "fullname": "bench_operations.py::test_cost_optimal",
            "params": null,
            "param": null,
            "extra_info": {
                "key_count": 10000000,
                "thread_count": 1,
                "config": "{\"__llconfig__\": true, \"k\": 31, \"key_bits\": 39, \"value_bits\": 32, \"bucket_count\": 16666667, \"bucket_size\": 8, \"value_module\": {\"__llvaluefunctions__\": true, \"module\": \"gecocoo.valuemodules.default.counting\", \"parameters\": []}, \"hash_functions\": [{\"__llhashfunction__\": true, \"name\": \"gecocoo.hashing.xorlinear.xorlinear\", \"seed\": 15339837657306786834, \"parameters\": []}, {\"__llhashfunction__\": true, \"name\": \"gecocoo.hashing.xorlinear.xorlinear\", \"seed\": 7524216842964605927, \"parameters\": []}, {\"__llhashfunction__\": true, \"name\": \"gecocoo.hashing.xorlinear.xorlinear\", \"seed\": 15890678032468399113, \"parameters\": []}], \"storage\": {\"__llstorageconfig__\": true, \"mode\": \"BUCKETS\", \"concurrent\": true, \"disable_quotienting\": false}}"
            },
            "options": {
                "disable_gc": false,
                "timer": "perf_counter",
                "min_rounds": 5,
                "max_time": 1.0,
                "min_time": 5e-06,
                "warmup": false
            },
            "stats": {
                "min": 3.326021856162697,
                "max": 3.618982815882191,
                "mean": 3.358471883321181,
                "stddev": 0.09198927593765066,
                "rounds": 10,
                "median": 3.3263740225229412,
                "iqr": 0.00027761911042034626,
                "q1": 3.326204424025491,
                "q3": 3.3264820431359112,
                "iqr_outliers": 2,
                "stddev_outliers": 1,
                "outliers": "1;2",
                "ld15iqr": 3.326021856162697,
                "hd15iqr": 3.355371498968452,
                "ops": 0.29775446534663363,
                "total": 33.58471883321181,
                "data": [
                    3.618982815882191,
                    3.355371498968452,
                    3.3264269868377596,
                    3.326284575043246,
                    3.326339873019606,
                    3.326021856162697,
                    3.3261965881101787,
                    3.3264081720262766,
                    3.326204424025491,
                    3.3264820431359112
                ],
                "iterations": 1
            }
        },
        {
            "group": "searching",
            "name": "search",
            "fullname": "bench_operations.py::test_cost_optimal",
            "params": null,
            "param": null,
            "extra_info": {
                "key_count": 100000000,
                "thread_count": 1,
                "config": "{\"__llconfig__\": true, \"k\": 31, \"key_bits\": 39, \"value_bits\": 32, \"bucket_count\": 16666667, \"bucket_size\": 8, \"value_module\": {\"__llvaluefunctions__\": true, \"module\": \"gecocoo.valuemodules.default.counting\", \"parameters\": []}, \"hash_functions\": [{\"__llhashfunction__\": true, \"name\": \"gecocoo.hashing.xorlinear.xorlinear\", \"seed\": 15339837657306786834, \"parameters\": []}, {\"__llhashfunction__\": true, \"name\": \"gecocoo.hashing.xorlinear.xorlinear\", \"seed\": 7524216842964605927, \"parameters\": []}, {\"__llhashfunction__\": true, \"name\": \"gecocoo.hashing.xorlinear.xorlinear\", \"seed\": 15890678032468399113, \"parameters\": []}], \"storage\": {\"__llstorageconfig__\": true, \"mode\": \"BUCKETS\", \"concurrent\": true, \"disable_quotienting\": false}}"
            },
            "options": {
                "disable_gc": false,
                "timer": "perf_counter",
                "min_rounds": 5,
                "max_time": 1.0,
                "min_time": 5e-06,
                "warmup": false
            },
            "stats": {
                "min": 33.27288948697969,
                "max": 40.46244631591253,
                "mean": 34.08623746298254,
                "stddev": 2.242484159478967,
                "rounds": 10,
                "median": 33.38512152445037,
                "iqr": 0.16480639320798218,
                "q1": 33.30156190996058,
                "q3": 33.466368303168565,
                "iqr_outliers": 1,
                "stddev_outliers": 1,
                "outliers": "1;1",
                "ld15iqr": 33.27288948697969,
                "hd15iqr": 40.46244631591253,
                "ops": 0.02933735356053875,
                "total": 340.86237462982535,
                "data": [
                    33.44938127906062,
                    33.27421215106733,
                    33.33655118383467,
                    33.27288948697969,
                    33.30247590597719,
                    33.30156190996058,
                    40.46244631591253,
                    33.562796228798106,
                    33.433691865066066,
                    33.466368303168565
                ],
                "iterations": 1
            }
        },
        {
            "group": "searching",
            "name": "search",
            "fullname": "bench_operations.py::test_cost_optimal",
            "params": null,
            "param": null,
            "extra_info": {
                "key_count": 1000000,
                "thread_count": 8,
                "config": "{\"__llconfig__\": true, \"k\": 31, \"key_bits\": 39, \"value_bits\": 32, \"bucket_count\": 16666667, \"bucket_size\": 8, \"value_module\": {\"__llvaluefunctions__\": true, \"module\": \"gecocoo.valuemodules.default.counting\", \"parameters\": []}, \"hash_functions\": [{\"__llhashfunction__\": true, \"name\": \"gecocoo.hashing.xorlinear.xorlinear\", \"seed\": 15339837657306786834, \"parameters\": []}, {\"__llhashfunction__\": true, \"name\": \"gecocoo.hashing.xorlinear.xorlinear\", \"seed\": 7524216842964605927, \"parameters\": []}, {\"__llhashfunction__\": true, \"name\": \"gecocoo.hashing.xorlinear.xorlinear\", \"seed\": 15890678032468399113, \"parameters\": []}], \"storage\": {\"__llstorageconfig__\": true, \"mode\": \"BUCKETS\", \"concurrent\": true, \"disable_quotienting\": false}}"
            },
            "options": {
                "disable_gc": false,
                "timer": "perf_counter",
                "min_rounds": 5,
                "max_time": 1.0,
                "min_time": 5e-06,
                "warmup": false
            },
            "stats": {
                "min": 0.05085214995779097,
                "max": 0.2944915541447699,
                "mean": 0.08903010413050652,
                "stddev": 0.07292959205549769,
                "rounds": 10,
                "median": 0.06768030603416264,
                "iqr": 0.018958367872983217,
                "q1": 0.05883685313165188,
                "q3": 0.0777952210046351,
                "iqr_outliers": 1,
                "stddev_outliers": 1,
                "outliers": "1;1",
                "ld15iqr": 0.05085214995779097,
                "hd15iqr": 0.2944915541447699,
                "ops": 11.23215579456282,
                "total": 0.8903010413050652,
                "data": [
                    0.2944915541447699,
                    0.07642001495696604,
                    0.05850172811187804,
                    0.07774123502895236,
                    0.05894059711135924,
                    0.07785979704931378,
                    0.05886189080774784,
                    0.0777952210046351,
                    0.05883685313165188,
                    0.05085214995779097
                ],
                "iterations": 1
            }
        },
        {
            "group": "searching",
            "name": "search",
            "fullname": "bench_operations.py::test_cost_optimal",
            "params": null,
            "param": null,
            "extra_info": {
                "key_count": 10000000,
                "thread_count": 8,
                "config": "{\"__llconfig__\": true, \"k\": 31, \"key_bits\": 39, \"value_bits\": 32, \"bucket_count\": 16666667, \"bucket_size\": 8, \"value_module\": {\"__llvaluefunctions__\": true, \"module\": \"gecocoo.valuemodules.default.counting\", \"parameters\": []}, \"hash_functions\": [{\"__llhashfunction__\": true, \"name\": \"gecocoo.hashing.xorlinear.xorlinear\", \"seed\": 15339837657306786834, \"parameters\": []}, {\"__llhashfunction__\": true, \"name\": \"gecocoo.hashing.xorlinear.xorlinear\", \"seed\": 7524216842964605927, \"parameters\": []}, {\"__llhashfunction__\": true, \"name\": \"gecocoo.hashing.xorlinear.xorlinear\", \"seed\": 15890678032468399113, \"parameters\": []}], \"storage\": {\"__llstorageconfig__\": true, \"mode\": \"BUCKETS\", \"concurrent\": true, \"disable_quotienting\": false}}"
            },
            "options": {
                "disable_gc": false,
                "timer": "perf_counter",
                "min_rounds": 5,
                "max_time": 1.0,
                "min_time": 5e-06,
                "warmup": false
            },
            "stats": {
                "min": 0.500993313966319,
                "max": 0.6600363210309297,
                "mean": 0.5547007827321068,
                "stddev": 0.04302280218343854,
                "rounds": 10,
                "median": 0.5376049421029165,
                "iqr": 0.040292863035574555,
                "q1": 0.5332133220508695,
                "q3": 0.573506185086444,
                "iqr_outliers": 1,
                "stddev_outliers": 2,
                "outliers": "2;1",
                "ld15iqr": 0.500993313966319,
                "hd15iqr": 0.6600363210309297,
                "ops": 1.8027737315866579,
                "total": 5.5470078273210675,
                "data": [
                    0.6600363210309297,
                    0.5332133220508695,
                    0.573506185086444,
                    0.5739682670682669,
                    0.5311193419620395,
                    0.500993313966319,
                    0.5378616449888796,
                    0.5372998060192913,
                    0.5373482392169535,
                    0.5616613859310746
                ],
                "iterations": 1
            }
        },
        {
            "group": "searching",
            "name": "search",
            "fullname": "bench_operations.py::test_cost_optimal",
            "params": null,
            "param": null,
            "extra_info": {
                "key_count": 100000000,
                "thread_count": 8,
                "config": "{\"__llconfig__\": true, \"k\": 31, \"key_bits\": 39, \"value_bits\": 32, \"bucket_count\": 16666667, \"bucket_size\": 8, \"value_module\": {\"__llvaluefunctions__\": true, \"module\": \"gecocoo.valuemodules.default.counting\", \"parameters\": []}, \"hash_functions\": [{\"__llhashfunction__\": true, \"name\": \"gecocoo.hashing.xorlinear.xorlinear\", \"seed\": 15339837657306786834, \"parameters\": []}, {\"__llhashfunction__\": true, \"name\": \"gecocoo.hashing.xorlinear.xorlinear\", \"seed\": 7524216842964605927, \"parameters\": []}, {\"__llhashfunction__\": true, \"name\": \"gecocoo.hashing.xorlinear.xorlinear\", \"seed\": 15890678032468399113, \"parameters\": []}], \"storage\": {\"__llstorageconfig__\": true, \"mode\": \"BUCKETS\", \"concurrent\": true, \"disable_quotienting\": false}}"
            },
            "options": {
                "disable_gc": false,
                "timer": "perf_counter",
                "min_rounds": 5,
                "max_time": 1.0,
                "min_time": 5e-06,
                "warmup": false
            },
            "stats": {
                "min": 4.977195646846667,
                "max": 5.187457297230139,
                "mean": 5.037837799498812,
                "stddev": 0.06767528054193006,
                "rounds": 10,
                "median": 5.024733465863392,
                "iqr": 0.0920916828326881,
                "q1": 4.982817524112761,
                "q3": 5.074909206945449,
                "iqr_outliers": 0,
                "stddev_outliers": 1,
                "outliers": "1;0",
                "ld15iqr": 4.977195646846667,
                "hd15iqr": 5.187457297230139,
                "ops": 0.19849785558786448,
                "total": 50.378377994988114,
                "data": [
                    5.187457297230139,
                    4.98429112508893,
                    4.994488102849573,
                    4.982817524112761,
                    5.054978828877211,
                    5.062486232025549,
                    4.977195646846667,
                    5.079776698956266,
                    4.979977332055569,
                    5.074909206945449
                ],
                "iterations": 1
            }
        },
        {
            "group": "searching",
            "name": "search",
            "fullname": "bench_operations.py::test_cost_optimal",
            "params": null,
            "param": null,
            "extra_info": {
                "key_count": 1000000,
                "thread_count": 16,
                "config": "{\"__llconfig__\": true, \"k\": 31, \"key_bits\": 39, \"value_bits\": 32, \"bucket_count\": 16666667, \"bucket_size\": 8, \"value_module\": {\"__llvaluefunctions__\": true, \"module\": \"gecocoo.valuemodules.default.counting\", \"parameters\": []}, \"hash_functions\": [{\"__llhashfunction__\": true, \"name\": \"gecocoo.hashing.xorlinear.xorlinear\", \"seed\": 15339837657306786834, \"parameters\": []}, {\"__llhashfunction__\": true, \"name\": \"gecocoo.hashing.xorlinear.xorlinear\", \"seed\": 7524216842964605927, \"parameters\": []}, {\"__llhashfunction__\": true, \"name\": \"gecocoo.hashing.xorlinear.xorlinear\", \"seed\": 15890678032468399113, \"parameters\": []}], \"storage\": {\"__llstorageconfig__\": true, \"mode\": \"BUCKETS\", \"concurrent\": true, \"disable_quotienting\": false}}"
            },
            "options": {
                "disable_gc": false,
                "timer": "perf_counter",
                "min_rounds": 5,
                "max_time": 1.0,
                "min_time": 5e-06,
                "warmup": false
            },
            "stats": {
                "min": 0.05046874098479748,
                "max": 0.21806200593709946,
                "mean": 0.07082366601098329,
                "stddev": 0.052061125787221864,
                "rounds": 10,
                "median": 0.05158220406156033,
                "iqr": 0.013253903947770596,
                "q1": 0.05138503503985703,
                "q3": 0.06463893898762763,
                "iqr_outliers": 1,
                "stddev_outliers": 1,
                "outliers": "1;1",
                "ld15iqr": 0.05046874098479748,
                "hd15iqr": 0.21806200593709946,
                "ops": 14.11957409610681,
                "total": 0.7082366601098329,
                "data": [
                    0.21806200593709946,
                    0.051716641057282686,
                    0.05138503503985703,
                    0.051406433107331395,
                    0.05103342793881893,
                    0.052084209863096476,
                    0.05046874098479748,
                    0.05144776706583798,
                    0.06463893898762763,
                    0.06599346012808383
                ],
                "iterations": 1
            }
        },
        {
            "group": "searching",
            "name": "search",
            "fullname": "bench_operations.py::test_cost_optimal",
            "params": null,
            "param": null,
            "extra_info": {
                "key_count": 10000000,
                "thread_count": 16,
                "config": "{\"__llconfig__\": true, \"k\": 31, \"key_bits\": 39, \"value_bits\": 32, \"bucket_count\": 16666667, \"bucket_size\": 8, \"value_module\": {\"__llvaluefunctions__\": true, \"module\": \"gecocoo.valuemodules.default.counting\", \"parameters\": []}, \"hash_functions\": [{\"__llhashfunction__\": true, \"name\": \"gecocoo.hashing.xorlinear.xorlinear\", \"seed\": 15339837657306786834, \"parameters\": []}, {\"__llhashfunction__\": true, \"name\": \"gecocoo.hashing.xorlinear.xorlinear\", \"seed\": 7524216842964605927, \"parameters\": []}, {\"__llhashfunction__\": true, \"name\": \"gecocoo.hashing.xorlinear.xorlinear\", \"seed\": 15890678032468399113, \"parameters\": []}], \"storage\": {\"__llstorageconfig__\": true, \"mode\": \"BUCKETS\", \"concurrent\": true, \"disable_quotienting\": false}}"
            },
            "options": {
                "disable_gc": false,
                "timer": "perf_counter",
                "min_rounds": 5,
                "max_time": 1.0,
                "min_time": 5e-06,
                "warmup": false
            },
            "stats": {
                "min": 0.4177926101256162,
                "max": 0.6177453771233559,
                "mean": 0.45566426801960913,
                "stddev": 0.059513978439286915,
                "rounds": 10,
                "median": 0.43340584298130125,
                "iqr": 0.029105474008247256,
                "q1": 0.4233169020153582,
                "q3": 0.45242237602360547,
                "iqr_outliers": 1,
                "stddev_outliers": 1,
                "outliers": "1;1",
                "ld15iqr": 0.4177926101256162,
                "hd15iqr": 0.6177453771233559,
                "ops": 2.1945982386245957,
                "total": 4.5566426801960915,
                "data": [
                    0.6177453771233559,
                    0.4233169020153582,
                    0.42216351605020463,
                    0.43122610193677247,
                    0.4177926101256162,
                    0.4353825559373945,
                    0.431429130025208,
                    0.45242237602360547,
                    0.45029615610837936,
                    0.47486795485019684
                ],
                "iterations": 1
            }
        },
        {
            "group": "searching",
            "name": "search",
            "fullname": "bench_operations.py::test_cost_optimal",
            "params": null,
            "param": null,
            "extra_info": {
                "key_count": 100000000,
                "thread_count": 16,
                "config": "{\"__llconfig__\": true, \"k\": 31, \"key_bits\": 39, \"value_bits\": 32, \"bucket_count\": 16666667, \"bucket_size\": 8, \"value_module\": {\"__llvaluefunctions__\": true, \"module\": \"gecocoo.valuemodules.default.counting\", \"parameters\": []}, \"hash_functions\": [{\"__llhashfunction__\": true, \"name\": \"gecocoo.hashing.xorlinear.xorlinear\", \"seed\": 15339837657306786834, \"parameters\": []}, {\"__llhashfunction__\": true, \"name\": \"gecocoo.hashing.xorlinear.xorlinear\", \"seed\": 7524216842964605927, \"parameters\": []}, {\"__llhashfunction__\": true, \"name\": \"gecocoo.hashing.xorlinear.xorlinear\", \"seed\": 15890678032468399113, \"parameters\": []}], \"storage\": {\"__llstorageconfig__\": true, \"mode\": \"BUCKETS\", \"concurrent\": true, \"disable_quotienting\": false}}"
            },
            "options": {
                "disable_gc": false,
                "timer": "perf_counter",
                "min_rounds": 5,
                "max_time": 1.0,
                "min_time": 5e-06,
                "warmup": false
            },
            "stats": {
                "min": 3.4988683199044317,
                "max": 4.134026815881953,
                "mean": 3.8192907423945144,
                "stddev": 0.20593350125533944,
                "rounds": 10,
                "median": 3.863110529608093,
                "iqr": 0.28895864612422884,
                "q1": 3.685542350867763,
                "q3": 3.974500996991992,
                "iqr_outliers": 0,
                "stddev_outliers": 3,
                "outliers": "3;0",
                "ld15iqr": 3.4988683199044317,
                "hd15iqr": 4.134026815881953,
                "ops": 0.2618287183271749,
                "total": 38.192907423945144,
                "data": [
                    3.89648883510381,
                    3.689237436046824,
                    3.5548181489575654,
                    3.8297322241123766,
                    3.974500996991992,
                    3.685542350867763,
                    4.134026815881953,
                    3.928319822996855,
                    3.4988683199044317,
                    4.001372473081574
                ],
                "iterations": 1
            }
        }
    ],
    "datetime": "2021-02-22T14:28:22.739454",
    "version": "3.2.3"
}