{
    "machine_info": {
        "node": "cstd01-140",
        "processor": "x86_64",
        "machine": "x86_64",
        "python_compiler": "GCC 7.3.0",
        "python_implementation": "CPython",
        "python_implementation_version": "3.7.9",
        "python_version": "3.7.9",
        "python_build": [
            "default",
            "Aug 31 2020 12:42:55"
        ],
        "release": "3.10.0-1160.6.1.el7.x86_64",
        "system": "Linux",
        "cpu": {
            "vendor_id": "unknown",
            "hardware": "unknown",
            "brand": "unknown"
        }
    },
    "commit_info": {
        "id": "unversioned",
        "time": null,
        "author_time": null,
        "dirty": false,
        "project": "gecocoo-2021-02-22T15_07_24.622469-origin_develop",
        "branch": "(unknown)"
    },
    "benchmarks": [
        {
            "group": "inserting",
            "name": "insert",
            "fullname": "bench_operations.py::test_cost_optimal",
            "params": null,
            "param": null,
            "extra_info": {
                "key_count": 100000000,
                "thread_count": 1,
                "config": "{\"__llconfig__\": true, \"k\": 31, \"key_bits\": 38, \"value_bits\": 32, \"bucket_count\": 25773196, \"bucket_size\": 4, \"value_module\": {\"__llvaluefunctions__\": true, \"module\": \"gecocoo.valuemodules.default.counting\", \"parameters\": []}, \"hash_functions\": [{\"__llhashfunction__\": true, \"name\": \"gecocoo.hashing.xorlinear.xorlinear\", \"seed\": 15759174044262938703, \"parameters\": []}, {\"__llhashfunction__\": true, \"name\": \"gecocoo.hashing.xorlinear.xorlinear\", \"seed\": 15462480647922548450, \"parameters\": []}, {\"__llhashfunction__\": true, \"name\": \"gecocoo.hashing.xorlinear.xorlinear\", \"seed\": 3089356515231728808, \"parameters\": []}, {\"__llhashfunction__\": true, \"name\": \"gecocoo.hashing.xorlinear.xorlinear\", \"seed\": 8070076281089871899, \"parameters\": []}], \"storage\": {\"__llstorageconfig__\": true, \"mode\": \"BUCKETS\", \"concurrent\": true, \"disable_quotienting\": false}}"
            },
            "options": {
                "disable_gc": false,
                "timer": "perf_counter",
                "min_rounds": 5,
                "max_time": 1.0,
                "min_time": 5e-06,
                "warmup": false
            },
            "stats": {
                "min": 3888.5355766250286,
                "max": 3888.5355766250286,
                "mean": 3888.5355766250286,
                "stddev": 0,
                "rounds": 1,
                "median": 3888.5355766250286,
                "iqr": 0.0,
                "q1": 3888.5355766250286,
                "q3": 3888.5355766250286,
                "iqr_outliers": 0,
                "stddev_outliers": 0,
                "outliers": "0;0",
                "ld15iqr": 3888.5355766250286,
                "hd15iqr": 3888.5355766250286,
                "ops": 0.00025716622113765736,
                "total": 3888.5355766250286,
                "data": [
                    3888.5355766250286
                ],
                "iterations": 1
            }
        },
        {
            "group": "searching",
            "name": "search",
            "fullname": "bench_operations.py::test_cost_optimal",
            "params": null,
            "param": null,
            "extra_info": {
                "key_count": 1000000,
                "thread_count": 1,
                "config": "{\"__llconfig__\": true, \"k\": 31, \"key_bits\": 38, \"value_bits\": 32, \"bucket_count\": 25773196, \"bucket_size\": 4, \"value_module\": {\"__llvaluefunctions__\": true, \"module\": \"gecocoo.valuemodules.default.counting\", \"parameters\": []}, \"hash_functions\": [{\"__llhashfunction__\": true, \"name\": \"gecocoo.hashing.xorlinear.xorlinear\", \"seed\": 15759174044262938703, \"parameters\": []}, {\"__llhashfunction__\": true, \"name\": \"gecocoo.hashing.xorlinear.xorlinear\", \"seed\": 15462480647922548450, \"parameters\": []}, {\"__llhashfunction__\": true, \"name\": \"gecocoo.hashing.xorlinear.xorlinear\", \"seed\": 3089356515231728808, \"parameters\": []}, {\"__llhashfunction__\": true, \"name\": \"gecocoo.hashing.xorlinear.xorlinear\", \"seed\": 8070076281089871899, \"parameters\": []}], \"storage\": {\"__llstorageconfig__\": true, \"mode\": \"BUCKETS\", \"concurrent\": true, \"disable_quotienting\": false}}"
            },
            "options": {
                "disable_gc": false,
                "timer": "perf_counter",
                "min_rounds": 5,
                "max_time": 1.0,
                "min_time": 5e-06,
                "warmup": false
            },
            "stats": {
                "min": 0.5794235169887543,
                "max": 0.5966868489049375,
                "mean": 0.59319478769321,
                "stddev": 0.006278135077029837,
                "rounds": 10,
                "median": 0.5959237203933299,
                "iqr": 0.0011256360448896885,
                "q1": 0.5953449010848999,
                "q3": 0.5964705371297896,
                "iqr_outliers": 2,
                "stddev_outliers": 2,
                "outliers": "2;2",
                "ld15iqr": 0.5953449010848999,
                "hd15iqr": 0.5966868489049375,
                "ops": 1.6857868962213178,
                "total": 5.9319478769320995,
                "data": [
                    0.5794235169887543,
                    0.5834795250557363,
                    0.5956235120538622,
                    0.5966288719791919,
                    0.5953449010848999,
                    0.5960178328678012,
                    0.5966868489049375,
                    0.5958296079188585,
                    0.5964427229482681,
                    0.5964705371297896
                ],
                "iterations": 1
            }
        },
        {
            "group": "searching",
            "name": "search",
            "fullname": "bench_operations.py::test_cost_optimal",
            "params": null,
            "param": null,
            "extra_info": {
                "key_count": 10000000,
                "thread_count": 1,
                "config": "{\"__llconfig__\": true, \"k\": 31, \"key_bits\": 38, \"value_bits\": 32, \"bucket_count\": 25773196, \"bucket_size\": 4, \"value_module\": {\"__llvaluefunctions__\": true, \"module\": \"gecocoo.valuemodules.default.counting\", \"parameters\": []}, \"hash_functions\": [{\"__llhashfunction__\": true, \"name\": \"gecocoo.hashing.xorlinear.xorlinear\", \"seed\": 15759174044262938703, \"parameters\": []}, {\"__llhashfunction__\": true, \"name\": \"gecocoo.hashing.xorlinear.xorlinear\", \"seed\": 15462480647922548450, \"parameters\": []}, {\"__llhashfunction__\": true, \"name\": \"gecocoo.hashing.xorlinear.xorlinear\", \"seed\": 3089356515231728808, \"parameters\": []}, {\"__llhashfunction__\": true, \"name\": \"gecocoo.hashing.xorlinear.xorlinear\", \"seed\": 8070076281089871899, \"parameters\": []}], \"storage\": {\"__llstorageconfig__\": true, \"mode\": \"BUCKETS\", \"concurrent\": true, \"disable_quotienting\": false}}"
            },
            "options": {
                "disable_gc": false,
                "timer": "perf_counter",
                "min_rounds": 5,
                "max_time": 1.0,
                "min_time": 5e-06,
                "warmup": false
            },
            "stats": {
                "min": 3.929756707046181,
                "max": 5.975706862052903,
                "mean": 5.751154151419177,
                "stddev": 0.6402820944202696,
                "rounds": 10,
                "median": 5.958244365523569,
                "iqr": 0.00242420076392591,
                "q1": 5.956074767047539,
                "q3": 5.958498967811465,
                "iqr_outliers": 3,
                "stddev_outliers": 1,
                "outliers": "1;3",
                "ld15iqr": 5.956074767047539,
                "hd15iqr": 5.975706862052903,
                "ops": 0.1738781423122237,
                "total": 57.51154151419178,
                "data": [
                    3.929756707046181,
                    5.8995886710472405,
                    5.95834596012719,
                    5.975706862052903,
                    5.957655793987215,
                    5.958142770919949,
                    5.958498967811465,
                    5.959354898193851,
                    5.958416115958244,
                    5.956074767047539
                ],
                "iterations": 1
            }
        },
        {
            "group": "searching",
            "name": "search",
            "fullname": "bench_operations.py::test_cost_optimal",
            "params": null,
            "param": null,
            "extra_info": {
                "key_count": 100000000,
                "thread_count": 1,
                "config": "{\"__llconfig__\": true, \"k\": 31, \"key_bits\": 38, \"value_bits\": 32, \"bucket_count\": 25773196, \"bucket_size\": 4, \"value_module\": {\"__llvaluefunctions__\": true, \"module\": \"gecocoo.valuemodules.default.counting\", \"parameters\": []}, \"hash_functions\": [{\"__llhashfunction__\": true, \"name\": \"gecocoo.hashing.xorlinear.xorlinear\", \"seed\": 15759174044262938703, \"parameters\": []}, {\"__llhashfunction__\": true, \"name\": \"gecocoo.hashing.xorlinear.xorlinear\", \"seed\": 15462480647922548450, \"parameters\": []}, {\"__llhashfunction__\": true, \"name\": \"gecocoo.hashing.xorlinear.xorlinear\", \"seed\": 3089356515231728808, \"parameters\": []}, {\"__llhashfunction__\": true, \"name\": \"gecocoo.hashing.xorlinear.xorlinear\", \"seed\": 8070076281089871899, \"parameters\": []}], \"storage\": {\"__llstorageconfig__\": true, \"mode\": \"BUCKETS\", \"concurrent\": true, \"disable_quotienting\": false}}"
            },
            "options": {
                "disable_gc": false,
                "timer": "perf_counter",
                "min_rounds": 5,
                "max_time": 1.0,
                "min_time": 5e-06,
                "warmup": false
            },
            "stats": {
                "min": 49.48958313604817,
                "max": 59.618708167923614,
                "mean": 56.473397220182235,
                "stddev": 3.5518127602478464,
                "rounds": 10,
                "median": 57.05284449248575,
                "iqr": 5.289699777029455,
                "q1": 54.31929992395453,
                "q3": 59.608999700983986,
                "iqr_outliers": 0,
                "stddev_outliers": 1,
                "outliers": "1;0",
                "ld15iqr": 49.48958313604817,
                "hd15iqr": 59.618708167923614,
                "ops": 0.01770745252142586,
                "total": 564.7339722018223,
                "data": [
                    49.48958313604817,
                    59.618708167923614,
                    59.60418702894822,
                    59.61094510694966,
                    59.608999700983986,
                    59.23982577887364,
                    53.997594621032476,
                    54.31929992395453,
                    54.37896553101018,
                    54.865863206097856
                ],
                "iterations": 1
            }
        },
        {
            "group": "searching",
            "name": "search",
            "fullname": "bench_operations.py::test_cost_optimal",
            "params": null,
            "param": null,
            "extra_info": {
                "key_count": 1000000,
                "thread_count": 8,
                "config": "{\"__llconfig__\": true, \"k\": 31, \"key_bits\": 38, \"value_bits\": 32, \"bucket_count\": 25773196, \"bucket_size\": 4, \"value_module\": {\"__llvaluefunctions__\": true, \"module\": \"gecocoo.valuemodules.default.counting\", \"parameters\": []}, \"hash_functions\": [{\"__llhashfunction__\": true, \"name\": \"gecocoo.hashing.xorlinear.xorlinear\", \"seed\": 15759174044262938703, \"parameters\": []}, {\"__llhashfunction__\": true, \"name\": \"gecocoo.hashing.xorlinear.xorlinear\", \"seed\": 15462480647922548450, \"parameters\": []}, {\"__llhashfunction__\": true, \"name\": \"gecocoo.hashing.xorlinear.xorlinear\", \"seed\": 3089356515231728808, \"parameters\": []}, {\"__llhashfunction__\": true, \"name\": \"gecocoo.hashing.xorlinear.xorlinear\", \"seed\": 8070076281089871899, \"parameters\": []}], \"storage\": {\"__llstorageconfig__\": true, \"mode\": \"BUCKETS\", \"concurrent\": true, \"disable_quotienting\": false}}"
            },
            "options": {
                "disable_gc": false,
                "timer": "perf_counter",
                "min_rounds": 5,
                "max_time": 1.0,
                "min_time": 5e-06,
                "warmup": false
            },
            "stats": {
                "min": 0.07002333109267056,
                "max": 0.37132606003433466,
                "mean": 0.10063382359221577,
                "stddev": 0.09511295893320369,
                "rounds": 10,
                "median": 0.07056756096426398,
                "iqr": 0.0010270958300679922,
                "q1": 0.07012478797696531,
                "q3": 0.0711518838070333,
                "iqr_outliers": 1,
                "stddev_outliers": 1,
                "outliers": "1;1",
                "ld15iqr": 0.07002333109267056,
                "hd15iqr": 0.37132606003433466,
                "ops": 9.937016842887324,
                "total": 1.0063382359221578,
                "data": [
                    0.37132606003433466,
                    0.0716671731788665,
                    0.07024184288457036,
                    0.07055481406860054,
                    0.0711518838070333,
                    0.07006660592742264,
                    0.07012478797696531,
                    0.07058030785992742,
                    0.07060142909176648,
                    0.07002333109267056
                ],
                "iterations": 1
            }
        },
        {
            "group": "searching",
            "name": "search",
            "fullname": "bench_operations.py::test_cost_optimal",
            "params": null,
            "param": null,
            "extra_info": {
                "key_count": 10000000,
                "thread_count": 8,
                "config": "{\"__llconfig__\": true, \"k\": 31, \"key_bits\": 38, \"value_bits\": 32, \"bucket_count\": 25773196, \"bucket_size\": 4, \"value_module\": {\"__llvaluefunctions__\": true, \"module\": \"gecocoo.valuemodules.default.counting\", \"parameters\": []}, \"hash_functions\": [{\"__llhashfunction__\": true, \"name\": \"gecocoo.hashing.xorlinear.xorlinear\", \"seed\": 15759174044262938703, \"parameters\": []}, {\"__llhashfunction__\": true, \"name\": \"gecocoo.hashing.xorlinear.xorlinear\", \"seed\": 15462480647922548450, \"parameters\": []}, {\"__llhashfunction__\": true, \"name\": \"gecocoo.hashing.xorlinear.xorlinear\", \"seed\": 3089356515231728808, \"parameters\": []}, {\"__llhashfunction__\": true, \"name\": \"gecocoo.hashing.xorlinear.xorlinear\", \"seed\": 8070076281089871899, \"parameters\": []}], \"storage\": {\"__llstorageconfig__\": true, \"mode\": \"BUCKETS\", \"concurrent\": true, \"disable_quotienting\": false}}"
            },
            "options": {
                "disable_gc": false,
                "timer": "perf_counter",
                "min_rounds": 5,
                "max_time": 1.0,
                "min_time": 5e-06,
                "warmup": false
            },
            "stats": {
                "min": 0.6793279210105538,
                "max": 0.8788578528910875,
                "mean": 0.7018492161761969,
                "stddev": 0.06221081063490451,
                "rounds": 10,
                "median": 0.682515814085491,
                "iqr": 0.0017782158683985472,
                "q1": 0.6817386210896075,
                "q3": 0.683516836958006,
                "iqr_outliers": 1,
                "stddev_outliers": 1,
                "outliers": "1;1",
                "ld15iqr": 0.6793279210105538,
                "hd15iqr": 0.8788578528910875,
                "ops": 1.4248074614205357,
                "total": 7.018492161761969,
                "data": [
                    0.8788578528910875,
                    0.6793279210105538,
                    0.6817386210896075,
                    0.6842959108762443,
                    0.683516836958006,
                    0.6827357690781355,
                    0.6831172339152545,
                    0.6819869629107416,
                    0.6822958590928465,
                    0.6806191939394921
                ],
                "iterations": 1
            }
        },
        {
            "group": "searching",
            "name": "search",
            "fullname": "bench_operations.py::test_cost_optimal",
            "params": null,
            "param": null,
            "extra_info": {
                "key_count": 100000000,
                "thread_count": 8,
                "config": "{\"__llconfig__\": true, \"k\": 31, \"key_bits\": 38, \"value_bits\": 32, \"bucket_count\": 25773196, \"bucket_size\": 4, \"value_module\": {\"__llvaluefunctions__\": true, \"module\": \"gecocoo.valuemodules.default.counting\", \"parameters\": []}, \"hash_functions\": [{\"__llhashfunction__\": true, \"name\": \"gecocoo.hashing.xorlinear.xorlinear\", \"seed\": 15759174044262938703, \"parameters\": []}, {\"__llhashfunction__\": true, \"name\": \"gecocoo.hashing.xorlinear.xorlinear\", \"seed\": 15462480647922548450, \"parameters\": []}, {\"__llhashfunction__\": true, \"name\": \"gecocoo.hashing.xorlinear.xorlinear\", \"seed\": 3089356515231728808, \"parameters\": []}, {\"__llhashfunction__\": true, \"name\": \"gecocoo.hashing.xorlinear.xorlinear\", \"seed\": 8070076281089871899, \"parameters\": []}], \"storage\": {\"__llstorageconfig__\": true, \"mode\": \"BUCKETS\", \"concurrent\": true, \"disable_quotienting\": false}}"
            },
            "options": {
                "disable_gc": false,
                "timer": "perf_counter",
                "min_rounds": 5,
                "max_time": 1.0,
                "min_time": 5e-06,
                "warmup": false
            },
            "stats": {
                "min": 6.779761144891381,
                "max": 6.979588104877621,
                "mean": 6.86066324817948,
                "stddev": 0.07762054622466237,
                "rounds": 10,
                "median": 6.8430756675079465,
                "iqr": 0.1334600867703557,
                "q1": 6.79482243815437,
                "q3": 6.928282524924725,
                "iqr_outliers": 0,
                "stddev_outliers": 2,
                "outliers": "2;0",
                "ld15iqr": 6.779761144891381,
                "hd15iqr": 6.979588104877621,
                "ops": 0.14575850232342422,
                "total": 68.6066324817948,
                "data": [
                    6.979588104877621,
                    6.783707350958139,
                    6.79727953998372,
                    6.794849668163806,
                    6.779761144891381,
                    6.79482243815437,
                    6.888871795032173,
                    6.928282524924725,
                    6.926554075907916,
                    6.9329158389009535
                ],
                "iterations": 1
            }
        },
        {
            "group": "searching",
            "name": "search",
            "fullname": "bench_operations.py::test_cost_optimal",
            "params": null,
            "param": null,
            "extra_info": {
                "key_count": 1000000,
                "thread_count": 16,
                "config": "{\"__llconfig__\": true, \"k\": 31, \"key_bits\": 38, \"value_bits\": 32, \"bucket_count\": 25773196, \"bucket_size\": 4, \"value_module\": {\"__llvaluefunctions__\": true, \"module\": \"gecocoo.valuemodules.default.counting\", \"parameters\": []}, \"hash_functions\": [{\"__llhashfunction__\": true, \"name\": \"gecocoo.hashing.xorlinear.xorlinear\", \"seed\": 15759174044262938703, \"parameters\": []}, {\"__llhashfunction__\": true, \"name\": \"gecocoo.hashing.xorlinear.xorlinear\", \"seed\": 15462480647922548450, \"parameters\": []}, {\"__llhashfunction__\": true, \"name\": \"gecocoo.hashing.xorlinear.xorlinear\", \"seed\": 3089356515231728808, \"parameters\": []}, {\"__llhashfunction__\": true, \"name\": \"gecocoo.hashing.xorlinear.xorlinear\", \"seed\": 8070076281089871899, \"parameters\": []}], \"storage\": {\"__llstorageconfig__\": true, \"mode\": \"BUCKETS\", \"concurrent\": true, \"disable_quotienting\": false}}"
            },
            "options": {
                "disable_gc": false,
                "timer": "perf_counter",
                "min_rounds": 5,
                "max_time": 1.0,
                "min_time": 5e-06,
                "warmup": false
            },
            "stats": {
                "min": 0.03960872697643936,
                "max": 0.2831490868702531,
                "mean": 0.08842761248815804,
                "stddev": 0.0691033779432555,
                "rounds": 10,
                "median": 0.07053614943288267,
                "iqr": 0.002530160127207637,
                "q1": 0.06905754003673792,
                "q3": 0.07158770016394556,
                "iqr_outliers": 2,
                "stddev_outliers": 1,
                "outliers": "1;2",
                "ld15iqr": 0.06714388797990978,
                "hd15iqr": 0.2831490868702531,
                "ops": 11.308684831154034,
                "total": 0.8842761248815805,
                "data": [
                    0.2831490868702531,
                    0.07158770016394556,
                    0.07073614187538624,
                    0.06974189705215394,
                    0.0703361569903791,
                    0.06905754003673792,
                    0.07092768093571067,
                    0.03960872697643936,
                    0.07198730600066483,
                    0.06714388797990978
                ],
                "iterations": 1
            }
        },
        {
            "group": "searching",
            "name": "search",
            "fullname": "bench_operations.py::test_cost_optimal",
            "params": null,
            "param": null,
            "extra_info": {
                "key_count": 10000000,
                "thread_count": 16,
                "config": "{\"__llconfig__\": true, \"k\": 31, \"key_bits\": 38, \"value_bits\": 32, \"bucket_count\": 25773196, \"bucket_size\": 4, \"value_module\": {\"__llvaluefunctions__\": true, \"module\": \"gecocoo.valuemodules.default.counting\", \"parameters\": []}, \"hash_functions\": [{\"__llhashfunction__\": true, \"name\": \"gecocoo.hashing.xorlinear.xorlinear\", \"seed\": 15759174044262938703, \"parameters\": []}, {\"__llhashfunction__\": true, \"name\": \"gecocoo.hashing.xorlinear.xorlinear\", \"seed\": 15462480647922548450, \"parameters\": []}, {\"__llhashfunction__\": true, \"name\": \"gecocoo.hashing.xorlinear.xorlinear\", \"seed\": 3089356515231728808, \"parameters\": []}, {\"__llhashfunction__\": true, \"name\": \"gecocoo.hashing.xorlinear.xorlinear\", \"seed\": 8070076281089871899, \"parameters\": []}], \"storage\": {\"__llstorageconfig__\": true, \"mode\": \"BUCKETS\", \"concurrent\": true, \"disable_quotienting\": false}}"
            },
            "options": {
                "disable_gc": false,
                "timer": "perf_counter",
                "min_rounds": 5,
                "max_time": 1.0,
                "min_time": 5e-06,
                "warmup": false
            },
            "stats": {
                "min": 0.35129995504394174,
                "max": 0.7177364451345056,
                "mean": 0.4909410084364936,
                "stddev": 0.10094081538437535,
                "rounds": 10,
                "median": 0.49930279701948166,
                "iqr": 0.030207232804968953,
                "q1": 0.47664968809112906,
                "q3": 0.506856920896098,
                "iqr_outliers": 3,
                "stddev_outliers": 3,
                "outliers": "3;3",
                "ld15iqr": 0.47664968809112906,
                "hd15iqr": 0.7177364451345056,
                "ops": 2.036904603232705,
                "total": 4.909410084364936,
                "data": [
                    0.7177364451345056,
                    0.506327698007226,
                    0.506856920896098,
                    0.3518636249937117,
                    0.5130286770872772,
                    0.49274907098151743,
                    0.5058565230574459,
                    0.47664968809112906,
                    0.35129995504394174,
                    0.4870414810720831
                ],
                "iterations": 1
            }
        },
        {
            "group": "searching",
            "name": "search",
            "fullname": "bench_operations.py::test_cost_optimal",
            "params": null,
            "param": null,
            "extra_info": {
                "key_count": 100000000,
                "thread_count": 16,
                "config": "{\"__llconfig__\": true, \"k\": 31, \"key_bits\": 38, \"value_bits\": 32, \"bucket_count\": 25773196, \"bucket_size\": 4, \"value_module\": {\"__llvaluefunctions__\": true, \"module\": \"gecocoo.valuemodules.default.counting\", \"parameters\": []}, \"hash_functions\": [{\"__llhashfunction__\": true, \"name\": \"gecocoo.hashing.xorlinear.xorlinear\", \"seed\": 15759174044262938703, \"parameters\": []}, {\"__llhashfunction__\": true, \"name\": \"gecocoo.hashing.xorlinear.xorlinear\", \"seed\": 15462480647922548450, \"parameters\": []}, {\"__llhashfunction__\": true, \"name\": \"gecocoo.hashing.xorlinear.xorlinear\", \"seed\": 3089356515231728808, \"parameters\": []}, {\"__llhashfunction__\": true, \"name\": \"gecocoo.hashing.xorlinear.xorlinear\", \"seed\": 8070076281089871899, \"parameters\": []}], \"storage\": {\"__llstorageconfig__\": true, \"mode\": \"BUCKETS\", \"concurrent\": true, \"disable_quotienting\": false}}"
            },
            "options": {
                "disable_gc": false,
                "timer": "perf_counter",
                "min_rounds": 5,
                "max_time": 1.0,
                "min_time": 5e-06,
                "warmup": false
            },
            "stats": {
                "min": 3.4942115149460733,
                "max": 4.115311589092016,
                "mean": 3.9218308902112766,
                "stddev": 0.21108846741530396,
                "rounds": 10,
                "median": 3.99732387450058,
                "iqr": 0.3426640098914504,
                "q1": 3.7684813991654664,
                "q3": 4.111145409056917,
                "iqr_outliers": 0,
                "stddev_outliers": 1,
                "outliers": "1;0",
                "ld15iqr": 3.4942115149460733,
                "hd15iqr": 4.115311589092016,
                "ops": 0.25498294750443157,
                "total": 39.21830890211277,
                "data": [
                    4.065751939080656,
                    4.111145409056917,
                    4.115311589092016,
                    3.763728205813095,
                    3.4942115149460733,
                    3.7684813991654664,
                    4.067606225144118,
                    3.789423677837476,
                    4.113753132056445,
                    3.9288958099205047
                ],
                "iterations": 1
            }
        }
    ],
    "datetime": "2021-02-22T15:28:35.212890",
    "version": "3.2.3"
}