{
    "machine_info": {
        "node": "cstd01-209",
        "processor": "x86_64",
        "machine": "x86_64",
        "python_compiler": "GCC 7.3.0",
        "python_implementation": "CPython",
        "python_implementation_version": "3.7.9",
        "python_version": "3.7.9",
        "python_build": [
            "default",
            "Aug 31 2020 12:42:55"
        ],
        "release": "3.10.0-1160.6.1.el7.x86_64",
        "system": "Linux",
        "cpu": {
            "vendor_id": "unknown",
            "hardware": "unknown",
            "brand": "unknown"
        }
    },
    "commit_info": {
        "id": "unversioned",
        "time": null,
        "author_time": null,
        "dirty": false,
        "project": "gecocoo-2021-02-22T15_07_24.622469-origin_develop",
        "branch": "(unknown)"
    },
    "benchmarks": [
        {
            "group": "inserting",
            "name": "insert",
            "fullname": "bench_operations.py::test_cost_optimal",
            "params": null,
            "param": null,
            "extra_info": {
                "key_count": 100000000,
                "thread_count": 1,
                "config": "{\"__llconfig__\": true, \"k\": 31, \"key_bits\": 38, \"value_bits\": 32, \"bucket_count\": 33333334, \"bucket_size\": 4, \"value_module\": {\"__llvaluefunctions__\": true, \"module\": \"gecocoo.valuemodules.default.counting\", \"parameters\": []}, \"hash_functions\": [{\"__llhashfunction__\": true, \"name\": \"gecocoo.hashing.xorlinear.xorlinear\", \"seed\": 13705323683090591100, \"parameters\": []}, {\"__llhashfunction__\": true, \"name\": \"gecocoo.hashing.xorlinear.xorlinear\", \"seed\": 9010486988497971350, \"parameters\": []}, {\"__llhashfunction__\": true, \"name\": \"gecocoo.hashing.xorlinear.xorlinear\", \"seed\": 16521414532126319358, \"parameters\": []}, {\"__llhashfunction__\": true, \"name\": \"gecocoo.hashing.xorlinear.xorlinear\", \"seed\": 6778475259378763626, \"parameters\": []}], \"storage\": {\"__llstorageconfig__\": true, \"mode\": \"BUCKETS\", \"concurrent\": true, \"disable_quotienting\": false}}"
            },
            "options": {
                "disable_gc": false,
                "timer": "perf_counter",
                "min_rounds": 5,
                "max_time": 1.0,
                "min_time": 5e-06,
                "warmup": false
            },
            "stats": {
                "min": 1023.0746444239048,
                "max": 1023.0746444239048,
                "mean": 1023.0746444239048,
                "stddev": 0,
                "rounds": 1,
                "median": 1023.0746444239048,
                "iqr": 0.0,
                "q1": 1023.0746444239048,
                "q3": 1023.0746444239048,
                "iqr_outliers": 0,
                "stddev_outliers": 0,
                "outliers": "0;0",
                "ld15iqr": 1023.0746444239048,
                "hd15iqr": 1023.0746444239048,
                "ops": 0.0009774457860434044,
                "total": 1023.0746444239048,
                "data": [
                    1023.0746444239048
                ],
                "iterations": 1
            }
        },
        {
            "group": "searching",
            "name": "search",
            "fullname": "bench_operations.py::test_cost_optimal",
            "params": null,
            "param": null,
            "extra_info": {
                "key_count": 1000000,
                "thread_count": 1,
                "config": "{\"__llconfig__\": true, \"k\": 31, \"key_bits\": 38, \"value_bits\": 32, \"bucket_count\": 33333334, \"bucket_size\": 4, \"value_module\": {\"__llvaluefunctions__\": true, \"module\": \"gecocoo.valuemodules.default.counting\", \"parameters\": []}, \"hash_functions\": [{\"__llhashfunction__\": true, \"name\": \"gecocoo.hashing.xorlinear.xorlinear\", \"seed\": 13705323683090591100, \"parameters\": []}, {\"__llhashfunction__\": true, \"name\": \"gecocoo.hashing.xorlinear.xorlinear\", \"seed\": 9010486988497971350, \"parameters\": []}, {\"__llhashfunction__\": true, \"name\": \"gecocoo.hashing.xorlinear.xorlinear\", \"seed\": 16521414532126319358, \"parameters\": []}, {\"__llhashfunction__\": true, \"name\": \"gecocoo.hashing.xorlinear.xorlinear\", \"seed\": 6778475259378763626, \"parameters\": []}], \"storage\": {\"__llstorageconfig__\": true, \"mode\": \"BUCKETS\", \"concurrent\": true, \"disable_quotienting\": false}}"
            },
            "options": {
                "disable_gc": false,
                "timer": "perf_counter",
                "min_rounds": 5,
                "max_time": 1.0,
                "min_time": 5e-06,
                "warmup": false
            },
            "stats": {
                "min": 0.33680392894893885,
                "max": 0.5442817159928381,
                "mean": 0.3576361438841559,
                "stddev": 0.06558062455213681,
                "rounds": 10,
                "median": 0.33688938501290977,
                "iqr": 0.00016925192903727293,
                "q1": 0.33683950908016413,
                "q3": 0.3370087610092014,
                "iqr_outliers": 1,
                "stddev_outliers": 1,
                "outliers": "1;1",
                "ld15iqr": 0.33680392894893885,
                "hd15iqr": 0.5442817159928381,
                "ops": 2.7961379662004076,
                "total": 3.576361438841559,
                "data": [
                    0.5442817159928381,
                    0.3370634989114478,
                    0.3370087610092014,
                    0.3369364090031013,
                    0.3368964010151103,
                    0.3368448029505089,
                    0.33683950908016413,
                    0.3368040429195389,
                    0.33680392894893885,
                    0.3368823690107092
                ],
                "iterations": 1
            }
        },
        {
            "group": "searching",
            "name": "search",
            "fullname": "bench_operations.py::test_cost_optimal",
            "params": null,
            "param": null,
            "extra_info": {
                "key_count": 10000000,
                "thread_count": 1,
                "config": "{\"__llconfig__\": true, \"k\": 31, \"key_bits\": 38, \"value_bits\": 32, \"bucket_count\": 33333334, \"bucket_size\": 4, \"value_module\": {\"__llvaluefunctions__\": true, \"module\": \"gecocoo.valuemodules.default.counting\", \"parameters\": []}, \"hash_functions\": [{\"__llhashfunction__\": true, \"name\": \"gecocoo.hashing.xorlinear.xorlinear\", \"seed\": 13705323683090591100, \"parameters\": []}, {\"__llhashfunction__\": true, \"name\": \"gecocoo.hashing.xorlinear.xorlinear\", \"seed\": 9010486988497971350, \"parameters\": []}, {\"__llhashfunction__\": true, \"name\": \"gecocoo.hashing.xorlinear.xorlinear\", \"seed\": 16521414532126319358, \"parameters\": []}, {\"__llhashfunction__\": true, \"name\": \"gecocoo.hashing.xorlinear.xorlinear\", \"seed\": 6778475259378763626, \"parameters\": []}], \"storage\": {\"__llstorageconfig__\": true, \"mode\": \"BUCKETS\", \"concurrent\": true, \"disable_quotienting\": false}}"
            },
            "options": {
                "disable_gc": false,
                "timer": "perf_counter",
                "min_rounds": 5,
                "max_time": 1.0,
                "min_time": 5e-06,
                "warmup": false
            },
            "stats": {
                "min": 3.3650456609902903,
                "max": 3.5693867079680786,
                "mean": 3.3954331599758008,
                "stddev": 0.06636233617727133,
                "rounds": 10,
                "median": 3.3655369294574484,
                "iqr": 0.011606484069488943,
                "q1": 3.365243952954188,
                "q3": 3.376850437023677,
                "iqr_outliers": 2,
                "stddev_outliers": 1,
                "outliers": "1;2",
                "ld15iqr": 3.3650456609902903,
                "hd15iqr": 3.448513277922757,
                "ops": 0.2945132337716602,
                "total": 33.95433159975801,
                "data": [
                    3.5693867079680786,
                    3.376850437023677,
                    3.365243952954188,
                    3.448513277922757,
                    3.3677909689722583,
                    3.3656782609177753,
                    3.3653222100110725,
                    3.3650456609902903,
                    3.3651045250007883,
                    3.3653955979971215
                ],
                "iterations": 1
            }
        },
        {
            "group": "searching",
            "name": "search",
            "fullname": "bench_operations.py::test_cost_optimal",
            "params": null,
            "param": null,
            "extra_info": {
                "key_count": 100000000,
                "thread_count": 1,
                "config": "{\"__llconfig__\": true, \"k\": 31, \"key_bits\": 38, \"value_bits\": 32, \"bucket_count\": 33333334, \"bucket_size\": 4, \"value_module\": {\"__llvaluefunctions__\": true, \"module\": \"gecocoo.valuemodules.default.counting\", \"parameters\": []}, \"hash_functions\": [{\"__llhashfunction__\": true, \"name\": \"gecocoo.hashing.xorlinear.xorlinear\", \"seed\": 13705323683090591100, \"parameters\": []}, {\"__llhashfunction__\": true, \"name\": \"gecocoo.hashing.xorlinear.xorlinear\", \"seed\": 9010486988497971350, \"parameters\": []}, {\"__llhashfunction__\": true, \"name\": \"gecocoo.hashing.xorlinear.xorlinear\", \"seed\": 16521414532126319358, \"parameters\": []}, {\"__llhashfunction__\": true, \"name\": \"gecocoo.hashing.xorlinear.xorlinear\", \"seed\": 6778475259378763626, \"parameters\": []}], \"storage\": {\"__llstorageconfig__\": true, \"mode\": \"BUCKETS\", \"concurrent\": true, \"disable_quotienting\": false}}"
            },
            "options": {
                "disable_gc": false,
                "timer": "perf_counter",
                "min_rounds": 5,
                "max_time": 1.0,
                "min_time": 5e-06,
                "warmup": false
            },
            "stats": {
                "min": 33.645457628997974,
                "max": 33.872784906066954,
                "mean": 33.6778572743875,
                "stddev": 0.06929141175586062,
                "rounds": 10,
                "median": 33.658978848019615,
                "iqr": 0.014480035984888673,
                "q1": 33.64690227294341,
                "q3": 33.661382308928296,
                "iqr_outliers": 1,
                "stddev_outliers": 1,
                "outliers": "1;1",
                "ld15iqr": 33.645457628997974,
                "hd15iqr": 33.872784906066954,
                "ops": 0.029693100480015236,
                "total": 336.778572743875,
                "data": [
                    33.872784906066954,
                    33.647544117993675,
                    33.656700670020655,
                    33.64592443197034,
                    33.66136971290689,
                    33.64690227294341,
                    33.679249668028206,
                    33.661257026018575,
                    33.645457628997974,
                    33.661382308928296
                ],
                "iterations": 1
            }
        },
        {
            "group": "searching",
            "name": "search",
            "fullname": "bench_operations.py::test_cost_optimal",
            "params": null,
            "param": null,
            "extra_info": {
                "key_count": 1000000,
                "thread_count": 8,
                "config": "{\"__llconfig__\": true, \"k\": 31, \"key_bits\": 38, \"value_bits\": 32, \"bucket_count\": 33333334, \"bucket_size\": 4, \"value_module\": {\"__llvaluefunctions__\": true, \"module\": \"gecocoo.valuemodules.default.counting\", \"parameters\": []}, \"hash_functions\": [{\"__llhashfunction__\": true, \"name\": \"gecocoo.hashing.xorlinear.xorlinear\", \"seed\": 13705323683090591100, \"parameters\": []}, {\"__llhashfunction__\": true, \"name\": \"gecocoo.hashing.xorlinear.xorlinear\", \"seed\": 9010486988497971350, \"parameters\": []}, {\"__llhashfunction__\": true, \"name\": \"gecocoo.hashing.xorlinear.xorlinear\", \"seed\": 16521414532126319358, \"parameters\": []}, {\"__llhashfunction__\": true, \"name\": \"gecocoo.hashing.xorlinear.xorlinear\", \"seed\": 6778475259378763626, \"parameters\": []}], \"storage\": {\"__llstorageconfig__\": true, \"mode\": \"BUCKETS\", \"concurrent\": true, \"disable_quotienting\": false}}"
            },
            "options": {
                "disable_gc": false,
                "timer": "perf_counter",
                "min_rounds": 5,
                "max_time": 1.0,
                "min_time": 5e-06,
                "warmup": false
            },
            "stats": {
                "min": 0.046392438001930714,
                "max": 0.3353968180017546,
                "mean": 0.08471545580541714,
                "stddev": 0.08867480750247304,
                "rounds": 10,
                "median": 0.05811242654453963,
                "iqr": 0.02389677509199828,
                "q1": 0.04648288292810321,
                "q3": 0.07037965802010149,
                "iqr_outliers": 1,
                "stddev_outliers": 1,
                "outliers": "1;1",
                "ld15iqr": 0.046392438001930714,
                "hd15iqr": 0.3353968180017546,
                "ops": 11.804221443332596,
                "total": 0.8471545580541715,
                "data": [
                    0.3353968180017546,
                    0.07037965802010149,
                    0.046463870094157755,
                    0.04648288292810321,
                    0.06871037697419524,
                    0.05825383809860796,
                    0.046550781931728125,
                    0.046392438001930714,
                    0.07055287901312113,
                    0.0579710149904713
                ],
                "iterations": 1
            }
        },
        {
            "group": "searching",
            "name": "search",
            "fullname": "bench_operations.py::test_cost_optimal",
            "params": null,
            "param": null,
            "extra_info": {
                "key_count": 10000000,
                "thread_count": 8,
                "config": "{\"__llconfig__\": true, \"k\": 31, \"key_bits\": 38, \"value_bits\": 32, \"bucket_count\": 33333334, \"bucket_size\": 4, \"value_module\": {\"__llvaluefunctions__\": true, \"module\": \"gecocoo.valuemodules.default.counting\", \"parameters\": []}, \"hash_functions\": [{\"__llhashfunction__\": true, \"name\": \"gecocoo.hashing.xorlinear.xorlinear\", \"seed\": 13705323683090591100, \"parameters\": []}, {\"__llhashfunction__\": true, \"name\": \"gecocoo.hashing.xorlinear.xorlinear\", \"seed\": 9010486988497971350, \"parameters\": []}, {\"__llhashfunction__\": true, \"name\": \"gecocoo.hashing.xorlinear.xorlinear\", \"seed\": 16521414532126319358, \"parameters\": []}, {\"__llhashfunction__\": true, \"name\": \"gecocoo.hashing.xorlinear.xorlinear\", \"seed\": 6778475259378763626, \"parameters\": []}], \"storage\": {\"__llstorageconfig__\": true, \"mode\": \"BUCKETS\", \"concurrent\": true, \"disable_quotienting\": false}}"
            },
            "options": {
                "disable_gc": false,
                "timer": "perf_counter",
                "min_rounds": 5,
                "max_time": 1.0,
                "min_time": 5e-06,
                "warmup": false
            },
            "stats": {
                "min": 0.4420060380361974,
                "max": 0.6416736780665815,
                "mean": 0.4682096207048744,
                "stddev": 0.06275264218236723,
                "rounds": 10,
                "median": 0.44251082045957446,
                "iqr": 0.008724817889742553,
                "q1": 0.44246613106224686,
                "q3": 0.4511909489519894,
                "iqr_outliers": 2,
                "stddev_outliers": 1,
                "outliers": "1;2",
                "ld15iqr": 0.4420060380361974,
                "hd15iqr": 0.49046757200267166,
                "ops": 2.1357954979535285,
                "total": 4.682096207048744,
                "data": [
                    0.6416736780665815,
                    0.49046757200267166,
                    0.4445059560239315,
                    0.44248287193477154,
                    0.44246613106224686,
                    0.4425387689843774,
                    0.4511909489519894,
                    0.4420060380361974,
                    0.44228289602324367,
                    0.44248134596273303
                ],
                "iterations": 1
            }
        },
        {
            "group": "searching",
            "name": "search",
            "fullname": "bench_operations.py::test_cost_optimal",
            "params": null,
            "param": null,
            "extra_info": {
                "key_count": 100000000,
                "thread_count": 8,
                "config": "{\"__llconfig__\": true, \"k\": 31, \"key_bits\": 38, \"value_bits\": 32, \"bucket_count\": 33333334, \"bucket_size\": 4, \"value_module\": {\"__llvaluefunctions__\": true, \"module\": \"gecocoo.valuemodules.default.counting\", \"parameters\": []}, \"hash_functions\": [{\"__llhashfunction__\": true, \"name\": \"gecocoo.hashing.xorlinear.xorlinear\", \"seed\": 13705323683090591100, \"parameters\": []}, {\"__llhashfunction__\": true, \"name\": \"gecocoo.hashing.xorlinear.xorlinear\", \"seed\": 9010486988497971350, \"parameters\": []}, {\"__llhashfunction__\": true, \"name\": \"gecocoo.hashing.xorlinear.xorlinear\", \"seed\": 16521414532126319358, \"parameters\": []}, {\"__llhashfunction__\": true, \"name\": \"gecocoo.hashing.xorlinear.xorlinear\", \"seed\": 6778475259378763626, \"parameters\": []}], \"storage\": {\"__llstorageconfig__\": true, \"mode\": \"BUCKETS\", \"concurrent\": true, \"disable_quotienting\": false}}"
            },
            "options": {
                "disable_gc": false,
                "timer": "perf_counter",
                "min_rounds": 5,
                "max_time": 1.0,
                "min_time": 5e-06,
                "warmup": false
            },
            "stats": {
                "min": 4.399997564032674,
                "max": 4.59845186304301,
                "mean": 4.4252250191872005,
                "stddev": 0.06148403278146574,
                "rounds": 10,
                "median": 4.404092585959006,
                "iqr": 0.004474656074307859,
                "q1": 4.401610455941409,
                "q3": 4.406085112015717,
                "iqr_outliers": 2,
                "stddev_outliers": 1,
                "outliers": "1;2",
                "ld15iqr": 4.399997564032674,
                "hd15iqr": 4.430049900896847,
                "ops": 0.22597720921854367,
                "total": 44.25225019187201,
                "data": [
                    4.59845186304301,
                    4.404080230975524,
                    4.401396790985018,
                    4.406085112015717,
                    4.404104940942489,
                    4.4045462450012565,
                    4.401610455941409,
                    4.430049900896847,
                    4.4019270880380645,
                    4.399997564032674
                ],
                "iterations": 1
            }
        },
        {
            "group": "searching",
            "name": "search",
            "fullname": "bench_operations.py::test_cost_optimal",
            "params": null,
            "param": null,
            "extra_info": {
                "key_count": 1000000,
                "thread_count": 16,
                "config": "{\"__llconfig__\": true, \"k\": 31, \"key_bits\": 38, \"value_bits\": 32, \"bucket_count\": 33333334, \"bucket_size\": 4, \"value_module\": {\"__llvaluefunctions__\": true, \"module\": \"gecocoo.valuemodules.default.counting\", \"parameters\": []}, \"hash_functions\": [{\"__llhashfunction__\": true, \"name\": \"gecocoo.hashing.xorlinear.xorlinear\", \"seed\": 13705323683090591100, \"parameters\": []}, {\"__llhashfunction__\": true, \"name\": \"gecocoo.hashing.xorlinear.xorlinear\", \"seed\": 9010486988497971350, \"parameters\": []}, {\"__llhashfunction__\": true, \"name\": \"gecocoo.hashing.xorlinear.xorlinear\", \"seed\": 16521414532126319358, \"parameters\": []}, {\"__llhashfunction__\": true, \"name\": \"gecocoo.hashing.xorlinear.xorlinear\", \"seed\": 6778475259378763626, \"parameters\": []}], \"storage\": {\"__llstorageconfig__\": true, \"mode\": \"BUCKETS\", \"concurrent\": true, \"disable_quotienting\": false}}"
            },
            "options": {
                "disable_gc": false,
                "timer": "perf_counter",
                "min_rounds": 5,
                "max_time": 1.0,
                "min_time": 5e-06,
                "warmup": false
            },
            "stats": {
                "min": 0.04806649906095117,
                "max": 0.25257609493564814,
                "mean": 0.07535019599599764,
                "stddev": 0.06235416872171849,
                "rounds": 10,
                "median": 0.055627874040510505,
                "iqr": 0.004081094055436552,
                "q1": 0.054939906927756965,
                "q3": 0.05902100098319352,
                "iqr_outliers": 2,
                "stddev_outliers": 1,
                "outliers": "1;2",
                "ld15iqr": 0.0545511890668422,
                "hd15iqr": 0.25257609493564814,
                "ops": 13.27136561201668,
                "total": 0.7535019599599764,
                "data": [
                    0.25257609493564814,
                    0.055146040045656264,
                    0.05902100098319352,
                    0.058846458909101784,
                    0.0545511890668422,
                    0.05610970803536475,
                    0.04806649906095117,
                    0.05513916700147092,
                    0.054939906927756965,
                    0.05910589499399066
                ],
                "iterations": 1
            }
        },
        {
            "group": "searching",
            "name": "search",
            "fullname": "bench_operations.py::test_cost_optimal",
            "params": null,
            "param": null,
            "extra_info": {
                "key_count": 10000000,
                "thread_count": 16,
                "config": "{\"__llconfig__\": true, \"k\": 31, \"key_bits\": 38, \"value_bits\": 32, \"bucket_count\": 33333334, \"bucket_size\": 4, \"value_module\": {\"__llvaluefunctions__\": true, \"module\": \"gecocoo.valuemodules.default.counting\", \"parameters\": []}, \"hash_functions\": [{\"__llhashfunction__\": true, \"name\": \"gecocoo.hashing.xorlinear.xorlinear\", \"seed\": 13705323683090591100, \"parameters\": []}, {\"__llhashfunction__\": true, \"name\": \"gecocoo.hashing.xorlinear.xorlinear\", \"seed\": 9010486988497971350, \"parameters\": []}, {\"__llhashfunction__\": true, \"name\": \"gecocoo.hashing.xorlinear.xorlinear\", \"seed\": 16521414532126319358, \"parameters\": []}, {\"__llhashfunction__\": true, \"name\": \"gecocoo.hashing.xorlinear.xorlinear\", \"seed\": 6778475259378763626, \"parameters\": []}], \"storage\": {\"__llstorageconfig__\": true, \"mode\": \"BUCKETS\", \"concurrent\": true, \"disable_quotienting\": false}}"
            },
            "options": {
                "disable_gc": false,
                "timer": "perf_counter",
                "min_rounds": 5,
                "max_time": 1.0,
                "min_time": 5e-06,
                "warmup": false
            },
            "stats": {
                "min": 0.44470363901928067,
                "max": 0.7220947240712121,
                "mean": 0.48659288880880924,
                "stddev": 0.0831609684609634,
                "rounds": 10,
                "median": 0.4636748434859328,
                "iqr": 0.008509094128385186,
                "q1": 0.45882232196163386,
                "q3": 0.46733141609001905,
                "iqr_outliers": 2,
                "stddev_outliers": 1,
                "outliers": "1;2",
                "ld15iqr": 0.4474019689951092,
                "hd15iqr": 0.7220947240712121,
                "ops": 2.055106071212885,
                "total": 4.865928888088092,
                "data": [
                    0.7220947240712121,
                    0.4474019689951092,
                    0.46733141609001905,
                    0.4622046089498326,
                    0.44470363901928067,
                    0.46580024203285575,
                    0.47022027999628335,
                    0.46264984796289355,
                    0.46469983900897205,
                    0.45882232196163386
                ],
                "iterations": 1
            }
        },
        {
            "group": "searching",
            "name": "search",
            "fullname": "bench_operations.py::test_cost_optimal",
            "params": null,
            "param": null,
            "extra_info": {
                "key_count": 100000000,
                "thread_count": 16,
                "config": "{\"__llconfig__\": true, \"k\": 31, \"key_bits\": 38, \"value_bits\": 32, \"bucket_count\": 33333334, \"bucket_size\": 4, \"value_module\": {\"__llvaluefunctions__\": true, \"module\": \"gecocoo.valuemodules.default.counting\", \"parameters\": []}, \"hash_functions\": [{\"__llhashfunction__\": true, \"name\": \"gecocoo.hashing.xorlinear.xorlinear\", \"seed\": 13705323683090591100, \"parameters\": []}, {\"__llhashfunction__\": true, \"name\": \"gecocoo.hashing.xorlinear.xorlinear\", \"seed\": 9010486988497971350, \"parameters\": []}, {\"__llhashfunction__\": true, \"name\": \"gecocoo.hashing.xorlinear.xorlinear\", \"seed\": 16521414532126319358, \"parameters\": []}, {\"__llhashfunction__\": true, \"name\": \"gecocoo.hashing.xorlinear.xorlinear\", \"seed\": 6778475259378763626, \"parameters\": []}], \"storage\": {\"__llstorageconfig__\": true, \"mode\": \"BUCKETS\", \"concurrent\": true, \"disable_quotienting\": false}}"
            },
            "options": {
                "disable_gc": false,
                "timer": "perf_counter",
                "min_rounds": 5,
                "max_time": 1.0,
                "min_time": 5e-06,
                "warmup": false
            },
            "stats": {
                "min": 3.7509039100259542,
                "max": 4.080928150913678,
                "mean": 3.899667271692306,
                "stddev": 0.09234775895630422,
                "rounds": 10,
                "median": 3.894575242011342,
                "iqr": 0.09991644497495145,
                "q1": 3.8391710210125893,
                "q3": 3.939087465987541,
                "iqr_outliers": 0,
                "stddev_outliers": 3,
                "outliers": "3;0",
                "ld15iqr": 3.7509039100259542,
                "hd15iqr": 4.080928150913678,
                "ops": 0.25643213390511604,
                "total": 38.99667271692306,
                "data": [
                    3.993445725995116,
                    3.9134870789712295,
                    4.080928150913678,
                    3.8391710210125893,
                    3.875663405051455,
                    3.9145180670311674,
                    3.8639137169811875,
                    3.7509039100259542,
                    3.939087465987541,
                    3.8255541749531403
                ],
                "iterations": 1
            }
        }
    ],
    "datetime": "2021-02-22T14:36:06.184758",
    "version": "3.2.3"
}