{
    "__llconfig__": true,
    "k": 31,
    "key_bits": 38,
    "value_bits": 32,
    "bucket_count": 17543860,
    "bucket_size": 6,
    "value_module": {
        "__llvaluefunctions__": true,
        "module": "gecocoo.valuemodules.default.counting",
        "parameters": []
    },
    "hash_functions": [
        {
            "__llhashfunction__": true,
            "name": "gecocoo.hashing.xorlinear.xorlinear",
            "seed": 715644794423392143,
            "parameters": []
        },
        {
            "__llhashfunction__": true,
            "name": "gecocoo.hashing.xorlinear.xorlinear",
            "seed": 10606276356039829691,
            "parameters": []
        }
    ],
    "storage": {
        "__llstorageconfig__": true,
        "mode": "BUCKETS",
        "concurrent": true,
        "disable_quotienting": false
    }
}