{
    "__llconfig__": true,
    "k": 31,
    "key_bits": 39,
    "value_bits": 32,
    "bucket_count": 10309279,
    "bucket_size": 10,
    "value_module": {
        "__llvaluefunctions__": true,
        "module": "gecocoo.valuemodules.default.counting",
        "parameters": []
    },
    "hash_functions": [
        {
            "__llhashfunction__": true,
            "name": "gecocoo.hashing.xorlinear.xorlinear",
            "seed": 7087778590581747779,
            "parameters": []
        },
        {
            "__llhashfunction__": true,
            "name": "gecocoo.hashing.xorlinear.xorlinear",
            "seed": 11258766053827449188,
            "parameters": []
        },
        {
            "__llhashfunction__": true,
            "name": "gecocoo.hashing.xorlinear.xorlinear",
            "seed": 3015030994110569136,
            "parameters": []
        },
        {
            "__llhashfunction__": true,
            "name": "gecocoo.hashing.xorlinear.xorlinear",
            "seed": 1251492671932792068,
            "parameters": []
        }
    ],
    "storage": {
        "__llstorageconfig__": true,
        "mode": "BUCKETS",
        "concurrent": true,
        "disable_quotienting": false
    }
}