{
    "__llconfig__": true,
    "k": 31,
    "key_bits": 39,
    "value_bits": 32,
    "bucket_count": 10526316,
    "bucket_size": 10,
    "value_module": {
        "__llvaluefunctions__": true,
        "module": "gecocoo.valuemodules.default.counting",
        "parameters": []
    },
    "hash_functions": [
        {
            "__llhashfunction__": true,
            "name": "gecocoo.hashing.xorlinear.xorlinear",
            "seed": 5042455600888205722,
            "parameters": []
        },
        {
            "__llhashfunction__": true,
            "name": "gecocoo.hashing.xorlinear.xorlinear",
            "seed": 17015496724893755693,
            "parameters": []
        },
        {
            "__llhashfunction__": true,
            "name": "gecocoo.hashing.xorlinear.xorlinear",
            "seed": 4333900816552578036,
            "parameters": []
        },
        {
            "__llhashfunction__": true,
            "name": "gecocoo.hashing.xorlinear.xorlinear",
            "seed": 13878196377306733144,
            "parameters": []
        }
    ],
    "storage": {
        "__llstorageconfig__": true,
        "mode": "BUCKETS",
        "concurrent": true,
        "disable_quotienting": false
    }
}