{
    "__llconfig__": true,
    "k": 31,
    "key_bits": 38,
    "value_bits": 32,
    "bucket_count": 25773196,
    "bucket_size": 4,
    "value_module": {
        "__llvaluefunctions__": true,
        "module": "gecocoo.valuemodules.default.counting",
        "parameters": []
    },
    "hash_functions": [
        {
            "__llhashfunction__": true,
            "name": "gecocoo.hashing.xorlinear.xorlinear",
            "seed": 9021283709375873714,
            "parameters": []
        },
        {
            "__llhashfunction__": true,
            "name": "gecocoo.hashing.xorlinear.xorlinear",
            "seed": 13789652839433144022,
            "parameters": []
        },
        {
            "__llhashfunction__": true,
            "name": "gecocoo.hashing.xorlinear.xorlinear",
            "seed": 2492929878286630262,
            "parameters": []
        },
        {
            "__llhashfunction__": true,
            "name": "gecocoo.hashing.xorlinear.xorlinear",
            "seed": 34170307508219301,
            "parameters": []
        }
    ],
    "storage": {
        "__llstorageconfig__": true,
        "mode": "BUCKETS",
        "concurrent": true,
        "disable_quotienting": false
    }
}