{
    "machine_info": {
        "node": "cstd01-135",
        "processor": "x86_64",
        "machine": "x86_64",
        "python_compiler": "GCC 7.3.0",
        "python_implementation": "CPython",
        "python_implementation_version": "3.7.9",
        "python_version": "3.7.9",
        "python_build": [
            "default",
            "Aug 31 2020 12:42:55"
        ],
        "release": "3.10.0-1160.6.1.el7.x86_64",
        "system": "Linux",
        "cpu": {
            "vendor_id": "unknown",
            "hardware": "unknown",
            "brand": "unknown"
        }
    },
    "commit_info": {
        "id": "unversioned",
        "time": null,
        "author_time": null,
        "dirty": false,
        "project": "gecocoo-2021-03-06T20_04_12.073701-origin_develop",
        "branch": "(unknown)"
    },
    "benchmarks": [
        {
            "group": "inserting",
            "name": "insert",
            "fullname": "bench_operations.py::test_cost_optimal",
            "params": null,
            "param": null,
            "extra_info": {
                "key_count": 100000000,
                "thread_count": 1,
                "config": "{\"__llconfig__\": true, \"k\": 31, \"key_bits\": 38, \"value_bits\": 32, \"bucket_count\": 26315790, \"bucket_size\": 4, \"value_module\": {\"__llvaluefunctions__\": true, \"module\": \"gecocoo.valuemodules.default.counting\", \"parameters\": []}, \"hash_functions\": [{\"__llhashfunction__\": true, \"name\": \"gecocoo.hashing.xorlinear.xorlinear\", \"seed\": 14767805658463430131, \"parameters\": []}, {\"__llhashfunction__\": true, \"name\": \"gecocoo.hashing.xorlinear.xorlinear\", \"seed\": 11048861351600397683, \"parameters\": []}, {\"__llhashfunction__\": true, \"name\": \"gecocoo.hashing.xorlinear.xorlinear\", \"seed\": 11029577848690669808, \"parameters\": []}, {\"__llhashfunction__\": true, \"name\": \"gecocoo.hashing.xorlinear.xorlinear\", \"seed\": 15041279708376387065, \"parameters\": []}], \"storage\": {\"__llstorageconfig__\": true, \"mode\": \"BUCKETS\", \"concurrent\": true, \"disable_quotienting\": false}}"
            },
            "options": {
                "disable_gc": false,
                "timer": "perf_counter",
                "min_rounds": 5,
                "max_time": 1.0,
                "min_time": 5e-06,
                "warmup": false
            },
            "stats": {
                "min": 2290.6460985857993,
                "max": 2290.6460985857993,
                "mean": 2290.6460985857993,
                "stddev": 0,
                "rounds": 1,
                "median": 2290.6460985857993,
                "iqr": 0.0,
                "q1": 2290.6460985857993,
                "q3": 2290.6460985857993,
                "iqr_outliers": 0,
                "stddev_outliers": 0,
                "outliers": "0;0",
                "ld15iqr": 2290.6460985857993,
                "hd15iqr": 2290.6460985857993,
                "ops": 0.0004365580526024429,
                "total": 2290.6460985857993,
                "data": [
                    2290.6460985857993
                ],
                "iterations": 1
            }
        },
        {
            "group": "searching",
            "name": "search",
            "fullname": "bench_operations.py::test_cost_optimal",
            "params": null,
            "param": null,
            "extra_info": {
                "key_count": 100000000,
                "search_missing": 0,
                "search_hitt\u00edng": 1000000,
                "thread_count": 1,
                "config": "{\"__llconfig__\": true, \"k\": 31, \"key_bits\": 38, \"value_bits\": 32, \"bucket_count\": 26315790, \"bucket_size\": 4, \"value_module\": {\"__llvaluefunctions__\": true, \"module\": \"gecocoo.valuemodules.default.counting\", \"parameters\": []}, \"hash_functions\": [{\"__llhashfunction__\": true, \"name\": \"gecocoo.hashing.xorlinear.xorlinear\", \"seed\": 14767805658463430131, \"parameters\": []}, {\"__llhashfunction__\": true, \"name\": \"gecocoo.hashing.xorlinear.xorlinear\", \"seed\": 11048861351600397683, \"parameters\": []}, {\"__llhashfunction__\": true, \"name\": \"gecocoo.hashing.xorlinear.xorlinear\", \"seed\": 11029577848690669808, \"parameters\": []}, {\"__llhashfunction__\": true, \"name\": \"gecocoo.hashing.xorlinear.xorlinear\", \"seed\": 15041279708376387065, \"parameters\": []}], \"storage\": {\"__llstorageconfig__\": true, \"mode\": \"BUCKETS\", \"concurrent\": true, \"disable_quotienting\": false}}"
            },
            "options": {
                "disable_gc": false,
                "timer": "perf_counter",
                "min_rounds": 5,
                "max_time": 1.0,
                "min_time": 5e-06,
                "warmup": false
            },
            "stats": {
                "min": 0.17876047734171152,
                "max": 0.3872152171097696,
                "mean": 0.22057132739573718,
                "stddev": 0.09315686995347983,
                "rounds": 5,
                "median": 0.178875254932791,
                "iqr": 0.05231604783330113,
                "q1": 0.17884107073768973,
                "q3": 0.23115711857099086,
                "iqr_outliers": 1,
                "stddev_outliers": 1,
                "outliers": "1;1",
                "ld15iqr": 0.17876047734171152,
                "hd15iqr": 0.3872152171097696,
                "ops": 4.533680836067392,
                "total": 1.1028566369786859,
                "data": [
                    0.3872152171097696,
                    0.17913775239139795,
                    0.1788679352030158,
                    0.17876047734171152,
                    0.178875254932791
                ],
                "iterations": 1
            }
        },
        {
            "group": "searching",
            "name": "search",
            "fullname": "bench_operations.py::test_cost_optimal",
            "params": null,
            "param": null,
            "extra_info": {
                "key_count": 100000000,
                "search_missing": 1000000,
                "search_hitt\u00edng": 0,
                "thread_count": 1,
                "config": "{\"__llconfig__\": true, \"k\": 31, \"key_bits\": 38, \"value_bits\": 32, \"bucket_count\": 26315790, \"bucket_size\": 4, \"value_module\": {\"__llvaluefunctions__\": true, \"module\": \"gecocoo.valuemodules.default.counting\", \"parameters\": []}, \"hash_functions\": [{\"__llhashfunction__\": true, \"name\": \"gecocoo.hashing.xorlinear.xorlinear\", \"seed\": 14767805658463430131, \"parameters\": []}, {\"__llhashfunction__\": true, \"name\": \"gecocoo.hashing.xorlinear.xorlinear\", \"seed\": 11048861351600397683, \"parameters\": []}, {\"__llhashfunction__\": true, \"name\": \"gecocoo.hashing.xorlinear.xorlinear\", \"seed\": 11029577848690669808, \"parameters\": []}, {\"__llhashfunction__\": true, \"name\": \"gecocoo.hashing.xorlinear.xorlinear\", \"seed\": 15041279708376387065, \"parameters\": []}], \"storage\": {\"__llstorageconfig__\": true, \"mode\": \"BUCKETS\", \"concurrent\": true, \"disable_quotienting\": false}}"
            },
            "options": {
                "disable_gc": false,
                "timer": "perf_counter",
                "min_rounds": 5,
                "max_time": 1.0,
                "min_time": 5e-06,
                "warmup": false
            },
            "stats": {
                "min": 0.5046240678057075,
                "max": 0.7066691177897155,
                "mean": 0.5450498353689909,
                "stddev": 0.09034792895969729,
                "rounds": 5,
                "median": 0.5046448120847344,
                "iqr": 0.0505568094085902,
                "q1": 0.5046249356819317,
                "q3": 0.5551817450905219,
                "iqr_outliers": 1,
                "stddev_outliers": 1,
                "outliers": "1;1",
                "ld15iqr": 0.5046240678057075,
                "hd15iqr": 0.7066691177897155,
                "ops": 1.8346946189296882,
                "total": 2.7252491768449545,
                "data": [
                    0.7066691177897155,
                    0.5046859541907907,
                    0.5046448120847344,
                    0.5046252249740064,
                    0.5046240678057075
                ],
                "iterations": 1
            }
        },
        {
            "group": "searching",
            "name": "search",
            "fullname": "bench_operations.py::test_cost_optimal",
            "params": null,
            "param": null,
            "extra_info": {
                "key_count": 100000000,
                "search_missing": 0,
                "search_hitt\u00edng": 10000000,
                "thread_count": 1,
                "config": "{\"__llconfig__\": true, \"k\": 31, \"key_bits\": 38, \"value_bits\": 32, \"bucket_count\": 26315790, \"bucket_size\": 4, \"value_module\": {\"__llvaluefunctions__\": true, \"module\": \"gecocoo.valuemodules.default.counting\", \"parameters\": []}, \"hash_functions\": [{\"__llhashfunction__\": true, \"name\": \"gecocoo.hashing.xorlinear.xorlinear\", \"seed\": 14767805658463430131, \"parameters\": []}, {\"__llhashfunction__\": true, \"name\": \"gecocoo.hashing.xorlinear.xorlinear\", \"seed\": 11048861351600397683, \"parameters\": []}, {\"__llhashfunction__\": true, \"name\": \"gecocoo.hashing.xorlinear.xorlinear\", \"seed\": 11029577848690669808, \"parameters\": []}, {\"__llhashfunction__\": true, \"name\": \"gecocoo.hashing.xorlinear.xorlinear\", \"seed\": 15041279708376387065, \"parameters\": []}], \"storage\": {\"__llstorageconfig__\": true, \"mode\": \"BUCKETS\", \"concurrent\": true, \"disable_quotienting\": false}}"
            },
            "options": {
                "disable_gc": false,
                "timer": "perf_counter",
                "min_rounds": 5,
                "max_time": 1.0,
                "min_time": 5e-06,
                "warmup": false
            },
            "stats": {
                "min": 1.7834587548859417,
                "max": 1.9864898608066142,
                "mean": 1.8244769131764769,
                "stddev": 0.09056950533076916,
                "rounds": 5,
                "median": 1.7838388620875776,
                "iqr": 0.05158126598689705,
                "q1": 1.7836768520064652,
                "q3": 1.8352581179933622,
                "iqr_outliers": 1,
                "stddev_outliers": 1,
                "outliers": "1;1",
                "ld15iqr": 1.7834587548859417,
                "hd15iqr": 1.9864898608066142,
                "ops": 0.5481023041606844,
                "total": 9.122384565882385,
                "data": [
                    1.9864898608066142,
                    1.7834587548859417,
                    1.7838388620875776,
                    1.7848475370556116,
                    1.7837495510466397
                ],
                "iterations": 1
            }
        },
        {
            "group": "searching",
            "name": "search",
            "fullname": "bench_operations.py::test_cost_optimal",
            "params": null,
            "param": null,
            "extra_info": {
                "key_count": 100000000,
                "search_missing": 10000000,
                "search_hitt\u00edng": 0,
                "thread_count": 1,
                "config": "{\"__llconfig__\": true, \"k\": 31, \"key_bits\": 38, \"value_bits\": 32, \"bucket_count\": 26315790, \"bucket_size\": 4, \"value_module\": {\"__llvaluefunctions__\": true, \"module\": \"gecocoo.valuemodules.default.counting\", \"parameters\": []}, \"hash_functions\": [{\"__llhashfunction__\": true, \"name\": \"gecocoo.hashing.xorlinear.xorlinear\", \"seed\": 14767805658463430131, \"parameters\": []}, {\"__llhashfunction__\": true, \"name\": \"gecocoo.hashing.xorlinear.xorlinear\", \"seed\": 11048861351600397683, \"parameters\": []}, {\"__llhashfunction__\": true, \"name\": \"gecocoo.hashing.xorlinear.xorlinear\", \"seed\": 11029577848690669808, \"parameters\": []}, {\"__llhashfunction__\": true, \"name\": \"gecocoo.hashing.xorlinear.xorlinear\", \"seed\": 15041279708376387065, \"parameters\": []}], \"storage\": {\"__llstorageconfig__\": true, \"mode\": \"BUCKETS\", \"concurrent\": true, \"disable_quotienting\": false}}"
            },
            "options": {
                "disable_gc": false,
                "timer": "perf_counter",
                "min_rounds": 5,
                "max_time": 1.0,
                "min_time": 5e-06,
                "warmup": false
            },
            "stats": {
                "min": 5.040544007904828,
                "max": 5.365393431857228,
                "mean": 5.105996912717819,
                "stddev": 0.14500761322769984,
                "rounds": 5,
                "median": 5.041379398666322,
                "iqr": 0.08162513887509704,
                "q1": 5.040930007467978,
                "q3": 5.122555146343075,
                "iqr_outliers": 1,
                "stddev_outliers": 1,
                "outliers": "1;1",
                "ld15iqr": 5.040544007904828,
                "hd15iqr": 5.365393431857228,
                "ops": 0.19584814035222756,
                "total": 25.529984563589096,
                "data": [
                    5.365393431857228,
                    5.04160905117169,
                    5.041058673989028,
                    5.041379398666322,
                    5.040544007904828
                ],
                "iterations": 1
            }
        },
        {
            "group": "searching",
            "name": "search",
            "fullname": "bench_operations.py::test_cost_optimal",
            "params": null,
            "param": null,
            "extra_info": {
                "key_count": 100000000,
                "search_missing": 0,
                "search_hitt\u00edng": 100000000,
                "thread_count": 1,
                "config": "{\"__llconfig__\": true, \"k\": 31, \"key_bits\": 38, \"value_bits\": 32, \"bucket_count\": 26315790, \"bucket_size\": 4, \"value_module\": {\"__llvaluefunctions__\": true, \"module\": \"gecocoo.valuemodules.default.counting\", \"parameters\": []}, \"hash_functions\": [{\"__llhashfunction__\": true, \"name\": \"gecocoo.hashing.xorlinear.xorlinear\", \"seed\": 14767805658463430131, \"parameters\": []}, {\"__llhashfunction__\": true, \"name\": \"gecocoo.hashing.xorlinear.xorlinear\", \"seed\": 11048861351600397683, \"parameters\": []}, {\"__llhashfunction__\": true, \"name\": \"gecocoo.hashing.xorlinear.xorlinear\", \"seed\": 11029577848690669808, \"parameters\": []}, {\"__llhashfunction__\": true, \"name\": \"gecocoo.hashing.xorlinear.xorlinear\", \"seed\": 15041279708376387065, \"parameters\": []}], \"storage\": {\"__llstorageconfig__\": true, \"mode\": \"BUCKETS\", \"concurrent\": true, \"disable_quotienting\": false}}"
            },
            "options": {
                "disable_gc": false,
                "timer": "perf_counter",
                "min_rounds": 5,
                "max_time": 1.0,
                "min_time": 5e-06,
                "warmup": false
            },
            "stats": {
                "min": 17.835936299990863,
                "max": 24.4746077042073,
                "mean": 19.242927767243238,
                "stddev": 2.9260633891372794,
                "rounds": 5,
                "median": 18.01980157708749,
                "iqr": 1.7987197644542903,
                "q1": 17.846068088896573,
                "q3": 19.644787853350863,
                "iqr_outliers": 1,
                "stddev_outliers": 1,
                "outliers": "1;1",
                "ld15iqr": 17.835936299990863,
                "hd15iqr": 24.4746077042073,
                "ops": 0.05196714409032265,
                "total": 96.21463883621618,
                "data": [
                    18.034847903065383,
                    17.835936299990863,
                    24.4746077042073,
                    18.01980157708749,
                    17.849445351865143
                ],
                "iterations": 1
            }
        },
        {
            "group": "searching",
            "name": "search",
            "fullname": "bench_operations.py::test_cost_optimal",
            "params": null,
            "param": null,
            "extra_info": {
                "key_count": 100000000,
                "search_missing": 100000000,
                "search_hitt\u00edng": 0,
                "thread_count": 1,
                "config": "{\"__llconfig__\": true, \"k\": 31, \"key_bits\": 38, \"value_bits\": 32, \"bucket_count\": 26315790, \"bucket_size\": 4, \"value_module\": {\"__llvaluefunctions__\": true, \"module\": \"gecocoo.valuemodules.default.counting\", \"parameters\": []}, \"hash_functions\": [{\"__llhashfunction__\": true, \"name\": \"gecocoo.hashing.xorlinear.xorlinear\", \"seed\": 14767805658463430131, \"parameters\": []}, {\"__llhashfunction__\": true, \"name\": \"gecocoo.hashing.xorlinear.xorlinear\", \"seed\": 11048861351600397683, \"parameters\": []}, {\"__llhashfunction__\": true, \"name\": \"gecocoo.hashing.xorlinear.xorlinear\", \"seed\": 11029577848690669808, \"parameters\": []}, {\"__llhashfunction__\": true, \"name\": \"gecocoo.hashing.xorlinear.xorlinear\", \"seed\": 15041279708376387065, \"parameters\": []}], \"storage\": {\"__llstorageconfig__\": true, \"mode\": \"BUCKETS\", \"concurrent\": true, \"disable_quotienting\": false}}"
            },
            "options": {
                "disable_gc": false,
                "timer": "perf_counter",
                "min_rounds": 5,
                "max_time": 1.0,
                "min_time": 5e-06,
                "warmup": false
            },
            "stats": {
                "min": 50.44260668801144,
                "max": 61.23672067793086,
                "mean": 54.877664333302526,
                "stddev": 4.598808196845863,
                "rounds": 5,
                "median": 54.574841841124,
                "iqr": 7.794446621905081,
                "q1": 50.612999782082625,
                "q3": 58.407446403987706,
                "iqr_outliers": 0,
                "stddev_outliers": 1,
                "outliers": "1;0",
                "ld15iqr": 50.44260668801144,
                "hd15iqr": 61.23672067793086,
                "ops": 0.018222349878567076,
                "total": 274.38832166651264,
                "data": [
                    50.669797480106354,
                    50.44260668801144,
                    57.46435497933999,
                    61.23672067793086,
                    54.574841841124
                ],
                "iterations": 1
            }
        },
        {
            "group": "searching",
            "name": "search",
            "fullname": "bench_operations.py::test_cost_optimal",
            "params": null,
            "param": null,
            "extra_info": {
                "key_count": 100000000,
                "search_missing": 0,
                "search_hitt\u00edng": 1000000,
                "thread_count": 4,
                "config": "{\"__llconfig__\": true, \"k\": 31, \"key_bits\": 38, \"value_bits\": 32, \"bucket_count\": 26315790, \"bucket_size\": 4, \"value_module\": {\"__llvaluefunctions__\": true, \"module\": \"gecocoo.valuemodules.default.counting\", \"parameters\": []}, \"hash_functions\": [{\"__llhashfunction__\": true, \"name\": \"gecocoo.hashing.xorlinear.xorlinear\", \"seed\": 14767805658463430131, \"parameters\": []}, {\"__llhashfunction__\": true, \"name\": \"gecocoo.hashing.xorlinear.xorlinear\", \"seed\": 11048861351600397683, \"parameters\": []}, {\"__llhashfunction__\": true, \"name\": \"gecocoo.hashing.xorlinear.xorlinear\", \"seed\": 11029577848690669808, \"parameters\": []}, {\"__llhashfunction__\": true, \"name\": \"gecocoo.hashing.xorlinear.xorlinear\", \"seed\": 15041279708376387065, \"parameters\": []}], \"storage\": {\"__llstorageconfig__\": true, \"mode\": \"BUCKETS\", \"concurrent\": true, \"disable_quotienting\": false}}"
            },
            "options": {
                "disable_gc": false,
                "timer": "perf_counter",
                "min_rounds": 5,
                "max_time": 1.0,
                "min_time": 5e-06,
                "warmup": false
            },
            "stats": {
                "min": 0.06324981106445193,
                "max": 0.26716757006943226,
                "mean": 0.10444894125685096,
                "stddev": 0.09096369400102337,
                "rounds": 5,
                "median": 0.0640644240193069,
                "iqr": 0.051731072599068284,
                "q1": 0.06334772426635027,
                "q3": 0.11507879686541855,
                "iqr_outliers": 1,
                "stddev_outliers": 1,
                "outliers": "1;1",
                "ld15iqr": 0.06324981106445193,
                "hd15iqr": 0.26716757006943226,
                "ops": 9.574055878085874,
                "total": 0.5222447062842548,
                "data": [
                    0.26716757006943226,
                    0.06438253913074732,
                    0.0640644240193069,
                    0.06324981106445193,
                    0.06338036200031638
                ],
                "iterations": 1
            }
        },
        {
            "group": "searching",
            "name": "search",
            "fullname": "bench_operations.py::test_cost_optimal",
            "params": null,
            "param": null,
            "extra_info": {
                "key_count": 100000000,
                "search_missing": 1000000,
                "search_hitt\u00edng": 0,
                "thread_count": 4,
                "config": "{\"__llconfig__\": true, \"k\": 31, \"key_bits\": 38, \"value_bits\": 32, \"bucket_count\": 26315790, \"bucket_size\": 4, \"value_module\": {\"__llvaluefunctions__\": true, \"module\": \"gecocoo.valuemodules.default.counting\", \"parameters\": []}, \"hash_functions\": [{\"__llhashfunction__\": true, \"name\": \"gecocoo.hashing.xorlinear.xorlinear\", \"seed\": 14767805658463430131, \"parameters\": []}, {\"__llhashfunction__\": true, \"name\": \"gecocoo.hashing.xorlinear.xorlinear\", \"seed\": 11048861351600397683, \"parameters\": []}, {\"__llhashfunction__\": true, \"name\": \"gecocoo.hashing.xorlinear.xorlinear\", \"seed\": 11029577848690669808, \"parameters\": []}, {\"__llhashfunction__\": true, \"name\": \"gecocoo.hashing.xorlinear.xorlinear\", \"seed\": 15041279708376387065, \"parameters\": []}], \"storage\": {\"__llstorageconfig__\": true, \"mode\": \"BUCKETS\", \"concurrent\": true, \"disable_quotienting\": false}}"
            },
            "options": {
                "disable_gc": false,
                "timer": "perf_counter",
                "min_rounds": 5,
                "max_time": 1.0,
                "min_time": 5e-06,
                "warmup": false
            },
            "stats": {
                "min": 0.19364538323134184,
                "max": 0.39650674629956484,
                "mean": 0.23586476538330317,
                "stddev": 0.08980946849537377,
                "rounds": 5,
                "median": 0.19638153677806258,
                "iqr": 0.05077188543509692,
                "q1": 0.19567938370164484,
                "q3": 0.24645126913674176,
                "iqr_outliers": 1,
                "stddev_outliers": 1,
                "outliers": "1;1",
                "ld15iqr": 0.19364538323134184,
                "hd15iqr": 0.39650674629956484,
                "ops": 4.239717612653602,
                "total": 1.1793238269165158,
                "data": [
                    0.39650674629956484,
                    0.19364538323134184,
                    0.19643277674913406,
                    0.1963573838584125,
                    0.19638153677806258
                ],
                "iterations": 1
            }
        },
        {
            "group": "searching",
            "name": "search",
            "fullname": "bench_operations.py::test_cost_optimal",
            "params": null,
            "param": null,
            "extra_info": {
                "key_count": 100000000,
                "search_missing": 0,
                "search_hitt\u00edng": 10000000,
                "thread_count": 4,
                "config": "{\"__llconfig__\": true, \"k\": 31, \"key_bits\": 38, \"value_bits\": 32, \"bucket_count\": 26315790, \"bucket_size\": 4, \"value_module\": {\"__llvaluefunctions__\": true, \"module\": \"gecocoo.valuemodules.default.counting\", \"parameters\": []}, \"hash_functions\": [{\"__llhashfunction__\": true, \"name\": \"gecocoo.hashing.xorlinear.xorlinear\", \"seed\": 14767805658463430131, \"parameters\": []}, {\"__llhashfunction__\": true, \"name\": \"gecocoo.hashing.xorlinear.xorlinear\", \"seed\": 11048861351600397683, \"parameters\": []}, {\"__llhashfunction__\": true, \"name\": \"gecocoo.hashing.xorlinear.xorlinear\", \"seed\": 11029577848690669808, \"parameters\": []}, {\"__llhashfunction__\": true, \"name\": \"gecocoo.hashing.xorlinear.xorlinear\", \"seed\": 15041279708376387065, \"parameters\": []}], \"storage\": {\"__llstorageconfig__\": true, \"mode\": \"BUCKETS\", \"concurrent\": true, \"disable_quotienting\": false}}"
            },
            "options": {
                "disable_gc": false,
                "timer": "perf_counter",
                "min_rounds": 5,
                "max_time": 1.0,
                "min_time": 5e-06,
                "warmup": false
            },
            "stats": {
                "min": 0.5911359968595207,
                "max": 0.8197723277844489,
                "mean": 0.6546068803407252,
                "stddev": 0.0932518521331615,
                "rounds": 5,
                "median": 0.6194192441180348,
                "iqr": 0.06253592518623918,
                "q1": 0.6111106403404847,
                "q3": 0.6736465655267239,
                "iqr_outliers": 1,
                "stddev_outliers": 1,
                "outliers": "1;1",
                "ld15iqr": 0.5911359968595207,
                "hd15iqr": 0.8197723277844489,
                "ops": 1.5276344169793885,
                "total": 3.273034401703626,
                "data": [
                    0.8197723277844489,
                    0.6194192441180348,
                    0.6249379781074822,
                    0.5911359968595207,
                    0.6177688548341393
                ],
                "iterations": 1
            }
        },
        {
            "group": "searching",
            "name": "search",
            "fullname": "bench_operations.py::test_cost_optimal",
            "params": null,
            "param": null,
            "extra_info": {
                "key_count": 100000000,
                "search_missing": 10000000,
                "search_hitt\u00edng": 0,
                "thread_count": 4,
                "config": "{\"__llconfig__\": true, \"k\": 31, \"key_bits\": 38, \"value_bits\": 32, \"bucket_count\": 26315790, \"bucket_size\": 4, \"value_module\": {\"__llvaluefunctions__\": true, \"module\": \"gecocoo.valuemodules.default.counting\", \"parameters\": []}, \"hash_functions\": [{\"__llhashfunction__\": true, \"name\": \"gecocoo.hashing.xorlinear.xorlinear\", \"seed\": 14767805658463430131, \"parameters\": []}, {\"__llhashfunction__\": true, \"name\": \"gecocoo.hashing.xorlinear.xorlinear\", \"seed\": 11048861351600397683, \"parameters\": []}, {\"__llhashfunction__\": true, \"name\": \"gecocoo.hashing.xorlinear.xorlinear\", \"seed\": 11029577848690669808, \"parameters\": []}, {\"__llhashfunction__\": true, \"name\": \"gecocoo.hashing.xorlinear.xorlinear\", \"seed\": 15041279708376387065, \"parameters\": []}], \"storage\": {\"__llstorageconfig__\": true, \"mode\": \"BUCKETS\", \"concurrent\": true, \"disable_quotienting\": false}}"
            },
            "options": {
                "disable_gc": false,
                "timer": "perf_counter",
                "min_rounds": 5,
                "max_time": 1.0,
                "min_time": 5e-06,
                "warmup": false
            },
            "stats": {
                "min": 1.9336329493671656,
                "max": 2.128489756025374,
                "mean": 1.9771630526520312,
                "stddev": 0.08465836478870233,
                "rounds": 5,
                "median": 1.9412242099642754,
                "iqr": 0.049117818591184914,
                "q1": 1.9391320593422279,
                "q3": 1.9882498779334128,
                "iqr_outliers": 1,
                "stddev_outliers": 1,
                "outliers": "1;1",
                "ld15iqr": 1.9336329493671656,
                "hd15iqr": 2.128489756025374,
                "ops": 0.5057751805844584,
                "total": 9.885815263260156,
                "data": [
                    2.128489756025374,
                    1.9336329493671656,
                    1.9412242099642754,
                    1.940965096000582,
                    1.941503251902759
                ],
                "iterations": 1
            }
        },
        {
            "group": "searching",
            "name": "search",
            "fullname": "bench_operations.py::test_cost_optimal",
            "params": null,
            "param": null,
            "extra_info": {
                "key_count": 100000000,
                "search_missing": 0,
                "search_hitt\u00edng": 100000000,
                "thread_count": 4,
                "config": "{\"__llconfig__\": true, \"k\": 31, \"key_bits\": 38, \"value_bits\": 32, \"bucket_count\": 26315790, \"bucket_size\": 4, \"value_module\": {\"__llvaluefunctions__\": true, \"module\": \"gecocoo.valuemodules.default.counting\", \"parameters\": []}, \"hash_functions\": [{\"__llhashfunction__\": true, \"name\": \"gecocoo.hashing.xorlinear.xorlinear\", \"seed\": 14767805658463430131, \"parameters\": []}, {\"__llhashfunction__\": true, \"name\": \"gecocoo.hashing.xorlinear.xorlinear\", \"seed\": 11048861351600397683, \"parameters\": []}, {\"__llhashfunction__\": true, \"name\": \"gecocoo.hashing.xorlinear.xorlinear\", \"seed\": 11029577848690669808, \"parameters\": []}, {\"__llhashfunction__\": true, \"name\": \"gecocoo.hashing.xorlinear.xorlinear\", \"seed\": 15041279708376387065, \"parameters\": []}], \"storage\": {\"__llstorageconfig__\": true, \"mode\": \"BUCKETS\", \"concurrent\": true, \"disable_quotienting\": false}}"
            },
            "options": {
                "disable_gc": false,
                "timer": "perf_counter",
                "min_rounds": 5,
                "max_time": 1.0,
                "min_time": 5e-06,
                "warmup": false
            },
            "stats": {
                "min": 6.186869960743934,
                "max": 6.363691966980696,
                "mean": 6.227881425525993,
                "stddev": 0.0760455963460986,
                "rounds": 5,
                "median": 6.197162078227848,
                "iqr": 0.04729843535460532,
                "q1": 6.192052193917334,
                "q3": 6.239350629271939,
                "iqr_outliers": 1,
                "stddev_outliers": 1,
                "outliers": "1;1",
                "ld15iqr": 6.186869960743934,
                "hd15iqr": 6.363691966980696,
                "ops": 0.1605682465149924,
                "total": 31.139407127629966,
                "data": [
                    6.363691966980696,
                    6.186869960743934,
                    6.193779604975134,
                    6.197903516702354,
                    6.197162078227848
                ],
                "iterations": 1
            }
        },
        {
            "group": "searching",
            "name": "search",
            "fullname": "bench_operations.py::test_cost_optimal",
            "params": null,
            "param": null,
            "extra_info": {
                "key_count": 100000000,
                "search_missing": 100000000,
                "search_hitt\u00edng": 0,
                "thread_count": 4,
                "config": "{\"__llconfig__\": true, \"k\": 31, \"key_bits\": 38, \"value_bits\": 32, \"bucket_count\": 26315790, \"bucket_size\": 4, \"value_module\": {\"__llvaluefunctions__\": true, \"module\": \"gecocoo.valuemodules.default.counting\", \"parameters\": []}, \"hash_functions\": [{\"__llhashfunction__\": true, \"name\": \"gecocoo.hashing.xorlinear.xorlinear\", \"seed\": 14767805658463430131, \"parameters\": []}, {\"__llhashfunction__\": true, \"name\": \"gecocoo.hashing.xorlinear.xorlinear\", \"seed\": 11048861351600397683, \"parameters\": []}, {\"__llhashfunction__\": true, \"name\": \"gecocoo.hashing.xorlinear.xorlinear\", \"seed\": 11029577848690669808, \"parameters\": []}, {\"__llhashfunction__\": true, \"name\": \"gecocoo.hashing.xorlinear.xorlinear\", \"seed\": 15041279708376387065, \"parameters\": []}], \"storage\": {\"__llstorageconfig__\": true, \"mode\": \"BUCKETS\", \"concurrent\": true, \"disable_quotienting\": false}}"
            },
            "options": {
                "disable_gc": false,
                "timer": "perf_counter",
                "min_rounds": 5,
                "max_time": 1.0,
                "min_time": 5e-06,
                "warmup": false
            },
            "stats": {
                "min": 19.538030944764614,
                "max": 19.580657140817493,
                "mean": 19.553572321124374,
                "stddev": 0.018062207760403987,
                "rounds": 5,
                "median": 19.548944056034088,
                "iqr": 0.02854749606922269,
                "q1": 19.53814831166528,
                "q3": 19.566695807734504,
                "iqr_outliers": 0,
                "stddev_outliers": 1,
                "outliers": "1;0",
                "ld15iqr": 19.538030944764614,
                "hd15iqr": 19.580657140817493,
                "ops": 0.051141550176980535,
                "total": 97.76786160562187,
                "data": [
                    19.580657140817493,
                    19.538030944764614,
                    19.538187433965504,
                    19.548944056034088,
                    19.562042030040175
                ],
                "iterations": 1
            }
        },
        {
            "group": "searching",
            "name": "search",
            "fullname": "bench_operations.py::test_cost_optimal",
            "params": null,
            "param": null,
            "extra_info": {
                "key_count": 100000000,
                "search_missing": 0,
                "search_hitt\u00edng": 1000000,
                "thread_count": 8,
                "config": "{\"__llconfig__\": true, \"k\": 31, \"key_bits\": 38, \"value_bits\": 32, \"bucket_count\": 26315790, \"bucket_size\": 4, \"value_module\": {\"__llvaluefunctions__\": true, \"module\": \"gecocoo.valuemodules.default.counting\", \"parameters\": []}, \"hash_functions\": [{\"__llhashfunction__\": true, \"name\": \"gecocoo.hashing.xorlinear.xorlinear\", \"seed\": 14767805658463430131, \"parameters\": []}, {\"__llhashfunction__\": true, \"name\": \"gecocoo.hashing.xorlinear.xorlinear\", \"seed\": 11048861351600397683, \"parameters\": []}, {\"__llhashfunction__\": true, \"name\": \"gecocoo.hashing.xorlinear.xorlinear\", \"seed\": 11029577848690669808, \"parameters\": []}, {\"__llhashfunction__\": true, \"name\": \"gecocoo.hashing.xorlinear.xorlinear\", \"seed\": 15041279708376387065, \"parameters\": []}], \"storage\": {\"__llstorageconfig__\": true, \"mode\": \"BUCKETS\", \"concurrent\": true, \"disable_quotienting\": false}}"
            },
            "options": {
                "disable_gc": false,
                "timer": "perf_counter",
                "min_rounds": 5,
                "max_time": 1.0,
                "min_time": 5e-06,
                "warmup": false
            },
            "stats": {
                "min": 0.03343981131911278,
                "max": 0.2369753746315837,
                "mean": 0.07448215736076236,
                "stddev": 0.09083689083933746,
                "rounds": 5,
                "median": 0.034103973768651485,
                "iqr": 0.05113279877696186,
                "q1": 0.033694859012030065,
                "q3": 0.08482765778899193,
                "iqr_outliers": 1,
                "stddev_outliers": 1,
                "outliers": "1;1",
                "ld15iqr": 0.03343981131911278,
                "hd15iqr": 0.2369753746315837,
                "ops": 13.426034307201821,
                "total": 0.3724107868038118,
                "data": [
                    0.2369753746315837,
                    0.03343981131911278,
                    0.034103973768651485,
                    0.03377987490966916,
                    0.034111752174794674
                ],
                "iterations": 1
            }
        },
        {
            "group": "searching",
            "name": "search",
            "fullname": "bench_operations.py::test_cost_optimal",
            "params": null,
            "param": null,
            "extra_info": {
                "key_count": 100000000,
                "search_missing": 1000000,
                "search_hitt\u00edng": 0,
                "thread_count": 8,
                "config": "{\"__llconfig__\": true, \"k\": 31, \"key_bits\": 38, \"value_bits\": 32, \"bucket_count\": 26315790, \"bucket_size\": 4, \"value_module\": {\"__llvaluefunctions__\": true, \"module\": \"gecocoo.valuemodules.default.counting\", \"parameters\": []}, \"hash_functions\": [{\"__llhashfunction__\": true, \"name\": \"gecocoo.hashing.xorlinear.xorlinear\", \"seed\": 14767805658463430131, \"parameters\": []}, {\"__llhashfunction__\": true, \"name\": \"gecocoo.hashing.xorlinear.xorlinear\", \"seed\": 11048861351600397683, \"parameters\": []}, {\"__llhashfunction__\": true, \"name\": \"gecocoo.hashing.xorlinear.xorlinear\", \"seed\": 11029577848690669808, \"parameters\": []}, {\"__llhashfunction__\": true, \"name\": \"gecocoo.hashing.xorlinear.xorlinear\", \"seed\": 15041279708376387065, \"parameters\": []}], \"storage\": {\"__llstorageconfig__\": true, \"mode\": \"BUCKETS\", \"concurrent\": true, \"disable_quotienting\": false}}"
            },
            "options": {
                "disable_gc": false,
                "timer": "perf_counter",
                "min_rounds": 5,
                "max_time": 1.0,
                "min_time": 5e-06,
                "warmup": false
            },
            "stats": {
                "min": 0.10000140918418765,
                "max": 0.3046518941409886,
                "mean": 0.14137051422148944,
                "stddev": 0.09127825321476782,
                "rounds": 5,
                "median": 0.10089797992259264,
                "iqr": 0.05185364279896021,
                "q1": 0.10014282446354628,
                "q3": 0.15199646726250648,
                "iqr_outliers": 1,
                "stddev_outliers": 1,
                "outliers": "1;1",
                "ld15iqr": 0.10000140918418765,
                "hd15iqr": 0.3046518941409886,
                "ops": 7.07361082688905,
                "total": 0.7068525711074471,
                "data": [
                    0.3046518941409886,
                    0.10018996288999915,
                    0.10000140918418765,
                    0.10089797992259264,
                    0.10111132496967912
                ],
                "iterations": 1
            }
        },
        {
            "group": "searching",
            "name": "search",
            "fullname": "bench_operations.py::test_cost_optimal",
            "params": null,
            "param": null,
            "extra_info": {
                "key_count": 100000000,
                "search_missing": 0,
                "search_hitt\u00edng": 10000000,
                "thread_count": 8,
                "config": "{\"__llconfig__\": true, \"k\": 31, \"key_bits\": 38, \"value_bits\": 32, \"bucket_count\": 26315790, \"bucket_size\": 4, \"value_module\": {\"__llvaluefunctions__\": true, \"module\": \"gecocoo.valuemodules.default.counting\", \"parameters\": []}, \"hash_functions\": [{\"__llhashfunction__\": true, \"name\": \"gecocoo.hashing.xorlinear.xorlinear\", \"seed\": 14767805658463430131, \"parameters\": []}, {\"__llhashfunction__\": true, \"name\": \"gecocoo.hashing.xorlinear.xorlinear\", \"seed\": 11048861351600397683, \"parameters\": []}, {\"__llhashfunction__\": true, \"name\": \"gecocoo.hashing.xorlinear.xorlinear\", \"seed\": 11029577848690669808, \"parameters\": []}, {\"__llhashfunction__\": true, \"name\": \"gecocoo.hashing.xorlinear.xorlinear\", \"seed\": 15041279708376387065, \"parameters\": []}], \"storage\": {\"__llstorageconfig__\": true, \"mode\": \"BUCKETS\", \"concurrent\": true, \"disable_quotienting\": false}}"
            },
            "options": {
                "disable_gc": false,
                "timer": "perf_counter",
                "min_rounds": 5,
                "max_time": 1.0,
                "min_time": 5e-06,
                "warmup": false
            },
            "stats": {
                "min": 0.31488751992583275,
                "max": 0.6144198998808861,
                "mean": 0.37488552685827015,
                "stddev": 0.1339038322386539,
                "rounds": 5,
                "median": 0.3150230459868908,
                "iqr": 0.07507413113489747,
                "q1": 0.3149128000950441,
                "q3": 0.38998693122994155,
                "iqr_outliers": 1,
                "stddev_outliers": 1,
                "outliers": "1;1",
                "ld15iqr": 0.31488751992583275,
                "hd15iqr": 0.6144198998808861,
                "ops": 2.66748094646519,
                "total": 1.8744276342913508,
                "data": [
                    0.6144198998808861,
                    0.3150230459868908,
                    0.3149212268181145,
                    0.31488751992583275,
                    0.3151759416796267
                ],
                "iterations": 1
            }
        },
        {
            "group": "searching",
            "name": "search",
            "fullname": "bench_operations.py::test_cost_optimal",
            "params": null,
            "param": null,
            "extra_info": {
                "key_count": 100000000,
                "search_missing": 10000000,
                "search_hitt\u00edng": 0,
                "thread_count": 8,
                "config": "{\"__llconfig__\": true, \"k\": 31, \"key_bits\": 38, \"value_bits\": 32, \"bucket_count\": 26315790, \"bucket_size\": 4, \"value_module\": {\"__llvaluefunctions__\": true, \"module\": \"gecocoo.valuemodules.default.counting\", \"parameters\": []}, \"hash_functions\": [{\"__llhashfunction__\": true, \"name\": \"gecocoo.hashing.xorlinear.xorlinear\", \"seed\": 14767805658463430131, \"parameters\": []}, {\"__llhashfunction__\": true, \"name\": \"gecocoo.hashing.xorlinear.xorlinear\", \"seed\": 11048861351600397683, \"parameters\": []}, {\"__llhashfunction__\": true, \"name\": \"gecocoo.hashing.xorlinear.xorlinear\", \"seed\": 11029577848690669808, \"parameters\": []}, {\"__llhashfunction__\": true, \"name\": \"gecocoo.hashing.xorlinear.xorlinear\", \"seed\": 15041279708376387065, \"parameters\": []}], \"storage\": {\"__llstorageconfig__\": true, \"mode\": \"BUCKETS\", \"concurrent\": true, \"disable_quotienting\": false}}"
            },
            "options": {
                "disable_gc": false,
                "timer": "perf_counter",
                "min_rounds": 5,
                "max_time": 1.0,
                "min_time": 5e-06,
                "warmup": false
            },
            "stats": {
                "min": 0.9841173468157649,
                "max": 1.1920749992132187,
                "mean": 1.026695552561432,
                "stddev": 0.09245760206520062,
                "rounds": 5,
                "median": 0.986059227026999,
                "iqr": 0.053979423944838345,
                "q1": 0.9842441524378955,
                "q3": 1.0382235763827339,
                "iqr_outliers": 1,
                "stddev_outliers": 1,
                "outliers": "1;1",
                "ld15iqr": 0.9841173468157649,
                "hd15iqr": 1.1920749992132187,
                "ops": 0.9739985699803304,
                "total": 5.133477762807161,
                "data": [
                    1.1920749992132187,
                    0.9842864209786057,
                    0.9869397687725723,
                    0.9841173468157649,
                    0.986059227026999
                ],
                "iterations": 1
            }
        },
        {
            "group": "searching",
            "name": "search",
            "fullname": "bench_operations.py::test_cost_optimal",
            "params": null,
            "param": null,
            "extra_info": {
                "key_count": 100000000,
                "search_missing": 0,
                "search_hitt\u00edng": 100000000,
                "thread_count": 8,
                "config": "{\"__llconfig__\": true, \"k\": 31, \"key_bits\": 38, \"value_bits\": 32, \"bucket_count\": 26315790, \"bucket_size\": 4, \"value_module\": {\"__llvaluefunctions__\": true, \"module\": \"gecocoo.valuemodules.default.counting\", \"parameters\": []}, \"hash_functions\": [{\"__llhashfunction__\": true, \"name\": \"gecocoo.hashing.xorlinear.xorlinear\", \"seed\": 14767805658463430131, \"parameters\": []}, {\"__llhashfunction__\": true, \"name\": \"gecocoo.hashing.xorlinear.xorlinear\", \"seed\": 11048861351600397683, \"parameters\": []}, {\"__llhashfunction__\": true, \"name\": \"gecocoo.hashing.xorlinear.xorlinear\", \"seed\": 11029577848690669808, \"parameters\": []}, {\"__llhashfunction__\": true, \"name\": \"gecocoo.hashing.xorlinear.xorlinear\", \"seed\": 15041279708376387065, \"parameters\": []}], \"storage\": {\"__llstorageconfig__\": true, \"mode\": \"BUCKETS\", \"concurrent\": true, \"disable_quotienting\": false}}"
            },
            "options": {
                "disable_gc": false,
                "timer": "perf_counter",
                "min_rounds": 5,
                "max_time": 1.0,
                "min_time": 5e-06,
                "warmup": false
            },
            "stats": {
                "min": 3.1237458870746195,
                "max": 3.322221878916025,
                "mean": 3.164693638496101,
                "stddev": 0.08808970631595922,
                "rounds": 5,
                "median": 3.1244342857971787,
                "iqr": 0.05359430308453739,
                "q1": 3.1238486219663173,
                "q3": 3.1774429250508547,
                "iqr_outliers": 1,
                "stddev_outliers": 1,
                "outliers": "1;1",
                "ld15iqr": 3.1237458870746195,
                "hd15iqr": 3.322221878916025,
                "ops": 0.3159863526237603,
                "total": 15.823468192480505,
                "data": [
                    3.322221878916025,
                    3.1244342857971787,
                    3.1238828669302166,
                    3.1237458870746195,
                    3.1291832737624645
                ],
                "iterations": 1
            }
        },
        {
            "group": "searching",
            "name": "search",
            "fullname": "bench_operations.py::test_cost_optimal",
            "params": null,
            "param": null,
            "extra_info": {
                "key_count": 100000000,
                "search_missing": 100000000,
                "search_hitt\u00edng": 0,
                "thread_count": 8,
                "config": "{\"__llconfig__\": true, \"k\": 31, \"key_bits\": 38, \"value_bits\": 32, \"bucket_count\": 26315790, \"bucket_size\": 4, \"value_module\": {\"__llvaluefunctions__\": true, \"module\": \"gecocoo.valuemodules.default.counting\", \"parameters\": []}, \"hash_functions\": [{\"__llhashfunction__\": true, \"name\": \"gecocoo.hashing.xorlinear.xorlinear\", \"seed\": 14767805658463430131, \"parameters\": []}, {\"__llhashfunction__\": true, \"name\": \"gecocoo.hashing.xorlinear.xorlinear\", \"seed\": 11048861351600397683, \"parameters\": []}, {\"__llhashfunction__\": true, \"name\": \"gecocoo.hashing.xorlinear.xorlinear\", \"seed\": 11029577848690669808, \"parameters\": []}, {\"__llhashfunction__\": true, \"name\": \"gecocoo.hashing.xorlinear.xorlinear\", \"seed\": 15041279708376387065, \"parameters\": []}], \"storage\": {\"__llstorageconfig__\": true, \"mode\": \"BUCKETS\", \"concurrent\": true, \"disable_quotienting\": false}}"
            },
            "options": {
                "disable_gc": false,
                "timer": "perf_counter",
                "min_rounds": 5,
                "max_time": 1.0,
                "min_time": 5e-06,
                "warmup": false
            },
            "stats": {
                "min": 9.74122805474326,
                "max": 10.051193912047893,
                "mean": 9.845019539538772,
                "stddev": 0.1193802893064637,
                "rounds": 5,
                "median": 9.814345989841968,
                "iqr": 0.09301079204306006,
                "q1": 9.78442100272514,
                "q3": 9.8774317947682,
                "iqr_outliers": 1,
                "stddev_outliers": 1,
                "outliers": "1;1",
                "ld15iqr": 9.74122805474326,
                "hd15iqr": 10.051193912047893,
                "ops": 0.10157420165433709,
                "total": 49.225097697693855,
                "data": [
                    10.051193912047893,
                    9.814345989841968,
                    9.819511089008301,
                    9.74122805474326,
                    9.798818652052432
                ],
                "iterations": 1
            }
        },
        {
            "group": "searching",
            "name": "search",
            "fullname": "bench_operations.py::test_cost_optimal",
            "params": null,
            "param": null,
            "extra_info": {
                "key_count": 100000000,
                "search_missing": 0,
                "search_hitt\u00edng": 1000000,
                "thread_count": 16,
                "config": "{\"__llconfig__\": true, \"k\": 31, \"key_bits\": 38, \"value_bits\": 32, \"bucket_count\": 26315790, \"bucket_size\": 4, \"value_module\": {\"__llvaluefunctions__\": true, \"module\": \"gecocoo.valuemodules.default.counting\", \"parameters\": []}, \"hash_functions\": [{\"__llhashfunction__\": true, \"name\": \"gecocoo.hashing.xorlinear.xorlinear\", \"seed\": 14767805658463430131, \"parameters\": []}, {\"__llhashfunction__\": true, \"name\": \"gecocoo.hashing.xorlinear.xorlinear\", \"seed\": 11048861351600397683, \"parameters\": []}, {\"__llhashfunction__\": true, \"name\": \"gecocoo.hashing.xorlinear.xorlinear\", \"seed\": 11029577848690669808, \"parameters\": []}, {\"__llhashfunction__\": true, \"name\": \"gecocoo.hashing.xorlinear.xorlinear\", \"seed\": 15041279708376387065, \"parameters\": []}], \"storage\": {\"__llstorageconfig__\": true, \"mode\": \"BUCKETS\", \"concurrent\": true, \"disable_quotienting\": false}}"
            },
            "options": {
                "disable_gc": false,
                "timer": "perf_counter",
                "min_rounds": 5,
                "max_time": 1.0,
                "min_time": 5e-06,
                "warmup": false
            },
            "stats": {
                "min": 0.027387937996536493,
                "max": 0.23725086404010653,
                "mean": 0.07032137541100383,
                "stddev": 0.0933279981571335,
                "rounds": 5,
                "median": 0.028108251746743917,
                "iqr": 0.054965676041319966,
                "q1": 0.02766944596078247,
                "q3": 0.08263512200210243,
                "iqr_outliers": 1,
                "stddev_outliers": 1,
                "outliers": "1;1",
                "ld15iqr": 0.027387937996536493,
                "hd15iqr": 0.23725086404010653,
                "ops": 14.220427205175524,
                "total": 0.35160687705501914,
                "data": [
                    0.23725086404010653,
                    0.027387937996536493,
                    0.02776328194886446,
                    0.031096541322767735,
                    0.028108251746743917
                ],
                "iterations": 1
            }
        },
        {
            "group": "searching",
            "name": "search",
            "fullname": "bench_operations.py::test_cost_optimal",
            "params": null,
            "param": null,
            "extra_info": {
                "key_count": 100000000,
                "search_missing": 1000000,
                "search_hitt\u00edng": 0,
                "thread_count": 16,
                "config": "{\"__llconfig__\": true, \"k\": 31, \"key_bits\": 38, \"value_bits\": 32, \"bucket_count\": 26315790, \"bucket_size\": 4, \"value_module\": {\"__llvaluefunctions__\": true, \"module\": \"gecocoo.valuemodules.default.counting\", \"parameters\": []}, \"hash_functions\": [{\"__llhashfunction__\": true, \"name\": \"gecocoo.hashing.xorlinear.xorlinear\", \"seed\": 14767805658463430131, \"parameters\": []}, {\"__llhashfunction__\": true, \"name\": \"gecocoo.hashing.xorlinear.xorlinear\", \"seed\": 11048861351600397683, \"parameters\": []}, {\"__llhashfunction__\": true, \"name\": \"gecocoo.hashing.xorlinear.xorlinear\", \"seed\": 11029577848690669808, \"parameters\": []}, {\"__llhashfunction__\": true, \"name\": \"gecocoo.hashing.xorlinear.xorlinear\", \"seed\": 15041279708376387065, \"parameters\": []}], \"storage\": {\"__llstorageconfig__\": true, \"mode\": \"BUCKETS\", \"concurrent\": true, \"disable_quotienting\": false}}"
            },
            "options": {
                "disable_gc": false,
                "timer": "perf_counter",
                "min_rounds": 5,
                "max_time": 1.0,
                "min_time": 5e-06,
                "warmup": false
            },
            "stats": {
                "min": 0.06669754721224308,
                "max": 0.2766687232069671,
                "mean": 0.11303352247923612,
                "stddev": 0.09155122225539736,
                "rounds": 5,
                "median": 0.07511438615620136,
                "iqr": 0.056537719909101725,
                "q1": 0.06965953228063881,
                "q3": 0.12619725218974054,
                "iqr_outliers": 1,
                "stddev_outliers": 1,
                "outliers": "1;1",
                "ld15iqr": 0.06669754721224308,
                "hd15iqr": 0.2766687232069671,
                "ops": 8.846932998869399,
                "total": 0.5651676123961806,
                "data": [
                    0.2766687232069671,
                    0.07064686063677073,
                    0.07511438615620136,
                    0.06669754721224308,
                    0.07604009518399835
                ],
                "iterations": 1
            }
        },
        {
            "group": "searching",
            "name": "search",
            "fullname": "bench_operations.py::test_cost_optimal",
            "params": null,
            "param": null,
            "extra_info": {
                "key_count": 100000000,
                "search_missing": 0,
                "search_hitt\u00edng": 10000000,
                "thread_count": 16,
                "config": "{\"__llconfig__\": true, \"k\": 31, \"key_bits\": 38, \"value_bits\": 32, \"bucket_count\": 26315790, \"bucket_size\": 4, \"value_module\": {\"__llvaluefunctions__\": true, \"module\": \"gecocoo.valuemodules.default.counting\", \"parameters\": []}, \"hash_functions\": [{\"__llhashfunction__\": true, \"name\": \"gecocoo.hashing.xorlinear.xorlinear\", \"seed\": 14767805658463430131, \"parameters\": []}, {\"__llhashfunction__\": true, \"name\": \"gecocoo.hashing.xorlinear.xorlinear\", \"seed\": 11048861351600397683, \"parameters\": []}, {\"__llhashfunction__\": true, \"name\": \"gecocoo.hashing.xorlinear.xorlinear\", \"seed\": 11029577848690669808, \"parameters\": []}, {\"__llhashfunction__\": true, \"name\": \"gecocoo.hashing.xorlinear.xorlinear\", \"seed\": 15041279708376387065, \"parameters\": []}], \"storage\": {\"__llstorageconfig__\": true, \"mode\": \"BUCKETS\", \"concurrent\": true, \"disable_quotienting\": false}}"
            },
            "options": {
                "disable_gc": false,
                "timer": "perf_counter",
                "min_rounds": 5,
                "max_time": 1.0,
                "min_time": 5e-06,
                "warmup": false
            },
            "stats": {
                "min": 0.16450419276952744,
                "max": 0.4334351778961718,
                "mean": 0.240921838209033,
                "stddev": 0.108854813196347,
                "rounds": 5,
                "median": 0.20171809801831841,
                "iqr": 0.06916518288198858,
                "q1": 0.1920167257776484,
                "q3": 0.261181908659637,
                "iqr_outliers": 1,
                "stddev_outliers": 1,
                "outliers": "1;1",
                "ld15iqr": 0.16450419276952744,
                "hd15iqr": 0.4334351778961718,
                "ops": 4.150723767649331,
                "total": 1.204609191045165,
                "data": [
                    0.4334351778961718,
                    0.16450419276952744,
                    0.20171809801831841,
                    0.2037641522474587,
                    0.2011875701136887
                ],
                "iterations": 1
            }
        },
        {
            "group": "searching",
            "name": "search",
            "fullname": "bench_operations.py::test_cost_optimal",
            "params": null,
            "param": null,
            "extra_info": {
                "key_count": 100000000,
                "search_missing": 10000000,
                "search_hitt\u00edng": 0,
                "thread_count": 16,
                "config": "{\"__llconfig__\": true, \"k\": 31, \"key_bits\": 38, \"value_bits\": 32, \"bucket_count\": 26315790, \"bucket_size\": 4, \"value_module\": {\"__llvaluefunctions__\": true, \"module\": \"gecocoo.valuemodules.default.counting\", \"parameters\": []}, \"hash_functions\": [{\"__llhashfunction__\": true, \"name\": \"gecocoo.hashing.xorlinear.xorlinear\", \"seed\": 14767805658463430131, \"parameters\": []}, {\"__llhashfunction__\": true, \"name\": \"gecocoo.hashing.xorlinear.xorlinear\", \"seed\": 11048861351600397683, \"parameters\": []}, {\"__llhashfunction__\": true, \"name\": \"gecocoo.hashing.xorlinear.xorlinear\", \"seed\": 11029577848690669808, \"parameters\": []}, {\"__llhashfunction__\": true, \"name\": \"gecocoo.hashing.xorlinear.xorlinear\", \"seed\": 15041279708376387065, \"parameters\": []}], \"storage\": {\"__llstorageconfig__\": true, \"mode\": \"BUCKETS\", \"concurrent\": true, \"disable_quotienting\": false}}"
            },
            "options": {
                "disable_gc": false,
                "timer": "perf_counter",
                "min_rounds": 5,
                "max_time": 1.0,
                "min_time": 5e-06,
                "warmup": false
            },
            "stats": {
                "min": 0.5647686943411827,
                "max": 0.7974254810251296,
                "mean": 0.6134362865239382,
                "stddev": 0.10288838389731482,
                "rounds": 5,
                "median": 0.5682733138091862,
                "iqr": 0.06285233760718256,
                "q1": 0.5651158319087699,
                "q3": 0.6279681695159525,
                "iqr_outliers": 1,
                "stddev_outliers": 1,
                "outliers": "1;1",
                "ld15iqr": 0.5647686943411827,
                "hd15iqr": 0.7974254810251296,
                "ops": 1.6301611462643348,
                "total": 3.067181432619691,
                "data": [
                    0.7974254810251296,
                    0.565231544431299,
                    0.5647686943411827,
                    0.5714823990128934,
                    0.5682733138091862
                ],
                "iterations": 1
            }
        },
        {
            "group": "searching",
            "name": "search",
            "fullname": "bench_operations.py::test_cost_optimal",
            "params": null,
            "param": null,
            "extra_info": {
                "key_count": 100000000,
                "search_missing": 0,
                "search_hitt\u00edng": 100000000,
                "thread_count": 16,
                "config": "{\"__llconfig__\": true, \"k\": 31, \"key_bits\": 38, \"value_bits\": 32, \"bucket_count\": 26315790, \"bucket_size\": 4, \"value_module\": {\"__llvaluefunctions__\": true, \"module\": \"gecocoo.valuemodules.default.counting\", \"parameters\": []}, \"hash_functions\": [{\"__llhashfunction__\": true, \"name\": \"gecocoo.hashing.xorlinear.xorlinear\", \"seed\": 14767805658463430131, \"parameters\": []}, {\"__llhashfunction__\": true, \"name\": \"gecocoo.hashing.xorlinear.xorlinear\", \"seed\": 11048861351600397683, \"parameters\": []}, {\"__llhashfunction__\": true, \"name\": \"gecocoo.hashing.xorlinear.xorlinear\", \"seed\": 11029577848690669808, \"parameters\": []}, {\"__llhashfunction__\": true, \"name\": \"gecocoo.hashing.xorlinear.xorlinear\", \"seed\": 15041279708376387065, \"parameters\": []}], \"storage\": {\"__llstorageconfig__\": true, \"mode\": \"BUCKETS\", \"concurrent\": true, \"disable_quotienting\": false}}"
            },
            "options": {
                "disable_gc": false,
                "timer": "perf_counter",
                "min_rounds": 5,
                "max_time": 1.0,
                "min_time": 5e-06,
                "warmup": false
            },
            "stats": {
                "min": 1.9271795810200274,
                "max": 2.3156352071091533,
                "mean": 2.0099921922199426,
                "stddev": 0.17091832687156555,
                "rounds": 5,
                "median": 1.937697493005544,
                "iqr": 0.10182089870795608,
                "q1": 1.9304846541490406,
                "q3": 2.0323055528569967,
                "iqr_outliers": 1,
                "stddev_outliers": 1,
                "outliers": "1;1",
                "ld15iqr": 1.9271795810200274,
                "hd15iqr": 2.3156352071091533,
                "ops": 0.49751437038944246,
                "total": 10.049960961099714,
                "data": [
                    2.3156352071091533,
                    1.9378623347729445,
                    1.9271795810200274,
                    1.937697493005544,
                    1.931586345192045
                ],
                "iterations": 1
            }
        },
        {
            "group": "searching",
            "name": "search",
            "fullname": "bench_operations.py::test_cost_optimal",
            "params": null,
            "param": null,
            "extra_info": {
                "key_count": 100000000,
                "search_missing": 100000000,
                "search_hitt\u00edng": 0,
                "thread_count": 16,
                "config": "{\"__llconfig__\": true, \"k\": 31, \"key_bits\": 38, \"value_bits\": 32, \"bucket_count\": 26315790, \"bucket_size\": 4, \"value_module\": {\"__llvaluefunctions__\": true, \"module\": \"gecocoo.valuemodules.default.counting\", \"parameters\": []}, \"hash_functions\": [{\"__llhashfunction__\": true, \"name\": \"gecocoo.hashing.xorlinear.xorlinear\", \"seed\": 14767805658463430131, \"parameters\": []}, {\"__llhashfunction__\": true, \"name\": \"gecocoo.hashing.xorlinear.xorlinear\", \"seed\": 11048861351600397683, \"parameters\": []}, {\"__llhashfunction__\": true, \"name\": \"gecocoo.hashing.xorlinear.xorlinear\", \"seed\": 11029577848690669808, \"parameters\": []}, {\"__llhashfunction__\": true, \"name\": \"gecocoo.hashing.xorlinear.xorlinear\", \"seed\": 15041279708376387065, \"parameters\": []}], \"storage\": {\"__llstorageconfig__\": true, \"mode\": \"BUCKETS\", \"concurrent\": true, \"disable_quotienting\": false}}"
            },
            "options": {
                "disable_gc": false,
                "timer": "perf_counter",
                "min_rounds": 5,
                "max_time": 1.0,
                "min_time": 5e-06,
                "warmup": false
            },
            "stats": {
                "min": 5.628136180806905,
                "max": 6.10616804426536,
                "mean": 5.79607873223722,
                "stddev": 0.18561724466841736,
                "rounds": 5,
                "median": 5.728516780771315,
                "iqr": 0.20240858336910605,
                "q1": 5.684673482202925,
                "q3": 5.887082065572031,
                "iqr_outliers": 0,
                "stddev_outliers": 1,
                "outliers": "1;0",
                "ld15iqr": 5.628136180806905,
                "hd15iqr": 6.10616804426536,
                "ops": 0.1725304375936266,
                "total": 28.9803936611861,
                "data": [
                    6.10616804426536,
                    5.814053406007588,
                    5.628136180806905,
                    5.703519249334931,
                    5.728516780771315
                ],
                "iterations": 1
            }
        }
    ],
    "datetime": "2021-03-06T20:21:14.403134",
    "version": "3.2.3"
}