{
    "machine_info": {
        "node": "cstd01-157",
        "processor": "x86_64",
        "machine": "x86_64",
        "python_compiler": "GCC 7.3.0",
        "python_implementation": "CPython",
        "python_implementation_version": "3.7.9",
        "python_version": "3.7.9",
        "python_build": [
            "default",
            "Aug 31 2020 12:42:55"
        ],
        "release": "3.10.0-1160.6.1.el7.x86_64",
        "system": "Linux",
        "cpu": {
            "vendor_id": "unknown",
            "hardware": "unknown",
            "brand": "unknown"
        }
    },
    "commit_info": {
        "id": "unversioned",
        "time": null,
        "author_time": null,
        "dirty": false,
        "project": "gecocoo-2021-03-06T20_04_12.073701-origin_develop",
        "branch": "(unknown)"
    },
    "benchmarks": [
        {
            "group": "inserting",
            "name": "insert",
            "fullname": "bench_operations.py::test_cost_optimal",
            "params": null,
            "param": null,
            "extra_info": {
                "key_count": 100000000,
                "thread_count": 1,
                "config": "{\"__llconfig__\": true, \"k\": 31, \"key_bits\": 37, \"value_bits\": 32, \"bucket_count\": 66666667, \"bucket_size\": 2, \"value_module\": {\"__llvaluefunctions__\": true, \"module\": \"gecocoo.valuemodules.default.counting\", \"parameters\": []}, \"hash_functions\": [{\"__llhashfunction__\": true, \"name\": \"gecocoo.hashing.xorlinear.xorlinear\", \"seed\": 4703629187251213316, \"parameters\": []}, {\"__llhashfunction__\": true, \"name\": \"gecocoo.hashing.xorlinear.xorlinear\", \"seed\": 11457248271188990237, \"parameters\": []}, {\"__llhashfunction__\": true, \"name\": \"gecocoo.hashing.xorlinear.xorlinear\", \"seed\": 11640213991309078593, \"parameters\": []}, {\"__llhashfunction__\": true, \"name\": \"gecocoo.hashing.xorlinear.xorlinear\", \"seed\": 6717261664370385089, \"parameters\": []}], \"storage\": {\"__llstorageconfig__\": true, \"mode\": \"BUCKETS\", \"concurrent\": true, \"disable_quotienting\": false}}"
            },
            "options": {
                "disable_gc": false,
                "timer": "perf_counter",
                "min_rounds": 5,
                "max_time": 1.0,
                "min_time": 5e-06,
                "warmup": false
            },
            "stats": {
                "min": 1336.92096750997,
                "max": 1336.92096750997,
                "mean": 1336.92096750997,
                "stddev": 0,
                "rounds": 1,
                "median": 1336.92096750997,
                "iqr": 0.0,
                "q1": 1336.92096750997,
                "q3": 1336.92096750997,
                "iqr_outliers": 0,
                "stddev_outliers": 0,
                "outliers": "0;0",
                "ld15iqr": 1336.92096750997,
                "hd15iqr": 1336.92096750997,
                "ops": 0.0007479873712075224,
                "total": 1336.92096750997,
                "data": [
                    1336.92096750997
                ],
                "iterations": 1
            }
        },
        {
            "group": "searching",
            "name": "search",
            "fullname": "bench_operations.py::test_cost_optimal",
            "params": null,
            "param": null,
            "extra_info": {
                "key_count": 100000000,
                "search_missing": 0,
                "search_hitt\u00edng": 1000000,
                "thread_count": 1,
                "config": "{\"__llconfig__\": true, \"k\": 31, \"key_bits\": 37, \"value_bits\": 32, \"bucket_count\": 66666667, \"bucket_size\": 2, \"value_module\": {\"__llvaluefunctions__\": true, \"module\": \"gecocoo.valuemodules.default.counting\", \"parameters\": []}, \"hash_functions\": [{\"__llhashfunction__\": true, \"name\": \"gecocoo.hashing.xorlinear.xorlinear\", \"seed\": 4703629187251213316, \"parameters\": []}, {\"__llhashfunction__\": true, \"name\": \"gecocoo.hashing.xorlinear.xorlinear\", \"seed\": 11457248271188990237, \"parameters\": []}, {\"__llhashfunction__\": true, \"name\": \"gecocoo.hashing.xorlinear.xorlinear\", \"seed\": 11640213991309078593, \"parameters\": []}, {\"__llhashfunction__\": true, \"name\": \"gecocoo.hashing.xorlinear.xorlinear\", \"seed\": 6717261664370385089, \"parameters\": []}], \"storage\": {\"__llstorageconfig__\": true, \"mode\": \"BUCKETS\", \"concurrent\": true, \"disable_quotienting\": false}}"
            },
            "options": {
                "disable_gc": false,
                "timer": "perf_counter",
                "min_rounds": 5,
                "max_time": 1.0,
                "min_time": 5e-06,
                "warmup": false
            },
            "stats": {
                "min": 0.16621742118149996,
                "max": 0.34350040182471275,
                "mean": 0.2151316214352846,
                "stddev": 0.0774048862904978,
                "rounds": 5,
                "median": 0.1664186012931168,
                "iqr": 0.09462604497093707,
                "q1": 0.16622233646921813,
                "q3": 0.2608483814401552,
                "iqr_outliers": 0,
                "stddev_outliers": 1,
                "outliers": "1;0",
                "ld15iqr": 0.16621742118149996,
                "hd15iqr": 0.34350040182471275,
                "ops": 4.648317124783153,
                "total": 1.075658107176423,
                "data": [
                    0.34350040182471275,
                    0.1664186012931168,
                    0.16621742118149996,
                    0.16622397489845753,
                    0.23329770797863603
                ],
                "iterations": 1
            }
        },
        {
            "group": "searching",
            "name": "search",
            "fullname": "bench_operations.py::test_cost_optimal",
            "params": null,
            "param": null,
            "extra_info": {
                "key_count": 100000000,
                "search_missing": 1000000,
                "search_hitt\u00edng": 0,
                "thread_count": 1,
                "config": "{\"__llconfig__\": true, \"k\": 31, \"key_bits\": 37, \"value_bits\": 32, \"bucket_count\": 66666667, \"bucket_size\": 2, \"value_module\": {\"__llvaluefunctions__\": true, \"module\": \"gecocoo.valuemodules.default.counting\", \"parameters\": []}, \"hash_functions\": [{\"__llhashfunction__\": true, \"name\": \"gecocoo.hashing.xorlinear.xorlinear\", \"seed\": 4703629187251213316, \"parameters\": []}, {\"__llhashfunction__\": true, \"name\": \"gecocoo.hashing.xorlinear.xorlinear\", \"seed\": 11457248271188990237, \"parameters\": []}, {\"__llhashfunction__\": true, \"name\": \"gecocoo.hashing.xorlinear.xorlinear\", \"seed\": 11640213991309078593, \"parameters\": []}, {\"__llhashfunction__\": true, \"name\": \"gecocoo.hashing.xorlinear.xorlinear\", \"seed\": 6717261664370385089, \"parameters\": []}], \"storage\": {\"__llstorageconfig__\": true, \"mode\": \"BUCKETS\", \"concurrent\": true, \"disable_quotienting\": false}}"
            },
            "options": {
                "disable_gc": false,
                "timer": "perf_counter",
                "min_rounds": 5,
                "max_time": 1.0,
                "min_time": 5e-06,
                "warmup": false
            },
            "stats": {
                "min": 0.28772398410364985,
                "max": 0.4609286920167506,
                "mean": 0.3560380106791854,
                "stddev": 0.07986541804611033,
                "rounds": 5,
                "median": 0.3235225691460073,
                "iqr": 0.1426844015950337,
                "q1": 0.2877449367661029,
                "q3": 0.4304293383611366,
                "iqr_outliers": 0,
                "stddev_outliers": 1,
                "outliers": "1;0",
                "ld15iqr": 0.28772398410364985,
                "hd15iqr": 0.4609286920167506,
                "ops": 2.808688875921926,
                "total": 1.780190053395927,
                "data": [
                    0.4609286920167506,
                    0.2877519209869206,
                    0.28772398410364985,
                    0.42026288714259863,
                    0.3235225691460073
                ],
                "iterations": 1
            }
        },
        {
            "group": "searching",
            "name": "search",
            "fullname": "bench_operations.py::test_cost_optimal",
            "params": null,
            "param": null,
            "extra_info": {
                "key_count": 100000000,
                "search_missing": 0,
                "search_hitt\u00edng": 10000000,
                "thread_count": 1,
                "config": "{\"__llconfig__\": true, \"k\": 31, \"key_bits\": 37, \"value_bits\": 32, \"bucket_count\": 66666667, \"bucket_size\": 2, \"value_module\": {\"__llvaluefunctions__\": true, \"module\": \"gecocoo.valuemodules.default.counting\", \"parameters\": []}, \"hash_functions\": [{\"__llhashfunction__\": true, \"name\": \"gecocoo.hashing.xorlinear.xorlinear\", \"seed\": 4703629187251213316, \"parameters\": []}, {\"__llhashfunction__\": true, \"name\": \"gecocoo.hashing.xorlinear.xorlinear\", \"seed\": 11457248271188990237, \"parameters\": []}, {\"__llhashfunction__\": true, \"name\": \"gecocoo.hashing.xorlinear.xorlinear\", \"seed\": 11640213991309078593, \"parameters\": []}, {\"__llhashfunction__\": true, \"name\": \"gecocoo.hashing.xorlinear.xorlinear\", \"seed\": 6717261664370385089, \"parameters\": []}], \"storage\": {\"__llstorageconfig__\": true, \"mode\": \"BUCKETS\", \"concurrent\": true, \"disable_quotienting\": false}}"
            },
            "options": {
                "disable_gc": false,
                "timer": "perf_counter",
                "min_rounds": 5,
                "max_time": 1.0,
                "min_time": 5e-06,
                "warmup": false
            },
            "stats": {
                "min": 1.658268948085606,
                "max": 2.348318054806441,
                "mean": 1.8627537425607443,
                "stddev": 0.2838399002771458,
                "rounds": 5,
                "median": 1.803686086088419,
                "iqr": 0.3089215960353613,
                "q1": 1.660173436277546,
                "q3": 1.9690950323129073,
                "iqr_outliers": 0,
                "stddev_outliers": 1,
                "outliers": "1;0",
                "ld15iqr": 1.658268948085606,
                "hd15iqr": 2.348318054806441,
                "ops": 0.5368396139284042,
                "total": 9.313768712803721,
                "data": [
                    1.842687358148396,
                    1.658268948085606,
                    1.6608082656748593,
                    2.348318054806441,
                    1.803686086088419
                ],
                "iterations": 1
            }
        },
        {
            "group": "searching",
            "name": "search",
            "fullname": "bench_operations.py::test_cost_optimal",
            "params": null,
            "param": null,
            "extra_info": {
                "key_count": 100000000,
                "search_missing": 10000000,
                "search_hitt\u00edng": 0,
                "thread_count": 1,
                "config": "{\"__llconfig__\": true, \"k\": 31, \"key_bits\": 37, \"value_bits\": 32, \"bucket_count\": 66666667, \"bucket_size\": 2, \"value_module\": {\"__llvaluefunctions__\": true, \"module\": \"gecocoo.valuemodules.default.counting\", \"parameters\": []}, \"hash_functions\": [{\"__llhashfunction__\": true, \"name\": \"gecocoo.hashing.xorlinear.xorlinear\", \"seed\": 4703629187251213316, \"parameters\": []}, {\"__llhashfunction__\": true, \"name\": \"gecocoo.hashing.xorlinear.xorlinear\", \"seed\": 11457248271188990237, \"parameters\": []}, {\"__llhashfunction__\": true, \"name\": \"gecocoo.hashing.xorlinear.xorlinear\", \"seed\": 11640213991309078593, \"parameters\": []}, {\"__llhashfunction__\": true, \"name\": \"gecocoo.hashing.xorlinear.xorlinear\", \"seed\": 6717261664370385089, \"parameters\": []}], \"storage\": {\"__llstorageconfig__\": true, \"mode\": \"BUCKETS\", \"concurrent\": true, \"disable_quotienting\": false}}"
            },
            "options": {
                "disable_gc": false,
                "timer": "perf_counter",
                "min_rounds": 5,
                "max_time": 1.0,
                "min_time": 5e-06,
                "warmup": false
            },
            "stats": {
                "min": 2.8774507171474397,
                "max": 3.190816250164062,
                "mean": 2.940172860957682,
                "stddev": 0.14011394500739163,
                "rounds": 5,
                "median": 2.8774706651456654,
                "iqr": 0.07850541255902499,
                "q1": 2.8774531667586416,
                "q3": 2.9559585793176666,
                "iqr_outliers": 1,
                "stddev_outliers": 1,
                "outliers": "1;1",
                "ld15iqr": 2.8774507171474397,
                "hd15iqr": 3.190816250164062,
                "ops": 0.3401160568750631,
                "total": 14.70086430478841,
                "data": [
                    3.190816250164062,
                    2.8774507171474397,
                    2.877672689035535,
                    2.877453983295709,
                    2.8774706651456654
                ],
                "iterations": 1
            }
        },
        {
            "group": "searching",
            "name": "search",
            "fullname": "bench_operations.py::test_cost_optimal",
            "params": null,
            "param": null,
            "extra_info": {
                "key_count": 100000000,
                "search_missing": 0,
                "search_hitt\u00edng": 100000000,
                "thread_count": 1,
                "config": "{\"__llconfig__\": true, \"k\": 31, \"key_bits\": 37, \"value_bits\": 32, \"bucket_count\": 66666667, \"bucket_size\": 2, \"value_module\": {\"__llvaluefunctions__\": true, \"module\": \"gecocoo.valuemodules.default.counting\", \"parameters\": []}, \"hash_functions\": [{\"__llhashfunction__\": true, \"name\": \"gecocoo.hashing.xorlinear.xorlinear\", \"seed\": 4703629187251213316, \"parameters\": []}, {\"__llhashfunction__\": true, \"name\": \"gecocoo.hashing.xorlinear.xorlinear\", \"seed\": 11457248271188990237, \"parameters\": []}, {\"__llhashfunction__\": true, \"name\": \"gecocoo.hashing.xorlinear.xorlinear\", \"seed\": 11640213991309078593, \"parameters\": []}, {\"__llhashfunction__\": true, \"name\": \"gecocoo.hashing.xorlinear.xorlinear\", \"seed\": 6717261664370385089, \"parameters\": []}], \"storage\": {\"__llstorageconfig__\": true, \"mode\": \"BUCKETS\", \"concurrent\": true, \"disable_quotienting\": false}}"
            },
            "options": {
                "disable_gc": false,
                "timer": "perf_counter",
                "min_rounds": 5,
                "max_time": 1.0,
                "min_time": 5e-06,
                "warmup": false
            },
            "stats": {
                "min": 16.691242130938917,
                "max": 23.758358794730157,
                "mean": 18.19401214905083,
                "stddev": 3.1126772314460855,
                "rounds": 5,
                "median": 16.83096137177199,
                "iqr": 1.9675735502969474,
                "q1": 16.70597525849007,
                "q3": 18.673548808787018,
                "iqr_outliers": 1,
                "stddev_outliers": 1,
                "outliers": "1;1",
                "ld15iqr": 16.691242130938917,
                "hd15iqr": 23.758358794730157,
                "ops": 0.05496313797131158,
                "total": 90.97006074525416,
                "data": [
                    16.83096137177199,
                    23.758358794730157,
                    16.978612146805972,
                    16.691242130938917,
                    16.710886301007122
                ],
                "iterations": 1
            }
        },
        {
            "group": "searching",
            "name": "search",
            "fullname": "bench_operations.py::test_cost_optimal",
            "params": null,
            "param": null,
            "extra_info": {
                "key_count": 100000000,
                "search_missing": 100000000,
                "search_hitt\u00edng": 0,
                "thread_count": 1,
                "config": "{\"__llconfig__\": true, \"k\": 31, \"key_bits\": 37, \"value_bits\": 32, \"bucket_count\": 66666667, \"bucket_size\": 2, \"value_module\": {\"__llvaluefunctions__\": true, \"module\": \"gecocoo.valuemodules.default.counting\", \"parameters\": []}, \"hash_functions\": [{\"__llhashfunction__\": true, \"name\": \"gecocoo.hashing.xorlinear.xorlinear\", \"seed\": 4703629187251213316, \"parameters\": []}, {\"__llhashfunction__\": true, \"name\": \"gecocoo.hashing.xorlinear.xorlinear\", \"seed\": 11457248271188990237, \"parameters\": []}, {\"__llhashfunction__\": true, \"name\": \"gecocoo.hashing.xorlinear.xorlinear\", \"seed\": 11640213991309078593, \"parameters\": []}, {\"__llhashfunction__\": true, \"name\": \"gecocoo.hashing.xorlinear.xorlinear\", \"seed\": 6717261664370385089, \"parameters\": []}], \"storage\": {\"__llstorageconfig__\": true, \"mode\": \"BUCKETS\", \"concurrent\": true, \"disable_quotienting\": false}}"
            },
            "options": {
                "disable_gc": false,
                "timer": "perf_counter",
                "min_rounds": 5,
                "max_time": 1.0,
                "min_time": 5e-06,
                "warmup": false
            },
            "stats": {
                "min": 28.89275684207678,
                "max": 29.061285002157092,
                "mean": 28.92671585008502,
                "stddev": 0.07522680614440004,
                "rounds": 5,
                "median": 28.893118841107935,
                "iqr": 0.04243088874500245,
                "q1": 28.89294674806297,
                "q3": 28.93537763680797,
                "iqr_outliers": 1,
                "stddev_outliers": 1,
                "outliers": "1;1",
                "ld15iqr": 28.89275684207678,
                "hd15iqr": 29.061285002157092,
                "ops": 0.03457011868138017,
                "total": 144.6335792504251,
                "data": [
                    29.061285002157092,
                    28.89275684207678,
                    28.893010050058365,
                    28.893118841107935,
                    28.89340851502493
                ],
                "iterations": 1
            }
        },
        {
            "group": "searching",
            "name": "search",
            "fullname": "bench_operations.py::test_cost_optimal",
            "params": null,
            "param": null,
            "extra_info": {
                "key_count": 100000000,
                "search_missing": 0,
                "search_hitt\u00edng": 1000000,
                "thread_count": 4,
                "config": "{\"__llconfig__\": true, \"k\": 31, \"key_bits\": 37, \"value_bits\": 32, \"bucket_count\": 66666667, \"bucket_size\": 2, \"value_module\": {\"__llvaluefunctions__\": true, \"module\": \"gecocoo.valuemodules.default.counting\", \"parameters\": []}, \"hash_functions\": [{\"__llhashfunction__\": true, \"name\": \"gecocoo.hashing.xorlinear.xorlinear\", \"seed\": 4703629187251213316, \"parameters\": []}, {\"__llhashfunction__\": true, \"name\": \"gecocoo.hashing.xorlinear.xorlinear\", \"seed\": 11457248271188990237, \"parameters\": []}, {\"__llhashfunction__\": true, \"name\": \"gecocoo.hashing.xorlinear.xorlinear\", \"seed\": 11640213991309078593, \"parameters\": []}, {\"__llhashfunction__\": true, \"name\": \"gecocoo.hashing.xorlinear.xorlinear\", \"seed\": 6717261664370385089, \"parameters\": []}], \"storage\": {\"__llstorageconfig__\": true, \"mode\": \"BUCKETS\", \"concurrent\": true, \"disable_quotienting\": false}}"
            },
            "options": {
                "disable_gc": false,
                "timer": "perf_counter",
                "min_rounds": 5,
                "max_time": 1.0,
                "min_time": 5e-06,
                "warmup": false
            },
            "stats": {
                "min": 0.06195509200915694,
                "max": 0.21594788087531924,
                "mean": 0.09347229963168502,
                "stddev": 0.06847393055953309,
                "rounds": 5,
                "median": 0.06263812817633152,
                "iqr": 0.04030702414456755,
                "q1": 0.06214200844988227,
                "q3": 0.10244903259444982,
                "iqr_outliers": 1,
                "stddev_outliers": 1,
                "outliers": "1;1",
                "ld15iqr": 0.06195509200915694,
                "hd15iqr": 0.21594788087531924,
                "ops": 10.698356667594197,
                "total": 0.4673614981584251,
                "data": [
                    0.21594788087531924,
                    0.06461608316749334,
                    0.06195509200915694,
                    0.062204313930124044,
                    0.06263812817633152
                ],
                "iterations": 1
            }
        },
        {
            "group": "searching",
            "name": "search",
            "fullname": "bench_operations.py::test_cost_optimal",
            "params": null,
            "param": null,
            "extra_info": {
                "key_count": 100000000,
                "search_missing": 1000000,
                "search_hitt\u00edng": 0,
                "thread_count": 4,
                "config": "{\"__llconfig__\": true, \"k\": 31, \"key_bits\": 37, \"value_bits\": 32, \"bucket_count\": 66666667, \"bucket_size\": 2, \"value_module\": {\"__llvaluefunctions__\": true, \"module\": \"gecocoo.valuemodules.default.counting\", \"parameters\": []}, \"hash_functions\": [{\"__llhashfunction__\": true, \"name\": \"gecocoo.hashing.xorlinear.xorlinear\", \"seed\": 4703629187251213316, \"parameters\": []}, {\"__llhashfunction__\": true, \"name\": \"gecocoo.hashing.xorlinear.xorlinear\", \"seed\": 11457248271188990237, \"parameters\": []}, {\"__llhashfunction__\": true, \"name\": \"gecocoo.hashing.xorlinear.xorlinear\", \"seed\": 11640213991309078593, \"parameters\": []}, {\"__llhashfunction__\": true, \"name\": \"gecocoo.hashing.xorlinear.xorlinear\", \"seed\": 6717261664370385089, \"parameters\": []}], \"storage\": {\"__llstorageconfig__\": true, \"mode\": \"BUCKETS\", \"concurrent\": true, \"disable_quotienting\": false}}"
            },
            "options": {
                "disable_gc": false,
                "timer": "perf_counter",
                "min_rounds": 5,
                "max_time": 1.0,
                "min_time": 5e-06,
                "warmup": false
            },
            "stats": {
                "min": 0.11004834482446313,
                "max": 0.25077646784484386,
                "mean": 0.13944091107696294,
                "stddev": 0.062244979080747234,
                "rounds": 5,
                "median": 0.11211891798302531,
                "iqr": 0.03523553942795843,
                "q1": 0.11158314114436507,
                "q3": 0.1468186805723235,
                "iqr_outliers": 1,
                "stddev_outliers": 1,
                "outliers": "1;1",
                "ld15iqr": 0.11004834482446313,
                "hd15iqr": 0.25077646784484386,
                "ops": 7.171496458797953,
                "total": 0.6972045553848147,
                "data": [
                    0.25077646784484386,
                    0.11004834482446313,
                    0.11216608481481671,
                    0.11209473991766572,
                    0.11211891798302531
                ],
                "iterations": 1
            }
        },
        {
            "group": "searching",
            "name": "search",
            "fullname": "bench_operations.py::test_cost_optimal",
            "params": null,
            "param": null,
            "extra_info": {
                "key_count": 100000000,
                "search_missing": 0,
                "search_hitt\u00edng": 10000000,
                "thread_count": 4,
                "config": "{\"__llconfig__\": true, \"k\": 31, \"key_bits\": 37, \"value_bits\": 32, \"bucket_count\": 66666667, \"bucket_size\": 2, \"value_module\": {\"__llvaluefunctions__\": true, \"module\": \"gecocoo.valuemodules.default.counting\", \"parameters\": []}, \"hash_functions\": [{\"__llhashfunction__\": true, \"name\": \"gecocoo.hashing.xorlinear.xorlinear\", \"seed\": 4703629187251213316, \"parameters\": []}, {\"__llhashfunction__\": true, \"name\": \"gecocoo.hashing.xorlinear.xorlinear\", \"seed\": 11457248271188990237, \"parameters\": []}, {\"__llhashfunction__\": true, \"name\": \"gecocoo.hashing.xorlinear.xorlinear\", \"seed\": 11640213991309078593, \"parameters\": []}, {\"__llhashfunction__\": true, \"name\": \"gecocoo.hashing.xorlinear.xorlinear\", \"seed\": 6717261664370385089, \"parameters\": []}], \"storage\": {\"__llstorageconfig__\": true, \"mode\": \"BUCKETS\", \"concurrent\": true, \"disable_quotienting\": false}}"
            },
            "options": {
                "disable_gc": false,
                "timer": "perf_counter",
                "min_rounds": 5,
                "max_time": 1.0,
                "min_time": 5e-06,
                "warmup": false
            },
            "stats": {
                "min": 0.5940850018523633,
                "max": 0.7439824072644114,
                "mean": 0.6266627922654152,
                "stddev": 0.06562649304772424,
                "rounds": 5,
                "median": 0.5990780522115529,
                "iqr": 0.04042859503533691,
                "q1": 0.595607316121459,
                "q3": 0.6360359111567959,
                "iqr_outliers": 1,
                "stddev_outliers": 1,
                "outliers": "1;1",
                "ld15iqr": 0.5940850018523633,
                "hd15iqr": 0.7439824072644114,
                "ops": 1.595754546691616,
                "total": 3.133313961327076,
                "data": [
                    0.7439824072644114,
                    0.5940850018523633,
                    0.5990780522115529,
                    0.6000537457875907,
                    0.5961147542111576
                ],
                "iterations": 1
            }
        },
        {
            "group": "searching",
            "name": "search",
            "fullname": "bench_operations.py::test_cost_optimal",
            "params": null,
            "param": null,
            "extra_info": {
                "key_count": 100000000,
                "search_missing": 10000000,
                "search_hitt\u00edng": 0,
                "thread_count": 4,
                "config": "{\"__llconfig__\": true, \"k\": 31, \"key_bits\": 37, \"value_bits\": 32, \"bucket_count\": 66666667, \"bucket_size\": 2, \"value_module\": {\"__llvaluefunctions__\": true, \"module\": \"gecocoo.valuemodules.default.counting\", \"parameters\": []}, \"hash_functions\": [{\"__llhashfunction__\": true, \"name\": \"gecocoo.hashing.xorlinear.xorlinear\", \"seed\": 4703629187251213316, \"parameters\": []}, {\"__llhashfunction__\": true, \"name\": \"gecocoo.hashing.xorlinear.xorlinear\", \"seed\": 11457248271188990237, \"parameters\": []}, {\"__llhashfunction__\": true, \"name\": \"gecocoo.hashing.xorlinear.xorlinear\", \"seed\": 11640213991309078593, \"parameters\": []}, {\"__llhashfunction__\": true, \"name\": \"gecocoo.hashing.xorlinear.xorlinear\", \"seed\": 6717261664370385089, \"parameters\": []}], \"storage\": {\"__llstorageconfig__\": true, \"mode\": \"BUCKETS\", \"concurrent\": true, \"disable_quotienting\": false}}"
            },
            "options": {
                "disable_gc": false,
                "timer": "perf_counter",
                "min_rounds": 5,
                "max_time": 1.0,
                "min_time": 5e-06,
                "warmup": false
            },
            "stats": {
                "min": 1.0883284453302622,
                "max": 1.1814233344048262,
                "mean": 1.1084207579493524,
                "stddev": 0.040870069879671796,
                "rounds": 5,
                "median": 1.0902430647984147,
                "iqr": 0.02734988648444414,
                "q1": 1.0883348836796358,
                "q3": 1.11568477016408,
                "iqr_outliers": 1,
                "stddev_outliers": 1,
                "outliers": "1;1",
                "ld15iqr": 1.0883284453302622,
                "hd15iqr": 1.1814233344048262,
                "ops": 0.9021844753702218,
                "total": 5.542103789746761,
                "data": [
                    1.1814233344048262,
                    1.0883370297960937,
                    1.0902430647984147,
                    1.0883284453302622,
                    1.0937719154171646
                ],
                "iterations": 1
            }
        },
        {
            "group": "searching",
            "name": "search",
            "fullname": "bench_operations.py::test_cost_optimal",
            "params": null,
            "param": null,
            "extra_info": {
                "key_count": 100000000,
                "search_missing": 0,
                "search_hitt\u00edng": 100000000,
                "thread_count": 4,
                "config": "{\"__llconfig__\": true, \"k\": 31, \"key_bits\": 37, \"value_bits\": 32, \"bucket_count\": 66666667, \"bucket_size\": 2, \"value_module\": {\"__llvaluefunctions__\": true, \"module\": \"gecocoo.valuemodules.default.counting\", \"parameters\": []}, \"hash_functions\": [{\"__llhashfunction__\": true, \"name\": \"gecocoo.hashing.xorlinear.xorlinear\", \"seed\": 4703629187251213316, \"parameters\": []}, {\"__llhashfunction__\": true, \"name\": \"gecocoo.hashing.xorlinear.xorlinear\", \"seed\": 11457248271188990237, \"parameters\": []}, {\"__llhashfunction__\": true, \"name\": \"gecocoo.hashing.xorlinear.xorlinear\", \"seed\": 11640213991309078593, \"parameters\": []}, {\"__llhashfunction__\": true, \"name\": \"gecocoo.hashing.xorlinear.xorlinear\", \"seed\": 6717261664370385089, \"parameters\": []}], \"storage\": {\"__llstorageconfig__\": true, \"mode\": \"BUCKETS\", \"concurrent\": true, \"disable_quotienting\": false}}"
            },
            "options": {
                "disable_gc": false,
                "timer": "perf_counter",
                "min_rounds": 5,
                "max_time": 1.0,
                "min_time": 5e-06,
                "warmup": false
            },
            "stats": {
                "min": 5.907361496705562,
                "max": 6.123517032247037,
                "mean": 5.986764260474592,
                "stddev": 0.08087562231125942,
                "rounds": 5,
                "median": 5.966024171095341,
                "iqr": 0.062050293665379286,
                "q1": 5.9491791451582685,
                "q3": 6.011229438823648,
                "iqr_outliers": 1,
                "stddev_outliers": 1,
                "outliers": "1;1",
                "ld15iqr": 5.907361496705562,
                "hd15iqr": 6.123517032247037,
                "ops": 0.16703513893174848,
                "total": 29.933821302372962,
                "data": [
                    6.123517032247037,
                    5.907361496705562,
                    5.966024171095341,
                    5.9738002410158515,
                    5.963118361309171
                ],
                "iterations": 1
            }
        },
        {
            "group": "searching",
            "name": "search",
            "fullname": "bench_operations.py::test_cost_optimal",
            "params": null,
            "param": null,
            "extra_info": {
                "key_count": 100000000,
                "search_missing": 100000000,
                "search_hitt\u00edng": 0,
                "thread_count": 4,
                "config": "{\"__llconfig__\": true, \"k\": 31, \"key_bits\": 37, \"value_bits\": 32, \"bucket_count\": 66666667, \"bucket_size\": 2, \"value_module\": {\"__llvaluefunctions__\": true, \"module\": \"gecocoo.valuemodules.default.counting\", \"parameters\": []}, \"hash_functions\": [{\"__llhashfunction__\": true, \"name\": \"gecocoo.hashing.xorlinear.xorlinear\", \"seed\": 4703629187251213316, \"parameters\": []}, {\"__llhashfunction__\": true, \"name\": \"gecocoo.hashing.xorlinear.xorlinear\", \"seed\": 11457248271188990237, \"parameters\": []}, {\"__llhashfunction__\": true, \"name\": \"gecocoo.hashing.xorlinear.xorlinear\", \"seed\": 11640213991309078593, \"parameters\": []}, {\"__llhashfunction__\": true, \"name\": \"gecocoo.hashing.xorlinear.xorlinear\", \"seed\": 6717261664370385089, \"parameters\": []}], \"storage\": {\"__llstorageconfig__\": true, \"mode\": \"BUCKETS\", \"concurrent\": true, \"disable_quotienting\": false}}"
            },
            "options": {
                "disable_gc": false,
                "timer": "perf_counter",
                "min_rounds": 5,
                "max_time": 1.0,
                "min_time": 5e-06,
                "warmup": false
            },
            "stats": {
                "min": 10.383136122021824,
                "max": 10.973134723957628,
                "mean": 10.836741747986526,
                "stddev": 0.25396054132849183,
                "rounds": 5,
                "median": 10.945818427950144,
                "iqr": 0.15603155794087797,
                "q1": 10.797125376528129,
                "q3": 10.953156934469007,
                "iqr_outliers": 1,
                "stddev_outliers": 1,
                "outliers": "1;1",
                "ld15iqr": 10.935121794696897,
                "hd15iqr": 10.973134723957628,
                "ops": 0.09227865932911068,
                "total": 54.18370873993263,
                "data": [
                    10.973134723957628,
                    10.383136122021824,
                    10.945818427950144,
                    10.935121794696897,
                    10.946497671306133
                ],
                "iterations": 1
            }
        },
        {
            "group": "searching",
            "name": "search",
            "fullname": "bench_operations.py::test_cost_optimal",
            "params": null,
            "param": null,
            "extra_info": {
                "key_count": 100000000,
                "search_missing": 0,
                "search_hitt\u00edng": 1000000,
                "thread_count": 8,
                "config": "{\"__llconfig__\": true, \"k\": 31, \"key_bits\": 37, \"value_bits\": 32, \"bucket_count\": 66666667, \"bucket_size\": 2, \"value_module\": {\"__llvaluefunctions__\": true, \"module\": \"gecocoo.valuemodules.default.counting\", \"parameters\": []}, \"hash_functions\": [{\"__llhashfunction__\": true, \"name\": \"gecocoo.hashing.xorlinear.xorlinear\", \"seed\": 4703629187251213316, \"parameters\": []}, {\"__llhashfunction__\": true, \"name\": \"gecocoo.hashing.xorlinear.xorlinear\", \"seed\": 11457248271188990237, \"parameters\": []}, {\"__llhashfunction__\": true, \"name\": \"gecocoo.hashing.xorlinear.xorlinear\", \"seed\": 11640213991309078593, \"parameters\": []}, {\"__llhashfunction__\": true, \"name\": \"gecocoo.hashing.xorlinear.xorlinear\", \"seed\": 6717261664370385089, \"parameters\": []}], \"storage\": {\"__llstorageconfig__\": true, \"mode\": \"BUCKETS\", \"concurrent\": true, \"disable_quotienting\": false}}"
            },
            "options": {
                "disable_gc": false,
                "timer": "perf_counter",
                "min_rounds": 5,
                "max_time": 1.0,
                "min_time": 5e-06,
                "warmup": false
            },
            "stats": {
                "min": 0.0321794911287725,
                "max": 0.21395130595192313,
                "mean": 0.06882280623540282,
                "stddev": 0.08112967497755359,
                "rounds": 5,
                "median": 0.032717847265303135,
                "iqr": 0.04571561107877642,
                "q1": 0.0323830641573295,
                "q3": 0.07809867523610592,
                "iqr_outliers": 1,
                "stddev_outliers": 1,
                "outliers": "1;1",
                "ld15iqr": 0.0321794911287725,
                "hd15iqr": 0.21395130595192313,
                "ops": 14.530067207367004,
                "total": 0.3441140311770141,
                "data": [
                    0.21395130595192313,
                    0.03281446499750018,
                    0.032717847265303135,
                    0.03245092183351517,
                    0.0321794911287725
                ],
                "iterations": 1
            }
        },
        {
            "group": "searching",
            "name": "search",
            "fullname": "bench_operations.py::test_cost_optimal",
            "params": null,
            "param": null,
            "extra_info": {
                "key_count": 100000000,
                "search_missing": 1000000,
                "search_hitt\u00edng": 0,
                "thread_count": 8,
                "config": "{\"__llconfig__\": true, \"k\": 31, \"key_bits\": 37, \"value_bits\": 32, \"bucket_count\": 66666667, \"bucket_size\": 2, \"value_module\": {\"__llvaluefunctions__\": true, \"module\": \"gecocoo.valuemodules.default.counting\", \"parameters\": []}, \"hash_functions\": [{\"__llhashfunction__\": true, \"name\": \"gecocoo.hashing.xorlinear.xorlinear\", \"seed\": 4703629187251213316, \"parameters\": []}, {\"__llhashfunction__\": true, \"name\": \"gecocoo.hashing.xorlinear.xorlinear\", \"seed\": 11457248271188990237, \"parameters\": []}, {\"__llhashfunction__\": true, \"name\": \"gecocoo.hashing.xorlinear.xorlinear\", \"seed\": 11640213991309078593, \"parameters\": []}, {\"__llhashfunction__\": true, \"name\": \"gecocoo.hashing.xorlinear.xorlinear\", \"seed\": 6717261664370385089, \"parameters\": []}], \"storage\": {\"__llstorageconfig__\": true, \"mode\": \"BUCKETS\", \"concurrent\": true, \"disable_quotienting\": false}}"
            },
            "options": {
                "disable_gc": false,
                "timer": "perf_counter",
                "min_rounds": 5,
                "max_time": 1.0,
                "min_time": 5e-06,
                "warmup": false
            },
            "stats": {
                "min": 0.05759823275730014,
                "max": 0.23144297674298286,
                "mean": 0.09249229850247502,
                "stddev": 0.07767592534094349,
                "rounds": 5,
                "median": 0.05782408080995083,
                "iqr": 0.04370005347300321,
                "q1": 0.05762870027683675,
                "q3": 0.10132875374983996,
                "iqr_outliers": 1,
                "stddev_outliers": 1,
                "outliers": "1;1",
                "ld15iqr": 0.05759823275730014,
                "hd15iqr": 0.23144297674298286,
                "ops": 10.811710987734193,
                "total": 0.4624614925123751,
                "data": [
                    0.23144297674298286,
                    0.057957346085458994,
                    0.05763885611668229,
                    0.05782408080995083,
                    0.05759823275730014
                ],
                "iterations": 1
            }
        },
        {
            "group": "searching",
            "name": "search",
            "fullname": "bench_operations.py::test_cost_optimal",
            "params": null,
            "param": null,
            "extra_info": {
                "key_count": 100000000,
                "search_missing": 0,
                "search_hitt\u00edng": 10000000,
                "thread_count": 8,
                "config": "{\"__llconfig__\": true, \"k\": 31, \"key_bits\": 37, \"value_bits\": 32, \"bucket_count\": 66666667, \"bucket_size\": 2, \"value_module\": {\"__llvaluefunctions__\": true, \"module\": \"gecocoo.valuemodules.default.counting\", \"parameters\": []}, \"hash_functions\": [{\"__llhashfunction__\": true, \"name\": \"gecocoo.hashing.xorlinear.xorlinear\", \"seed\": 4703629187251213316, \"parameters\": []}, {\"__llhashfunction__\": true, \"name\": \"gecocoo.hashing.xorlinear.xorlinear\", \"seed\": 11457248271188990237, \"parameters\": []}, {\"__llhashfunction__\": true, \"name\": \"gecocoo.hashing.xorlinear.xorlinear\", \"seed\": 11640213991309078593, \"parameters\": []}, {\"__llhashfunction__\": true, \"name\": \"gecocoo.hashing.xorlinear.xorlinear\", \"seed\": 6717261664370385089, \"parameters\": []}], \"storage\": {\"__llstorageconfig__\": true, \"mode\": \"BUCKETS\", \"concurrent\": true, \"disable_quotienting\": false}}"
            },
            "options": {
                "disable_gc": false,
                "timer": "perf_counter",
                "min_rounds": 5,
                "max_time": 1.0,
                "min_time": 5e-06,
                "warmup": false
            },
            "stats": {
                "min": 0.304033983964473,
                "max": 0.6055276547558606,
                "mean": 0.36471237502992154,
                "stddev": 0.13462015052239348,
                "rounds": 5,
                "median": 0.3046120908111334,
                "iqr": 0.07557535800151527,
                "q1": 0.3044280804460868,
                "q3": 0.3800034384476021,
                "iqr_outliers": 1,
                "stddev_outliers": 1,
                "outliers": "1;1",
                "ld15iqr": 0.304033983964473,
                "hd15iqr": 0.6055276547558606,
                "ops": 2.741886671429667,
                "total": 1.8235618751496077,
                "data": [
                    0.6055276547558606,
                    0.3046120908111334,
                    0.304033983964473,
                    0.3045594459399581,
                    0.3048286996781826
                ],
                "iterations": 1
            }
        },
        {
            "group": "searching",
            "name": "search",
            "fullname": "bench_operations.py::test_cost_optimal",
            "params": null,
            "param": null,
            "extra_info": {
                "key_count": 100000000,
                "search_missing": 10000000,
                "search_hitt\u00edng": 0,
                "thread_count": 8,
                "config": "{\"__llconfig__\": true, \"k\": 31, \"key_bits\": 37, \"value_bits\": 32, \"bucket_count\": 66666667, \"bucket_size\": 2, \"value_module\": {\"__llvaluefunctions__\": true, \"module\": \"gecocoo.valuemodules.default.counting\", \"parameters\": []}, \"hash_functions\": [{\"__llhashfunction__\": true, \"name\": \"gecocoo.hashing.xorlinear.xorlinear\", \"seed\": 4703629187251213316, \"parameters\": []}, {\"__llhashfunction__\": true, \"name\": \"gecocoo.hashing.xorlinear.xorlinear\", \"seed\": 11457248271188990237, \"parameters\": []}, {\"__llhashfunction__\": true, \"name\": \"gecocoo.hashing.xorlinear.xorlinear\", \"seed\": 11640213991309078593, \"parameters\": []}, {\"__llhashfunction__\": true, \"name\": \"gecocoo.hashing.xorlinear.xorlinear\", \"seed\": 6717261664370385089, \"parameters\": []}], \"storage\": {\"__llstorageconfig__\": true, \"mode\": \"BUCKETS\", \"concurrent\": true, \"disable_quotienting\": false}}"
            },
            "options": {
                "disable_gc": false,
                "timer": "perf_counter",
                "min_rounds": 5,
                "max_time": 1.0,
                "min_time": 5e-06,
                "warmup": false
            },
            "stats": {
                "min": 0.5542745538987219,
                "max": 0.7316959942691028,
                "mean": 0.5902038444764912,
                "stddev": 0.07909717962154625,
                "rounds": 5,
                "median": 0.5549972611479461,
                "iqr": 0.04444175027310848,
                "q1": 0.5547947232844308,
                "q3": 0.5992364735575393,
                "iqr_outliers": 1,
                "stddev_outliers": 1,
                "outliers": "1;1",
                "ld15iqr": 0.5542745538987219,
                "hd15iqr": 0.7316959942691028,
                "ops": 1.6943298647723932,
                "total": 2.951019222382456,
                "data": [
                    0.7316959942691028,
                    0.5542745538987219,
                    0.5549972611479461,
                    0.5549681130796671,
                    0.5550832999870181
                ],
                "iterations": 1
            }
        },
        {
            "group": "searching",
            "name": "search",
            "fullname": "bench_operations.py::test_cost_optimal",
            "params": null,
            "param": null,
            "extra_info": {
                "key_count": 100000000,
                "search_missing": 0,
                "search_hitt\u00edng": 100000000,
                "thread_count": 8,
                "config": "{\"__llconfig__\": true, \"k\": 31, \"key_bits\": 37, \"value_bits\": 32, \"bucket_count\": 66666667, \"bucket_size\": 2, \"value_module\": {\"__llvaluefunctions__\": true, \"module\": \"gecocoo.valuemodules.default.counting\", \"parameters\": []}, \"hash_functions\": [{\"__llhashfunction__\": true, \"name\": \"gecocoo.hashing.xorlinear.xorlinear\", \"seed\": 4703629187251213316, \"parameters\": []}, {\"__llhashfunction__\": true, \"name\": \"gecocoo.hashing.xorlinear.xorlinear\", \"seed\": 11457248271188990237, \"parameters\": []}, {\"__llhashfunction__\": true, \"name\": \"gecocoo.hashing.xorlinear.xorlinear\", \"seed\": 11640213991309078593, \"parameters\": []}, {\"__llhashfunction__\": true, \"name\": \"gecocoo.hashing.xorlinear.xorlinear\", \"seed\": 6717261664370385089, \"parameters\": []}], \"storage\": {\"__llstorageconfig__\": true, \"mode\": \"BUCKETS\", \"concurrent\": true, \"disable_quotienting\": false}}"
            },
            "options": {
                "disable_gc": false,
                "timer": "perf_counter",
                "min_rounds": 5,
                "max_time": 1.0,
                "min_time": 5e-06,
                "warmup": false
            },
            "stats": {
                "min": 3.019019727129489,
                "max": 3.1951465820893645,
                "mean": 3.057515747938305,
                "stddev": 0.07701938955630407,
                "rounds": 5,
                "median": 3.024286422878504,
                "iqr": 0.049624180304817855,
                "q1": 3.020380951347761,
                "q3": 3.0700051316525787,
                "iqr_outliers": 1,
                "stddev_outliers": 1,
                "outliers": "1;1",
                "ld15iqr": 3.019019727129489,
                "hd15iqr": 3.1951465820893645,
                "ops": 0.3270629106896028,
                "total": 15.287578739691526,
                "data": [
                    3.1951465820893645,
                    3.0208346927538514,
                    3.0282913148403168,
                    3.019019727129489,
                    3.024286422878504
                ],
                "iterations": 1
            }
        },
        {
            "group": "searching",
            "name": "search",
            "fullname": "bench_operations.py::test_cost_optimal",
            "params": null,
            "param": null,
            "extra_info": {
                "key_count": 100000000,
                "search_missing": 100000000,
                "search_hitt\u00edng": 0,
                "thread_count": 8,
                "config": "{\"__llconfig__\": true, \"k\": 31, \"key_bits\": 37, \"value_bits\": 32, \"bucket_count\": 66666667, \"bucket_size\": 2, \"value_module\": {\"__llvaluefunctions__\": true, \"module\": \"gecocoo.valuemodules.default.counting\", \"parameters\": []}, \"hash_functions\": [{\"__llhashfunction__\": true, \"name\": \"gecocoo.hashing.xorlinear.xorlinear\", \"seed\": 4703629187251213316, \"parameters\": []}, {\"__llhashfunction__\": true, \"name\": \"gecocoo.hashing.xorlinear.xorlinear\", \"seed\": 11457248271188990237, \"parameters\": []}, {\"__llhashfunction__\": true, \"name\": \"gecocoo.hashing.xorlinear.xorlinear\", \"seed\": 11640213991309078593, \"parameters\": []}, {\"__llhashfunction__\": true, \"name\": \"gecocoo.hashing.xorlinear.xorlinear\", \"seed\": 6717261664370385089, \"parameters\": []}], \"storage\": {\"__llstorageconfig__\": true, \"mode\": \"BUCKETS\", \"concurrent\": true, \"disable_quotienting\": false}}"
            },
            "options": {
                "disable_gc": false,
                "timer": "perf_counter",
                "min_rounds": 5,
                "max_time": 1.0,
                "min_time": 5e-06,
                "warmup": false
            },
            "stats": {
                "min": 5.540637026075274,
                "max": 5.647441941779107,
                "mean": 5.568062605150044,
                "stddev": 0.044591037590182694,
                "rounds": 5,
                "median": 5.550978111103177,
                "iqr": 0.02736221393570304,
                "q1": 5.547799744061194,
                "q3": 5.575161957996897,
                "iqr_outliers": 1,
                "stddev_outliers": 1,
                "outliers": "1;1",
                "ld15iqr": 5.540637026075274,
                "hd15iqr": 5.647441941779107,
                "ops": 0.17959568182208913,
                "total": 27.84031302575022,
                "data": [
                    5.647441941779107,
                    5.540637026075274,
                    5.550978111103177,
                    5.551068630069494,
                    5.550187316723168
                ],
                "iterations": 1
            }
        },
        {
            "group": "searching",
            "name": "search",
            "fullname": "bench_operations.py::test_cost_optimal",
            "params": null,
            "param": null,
            "extra_info": {
                "key_count": 100000000,
                "search_missing": 0,
                "search_hitt\u00edng": 1000000,
                "thread_count": 16,
                "config": "{\"__llconfig__\": true, \"k\": 31, \"key_bits\": 37, \"value_bits\": 32, \"bucket_count\": 66666667, \"bucket_size\": 2, \"value_module\": {\"__llvaluefunctions__\": true, \"module\": \"gecocoo.valuemodules.default.counting\", \"parameters\": []}, \"hash_functions\": [{\"__llhashfunction__\": true, \"name\": \"gecocoo.hashing.xorlinear.xorlinear\", \"seed\": 4703629187251213316, \"parameters\": []}, {\"__llhashfunction__\": true, \"name\": \"gecocoo.hashing.xorlinear.xorlinear\", \"seed\": 11457248271188990237, \"parameters\": []}, {\"__llhashfunction__\": true, \"name\": \"gecocoo.hashing.xorlinear.xorlinear\", \"seed\": 11640213991309078593, \"parameters\": []}, {\"__llhashfunction__\": true, \"name\": \"gecocoo.hashing.xorlinear.xorlinear\", \"seed\": 6717261664370385089, \"parameters\": []}], \"storage\": {\"__llstorageconfig__\": true, \"mode\": \"BUCKETS\", \"concurrent\": true, \"disable_quotienting\": false}}"
            },
            "options": {
                "disable_gc": false,
                "timer": "perf_counter",
                "min_rounds": 5,
                "max_time": 1.0,
                "min_time": 5e-06,
                "warmup": false
            },
            "stats": {
                "min": 0.02407982712611556,
                "max": 0.2038220358081162,
                "mean": 0.061153709329664706,
                "stddev": 0.0797589903548664,
                "rounds": 5,
                "median": 0.026196782011538744,
                "iqr": 0.04564379958901554,
                "q1": 0.025042046210728586,
                "q3": 0.07068584579974413,
                "iqr_outliers": 1,
                "stddev_outliers": 1,
                "outliers": "1;1",
                "ld15iqr": 0.02407982712611556,
                "hd15iqr": 0.2038220358081162,
                "ops": 16.35223784397516,
                "total": 0.30576854664832354,
                "data": [
                    0.2038220358081162,
                    0.026196782011538744,
                    0.025362785905599594,
                    0.02407982712611556,
                    0.02630711579695344
                ],
                "iterations": 1
            }
        },
        {
            "group": "searching",
            "name": "search",
            "fullname": "bench_operations.py::test_cost_optimal",
            "params": null,
            "param": null,
            "extra_info": {
                "key_count": 100000000,
                "search_missing": 1000000,
                "search_hitt\u00edng": 0,
                "thread_count": 16,
                "config": "{\"__llconfig__\": true, \"k\": 31, \"key_bits\": 37, \"value_bits\": 32, \"bucket_count\": 66666667, \"bucket_size\": 2, \"value_module\": {\"__llvaluefunctions__\": true, \"module\": \"gecocoo.valuemodules.default.counting\", \"parameters\": []}, \"hash_functions\": [{\"__llhashfunction__\": true, \"name\": \"gecocoo.hashing.xorlinear.xorlinear\", \"seed\": 4703629187251213316, \"parameters\": []}, {\"__llhashfunction__\": true, \"name\": \"gecocoo.hashing.xorlinear.xorlinear\", \"seed\": 11457248271188990237, \"parameters\": []}, {\"__llhashfunction__\": true, \"name\": \"gecocoo.hashing.xorlinear.xorlinear\", \"seed\": 11640213991309078593, \"parameters\": []}, {\"__llhashfunction__\": true, \"name\": \"gecocoo.hashing.xorlinear.xorlinear\", \"seed\": 6717261664370385089, \"parameters\": []}], \"storage\": {\"__llstorageconfig__\": true, \"mode\": \"BUCKETS\", \"concurrent\": true, \"disable_quotienting\": false}}"
            },
            "options": {
                "disable_gc": false,
                "timer": "perf_counter",
                "min_rounds": 5,
                "max_time": 1.0,
                "min_time": 5e-06,
                "warmup": false
            },
            "stats": {
                "min": 0.03865126706659794,
                "max": 0.2370086540468037,
                "mean": 0.08263514218851924,
                "stddev": 0.0863916131423262,
                "rounds": 5,
                "median": 0.04502014582976699,
                "iqr": 0.05492635001428425,
                "q1": 0.041680181631818414,
                "q3": 0.09660653164610267,
                "iqr_outliers": 1,
                "stddev_outliers": 1,
                "outliers": "1;1",
                "ld15iqr": 0.03865126706659794,
                "hd15iqr": 0.2370086540468037,
                "ops": 12.101388991606687,
                "total": 0.4131757109425962,
                "data": [
                    0.2370086540468037,
                    0.04502014582976699,
                    0.03865126706659794,
                    0.04980582417920232,
                    0.04268981982022524
                ],
                "iterations": 1
            }
        },
        {
            "group": "searching",
            "name": "search",
            "fullname": "bench_operations.py::test_cost_optimal",
            "params": null,
            "param": null,
            "extra_info": {
                "key_count": 100000000,
                "search_missing": 0,
                "search_hitt\u00edng": 10000000,
                "thread_count": 16,
                "config": "{\"__llconfig__\": true, \"k\": 31, \"key_bits\": 37, \"value_bits\": 32, \"bucket_count\": 66666667, \"bucket_size\": 2, \"value_module\": {\"__llvaluefunctions__\": true, \"module\": \"gecocoo.valuemodules.default.counting\", \"parameters\": []}, \"hash_functions\": [{\"__llhashfunction__\": true, \"name\": \"gecocoo.hashing.xorlinear.xorlinear\", \"seed\": 4703629187251213316, \"parameters\": []}, {\"__llhashfunction__\": true, \"name\": \"gecocoo.hashing.xorlinear.xorlinear\", \"seed\": 11457248271188990237, \"parameters\": []}, {\"__llhashfunction__\": true, \"name\": \"gecocoo.hashing.xorlinear.xorlinear\", \"seed\": 11640213991309078593, \"parameters\": []}, {\"__llhashfunction__\": true, \"name\": \"gecocoo.hashing.xorlinear.xorlinear\", \"seed\": 6717261664370385089, \"parameters\": []}], \"storage\": {\"__llstorageconfig__\": true, \"mode\": \"BUCKETS\", \"concurrent\": true, \"disable_quotienting\": false}}"
            },
            "options": {
                "disable_gc": false,
                "timer": "perf_counter",
                "min_rounds": 5,
                "max_time": 1.0,
                "min_time": 5e-06,
                "warmup": false
            },
            "stats": {
                "min": 0.15648559108376503,
                "max": 0.3335712421685457,
                "mean": 0.20915331561118364,
                "stddev": 0.07066381914771895,
                "rounds": 5,
                "median": 0.18495286302641034,
                "iqr": 0.04629514820408076,
                "q1": 0.17714336072094738,
                "q3": 0.22343850892502815,
                "iqr_outliers": 1,
                "stddev_outliers": 1,
                "outliers": "1;1",
                "ld15iqr": 0.15648559108376503,
                "hd15iqr": 0.3335712421685457,
                "ops": 4.781181675642196,
                "total": 1.0457665780559182,
                "data": [
                    0.3335712421685457,
                    0.18495286302641034,
                    0.18672759784385562,
                    0.1840292839333415,
                    0.15648559108376503
                ],
                "iterations": 1
            }
        },
        {
            "group": "searching",
            "name": "search",
            "fullname": "bench_operations.py::test_cost_optimal",
            "params": null,
            "param": null,
            "extra_info": {
                "key_count": 100000000,
                "search_missing": 10000000,
                "search_hitt\u00edng": 0,
                "thread_count": 16,
                "config": "{\"__llconfig__\": true, \"k\": 31, \"key_bits\": 37, \"value_bits\": 32, \"bucket_count\": 66666667, \"bucket_size\": 2, \"value_module\": {\"__llvaluefunctions__\": true, \"module\": \"gecocoo.valuemodules.default.counting\", \"parameters\": []}, \"hash_functions\": [{\"__llhashfunction__\": true, \"name\": \"gecocoo.hashing.xorlinear.xorlinear\", \"seed\": 4703629187251213316, \"parameters\": []}, {\"__llhashfunction__\": true, \"name\": \"gecocoo.hashing.xorlinear.xorlinear\", \"seed\": 11457248271188990237, \"parameters\": []}, {\"__llhashfunction__\": true, \"name\": \"gecocoo.hashing.xorlinear.xorlinear\", \"seed\": 11640213991309078593, \"parameters\": []}, {\"__llhashfunction__\": true, \"name\": \"gecocoo.hashing.xorlinear.xorlinear\", \"seed\": 6717261664370385089, \"parameters\": []}], \"storage\": {\"__llstorageconfig__\": true, \"mode\": \"BUCKETS\", \"concurrent\": true, \"disable_quotienting\": false}}"
            },
            "options": {
                "disable_gc": false,
                "timer": "perf_counter",
                "min_rounds": 5,
                "max_time": 1.0,
                "min_time": 5e-06,
                "warmup": false
            },
            "stats": {
                "min": 0.2971945321187377,
                "max": 0.46272431686520576,
                "mean": 0.3497110763564706,
                "stddev": 0.06482724676787475,
                "rounds": 5,
                "median": 0.3313098740763962,
                "iqr": 0.04929757199715823,
                "q1": 0.3168385671451688,
                "q3": 0.366136139142327,
                "iqr_outliers": 1,
                "stddev_outliers": 1,
                "outliers": "1;1",
                "ld15iqr": 0.2971945321187377,
                "hd15iqr": 0.46272431686520576,
                "ops": 2.859503366089186,
                "total": 1.748555381782353,
                "data": [
                    0.46272431686520576,
                    0.3339400799013674,
                    0.3233865788206458,
                    0.2971945321187377,
                    0.3313098740763962
                ],
                "iterations": 1
            }
        },
        {
            "group": "searching",
            "name": "search",
            "fullname": "bench_operations.py::test_cost_optimal",
            "params": null,
            "param": null,
            "extra_info": {
                "key_count": 100000000,
                "search_missing": 0,
                "search_hitt\u00edng": 100000000,
                "thread_count": 16,
                "config": "{\"__llconfig__\": true, \"k\": 31, \"key_bits\": 37, \"value_bits\": 32, \"bucket_count\": 66666667, \"bucket_size\": 2, \"value_module\": {\"__llvaluefunctions__\": true, \"module\": \"gecocoo.valuemodules.default.counting\", \"parameters\": []}, \"hash_functions\": [{\"__llhashfunction__\": true, \"name\": \"gecocoo.hashing.xorlinear.xorlinear\", \"seed\": 4703629187251213316, \"parameters\": []}, {\"__llhashfunction__\": true, \"name\": \"gecocoo.hashing.xorlinear.xorlinear\", \"seed\": 11457248271188990237, \"parameters\": []}, {\"__llhashfunction__\": true, \"name\": \"gecocoo.hashing.xorlinear.xorlinear\", \"seed\": 11640213991309078593, \"parameters\": []}, {\"__llhashfunction__\": true, \"name\": \"gecocoo.hashing.xorlinear.xorlinear\", \"seed\": 6717261664370385089, \"parameters\": []}], \"storage\": {\"__llstorageconfig__\": true, \"mode\": \"BUCKETS\", \"concurrent\": true, \"disable_quotienting\": false}}"
            },
            "options": {
                "disable_gc": false,
                "timer": "perf_counter",
                "min_rounds": 5,
                "max_time": 1.0,
                "min_time": 5e-06,
                "warmup": false
            },
            "stats": {
                "min": 1.5277149532921612,
                "max": 1.8123843581415713,
                "mean": 1.73853367427364,
                "stddev": 0.12001467278220002,
                "rounds": 5,
                "median": 1.791465531103313,
                "iqr": 0.11060920648742467,
                "q1": 1.697621633997187,
                "q3": 1.8082308404846117,
                "iqr_outliers": 1,
                "stddev_outliers": 1,
                "outliers": "1;1",
                "ld15iqr": 1.7542571942321956,
                "hd15iqr": 1.8123843581415713,
                "ops": 0.5751973716688579,
                "total": 8.6926683713682,
                "data": [
                    1.7542571942321956,
                    1.5277149532921612,
                    1.8068463345989585,
                    1.791465531103313,
                    1.8123843581415713
                ],
                "iterations": 1
            }
        },
        {
            "group": "searching",
            "name": "search",
            "fullname": "bench_operations.py::test_cost_optimal",
            "params": null,
            "param": null,
            "extra_info": {
                "key_count": 100000000,
                "search_missing": 100000000,
                "search_hitt\u00edng": 0,
                "thread_count": 16,
                "config": "{\"__llconfig__\": true, \"k\": 31, \"key_bits\": 37, \"value_bits\": 32, \"bucket_count\": 66666667, \"bucket_size\": 2, \"value_module\": {\"__llvaluefunctions__\": true, \"module\": \"gecocoo.valuemodules.default.counting\", \"parameters\": []}, \"hash_functions\": [{\"__llhashfunction__\": true, \"name\": \"gecocoo.hashing.xorlinear.xorlinear\", \"seed\": 4703629187251213316, \"parameters\": []}, {\"__llhashfunction__\": true, \"name\": \"gecocoo.hashing.xorlinear.xorlinear\", \"seed\": 11457248271188990237, \"parameters\": []}, {\"__llhashfunction__\": true, \"name\": \"gecocoo.hashing.xorlinear.xorlinear\", \"seed\": 11640213991309078593, \"parameters\": []}, {\"__llhashfunction__\": true, \"name\": \"gecocoo.hashing.xorlinear.xorlinear\", \"seed\": 6717261664370385089, \"parameters\": []}], \"storage\": {\"__llstorageconfig__\": true, \"mode\": \"BUCKETS\", \"concurrent\": true, \"disable_quotienting\": false}}"
            },
            "options": {
                "disable_gc": false,
                "timer": "perf_counter",
                "min_rounds": 5,
                "max_time": 1.0,
                "min_time": 5e-06,
                "warmup": false
            },
            "stats": {
                "min": 3.200796792283654,
                "max": 3.4224846037104726,
                "mean": 3.2755141094326974,
                "stddev": 0.08516137764425138,
                "rounds": 5,
                "median": 3.2484715483151376,
                "iqr": 0.06451752583961934,
                "q1": 3.2353330126497895,
                "q3": 3.299850538489409,
                "iqr_outliers": 1,
                "stddev_outliers": 1,
                "outliers": "1;1",
                "ld15iqr": 3.200796792283654,
                "hd15iqr": 3.4224846037104726,
                "ops": 0.3052955861555409,
                "total": 16.377570547163486,
                "data": [
                    3.4224846037104726,
                    3.246845086105168,
                    3.2484715483151376,
                    3.200796792283654,
                    3.258972516749054
                ],
                "iterations": 1
            }
        }
    ],
    "datetime": "2021-03-06T19:37:32.745155",
    "version": "3.2.3"
}