{
    "machine_info": {
        "node": "cstd01-014",
        "processor": "x86_64",
        "machine": "x86_64",
        "python_compiler": "GCC 7.3.0",
        "python_implementation": "CPython",
        "python_implementation_version": "3.7.9",
        "python_version": "3.7.9",
        "python_build": [
            "default",
            "Aug 31 2020 12:42:55"
        ],
        "release": "3.10.0-1160.6.1.el7.x86_64",
        "system": "Linux",
        "cpu": {
            "vendor_id": "unknown",
            "hardware": "unknown",
            "brand": "unknown"
        }
    },
    "commit_info": {
        "id": "unversioned",
        "time": null,
        "author_time": null,
        "dirty": false,
        "project": "gecocoo-2021-03-06T20_04_12.073701-origin_develop",
        "branch": "(unknown)"
    },
    "benchmarks": [
        {
            "group": "inserting",
            "name": "insert",
            "fullname": "bench_operations.py::test_cost_optimal",
            "params": null,
            "param": null,
            "extra_info": {
                "key_count": 100000000,
                "thread_count": 1,
                "config": "{\"__llconfig__\": true, \"k\": 31, \"key_bits\": 38, \"value_bits\": 32, \"bucket_count\": 26315790, \"bucket_size\": 4, \"value_module\": {\"__llvaluefunctions__\": true, \"module\": \"gecocoo.valuemodules.default.counting\", \"parameters\": []}, \"hash_functions\": [{\"__llhashfunction__\": true, \"name\": \"gecocoo.hashing.xorlinear.xorlinear\", \"seed\": 10114628159158125351, \"parameters\": []}, {\"__llhashfunction__\": true, \"name\": \"gecocoo.hashing.xorlinear.xorlinear\", \"seed\": 13457121774914787227, \"parameters\": []}, {\"__llhashfunction__\": true, \"name\": \"gecocoo.hashing.xorlinear.xorlinear\", \"seed\": 17653006889179700873, \"parameters\": []}], \"storage\": {\"__llstorageconfig__\": true, \"mode\": \"BUCKETS\", \"concurrent\": true, \"disable_quotienting\": false}}"
            },
            "options": {
                "disable_gc": false,
                "timer": "perf_counter",
                "min_rounds": 5,
                "max_time": 1.0,
                "min_time": 5e-06,
                "warmup": false
            },
            "stats": {
                "min": 1552.8882548557594,
                "max": 1552.8882548557594,
                "mean": 1552.8882548557594,
                "stddev": 0,
                "rounds": 1,
                "median": 1552.8882548557594,
                "iqr": 0.0,
                "q1": 1552.8882548557594,
                "q3": 1552.8882548557594,
                "iqr_outliers": 0,
                "stddev_outliers": 0,
                "outliers": "0;0",
                "ld15iqr": 1552.8882548557594,
                "hd15iqr": 1552.8882548557594,
                "ops": 0.0006439613390551951,
                "total": 1552.8882548557594,
                "data": [
                    1552.8882548557594
                ],
                "iterations": 1
            }
        },
        {
            "group": "searching",
            "name": "search",
            "fullname": "bench_operations.py::test_cost_optimal",
            "params": null,
            "param": null,
            "extra_info": {
                "key_count": 100000000,
                "search_missing": 0,
                "search_hitt\u00edng": 1000000,
                "thread_count": 1,
                "config": "{\"__llconfig__\": true, \"k\": 31, \"key_bits\": 38, \"value_bits\": 32, \"bucket_count\": 26315790, \"bucket_size\": 4, \"value_module\": {\"__llvaluefunctions__\": true, \"module\": \"gecocoo.valuemodules.default.counting\", \"parameters\": []}, \"hash_functions\": [{\"__llhashfunction__\": true, \"name\": \"gecocoo.hashing.xorlinear.xorlinear\", \"seed\": 10114628159158125351, \"parameters\": []}, {\"__llhashfunction__\": true, \"name\": \"gecocoo.hashing.xorlinear.xorlinear\", \"seed\": 13457121774914787227, \"parameters\": []}, {\"__llhashfunction__\": true, \"name\": \"gecocoo.hashing.xorlinear.xorlinear\", \"seed\": 17653006889179700873, \"parameters\": []}], \"storage\": {\"__llstorageconfig__\": true, \"mode\": \"BUCKETS\", \"concurrent\": true, \"disable_quotienting\": false}}"
            },
            "options": {
                "disable_gc": false,
                "timer": "perf_counter",
                "min_rounds": 5,
                "max_time": 1.0,
                "min_time": 5e-06,
                "warmup": false
            },
            "stats": {
                "min": 0.19131880113855004,
                "max": 0.37726386496797204,
                "mean": 0.24818740682676435,
                "stddev": 0.07861961268336505,
                "rounds": 5,
                "median": 0.213017076253891,
                "iqr": 0.1036691548069939,
                "q1": 0.19148974027484655,
                "q3": 0.29515889508184046,
                "iqr_outliers": 0,
                "stddev_outliers": 1,
                "outliers": "1;0",
                "ld15iqr": 0.19131880113855004,
                "hd15iqr": 0.37726386496797204,
                "ops": 4.0292132980703705,
                "total": 1.2409370341338217,
                "data": [
                    0.37726386496797204,
                    0.1915467199869454,
                    0.19131880113855004,
                    0.26779057178646326,
                    0.213017076253891
                ],
                "iterations": 1
            }
        },
        {
            "group": "searching",
            "name": "search",
            "fullname": "bench_operations.py::test_cost_optimal",
            "params": null,
            "param": null,
            "extra_info": {
                "key_count": 100000000,
                "search_missing": 1000000,
                "search_hitt\u00edng": 0,
                "thread_count": 1,
                "config": "{\"__llconfig__\": true, \"k\": 31, \"key_bits\": 38, \"value_bits\": 32, \"bucket_count\": 26315790, \"bucket_size\": 4, \"value_module\": {\"__llvaluefunctions__\": true, \"module\": \"gecocoo.valuemodules.default.counting\", \"parameters\": []}, \"hash_functions\": [{\"__llhashfunction__\": true, \"name\": \"gecocoo.hashing.xorlinear.xorlinear\", \"seed\": 10114628159158125351, \"parameters\": []}, {\"__llhashfunction__\": true, \"name\": \"gecocoo.hashing.xorlinear.xorlinear\", \"seed\": 13457121774914787227, \"parameters\": []}, {\"__llhashfunction__\": true, \"name\": \"gecocoo.hashing.xorlinear.xorlinear\", \"seed\": 17653006889179700873, \"parameters\": []}], \"storage\": {\"__llstorageconfig__\": true, \"mode\": \"BUCKETS\", \"concurrent\": true, \"disable_quotienting\": false}}"
            },
            "options": {
                "disable_gc": false,
                "timer": "perf_counter",
                "min_rounds": 5,
                "max_time": 1.0,
                "min_time": 5e-06,
                "warmup": false
            },
            "stats": {
                "min": 0.3750955290161073,
                "max": 0.5728403180837631,
                "mean": 0.4615557444281876,
                "stddev": 0.09673860068167689,
                "rounds": 5,
                "median": 0.42824554815888405,
                "iqr": 0.18538382288534194,
                "q1": 0.37514906702563167,
                "q3": 0.5605328899109736,
                "iqr_outliers": 0,
                "stddev_outliers": 1,
                "outliers": "1;0",
                "ld15iqr": 0.3750955290161073,
                "hd15iqr": 0.5728403180837631,
                "ops": 2.166585536139043,
                "total": 2.307778722140938,
                "data": [
                    0.5564304138533771,
                    0.37516691302880645,
                    0.3750955290161073,
                    0.5728403180837631,
                    0.42824554815888405
                ],
                "iterations": 1
            }
        },
        {
            "group": "searching",
            "name": "search",
            "fullname": "bench_operations.py::test_cost_optimal",
            "params": null,
            "param": null,
            "extra_info": {
                "key_count": 100000000,
                "search_missing": 0,
                "search_hitt\u00edng": 10000000,
                "thread_count": 1,
                "config": "{\"__llconfig__\": true, \"k\": 31, \"key_bits\": 38, \"value_bits\": 32, \"bucket_count\": 26315790, \"bucket_size\": 4, \"value_module\": {\"__llvaluefunctions__\": true, \"module\": \"gecocoo.valuemodules.default.counting\", \"parameters\": []}, \"hash_functions\": [{\"__llhashfunction__\": true, \"name\": \"gecocoo.hashing.xorlinear.xorlinear\", \"seed\": 10114628159158125351, \"parameters\": []}, {\"__llhashfunction__\": true, \"name\": \"gecocoo.hashing.xorlinear.xorlinear\", \"seed\": 13457121774914787227, \"parameters\": []}, {\"__llhashfunction__\": true, \"name\": \"gecocoo.hashing.xorlinear.xorlinear\", \"seed\": 17653006889179700873, \"parameters\": []}], \"storage\": {\"__llstorageconfig__\": true, \"mode\": \"BUCKETS\", \"concurrent\": true, \"disable_quotienting\": false}}"
            },
            "options": {
                "disable_gc": false,
                "timer": "perf_counter",
                "min_rounds": 5,
                "max_time": 1.0,
                "min_time": 5e-06,
                "warmup": false
            },
            "stats": {
                "min": 1.9126106207259,
                "max": 2.2147164922207594,
                "mean": 1.975261886510998,
                "stddev": 0.13387859066159477,
                "rounds": 5,
                "median": 1.9163616918958724,
                "iqr": 0.07894865260459483,
                "q1": 1.913674298208207,
                "q3": 1.9926229508128017,
                "iqr_outliers": 1,
                "stddev_outliers": 1,
                "outliers": "1;1",
                "ld15iqr": 1.9126106207259,
                "hd15iqr": 2.2147164922207594,
                "ops": 0.5062619831977566,
                "total": 9.87630943255499,
                "data": [
                    2.2147164922207594,
                    1.9140288573689759,
                    1.9185917703434825,
                    1.9163616918958724,
                    1.9126106207259
                ],
                "iterations": 1
            }
        },
        {
            "group": "searching",
            "name": "search",
            "fullname": "bench_operations.py::test_cost_optimal",
            "params": null,
            "param": null,
            "extra_info": {
                "key_count": 100000000,
                "search_missing": 10000000,
                "search_hitt\u00edng": 0,
                "thread_count": 1,
                "config": "{\"__llconfig__\": true, \"k\": 31, \"key_bits\": 38, \"value_bits\": 32, \"bucket_count\": 26315790, \"bucket_size\": 4, \"value_module\": {\"__llvaluefunctions__\": true, \"module\": \"gecocoo.valuemodules.default.counting\", \"parameters\": []}, \"hash_functions\": [{\"__llhashfunction__\": true, \"name\": \"gecocoo.hashing.xorlinear.xorlinear\", \"seed\": 10114628159158125351, \"parameters\": []}, {\"__llhashfunction__\": true, \"name\": \"gecocoo.hashing.xorlinear.xorlinear\", \"seed\": 13457121774914787227, \"parameters\": []}, {\"__llhashfunction__\": true, \"name\": \"gecocoo.hashing.xorlinear.xorlinear\", \"seed\": 17653006889179700873, \"parameters\": []}], \"storage\": {\"__llstorageconfig__\": true, \"mode\": \"BUCKETS\", \"concurrent\": true, \"disable_quotienting\": false}}"
            },
            "options": {
                "disable_gc": false,
                "timer": "perf_counter",
                "min_rounds": 5,
                "max_time": 1.0,
                "min_time": 5e-06,
                "warmup": false
            },
            "stats": {
                "min": 3.7482780846767128,
                "max": 3.9319061608985066,
                "mean": 3.7853122774511574,
                "stddev": 0.08194938209178373,
                "rounds": 5,
                "median": 3.748584539629519,
                "iqr": 0.04651945154182613,
                "q1": 3.748435530695133,
                "q3": 3.794954982236959,
                "iqr_outliers": 1,
                "stddev_outliers": 1,
                "outliers": "1;1",
                "ld15iqr": 3.7482780846767128,
                "hd15iqr": 3.9319061608985066,
                "ops": 0.264178996791607,
                "total": 18.926561387255788,
                "data": [
                    3.9319061608985066,
                    3.7493045893497765,
                    3.7482780846767128,
                    3.748584539629519,
                    3.748488012701273
                ],
                "iterations": 1
            }
        },
        {
            "group": "searching",
            "name": "search",
            "fullname": "bench_operations.py::test_cost_optimal",
            "params": null,
            "param": null,
            "extra_info": {
                "key_count": 100000000,
                "search_missing": 0,
                "search_hitt\u00edng": 100000000,
                "thread_count": 1,
                "config": "{\"__llconfig__\": true, \"k\": 31, \"key_bits\": 38, \"value_bits\": 32, \"bucket_count\": 26315790, \"bucket_size\": 4, \"value_module\": {\"__llvaluefunctions__\": true, \"module\": \"gecocoo.valuemodules.default.counting\", \"parameters\": []}, \"hash_functions\": [{\"__llhashfunction__\": true, \"name\": \"gecocoo.hashing.xorlinear.xorlinear\", \"seed\": 10114628159158125351, \"parameters\": []}, {\"__llhashfunction__\": true, \"name\": \"gecocoo.hashing.xorlinear.xorlinear\", \"seed\": 13457121774914787227, \"parameters\": []}, {\"__llhashfunction__\": true, \"name\": \"gecocoo.hashing.xorlinear.xorlinear\", \"seed\": 17653006889179700873, \"parameters\": []}], \"storage\": {\"__llstorageconfig__\": true, \"mode\": \"BUCKETS\", \"concurrent\": true, \"disable_quotienting\": false}}"
            },
            "options": {
                "disable_gc": false,
                "timer": "perf_counter",
                "min_rounds": 5,
                "max_time": 1.0,
                "min_time": 5e-06,
                "warmup": false
            },
            "stats": {
                "min": 19.119673090986907,
                "max": 19.320129411295056,
                "mean": 19.16431012172252,
                "stddev": 0.08729079516936555,
                "rounds": 5,
                "median": 19.129938929807395,
                "iqr": 0.05931602290365845,
                "q1": 19.11974574252963,
                "q3": 19.17906176543329,
                "iqr_outliers": 1,
                "stddev_outliers": 1,
                "outliers": "1;1",
                "ld15iqr": 19.119673090986907,
                "hd15iqr": 19.320129411295056,
                "ops": 0.05218032862380534,
                "total": 95.8215506086126,
                "data": [
                    19.320129411295056,
                    19.119673090986907,
                    19.129938929807395,
                    19.11976995971054,
                    19.1320392168127
                ],
                "iterations": 1
            }
        },
        {
            "group": "searching",
            "name": "search",
            "fullname": "bench_operations.py::test_cost_optimal",
            "params": null,
            "param": null,
            "extra_info": {
                "key_count": 100000000,
                "search_missing": 100000000,
                "search_hitt\u00edng": 0,
                "thread_count": 1,
                "config": "{\"__llconfig__\": true, \"k\": 31, \"key_bits\": 38, \"value_bits\": 32, \"bucket_count\": 26315790, \"bucket_size\": 4, \"value_module\": {\"__llvaluefunctions__\": true, \"module\": \"gecocoo.valuemodules.default.counting\", \"parameters\": []}, \"hash_functions\": [{\"__llhashfunction__\": true, \"name\": \"gecocoo.hashing.xorlinear.xorlinear\", \"seed\": 10114628159158125351, \"parameters\": []}, {\"__llhashfunction__\": true, \"name\": \"gecocoo.hashing.xorlinear.xorlinear\", \"seed\": 13457121774914787227, \"parameters\": []}, {\"__llhashfunction__\": true, \"name\": \"gecocoo.hashing.xorlinear.xorlinear\", \"seed\": 17653006889179700873, \"parameters\": []}], \"storage\": {\"__llstorageconfig__\": true, \"mode\": \"BUCKETS\", \"concurrent\": true, \"disable_quotienting\": false}}"
            },
            "options": {
                "disable_gc": false,
                "timer": "perf_counter",
                "min_rounds": 5,
                "max_time": 1.0,
                "min_time": 5e-06,
                "warmup": false
            },
            "stats": {
                "min": 37.47968728514388,
                "max": 37.65989593695849,
                "mean": 37.51677089296281,
                "stddev": 0.08001737771636178,
                "rounds": 5,
                "median": 37.48149931477383,
                "iqr": 0.046852203900925815,
                "q1": 37.48006127378903,
                "q3": 37.52691347768996,
                "iqr_outliers": 1,
                "stddev_outliers": 1,
                "outliers": "1;1",
                "ld15iqr": 37.47968728514388,
                "hd15iqr": 37.65989593695849,
                "ops": 0.02665474602953034,
                "total": 187.58385446481407,
                "data": [
                    37.65989593695849,
                    37.48149931477383,
                    37.47968728514388,
                    37.48018593667075,
                    37.482585991267115
                ],
                "iterations": 1
            }
        },
        {
            "group": "searching",
            "name": "search",
            "fullname": "bench_operations.py::test_cost_optimal",
            "params": null,
            "param": null,
            "extra_info": {
                "key_count": 100000000,
                "search_missing": 0,
                "search_hitt\u00edng": 1000000,
                "thread_count": 4,
                "config": "{\"__llconfig__\": true, \"k\": 31, \"key_bits\": 38, \"value_bits\": 32, \"bucket_count\": 26315790, \"bucket_size\": 4, \"value_module\": {\"__llvaluefunctions__\": true, \"module\": \"gecocoo.valuemodules.default.counting\", \"parameters\": []}, \"hash_functions\": [{\"__llhashfunction__\": true, \"name\": \"gecocoo.hashing.xorlinear.xorlinear\", \"seed\": 10114628159158125351, \"parameters\": []}, {\"__llhashfunction__\": true, \"name\": \"gecocoo.hashing.xorlinear.xorlinear\", \"seed\": 13457121774914787227, \"parameters\": []}, {\"__llhashfunction__\": true, \"name\": \"gecocoo.hashing.xorlinear.xorlinear\", \"seed\": 17653006889179700873, \"parameters\": []}], \"storage\": {\"__llstorageconfig__\": true, \"mode\": \"BUCKETS\", \"concurrent\": true, \"disable_quotienting\": false}}"
            },
            "options": {
                "disable_gc": false,
                "timer": "perf_counter",
                "min_rounds": 5,
                "max_time": 1.0,
                "min_time": 5e-06,
                "warmup": false
            },
            "stats": {
                "min": 0.07064836984500289,
                "max": 0.23078800225630403,
                "mean": 0.10371473310515285,
                "stddev": 0.07106006568314072,
                "rounds": 5,
                "median": 0.071005639154464,
                "iqr": 0.04313376545906067,
                "q1": 0.07091203413438052,
                "q3": 0.11404579959344119,
                "iqr_outliers": 1,
                "stddev_outliers": 1,
                "outliers": "1;1",
                "ld15iqr": 0.07064836984500289,
                "hd15iqr": 0.23078800225630403,
                "ops": 9.641831686402105,
                "total": 0.5185736655257642,
                "data": [
                    0.23078800225630403,
                    0.07513173203915358,
                    0.07064836984500289,
                    0.071005639154464,
                    0.07099992223083973
                ],
                "iterations": 1
            }
        },
        {
            "group": "searching",
            "name": "search",
            "fullname": "bench_operations.py::test_cost_optimal",
            "params": null,
            "param": null,
            "extra_info": {
                "key_count": 100000000,
                "search_missing": 1000000,
                "search_hitt\u00edng": 0,
                "thread_count": 4,
                "config": "{\"__llconfig__\": true, \"k\": 31, \"key_bits\": 38, \"value_bits\": 32, \"bucket_count\": 26315790, \"bucket_size\": 4, \"value_module\": {\"__llvaluefunctions__\": true, \"module\": \"gecocoo.valuemodules.default.counting\", \"parameters\": []}, \"hash_functions\": [{\"__llhashfunction__\": true, \"name\": \"gecocoo.hashing.xorlinear.xorlinear\", \"seed\": 10114628159158125351, \"parameters\": []}, {\"__llhashfunction__\": true, \"name\": \"gecocoo.hashing.xorlinear.xorlinear\", \"seed\": 13457121774914787227, \"parameters\": []}, {\"__llhashfunction__\": true, \"name\": \"gecocoo.hashing.xorlinear.xorlinear\", \"seed\": 17653006889179700873, \"parameters\": []}], \"storage\": {\"__llstorageconfig__\": true, \"mode\": \"BUCKETS\", \"concurrent\": true, \"disable_quotienting\": false}}"
            },
            "options": {
                "disable_gc": false,
                "timer": "perf_counter",
                "min_rounds": 5,
                "max_time": 1.0,
                "min_time": 5e-06,
                "warmup": false
            },
            "stats": {
                "min": 0.14779476588591933,
                "max": 0.2916535632684827,
                "mean": 0.17847005892544984,
                "stddev": 0.06328645498722645,
                "rounds": 5,
                "median": 0.15093318233266473,
                "iqr": 0.0361104718176648,
                "q1": 0.1501140989130363,
                "q3": 0.1862245707307011,
                "iqr_outliers": 1,
                "stddev_outliers": 1,
                "outliers": "1;1",
                "ld15iqr": 0.14779476588591933,
                "hd15iqr": 0.2916535632684827,
                "ops": 5.6031807577186825,
                "total": 0.8923502946272492,
                "data": [
                    0.2916535632684827,
                    0.14779476588591933,
                    0.15108157321810722,
                    0.15088720992207527,
                    0.15093318233266473
                ],
                "iterations": 1
            }
        },
        {
            "group": "searching",
            "name": "search",
            "fullname": "bench_operations.py::test_cost_optimal",
            "params": null,
            "param": null,
            "extra_info": {
                "key_count": 100000000,
                "search_missing": 0,
                "search_hitt\u00edng": 10000000,
                "thread_count": 4,
                "config": "{\"__llconfig__\": true, \"k\": 31, \"key_bits\": 38, \"value_bits\": 32, \"bucket_count\": 26315790, \"bucket_size\": 4, \"value_module\": {\"__llvaluefunctions__\": true, \"module\": \"gecocoo.valuemodules.default.counting\", \"parameters\": []}, \"hash_functions\": [{\"__llhashfunction__\": true, \"name\": \"gecocoo.hashing.xorlinear.xorlinear\", \"seed\": 10114628159158125351, \"parameters\": []}, {\"__llhashfunction__\": true, \"name\": \"gecocoo.hashing.xorlinear.xorlinear\", \"seed\": 13457121774914787227, \"parameters\": []}, {\"__llhashfunction__\": true, \"name\": \"gecocoo.hashing.xorlinear.xorlinear\", \"seed\": 17653006889179700873, \"parameters\": []}], \"storage\": {\"__llstorageconfig__\": true, \"mode\": \"BUCKETS\", \"concurrent\": true, \"disable_quotienting\": false}}"
            },
            "options": {
                "disable_gc": false,
                "timer": "perf_counter",
                "min_rounds": 5,
                "max_time": 1.0,
                "min_time": 5e-06,
                "warmup": false
            },
            "stats": {
                "min": 0.669022518210113,
                "max": 0.7846900289878249,
                "mean": 0.7030563600361347,
                "stddev": 0.04645755205650602,
                "rounds": 5,
                "median": 0.6860756198875606,
                "iqr": 0.036692934460006654,
                "q1": 0.6791777135804296,
                "q3": 0.7158706480404362,
                "iqr_outliers": 1,
                "stddev_outliers": 1,
                "outliers": "1;1",
                "ld15iqr": 0.669022518210113,
                "hd15iqr": 0.7846900289878249,
                "ops": 1.4223610749337412,
                "total": 3.5152818001806736,
                "data": [
                    0.7846900289878249,
                    0.6825627787038684,
                    0.669022518210113,
                    0.6860756198875606,
                    0.6929308543913066
                ],
                "iterations": 1
            }
        },
        {
            "group": "searching",
            "name": "search",
            "fullname": "bench_operations.py::test_cost_optimal",
            "params": null,
            "param": null,
            "extra_info": {
                "key_count": 100000000,
                "search_missing": 10000000,
                "search_hitt\u00edng": 0,
                "thread_count": 4,
                "config": "{\"__llconfig__\": true, \"k\": 31, \"key_bits\": 38, \"value_bits\": 32, \"bucket_count\": 26315790, \"bucket_size\": 4, \"value_module\": {\"__llvaluefunctions__\": true, \"module\": \"gecocoo.valuemodules.default.counting\", \"parameters\": []}, \"hash_functions\": [{\"__llhashfunction__\": true, \"name\": \"gecocoo.hashing.xorlinear.xorlinear\", \"seed\": 10114628159158125351, \"parameters\": []}, {\"__llhashfunction__\": true, \"name\": \"gecocoo.hashing.xorlinear.xorlinear\", \"seed\": 13457121774914787227, \"parameters\": []}, {\"__llhashfunction__\": true, \"name\": \"gecocoo.hashing.xorlinear.xorlinear\", \"seed\": 17653006889179700873, \"parameters\": []}], \"storage\": {\"__llstorageconfig__\": true, \"mode\": \"BUCKETS\", \"concurrent\": true, \"disable_quotienting\": false}}"
            },
            "options": {
                "disable_gc": false,
                "timer": "perf_counter",
                "min_rounds": 5,
                "max_time": 1.0,
                "min_time": 5e-06,
                "warmup": false
            },
            "stats": {
                "min": 1.4803497516550124,
                "max": 1.5699321129359305,
                "mean": 1.5018332989886403,
                "stddev": 0.03828544912796299,
                "rounds": 5,
                "median": 1.4883850226178765,
                "iqr": 0.028509855503216386,
                "q1": 1.480967658222653,
                "q3": 1.5094775137258694,
                "iqr_outliers": 1,
                "stddev_outliers": 1,
                "outliers": "1;1",
                "ld15iqr": 1.4803497516550124,
                "hd15iqr": 1.5699321129359305,
                "ops": 0.6658528617479827,
                "total": 7.5091664949432015,
                "data": [
                    1.5699321129359305,
                    1.4803497516550124,
                    1.4811736270785332,
                    1.4883850226178765,
                    1.489325980655849
                ],
                "iterations": 1
            }
        },
        {
            "group": "searching",
            "name": "search",
            "fullname": "bench_operations.py::test_cost_optimal",
            "params": null,
            "param": null,
            "extra_info": {
                "key_count": 100000000,
                "search_missing": 0,
                "search_hitt\u00edng": 100000000,
                "thread_count": 4,
                "config": "{\"__llconfig__\": true, \"k\": 31, \"key_bits\": 38, \"value_bits\": 32, \"bucket_count\": 26315790, \"bucket_size\": 4, \"value_module\": {\"__llvaluefunctions__\": true, \"module\": \"gecocoo.valuemodules.default.counting\", \"parameters\": []}, \"hash_functions\": [{\"__llhashfunction__\": true, \"name\": \"gecocoo.hashing.xorlinear.xorlinear\", \"seed\": 10114628159158125351, \"parameters\": []}, {\"__llhashfunction__\": true, \"name\": \"gecocoo.hashing.xorlinear.xorlinear\", \"seed\": 13457121774914787227, \"parameters\": []}, {\"__llhashfunction__\": true, \"name\": \"gecocoo.hashing.xorlinear.xorlinear\", \"seed\": 17653006889179700873, \"parameters\": []}], \"storage\": {\"__llstorageconfig__\": true, \"mode\": \"BUCKETS\", \"concurrent\": true, \"disable_quotienting\": false}}"
            },
            "options": {
                "disable_gc": false,
                "timer": "perf_counter",
                "min_rounds": 5,
                "max_time": 1.0,
                "min_time": 5e-06,
                "warmup": false
            },
            "stats": {
                "min": 6.861793808173388,
                "max": 6.9915140913799405,
                "mean": 6.899931303504855,
                "stddev": 0.05195188722730864,
                "rounds": 5,
                "median": 6.882405694108456,
                "iqr": 0.03387660183943808,
                "q1": 6.87620378297288,
                "q3": 6.910080384812318,
                "iqr_outliers": 1,
                "stddev_outliers": 1,
                "outliers": "1;1",
                "ld15iqr": 6.861793808173388,
                "hd15iqr": 6.9915140913799405,
                "ops": 0.1449289791467989,
                "total": 34.49965651752427,
                "data": [
                    6.9915140913799405,
                    6.861793808173388,
                    6.8829358159564435,
                    6.882405694108456,
                    6.8810071079060435
                ],
                "iterations": 1
            }
        },
        {
            "group": "searching",
            "name": "search",
            "fullname": "bench_operations.py::test_cost_optimal",
            "params": null,
            "param": null,
            "extra_info": {
                "key_count": 100000000,
                "search_missing": 100000000,
                "search_hitt\u00edng": 0,
                "thread_count": 4,
                "config": "{\"__llconfig__\": true, \"k\": 31, \"key_bits\": 38, \"value_bits\": 32, \"bucket_count\": 26315790, \"bucket_size\": 4, \"value_module\": {\"__llvaluefunctions__\": true, \"module\": \"gecocoo.valuemodules.default.counting\", \"parameters\": []}, \"hash_functions\": [{\"__llhashfunction__\": true, \"name\": \"gecocoo.hashing.xorlinear.xorlinear\", \"seed\": 10114628159158125351, \"parameters\": []}, {\"__llhashfunction__\": true, \"name\": \"gecocoo.hashing.xorlinear.xorlinear\", \"seed\": 13457121774914787227, \"parameters\": []}, {\"__llhashfunction__\": true, \"name\": \"gecocoo.hashing.xorlinear.xorlinear\", \"seed\": 17653006889179700873, \"parameters\": []}], \"storage\": {\"__llstorageconfig__\": true, \"mode\": \"BUCKETS\", \"concurrent\": true, \"disable_quotienting\": false}}"
            },
            "options": {
                "disable_gc": false,
                "timer": "perf_counter",
                "min_rounds": 5,
                "max_time": 1.0,
                "min_time": 5e-06,
                "warmup": false
            },
            "stats": {
                "min": 14.174796522129327,
                "max": 15.012158831115812,
                "mean": 14.78530114404857,
                "stddev": 0.34427806685759316,
                "rounds": 5,
                "median": 14.921056234743446,
                "iqr": 0.23886082612443715,
                "q1": 14.710874305688776,
                "q3": 14.949735131813213,
                "iqr_outliers": 1,
                "stddev_outliers": 1,
                "outliers": "1;1",
                "ld15iqr": 14.889566900208592,
                "hd15iqr": 15.012158831115812,
                "ops": 0.06763474008796387,
                "total": 73.92650572024286,
                "data": [
                    15.012158831115812,
                    14.92892723204568,
                    14.174796522129327,
                    14.889566900208592,
                    14.921056234743446
                ],
                "iterations": 1
            }
        },
        {
            "group": "searching",
            "name": "search",
            "fullname": "bench_operations.py::test_cost_optimal",
            "params": null,
            "param": null,
            "extra_info": {
                "key_count": 100000000,
                "search_missing": 0,
                "search_hitt\u00edng": 1000000,
                "thread_count": 8,
                "config": "{\"__llconfig__\": true, \"k\": 31, \"key_bits\": 38, \"value_bits\": 32, \"bucket_count\": 26315790, \"bucket_size\": 4, \"value_module\": {\"__llvaluefunctions__\": true, \"module\": \"gecocoo.valuemodules.default.counting\", \"parameters\": []}, \"hash_functions\": [{\"__llhashfunction__\": true, \"name\": \"gecocoo.hashing.xorlinear.xorlinear\", \"seed\": 10114628159158125351, \"parameters\": []}, {\"__llhashfunction__\": true, \"name\": \"gecocoo.hashing.xorlinear.xorlinear\", \"seed\": 13457121774914787227, \"parameters\": []}, {\"__llhashfunction__\": true, \"name\": \"gecocoo.hashing.xorlinear.xorlinear\", \"seed\": 17653006889179700873, \"parameters\": []}], \"storage\": {\"__llstorageconfig__\": true, \"mode\": \"BUCKETS\", \"concurrent\": true, \"disable_quotienting\": false}}"
            },
            "options": {
                "disable_gc": false,
                "timer": "perf_counter",
                "min_rounds": 5,
                "max_time": 1.0,
                "min_time": 5e-06,
                "warmup": false
            },
            "stats": {
                "min": 0.03733497206121683,
                "max": 0.2250623102299869,
                "mean": 0.07499187411740423,
                "stddev": 0.08389199802971747,
                "rounds": 5,
                "median": 0.03757407329976559,
                "iqr": 0.04707974300254136,
                "q1": 0.037380294408649206,
                "q3": 0.08446003741119057,
                "iqr_outliers": 1,
                "stddev_outliers": 1,
                "outliers": "1;1",
                "ld15iqr": 0.03733497206121683,
                "hd15iqr": 0.2250623102299869,
                "ops": 13.334778091216133,
                "total": 0.3749593705870211,
                "data": [
                    0.2250623102299869,
                    0.03757407329976559,
                    0.03733497206121683,
                    0.03739540185779333,
                    0.03759261313825846
                ],
                "iterations": 1
            }
        },
        {
            "group": "searching",
            "name": "search",
            "fullname": "bench_operations.py::test_cost_optimal",
            "params": null,
            "param": null,
            "extra_info": {
                "key_count": 100000000,
                "search_missing": 1000000,
                "search_hitt\u00edng": 0,
                "thread_count": 8,
                "config": "{\"__llconfig__\": true, \"k\": 31, \"key_bits\": 38, \"value_bits\": 32, \"bucket_count\": 26315790, \"bucket_size\": 4, \"value_module\": {\"__llvaluefunctions__\": true, \"module\": \"gecocoo.valuemodules.default.counting\", \"parameters\": []}, \"hash_functions\": [{\"__llhashfunction__\": true, \"name\": \"gecocoo.hashing.xorlinear.xorlinear\", \"seed\": 10114628159158125351, \"parameters\": []}, {\"__llhashfunction__\": true, \"name\": \"gecocoo.hashing.xorlinear.xorlinear\", \"seed\": 13457121774914787227, \"parameters\": []}, {\"__llhashfunction__\": true, \"name\": \"gecocoo.hashing.xorlinear.xorlinear\", \"seed\": 17653006889179700873, \"parameters\": []}], \"storage\": {\"__llstorageconfig__\": true, \"mode\": \"BUCKETS\", \"concurrent\": true, \"disable_quotienting\": false}}"
            },
            "options": {
                "disable_gc": false,
                "timer": "perf_counter",
                "min_rounds": 5,
                "max_time": 1.0,
                "min_time": 5e-06,
                "warmup": false
            },
            "stats": {
                "min": 0.07791975792497396,
                "max": 0.26020339876413345,
                "mean": 0.11464888844639062,
                "stddev": 0.08136788197144117,
                "rounds": 5,
                "median": 0.07826261408627033,
                "iqr": 0.045924928272143006,
                "q1": 0.0781249322462827,
                "q3": 0.1240498605184257,
                "iqr_outliers": 1,
                "stddev_outliers": 1,
                "outliers": "1;1",
                "ld15iqr": 0.07791975792497396,
                "hd15iqr": 0.26020339876413345,
                "ops": 8.722282558086867,
                "total": 0.5732444422319531,
                "data": [
                    0.26020339876413345,
                    0.07866534776985645,
                    0.07791975792497396,
                    0.07819332368671894,
                    0.07826261408627033
                ],
                "iterations": 1
            }
        },
        {
            "group": "searching",
            "name": "search",
            "fullname": "bench_operations.py::test_cost_optimal",
            "params": null,
            "param": null,
            "extra_info": {
                "key_count": 100000000,
                "search_missing": 0,
                "search_hitt\u00edng": 10000000,
                "thread_count": 8,
                "config": "{\"__llconfig__\": true, \"k\": 31, \"key_bits\": 38, \"value_bits\": 32, \"bucket_count\": 26315790, \"bucket_size\": 4, \"value_module\": {\"__llvaluefunctions__\": true, \"module\": \"gecocoo.valuemodules.default.counting\", \"parameters\": []}, \"hash_functions\": [{\"__llhashfunction__\": true, \"name\": \"gecocoo.hashing.xorlinear.xorlinear\", \"seed\": 10114628159158125351, \"parameters\": []}, {\"__llhashfunction__\": true, \"name\": \"gecocoo.hashing.xorlinear.xorlinear\", \"seed\": 13457121774914787227, \"parameters\": []}, {\"__llhashfunction__\": true, \"name\": \"gecocoo.hashing.xorlinear.xorlinear\", \"seed\": 17653006889179700873, \"parameters\": []}], \"storage\": {\"__llstorageconfig__\": true, \"mode\": \"BUCKETS\", \"concurrent\": true, \"disable_quotienting\": false}}"
            },
            "options": {
                "disable_gc": false,
                "timer": "perf_counter",
                "min_rounds": 5,
                "max_time": 1.0,
                "min_time": 5e-06,
                "warmup": false
            },
            "stats": {
                "min": 0.35176561307162046,
                "max": 0.6555729391984642,
                "mean": 0.4129500390030444,
                "stddev": 0.13563169301444264,
                "rounds": 5,
                "median": 0.35216671973466873,
                "iqr": 0.07699850981589407,
                "q1": 0.3518849102547392,
                "q3": 0.4288834200706333,
                "iqr_outliers": 1,
                "stddev_outliers": 1,
                "outliers": "1;1",
                "ld15iqr": 0.35176561307162046,
                "hd15iqr": 0.6555729391984642,
                "ops": 2.421600449328515,
                "total": 2.064750195015222,
                "data": [
                    0.6555729391984642,
                    0.353320247028023,
                    0.3519246759824455,
                    0.35176561307162046,
                    0.35216671973466873
                ],
                "iterations": 1
            }
        },
        {
            "group": "searching",
            "name": "search",
            "fullname": "bench_operations.py::test_cost_optimal",
            "params": null,
            "param": null,
            "extra_info": {
                "key_count": 100000000,
                "search_missing": 10000000,
                "search_hitt\u00edng": 0,
                "thread_count": 8,
                "config": "{\"__llconfig__\": true, \"k\": 31, \"key_bits\": 38, \"value_bits\": 32, \"bucket_count\": 26315790, \"bucket_size\": 4, \"value_module\": {\"__llvaluefunctions__\": true, \"module\": \"gecocoo.valuemodules.default.counting\", \"parameters\": []}, \"hash_functions\": [{\"__llhashfunction__\": true, \"name\": \"gecocoo.hashing.xorlinear.xorlinear\", \"seed\": 10114628159158125351, \"parameters\": []}, {\"__llhashfunction__\": true, \"name\": \"gecocoo.hashing.xorlinear.xorlinear\", \"seed\": 13457121774914787227, \"parameters\": []}, {\"__llhashfunction__\": true, \"name\": \"gecocoo.hashing.xorlinear.xorlinear\", \"seed\": 17653006889179700873, \"parameters\": []}], \"storage\": {\"__llstorageconfig__\": true, \"mode\": \"BUCKETS\", \"concurrent\": true, \"disable_quotienting\": false}}"
            },
            "options": {
                "disable_gc": false,
                "timer": "perf_counter",
                "min_rounds": 5,
                "max_time": 1.0,
                "min_time": 5e-06,
                "warmup": false
            },
            "stats": {
                "min": 0.7510556019842625,
                "max": 0.9400796731933951,
                "mean": 0.7909673544578254,
                "stddev": 0.08338547995978907,
                "rounds": 5,
                "median": 0.7536764009855688,
                "iqr": 0.0504397782497108,
                "q1": 0.7524314313195646,
                "q3": 0.8028712095692754,
                "iqr_outliers": 1,
                "stddev_outliers": 1,
                "outliers": "1;1",
                "ld15iqr": 0.7510556019842625,
                "hd15iqr": 0.9400796731933951,
                "ops": 1.2642746813305052,
                "total": 3.954836772289127,
                "data": [
                    0.9400796731933951,
                    0.7510556019842625,
                    0.7536764009855688,
                    0.7571350550279021,
                    0.7528900410979986
                ],
                "iterations": 1
            }
        },
        {
            "group": "searching",
            "name": "search",
            "fullname": "bench_operations.py::test_cost_optimal",
            "params": null,
            "param": null,
            "extra_info": {
                "key_count": 100000000,
                "search_missing": 0,
                "search_hitt\u00edng": 100000000,
                "thread_count": 8,
                "config": "{\"__llconfig__\": true, \"k\": 31, \"key_bits\": 38, \"value_bits\": 32, \"bucket_count\": 26315790, \"bucket_size\": 4, \"value_module\": {\"__llvaluefunctions__\": true, \"module\": \"gecocoo.valuemodules.default.counting\", \"parameters\": []}, \"hash_functions\": [{\"__llhashfunction__\": true, \"name\": \"gecocoo.hashing.xorlinear.xorlinear\", \"seed\": 10114628159158125351, \"parameters\": []}, {\"__llhashfunction__\": true, \"name\": \"gecocoo.hashing.xorlinear.xorlinear\", \"seed\": 13457121774914787227, \"parameters\": []}, {\"__llhashfunction__\": true, \"name\": \"gecocoo.hashing.xorlinear.xorlinear\", \"seed\": 17653006889179700873, \"parameters\": []}], \"storage\": {\"__llstorageconfig__\": true, \"mode\": \"BUCKETS\", \"concurrent\": true, \"disable_quotienting\": false}}"
            },
            "options": {
                "disable_gc": false,
                "timer": "perf_counter",
                "min_rounds": 5,
                "max_time": 1.0,
                "min_time": 5e-06,
                "warmup": false
            },
            "stats": {
                "min": 3.4634345551021397,
                "max": 3.6536852959543467,
                "mean": 3.5084653932601215,
                "stddev": 0.08136490216821948,
                "rounds": 5,
                "median": 3.4741354500874877,
                "iqr": 0.05195332691073418,
                "q1": 3.470315192360431,
                "q3": 3.522268519271165,
                "iqr_outliers": 1,
                "stddev_outliers": 1,
                "outliers": "1;1",
                "ld15iqr": 3.4634345551021397,
                "hd15iqr": 3.6536852959543467,
                "ops": 0.2850249006078365,
                "total": 17.542326966300607,
                "data": [
                    3.6536852959543467,
                    3.478462927043438,
                    3.4741354500874877,
                    3.4726087381131947,
                    3.4634345551021397
                ],
                "iterations": 1
            }
        },
        {
            "group": "searching",
            "name": "search",
            "fullname": "bench_operations.py::test_cost_optimal",
            "params": null,
            "param": null,
            "extra_info": {
                "key_count": 100000000,
                "search_missing": 100000000,
                "search_hitt\u00edng": 0,
                "thread_count": 8,
                "config": "{\"__llconfig__\": true, \"k\": 31, \"key_bits\": 38, \"value_bits\": 32, \"bucket_count\": 26315790, \"bucket_size\": 4, \"value_module\": {\"__llvaluefunctions__\": true, \"module\": \"gecocoo.valuemodules.default.counting\", \"parameters\": []}, \"hash_functions\": [{\"__llhashfunction__\": true, \"name\": \"gecocoo.hashing.xorlinear.xorlinear\", \"seed\": 10114628159158125351, \"parameters\": []}, {\"__llhashfunction__\": true, \"name\": \"gecocoo.hashing.xorlinear.xorlinear\", \"seed\": 13457121774914787227, \"parameters\": []}, {\"__llhashfunction__\": true, \"name\": \"gecocoo.hashing.xorlinear.xorlinear\", \"seed\": 17653006889179700873, \"parameters\": []}], \"storage\": {\"__llstorageconfig__\": true, \"mode\": \"BUCKETS\", \"concurrent\": true, \"disable_quotienting\": false}}"
            },
            "options": {
                "disable_gc": false,
                "timer": "perf_counter",
                "min_rounds": 5,
                "max_time": 1.0,
                "min_time": 5e-06,
                "warmup": false
            },
            "stats": {
                "min": 7.487112594768405,
                "max": 7.661040158011019,
                "mean": 7.547867430001498,
                "stddev": 0.0694667580137208,
                "rounds": 5,
                "median": 7.546776574105024,
                "iqr": 0.08435356291010976,
                "q1": 7.492995246313512,
                "q3": 7.577348809223622,
                "iqr_outliers": 0,
                "stddev_outliers": 1,
                "outliers": "1;0",
                "ld15iqr": 7.487112594768405,
                "hd15iqr": 7.661040158011019,
                "ops": 0.1324877535640291,
                "total": 37.739337150007486,
                "data": [
                    7.661040158011019,
                    7.487112594768405,
                    7.549451692961156,
                    7.4949561301618814,
                    7.546776574105024
                ],
                "iterations": 1
            }
        },
        {
            "group": "searching",
            "name": "search",
            "fullname": "bench_operations.py::test_cost_optimal",
            "params": null,
            "param": null,
            "extra_info": {
                "key_count": 100000000,
                "search_missing": 0,
                "search_hitt\u00edng": 1000000,
                "thread_count": 16,
                "config": "{\"__llconfig__\": true, \"k\": 31, \"key_bits\": 38, \"value_bits\": 32, \"bucket_count\": 26315790, \"bucket_size\": 4, \"value_module\": {\"__llvaluefunctions__\": true, \"module\": \"gecocoo.valuemodules.default.counting\", \"parameters\": []}, \"hash_functions\": [{\"__llhashfunction__\": true, \"name\": \"gecocoo.hashing.xorlinear.xorlinear\", \"seed\": 10114628159158125351, \"parameters\": []}, {\"__llhashfunction__\": true, \"name\": \"gecocoo.hashing.xorlinear.xorlinear\", \"seed\": 13457121774914787227, \"parameters\": []}, {\"__llhashfunction__\": true, \"name\": \"gecocoo.hashing.xorlinear.xorlinear\", \"seed\": 17653006889179700873, \"parameters\": []}], \"storage\": {\"__llstorageconfig__\": true, \"mode\": \"BUCKETS\", \"concurrent\": true, \"disable_quotienting\": false}}"
            },
            "options": {
                "disable_gc": false,
                "timer": "perf_counter",
                "min_rounds": 5,
                "max_time": 1.0,
                "min_time": 5e-06,
                "warmup": false
            },
            "stats": {
                "min": 0.03027654066681862,
                "max": 0.21986330207437277,
                "mean": 0.07065024813637137,
                "stddev": 0.08345139553874087,
                "rounds": 5,
                "median": 0.03312846506014466,
                "iqr": 0.05091263400390744,
                "q1": 0.03205476317089051,
                "q3": 0.08296739717479795,
                "iqr_outliers": 1,
                "stddev_outliers": 1,
                "outliers": "1;1",
                "ld15iqr": 0.03027654066681862,
                "hd15iqr": 0.21986330207437277,
                "ops": 14.154231957823672,
                "total": 0.35325124068185687,
                "data": [
                    0.21986330207437277,
                    0.03733542887493968,
                    0.03264750400558114,
                    0.03027654066681862,
                    0.03312846506014466
                ],
                "iterations": 1
            }
        },
        {
            "group": "searching",
            "name": "search",
            "fullname": "bench_operations.py::test_cost_optimal",
            "params": null,
            "param": null,
            "extra_info": {
                "key_count": 100000000,
                "search_missing": 1000000,
                "search_hitt\u00edng": 0,
                "thread_count": 16,
                "config": "{\"__llconfig__\": true, \"k\": 31, \"key_bits\": 38, \"value_bits\": 32, \"bucket_count\": 26315790, \"bucket_size\": 4, \"value_module\": {\"__llvaluefunctions__\": true, \"module\": \"gecocoo.valuemodules.default.counting\", \"parameters\": []}, \"hash_functions\": [{\"__llhashfunction__\": true, \"name\": \"gecocoo.hashing.xorlinear.xorlinear\", \"seed\": 10114628159158125351, \"parameters\": []}, {\"__llhashfunction__\": true, \"name\": \"gecocoo.hashing.xorlinear.xorlinear\", \"seed\": 13457121774914787227, \"parameters\": []}, {\"__llhashfunction__\": true, \"name\": \"gecocoo.hashing.xorlinear.xorlinear\", \"seed\": 17653006889179700873, \"parameters\": []}], \"storage\": {\"__llstorageconfig__\": true, \"mode\": \"BUCKETS\", \"concurrent\": true, \"disable_quotienting\": false}}"
            },
            "options": {
                "disable_gc": false,
                "timer": "perf_counter",
                "min_rounds": 5,
                "max_time": 1.0,
                "min_time": 5e-06,
                "warmup": false
            },
            "stats": {
                "min": 0.06266634212806821,
                "max": 0.23947489215061069,
                "mean": 0.10133959082886576,
                "stddev": 0.07738587219039052,
                "rounds": 5,
                "median": 0.06506126979365945,
                "iqr": 0.05276020453311503,
                "q1": 0.06369834579527378,
                "q3": 0.11645855032838881,
                "iqr_outliers": 1,
                "stddev_outliers": 1,
                "outliers": "1;1",
                "ld15iqr": 0.06266634212806821,
                "hd15iqr": 0.23947489215061069,
                "ops": 9.867811699464234,
                "total": 0.5066979541443288,
                "data": [
                    0.23947489215061069,
                    0.06266634212806821,
                    0.07545310305431485,
                    0.06404234701767564,
                    0.06506126979365945
                ],
                "iterations": 1
            }
        },
        {
            "group": "searching",
            "name": "search",
            "fullname": "bench_operations.py::test_cost_optimal",
            "params": null,
            "param": null,
            "extra_info": {
                "key_count": 100000000,
                "search_missing": 0,
                "search_hitt\u00edng": 10000000,
                "thread_count": 16,
                "config": "{\"__llconfig__\": true, \"k\": 31, \"key_bits\": 38, \"value_bits\": 32, \"bucket_count\": 26315790, \"bucket_size\": 4, \"value_module\": {\"__llvaluefunctions__\": true, \"module\": \"gecocoo.valuemodules.default.counting\", \"parameters\": []}, \"hash_functions\": [{\"__llhashfunction__\": true, \"name\": \"gecocoo.hashing.xorlinear.xorlinear\", \"seed\": 10114628159158125351, \"parameters\": []}, {\"__llhashfunction__\": true, \"name\": \"gecocoo.hashing.xorlinear.xorlinear\", \"seed\": 13457121774914787227, \"parameters\": []}, {\"__llhashfunction__\": true, \"name\": \"gecocoo.hashing.xorlinear.xorlinear\", \"seed\": 17653006889179700873, \"parameters\": []}], \"storage\": {\"__llstorageconfig__\": true, \"mode\": \"BUCKETS\", \"concurrent\": true, \"disable_quotienting\": false}}"
            },
            "options": {
                "disable_gc": false,
                "timer": "perf_counter",
                "min_rounds": 5,
                "max_time": 1.0,
                "min_time": 5e-06,
                "warmup": false
            },
            "stats": {
                "min": 0.24187703523784876,
                "max": 0.4523940230719745,
                "mean": 0.29320477694272995,
                "stddev": 0.08960066079002434,
                "rounds": 5,
                "median": 0.25797138595953584,
                "iqr": 0.06968403037171811,
                "q1": 0.24460990726947784,
                "q3": 0.31429393764119595,
                "iqr_outliers": 1,
                "stddev_outliers": 1,
                "outliers": "1;1",
                "ld15iqr": 0.24187703523784876,
                "hd15iqr": 0.4523940230719745,
                "ops": 3.4105856337917864,
                "total": 1.4660238847136497,
                "data": [
                    0.4523940230719745,
                    0.25797138595953584,
                    0.2455208646133542,
                    0.24187703523784876,
                    0.26826057583093643
                ],
                "iterations": 1
            }
        },
        {
            "group": "searching",
            "name": "search",
            "fullname": "bench_operations.py::test_cost_optimal",
            "params": null,
            "param": null,
            "extra_info": {
                "key_count": 100000000,
                "search_missing": 10000000,
                "search_hitt\u00edng": 0,
                "thread_count": 16,
                "config": "{\"__llconfig__\": true, \"k\": 31, \"key_bits\": 38, \"value_bits\": 32, \"bucket_count\": 26315790, \"bucket_size\": 4, \"value_module\": {\"__llvaluefunctions__\": true, \"module\": \"gecocoo.valuemodules.default.counting\", \"parameters\": []}, \"hash_functions\": [{\"__llhashfunction__\": true, \"name\": \"gecocoo.hashing.xorlinear.xorlinear\", \"seed\": 10114628159158125351, \"parameters\": []}, {\"__llhashfunction__\": true, \"name\": \"gecocoo.hashing.xorlinear.xorlinear\", \"seed\": 13457121774914787227, \"parameters\": []}, {\"__llhashfunction__\": true, \"name\": \"gecocoo.hashing.xorlinear.xorlinear\", \"seed\": 17653006889179700873, \"parameters\": []}], \"storage\": {\"__llstorageconfig__\": true, \"mode\": \"BUCKETS\", \"concurrent\": true, \"disable_quotienting\": false}}"
            },
            "options": {
                "disable_gc": false,
                "timer": "perf_counter",
                "min_rounds": 5,
                "max_time": 1.0,
                "min_time": 5e-06,
                "warmup": false
            },
            "stats": {
                "min": 0.481538366060704,
                "max": 0.590745824854821,
                "mean": 0.5196195813827217,
                "stddev": 0.044370462102400775,
                "rounds": 5,
                "median": 0.5151841072365642,
                "iqr": 0.059767482918687165,
                "q1": 0.48313788569066674,
                "q3": 0.5429053686093539,
                "iqr_outliers": 0,
                "stddev_outliers": 1,
                "outliers": "1;0",
                "ld15iqr": 0.481538366060704,
                "hd15iqr": 0.590745824854821,
                "ops": 1.9244848266475507,
                "total": 2.5980979069136083,
                "data": [
                    0.590745824854821,
                    0.4836710589006543,
                    0.481538366060704,
                    0.5151841072365642,
                    0.5269585498608649
                ],
                "iterations": 1
            }
        },
        {
            "group": "searching",
            "name": "search",
            "fullname": "bench_operations.py::test_cost_optimal",
            "params": null,
            "param": null,
            "extra_info": {
                "key_count": 100000000,
                "search_missing": 0,
                "search_hitt\u00edng": 100000000,
                "thread_count": 16,
                "config": "{\"__llconfig__\": true, \"k\": 31, \"key_bits\": 38, \"value_bits\": 32, \"bucket_count\": 26315790, \"bucket_size\": 4, \"value_module\": {\"__llvaluefunctions__\": true, \"module\": \"gecocoo.valuemodules.default.counting\", \"parameters\": []}, \"hash_functions\": [{\"__llhashfunction__\": true, \"name\": \"gecocoo.hashing.xorlinear.xorlinear\", \"seed\": 10114628159158125351, \"parameters\": []}, {\"__llhashfunction__\": true, \"name\": \"gecocoo.hashing.xorlinear.xorlinear\", \"seed\": 13457121774914787227, \"parameters\": []}, {\"__llhashfunction__\": true, \"name\": \"gecocoo.hashing.xorlinear.xorlinear\", \"seed\": 17653006889179700873, \"parameters\": []}], \"storage\": {\"__llstorageconfig__\": true, \"mode\": \"BUCKETS\", \"concurrent\": true, \"disable_quotienting\": false}}"
            },
            "options": {
                "disable_gc": false,
                "timer": "perf_counter",
                "min_rounds": 5,
                "max_time": 1.0,
                "min_time": 5e-06,
                "warmup": false
            },
            "stats": {
                "min": 1.7567931073717773,
                "max": 2.834326801355928,
                "mean": 2.2142603671178223,
                "stddev": 0.46328393071435414,
                "rounds": 5,
                "median": 2.282891208771616,
                "iqr": 0.7817223315360025,
                "q1": 1.7570128421066329,
                "q3": 2.5387351736426353,
                "iqr_outliers": 0,
                "stddev_outliers": 1,
                "outliers": "1;0",
                "ld15iqr": 1.7567931073717773,
                "hd15iqr": 2.834326801355928,
                "ops": 0.4516180729466985,
                "total": 11.07130183558911,
                "data": [
                    2.834326801355928,
                    1.7567931073717773,
                    2.4402046310715377,
                    1.7570860870182514,
                    2.282891208771616
                ],
                "iterations": 1
            }
        },
        {
            "group": "searching",
            "name": "search",
            "fullname": "bench_operations.py::test_cost_optimal",
            "params": null,
            "param": null,
            "extra_info": {
                "key_count": 100000000,
                "search_missing": 100000000,
                "search_hitt\u00edng": 0,
                "thread_count": 16,
                "config": "{\"__llconfig__\": true, \"k\": 31, \"key_bits\": 38, \"value_bits\": 32, \"bucket_count\": 26315790, \"bucket_size\": 4, \"value_module\": {\"__llvaluefunctions__\": true, \"module\": \"gecocoo.valuemodules.default.counting\", \"parameters\": []}, \"hash_functions\": [{\"__llhashfunction__\": true, \"name\": \"gecocoo.hashing.xorlinear.xorlinear\", \"seed\": 10114628159158125351, \"parameters\": []}, {\"__llhashfunction__\": true, \"name\": \"gecocoo.hashing.xorlinear.xorlinear\", \"seed\": 13457121774914787227, \"parameters\": []}, {\"__llhashfunction__\": true, \"name\": \"gecocoo.hashing.xorlinear.xorlinear\", \"seed\": 17653006889179700873, \"parameters\": []}], \"storage\": {\"__llstorageconfig__\": true, \"mode\": \"BUCKETS\", \"concurrent\": true, \"disable_quotienting\": false}}"
            },
            "options": {
                "disable_gc": false,
                "timer": "perf_counter",
                "min_rounds": 5,
                "max_time": 1.0,
                "min_time": 5e-06,
                "warmup": false
            },
            "stats": {
                "min": 3.7993314219638705,
                "max": 5.365558858029544,
                "mean": 4.431580965220928,
                "stddev": 0.7595653192203133,
                "rounds": 5,
                "median": 4.055362023878843,
                "iqr": 1.3929619545815513,
                "q1": 3.800750003545545,
                "q3": 5.193711958127096,
                "iqr_outliers": 0,
                "stddev_outliers": 1,
                "outliers": "1;0",
                "ld15iqr": 3.7993314219638705,
                "hd15iqr": 5.365558858029544,
                "ops": 0.2256531039031004,
                "total": 22.15790482610464,
                "data": [
                    5.365558858029544,
                    3.80122286407277,
                    5.136429658159614,
                    4.055362023878843,
                    3.7993314219638705
                ],
                "iterations": 1
            }
        }
    ],
    "datetime": "2021-03-06T19:42:55.757877",
    "version": "3.2.3"
}