{
    "machine_info": {
        "node": "cstd01-020",
        "processor": "x86_64",
        "machine": "x86_64",
        "python_compiler": "GCC 7.3.0",
        "python_implementation": "CPython",
        "python_implementation_version": "3.7.9",
        "python_version": "3.7.9",
        "python_build": [
            "default",
            "Aug 31 2020 12:42:55"
        ],
        "release": "3.10.0-1160.6.1.el7.x86_64",
        "system": "Linux",
        "cpu": {
            "vendor_id": "unknown",
            "hardware": "unknown",
            "brand": "unknown"
        }
    },
    "commit_info": {
        "id": "unversioned",
        "time": null,
        "author_time": null,
        "dirty": false,
        "project": "gecocoo-2021-03-06T20_04_12.073701-origin_develop",
        "branch": "(unknown)"
    },
    "benchmarks": [
        {
            "group": "inserting",
            "name": "insert",
            "fullname": "bench_operations.py::test_cost_optimal",
            "params": null,
            "param": null,
            "extra_info": {
                "key_count": 100000000,
                "thread_count": 1,
                "config": "{\"__llconfig__\": true, \"k\": 31, \"key_bits\": 38, \"value_bits\": 32, \"bucket_count\": 33333334, \"bucket_size\": 4, \"value_module\": {\"__llvaluefunctions__\": true, \"module\": \"gecocoo.valuemodules.default.counting\", \"parameters\": []}, \"hash_functions\": [{\"__llhashfunction__\": true, \"name\": \"gecocoo.hashing.xorlinear.xorlinear\", \"seed\": 7917581148088593104, \"parameters\": []}, {\"__llhashfunction__\": true, \"name\": \"gecocoo.hashing.xorlinear.xorlinear\", \"seed\": 11073655119187666774, \"parameters\": []}, {\"__llhashfunction__\": true, \"name\": \"gecocoo.hashing.xorlinear.xorlinear\", \"seed\": 17808957405587792678, \"parameters\": []}], \"storage\": {\"__llstorageconfig__\": true, \"mode\": \"BUCKETS\", \"concurrent\": true, \"disable_quotienting\": false}}"
            },
            "options": {
                "disable_gc": false,
                "timer": "perf_counter",
                "min_rounds": 5,
                "max_time": 1.0,
                "min_time": 5e-06,
                "warmup": false
            },
            "stats": {
                "min": 670.737035126891,
                "max": 670.737035126891,
                "mean": 670.737035126891,
                "stddev": 0,
                "rounds": 1,
                "median": 670.737035126891,
                "iqr": 0.0,
                "q1": 670.737035126891,
                "q3": 670.737035126891,
                "iqr_outliers": 0,
                "stddev_outliers": 0,
                "outliers": "0;0",
                "ld15iqr": 670.737035126891,
                "hd15iqr": 670.737035126891,
                "ops": 0.0014908972482946593,
                "total": 670.737035126891,
                "data": [
                    670.737035126891
                ],
                "iterations": 1
            }
        },
        {
            "group": "searching",
            "name": "search",
            "fullname": "bench_operations.py::test_cost_optimal",
            "params": null,
            "param": null,
            "extra_info": {
                "key_count": 100000000,
                "search_missing": 0,
                "search_hitt\u00edng": 1000000,
                "thread_count": 1,
                "config": "{\"__llconfig__\": true, \"k\": 31, \"key_bits\": 38, \"value_bits\": 32, \"bucket_count\": 33333334, \"bucket_size\": 4, \"value_module\": {\"__llvaluefunctions__\": true, \"module\": \"gecocoo.valuemodules.default.counting\", \"parameters\": []}, \"hash_functions\": [{\"__llhashfunction__\": true, \"name\": \"gecocoo.hashing.xorlinear.xorlinear\", \"seed\": 7917581148088593104, \"parameters\": []}, {\"__llhashfunction__\": true, \"name\": \"gecocoo.hashing.xorlinear.xorlinear\", \"seed\": 11073655119187666774, \"parameters\": []}, {\"__llhashfunction__\": true, \"name\": \"gecocoo.hashing.xorlinear.xorlinear\", \"seed\": 17808957405587792678, \"parameters\": []}], \"storage\": {\"__llstorageconfig__\": true, \"mode\": \"BUCKETS\", \"concurrent\": true, \"disable_quotienting\": false}}"
            },
            "options": {
                "disable_gc": false,
                "timer": "perf_counter",
                "min_rounds": 5,
                "max_time": 1.0,
                "min_time": 5e-06,
                "warmup": false
            },
            "stats": {
                "min": 0.1730852178297937,
                "max": 0.3590905172750354,
                "mean": 0.21036172760650515,
                "stddev": 0.08314194891402936,
                "rounds": 5,
                "median": 0.17319017369300127,
                "iqr": 0.04658398299943656,
                "q1": 0.17314599885139614,
                "q3": 0.2197299818508327,
                "iqr_outliers": 1,
                "stddev_outliers": 1,
                "outliers": "1;1",
                "ld15iqr": 0.1730852178297937,
                "hd15iqr": 0.3590905172750354,
                "ops": 4.753716426357569,
                "total": 1.0518086380325258,
                "data": [
                    0.3590905172750354,
                    0.17327647004276514,
                    0.1731662591919303,
                    0.1730852178297937,
                    0.17319017369300127
                ],
                "iterations": 1
            }
        },
        {
            "group": "searching",
            "name": "search",
            "fullname": "bench_operations.py::test_cost_optimal",
            "params": null,
            "param": null,
            "extra_info": {
                "key_count": 100000000,
                "search_missing": 1000000,
                "search_hitt\u00edng": 0,
                "thread_count": 1,
                "config": "{\"__llconfig__\": true, \"k\": 31, \"key_bits\": 38, \"value_bits\": 32, \"bucket_count\": 33333334, \"bucket_size\": 4, \"value_module\": {\"__llvaluefunctions__\": true, \"module\": \"gecocoo.valuemodules.default.counting\", \"parameters\": []}, \"hash_functions\": [{\"__llhashfunction__\": true, \"name\": \"gecocoo.hashing.xorlinear.xorlinear\", \"seed\": 7917581148088593104, \"parameters\": []}, {\"__llhashfunction__\": true, \"name\": \"gecocoo.hashing.xorlinear.xorlinear\", \"seed\": 11073655119187666774, \"parameters\": []}, {\"__llhashfunction__\": true, \"name\": \"gecocoo.hashing.xorlinear.xorlinear\", \"seed\": 17808957405587792678, \"parameters\": []}], \"storage\": {\"__llstorageconfig__\": true, \"mode\": \"BUCKETS\", \"concurrent\": true, \"disable_quotienting\": false}}"
            },
            "options": {
                "disable_gc": false,
                "timer": "perf_counter",
                "min_rounds": 5,
                "max_time": 1.0,
                "min_time": 5e-06,
                "warmup": false
            },
            "stats": {
                "min": 0.37591717299073935,
                "max": 0.5572602511383593,
                "mean": 0.41225122278556225,
                "stddev": 0.08106254757424565,
                "rounds": 5,
                "median": 0.37601210130378604,
                "iqr": 0.045462949899956584,
                "q1": 0.37594067375175655,
                "q3": 0.42140362365171313,
                "iqr_outliers": 1,
                "stddev_outliers": 1,
                "outliers": "1;1",
                "ld15iqr": 0.37591717299073935,
                "hd15iqr": 0.5572602511383593,
                "ops": 2.425705358114032,
                "total": 2.0612561139278114,
                "data": [
                    0.5572602511383593,
                    0.3761180811561644,
                    0.37601210130378604,
                    0.3759485073387623,
                    0.37591717299073935
                ],
                "iterations": 1
            }
        },
        {
            "group": "searching",
            "name": "search",
            "fullname": "bench_operations.py::test_cost_optimal",
            "params": null,
            "param": null,
            "extra_info": {
                "key_count": 100000000,
                "search_missing": 0,
                "search_hitt\u00edng": 10000000,
                "thread_count": 1,
                "config": "{\"__llconfig__\": true, \"k\": 31, \"key_bits\": 38, \"value_bits\": 32, \"bucket_count\": 33333334, \"bucket_size\": 4, \"value_module\": {\"__llvaluefunctions__\": true, \"module\": \"gecocoo.valuemodules.default.counting\", \"parameters\": []}, \"hash_functions\": [{\"__llhashfunction__\": true, \"name\": \"gecocoo.hashing.xorlinear.xorlinear\", \"seed\": 7917581148088593104, \"parameters\": []}, {\"__llhashfunction__\": true, \"name\": \"gecocoo.hashing.xorlinear.xorlinear\", \"seed\": 11073655119187666774, \"parameters\": []}, {\"__llhashfunction__\": true, \"name\": \"gecocoo.hashing.xorlinear.xorlinear\", \"seed\": 17808957405587792678, \"parameters\": []}], \"storage\": {\"__llstorageconfig__\": true, \"mode\": \"BUCKETS\", \"concurrent\": true, \"disable_quotienting\": false}}"
            },
            "options": {
                "disable_gc": false,
                "timer": "perf_counter",
                "min_rounds": 5,
                "max_time": 1.0,
                "min_time": 5e-06,
                "warmup": false
            },
            "stats": {
                "min": 1.7261202670633793,
                "max": 2.0255409055389464,
                "mean": 1.7863010645844042,
                "stddev": 0.13373953486285836,
                "rounds": 5,
                "median": 1.726715724915266,
                "iqr": 0.07536073087248951,
                "q1": 1.726200440665707,
                "q3": 1.8015611715381965,
                "iqr_outliers": 1,
                "stddev_outliers": 1,
                "outliers": "1;1",
                "ld15iqr": 1.7261202670633793,
                "hd15iqr": 2.0255409055389464,
                "ops": 0.5598160465927154,
                "total": 8.931505322922021,
                "data": [
                    2.0255409055389464,
                    1.726715724915266,
                    1.7269012602046132,
                    1.7262271651998162,
                    1.7261202670633793
                ],
                "iterations": 1
            }
        },
        {
            "group": "searching",
            "name": "search",
            "fullname": "bench_operations.py::test_cost_optimal",
            "params": null,
            "param": null,
            "extra_info": {
                "key_count": 100000000,
                "search_missing": 10000000,
                "search_hitt\u00edng": 0,
                "thread_count": 1,
                "config": "{\"__llconfig__\": true, \"k\": 31, \"key_bits\": 38, \"value_bits\": 32, \"bucket_count\": 33333334, \"bucket_size\": 4, \"value_module\": {\"__llvaluefunctions__\": true, \"module\": \"gecocoo.valuemodules.default.counting\", \"parameters\": []}, \"hash_functions\": [{\"__llhashfunction__\": true, \"name\": \"gecocoo.hashing.xorlinear.xorlinear\", \"seed\": 7917581148088593104, \"parameters\": []}, {\"__llhashfunction__\": true, \"name\": \"gecocoo.hashing.xorlinear.xorlinear\", \"seed\": 11073655119187666774, \"parameters\": []}, {\"__llhashfunction__\": true, \"name\": \"gecocoo.hashing.xorlinear.xorlinear\", \"seed\": 17808957405587792678, \"parameters\": []}], \"storage\": {\"__llstorageconfig__\": true, \"mode\": \"BUCKETS\", \"concurrent\": true, \"disable_quotienting\": false}}"
            },
            "options": {
                "disable_gc": false,
                "timer": "perf_counter",
                "min_rounds": 5,
                "max_time": 1.0,
                "min_time": 5e-06,
                "warmup": false
            },
            "stats": {
                "min": 3.755111251026392,
                "max": 3.9373307288624346,
                "mean": 3.7922280707396565,
                "stddev": 0.08112452579087986,
                "rounds": 5,
                "median": 3.7552969339303672,
                "iqr": 0.04768171487376094,
                "q1": 3.7552399300038815,
                "q3": 3.8029216448776424,
                "iqr_outliers": 1,
                "stddev_outliers": 1,
                "outliers": "1;1",
                "ld15iqr": 3.755111251026392,
                "hd15iqr": 3.9373307288624346,
                "ops": 0.26369722003691476,
                "total": 18.961140353698283,
                "data": [
                    3.9373307288624346,
                    3.755282822996378,
                    3.7552969339303672,
                    3.755111251026392,
                    3.7581186168827116
                ],
                "iterations": 1
            }
        },
        {
            "group": "searching",
            "name": "search",
            "fullname": "bench_operations.py::test_cost_optimal",
            "params": null,
            "param": null,
            "extra_info": {
                "key_count": 100000000,
                "search_missing": 0,
                "search_hitt\u00edng": 100000000,
                "thread_count": 1,
                "config": "{\"__llconfig__\": true, \"k\": 31, \"key_bits\": 38, \"value_bits\": 32, \"bucket_count\": 33333334, \"bucket_size\": 4, \"value_module\": {\"__llvaluefunctions__\": true, \"module\": \"gecocoo.valuemodules.default.counting\", \"parameters\": []}, \"hash_functions\": [{\"__llhashfunction__\": true, \"name\": \"gecocoo.hashing.xorlinear.xorlinear\", \"seed\": 7917581148088593104, \"parameters\": []}, {\"__llhashfunction__\": true, \"name\": \"gecocoo.hashing.xorlinear.xorlinear\", \"seed\": 11073655119187666774, \"parameters\": []}, {\"__llhashfunction__\": true, \"name\": \"gecocoo.hashing.xorlinear.xorlinear\", \"seed\": 17808957405587792678, \"parameters\": []}], \"storage\": {\"__llstorageconfig__\": true, \"mode\": \"BUCKETS\", \"concurrent\": true, \"disable_quotienting\": false}}"
            },
            "options": {
                "disable_gc": false,
                "timer": "perf_counter",
                "min_rounds": 5,
                "max_time": 1.0,
                "min_time": 5e-06,
                "warmup": false
            },
            "stats": {
                "min": 17.259354053996503,
                "max": 17.445059303194284,
                "mean": 17.298467935621737,
                "stddev": 0.08196231009419687,
                "rounds": 5,
                "median": 17.262235967908055,
                "iqr": 0.047784165595658123,
                "q1": 17.261293469229713,
                "q3": 17.30907763482537,
                "iqr_outliers": 1,
                "stddev_outliers": 1,
                "outliers": "1;1",
                "ld15iqr": 17.259354053996503,
                "hd15iqr": 17.445059303194284,
                "ops": 0.05780858765768254,
                "total": 86.49233967810869,
                "data": [
                    17.445059303194284,
                    17.263750412035733,
                    17.259354053996503,
                    17.262235967908055,
                    17.261939940974116
                ],
                "iterations": 1
            }
        },
        {
            "group": "searching",
            "name": "search",
            "fullname": "bench_operations.py::test_cost_optimal",
            "params": null,
            "param": null,
            "extra_info": {
                "key_count": 100000000,
                "search_missing": 100000000,
                "search_hitt\u00edng": 0,
                "thread_count": 1,
                "config": "{\"__llconfig__\": true, \"k\": 31, \"key_bits\": 38, \"value_bits\": 32, \"bucket_count\": 33333334, \"bucket_size\": 4, \"value_module\": {\"__llvaluefunctions__\": true, \"module\": \"gecocoo.valuemodules.default.counting\", \"parameters\": []}, \"hash_functions\": [{\"__llhashfunction__\": true, \"name\": \"gecocoo.hashing.xorlinear.xorlinear\", \"seed\": 7917581148088593104, \"parameters\": []}, {\"__llhashfunction__\": true, \"name\": \"gecocoo.hashing.xorlinear.xorlinear\", \"seed\": 11073655119187666774, \"parameters\": []}, {\"__llhashfunction__\": true, \"name\": \"gecocoo.hashing.xorlinear.xorlinear\", \"seed\": 17808957405587792678, \"parameters\": []}], \"storage\": {\"__llstorageconfig__\": true, \"mode\": \"BUCKETS\", \"concurrent\": true, \"disable_quotienting\": false}}"
            },
            "options": {
                "disable_gc": false,
                "timer": "perf_counter",
                "min_rounds": 5,
                "max_time": 1.0,
                "min_time": 5e-06,
                "warmup": false
            },
            "stats": {
                "min": 37.54540795320645,
                "max": 37.72405095305294,
                "mean": 37.58256730493158,
                "stddev": 0.07910204977867512,
                "rounds": 5,
                "median": 37.54733777884394,
                "iqr": 0.04613573895767331,
                "q1": 37.546629433636554,
                "q3": 37.59276517259423,
                "iqr_outliers": 1,
                "stddev_outliers": 1,
                "outliers": "1;1",
                "ld15iqr": 37.54540795320645,
                "hd15iqr": 37.72405095305294,
                "ops": 0.026608081132040707,
                "total": 187.9128365246579,
                "data": [
                    37.72405095305294,
                    37.54900324577466,
                    37.54733777884394,
                    37.54540795320645,
                    37.54703659377992
                ],
                "iterations": 1
            }
        },
        {
            "group": "searching",
            "name": "search",
            "fullname": "bench_operations.py::test_cost_optimal",
            "params": null,
            "param": null,
            "extra_info": {
                "key_count": 100000000,
                "search_missing": 0,
                "search_hitt\u00edng": 1000000,
                "thread_count": 4,
                "config": "{\"__llconfig__\": true, \"k\": 31, \"key_bits\": 38, \"value_bits\": 32, \"bucket_count\": 33333334, \"bucket_size\": 4, \"value_module\": {\"__llvaluefunctions__\": true, \"module\": \"gecocoo.valuemodules.default.counting\", \"parameters\": []}, \"hash_functions\": [{\"__llhashfunction__\": true, \"name\": \"gecocoo.hashing.xorlinear.xorlinear\", \"seed\": 7917581148088593104, \"parameters\": []}, {\"__llhashfunction__\": true, \"name\": \"gecocoo.hashing.xorlinear.xorlinear\", \"seed\": 11073655119187666774, \"parameters\": []}, {\"__llhashfunction__\": true, \"name\": \"gecocoo.hashing.xorlinear.xorlinear\", \"seed\": 17808957405587792678, \"parameters\": []}], \"storage\": {\"__llstorageconfig__\": true, \"mode\": \"BUCKETS\", \"concurrent\": true, \"disable_quotienting\": false}}"
            },
            "options": {
                "disable_gc": false,
                "timer": "perf_counter",
                "min_rounds": 5,
                "max_time": 1.0,
                "min_time": 5e-06,
                "warmup": false
            },
            "stats": {
                "min": 0.06272614374756813,
                "max": 0.2254051910713315,
                "mean": 0.09642775151878595,
                "stddev": 0.07211286022834033,
                "rounds": 5,
                "median": 0.06495836796239018,
                "iqr": 0.042824401636607945,
                "q1": 0.06299761158879846,
                "q3": 0.10582201322540641,
                "iqr_outliers": 1,
                "stddev_outliers": 1,
                "outliers": "1;1",
                "ld15iqr": 0.06272614374756813,
                "hd15iqr": 0.2254051910713315,
                "ops": 10.370458547974968,
                "total": 0.48213875759392977,
                "data": [
                    0.2254051910713315,
                    0.06596095394343138,
                    0.06495836796239018,
                    0.06308810086920857,
                    0.06272614374756813
                ],
                "iterations": 1
            }
        },
        {
            "group": "searching",
            "name": "search",
            "fullname": "bench_operations.py::test_cost_optimal",
            "params": null,
            "param": null,
            "extra_info": {
                "key_count": 100000000,
                "search_missing": 1000000,
                "search_hitt\u00edng": 0,
                "thread_count": 4,
                "config": "{\"__llconfig__\": true, \"k\": 31, \"key_bits\": 38, \"value_bits\": 32, \"bucket_count\": 33333334, \"bucket_size\": 4, \"value_module\": {\"__llvaluefunctions__\": true, \"module\": \"gecocoo.valuemodules.default.counting\", \"parameters\": []}, \"hash_functions\": [{\"__llhashfunction__\": true, \"name\": \"gecocoo.hashing.xorlinear.xorlinear\", \"seed\": 7917581148088593104, \"parameters\": []}, {\"__llhashfunction__\": true, \"name\": \"gecocoo.hashing.xorlinear.xorlinear\", \"seed\": 11073655119187666774, \"parameters\": []}, {\"__llhashfunction__\": true, \"name\": \"gecocoo.hashing.xorlinear.xorlinear\", \"seed\": 17808957405587792678, \"parameters\": []}], \"storage\": {\"__llstorageconfig__\": true, \"mode\": \"BUCKETS\", \"concurrent\": true, \"disable_quotienting\": false}}"
            },
            "options": {
                "disable_gc": false,
                "timer": "perf_counter",
                "min_rounds": 5,
                "max_time": 1.0,
                "min_time": 5e-06,
                "warmup": false
            },
            "stats": {
                "min": 0.14857427822425961,
                "max": 0.31326010962948203,
                "mean": 0.18291761102154852,
                "stddev": 0.07288261015443898,
                "rounds": 5,
                "median": 0.15126400301232934,
                "iqr": 0.04392543830908835,
                "q1": 0.14882520341780037,
                "q3": 0.19275064172688872,
                "iqr_outliers": 1,
                "stddev_outliers": 1,
                "outliers": "1;1",
                "ld15iqr": 0.14857427822425961,
                "hd15iqr": 0.31326010962948203,
                "ops": 5.466942162732464,
                "total": 0.9145880551077425,
                "data": [
                    0.31326010962948203,
                    0.14857427822425961,
                    0.15258081909269094,
                    0.15126400301232934,
                    0.14890884514898062
                ],
                "iterations": 1
            }
        },
        {
            "group": "searching",
            "name": "search",
            "fullname": "bench_operations.py::test_cost_optimal",
            "params": null,
            "param": null,
            "extra_info": {
                "key_count": 100000000,
                "search_missing": 0,
                "search_hitt\u00edng": 10000000,
                "thread_count": 4,
                "config": "{\"__llconfig__\": true, \"k\": 31, \"key_bits\": 38, \"value_bits\": 32, \"bucket_count\": 33333334, \"bucket_size\": 4, \"value_module\": {\"__llvaluefunctions__\": true, \"module\": \"gecocoo.valuemodules.default.counting\", \"parameters\": []}, \"hash_functions\": [{\"__llhashfunction__\": true, \"name\": \"gecocoo.hashing.xorlinear.xorlinear\", \"seed\": 7917581148088593104, \"parameters\": []}, {\"__llhashfunction__\": true, \"name\": \"gecocoo.hashing.xorlinear.xorlinear\", \"seed\": 11073655119187666774, \"parameters\": []}, {\"__llhashfunction__\": true, \"name\": \"gecocoo.hashing.xorlinear.xorlinear\", \"seed\": 17808957405587792678, \"parameters\": []}], \"storage\": {\"__llstorageconfig__\": true, \"mode\": \"BUCKETS\", \"concurrent\": true, \"disable_quotienting\": false}}"
            },
            "options": {
                "disable_gc": false,
                "timer": "perf_counter",
                "min_rounds": 5,
                "max_time": 1.0,
                "min_time": 5e-06,
                "warmup": false
            },
            "stats": {
                "min": 0.6094427579082549,
                "max": 0.7587017971090972,
                "mean": 0.6424656573683023,
                "stddev": 0.06505084302761995,
                "rounds": 5,
                "median": 0.6148875309154391,
                "iqr": 0.04167646472342312,
                "q1": 0.6111659123562276,
                "q3": 0.6528423770796508,
                "iqr_outliers": 1,
                "stddev_outliers": 1,
                "outliers": "1;1",
                "ld15iqr": 0.6094427579082549,
                "hd15iqr": 0.7587017971090972,
                "ops": 1.5565034310102215,
                "total": 3.2123282868415117,
                "data": [
                    0.7587017971090972,
                    0.6094427579082549,
                    0.6117402971722186,
                    0.6148875309154391,
                    0.6175559037365019
                ],
                "iterations": 1
            }
        },
        {
            "group": "searching",
            "name": "search",
            "fullname": "bench_operations.py::test_cost_optimal",
            "params": null,
            "param": null,
            "extra_info": {
                "key_count": 100000000,
                "search_missing": 10000000,
                "search_hitt\u00edng": 0,
                "thread_count": 4,
                "config": "{\"__llconfig__\": true, \"k\": 31, \"key_bits\": 38, \"value_bits\": 32, \"bucket_count\": 33333334, \"bucket_size\": 4, \"value_module\": {\"__llvaluefunctions__\": true, \"module\": \"gecocoo.valuemodules.default.counting\", \"parameters\": []}, \"hash_functions\": [{\"__llhashfunction__\": true, \"name\": \"gecocoo.hashing.xorlinear.xorlinear\", \"seed\": 7917581148088593104, \"parameters\": []}, {\"__llhashfunction__\": true, \"name\": \"gecocoo.hashing.xorlinear.xorlinear\", \"seed\": 11073655119187666774, \"parameters\": []}, {\"__llhashfunction__\": true, \"name\": \"gecocoo.hashing.xorlinear.xorlinear\", \"seed\": 17808957405587792678, \"parameters\": []}], \"storage\": {\"__llstorageconfig__\": true, \"mode\": \"BUCKETS\", \"concurrent\": true, \"disable_quotienting\": false}}"
            },
            "options": {
                "disable_gc": false,
                "timer": "perf_counter",
                "min_rounds": 5,
                "max_time": 1.0,
                "min_time": 5e-06,
                "warmup": false
            },
            "stats": {
                "min": 1.4794440660625696,
                "max": 1.571786483284086,
                "mean": 1.5019001024775207,
                "stddev": 0.039227173644540474,
                "rounds": 5,
                "median": 1.4859657799825072,
                "iqr": 0.027433338691480458,
                "q1": 1.482301217969507,
                "q3": 1.5097345566609874,
                "iqr_outliers": 1,
                "stddev_outliers": 1,
                "outliers": "1;1",
                "ld15iqr": 1.4794440660625696,
                "hd15iqr": 1.571786483284086,
                "ops": 0.6658232450683033,
                "total": 7.5095005123876035,
                "data": [
                    1.571786483284086,
                    1.4794440660625696,
                    1.483253601938486,
                    1.4890505811199546,
                    1.4859657799825072
                ],
                "iterations": 1
            }
        },
        {
            "group": "searching",
            "name": "search",
            "fullname": "bench_operations.py::test_cost_optimal",
            "params": null,
            "param": null,
            "extra_info": {
                "key_count": 100000000,
                "search_missing": 0,
                "search_hitt\u00edng": 100000000,
                "thread_count": 4,
                "config": "{\"__llconfig__\": true, \"k\": 31, \"key_bits\": 38, \"value_bits\": 32, \"bucket_count\": 33333334, \"bucket_size\": 4, \"value_module\": {\"__llvaluefunctions__\": true, \"module\": \"gecocoo.valuemodules.default.counting\", \"parameters\": []}, \"hash_functions\": [{\"__llhashfunction__\": true, \"name\": \"gecocoo.hashing.xorlinear.xorlinear\", \"seed\": 7917581148088593104, \"parameters\": []}, {\"__llhashfunction__\": true, \"name\": \"gecocoo.hashing.xorlinear.xorlinear\", \"seed\": 11073655119187666774, \"parameters\": []}, {\"__llhashfunction__\": true, \"name\": \"gecocoo.hashing.xorlinear.xorlinear\", \"seed\": 17808957405587792678, \"parameters\": []}], \"storage\": {\"__llstorageconfig__\": true, \"mode\": \"BUCKETS\", \"concurrent\": true, \"disable_quotienting\": false}}"
            },
            "options": {
                "disable_gc": false,
                "timer": "perf_counter",
                "min_rounds": 5,
                "max_time": 1.0,
                "min_time": 5e-06,
                "warmup": false
            },
            "stats": {
                "min": 6.136780661065131,
                "max": 6.249553017318249,
                "mean": 6.161858541332185,
                "stddev": 0.04911163249938985,
                "rounds": 5,
                "median": 6.142065500840545,
                "iqr": 0.03292412054724991,
                "q1": 6.137164722313173,
                "q3": 6.170088842860423,
                "iqr_outliers": 1,
                "stddev_outliers": 1,
                "outliers": "1;1",
                "ld15iqr": 6.136780661065131,
                "hd15iqr": 6.249553017318249,
                "ops": 0.16228869801087667,
                "total": 30.809292706660926,
                "data": [
                    6.249553017318249,
                    6.142065500840545,
                    6.136780661065131,
                    6.137292742729187,
                    6.1436007847078145
                ],
                "iterations": 1
            }
        },
        {
            "group": "searching",
            "name": "search",
            "fullname": "bench_operations.py::test_cost_optimal",
            "params": null,
            "param": null,
            "extra_info": {
                "key_count": 100000000,
                "search_missing": 100000000,
                "search_hitt\u00edng": 0,
                "thread_count": 4,
                "config": "{\"__llconfig__\": true, \"k\": 31, \"key_bits\": 38, \"value_bits\": 32, \"bucket_count\": 33333334, \"bucket_size\": 4, \"value_module\": {\"__llvaluefunctions__\": true, \"module\": \"gecocoo.valuemodules.default.counting\", \"parameters\": []}, \"hash_functions\": [{\"__llhashfunction__\": true, \"name\": \"gecocoo.hashing.xorlinear.xorlinear\", \"seed\": 7917581148088593104, \"parameters\": []}, {\"__llhashfunction__\": true, \"name\": \"gecocoo.hashing.xorlinear.xorlinear\", \"seed\": 11073655119187666774, \"parameters\": []}, {\"__llhashfunction__\": true, \"name\": \"gecocoo.hashing.xorlinear.xorlinear\", \"seed\": 17808957405587792678, \"parameters\": []}], \"storage\": {\"__llstorageconfig__\": true, \"mode\": \"BUCKETS\", \"concurrent\": true, \"disable_quotienting\": false}}"
            },
            "options": {
                "disable_gc": false,
                "timer": "perf_counter",
                "min_rounds": 5,
                "max_time": 1.0,
                "min_time": 5e-06,
                "warmup": false
            },
            "stats": {
                "min": 13.788485259283334,
                "max": 14.942869467195123,
                "mean": 14.659465577919036,
                "stddev": 0.49617048043805756,
                "rounds": 5,
                "median": 14.913333076052368,
                "iqr": 0.4585883814143017,
                "q1": 14.48186518275179,
                "q3": 14.940453564166091,
                "iqr_outliers": 1,
                "stddev_outliers": 1,
                "outliers": "1;1",
                "ld15iqr": 14.712991823907942,
                "hd15iqr": 14.942869467195123,
                "ops": 0.0682153107618234,
                "total": 73.29732788959518,
                "data": [
                    13.788485259283334,
                    14.913333076052368,
                    14.712991823907942,
                    14.939648263156414,
                    14.942869467195123
                ],
                "iterations": 1
            }
        },
        {
            "group": "searching",
            "name": "search",
            "fullname": "bench_operations.py::test_cost_optimal",
            "params": null,
            "param": null,
            "extra_info": {
                "key_count": 100000000,
                "search_missing": 0,
                "search_hitt\u00edng": 1000000,
                "thread_count": 8,
                "config": "{\"__llconfig__\": true, \"k\": 31, \"key_bits\": 38, \"value_bits\": 32, \"bucket_count\": 33333334, \"bucket_size\": 4, \"value_module\": {\"__llvaluefunctions__\": true, \"module\": \"gecocoo.valuemodules.default.counting\", \"parameters\": []}, \"hash_functions\": [{\"__llhashfunction__\": true, \"name\": \"gecocoo.hashing.xorlinear.xorlinear\", \"seed\": 7917581148088593104, \"parameters\": []}, {\"__llhashfunction__\": true, \"name\": \"gecocoo.hashing.xorlinear.xorlinear\", \"seed\": 11073655119187666774, \"parameters\": []}, {\"__llhashfunction__\": true, \"name\": \"gecocoo.hashing.xorlinear.xorlinear\", \"seed\": 17808957405587792678, \"parameters\": []}], \"storage\": {\"__llstorageconfig__\": true, \"mode\": \"BUCKETS\", \"concurrent\": true, \"disable_quotienting\": false}}"
            },
            "options": {
                "disable_gc": false,
                "timer": "perf_counter",
                "min_rounds": 5,
                "max_time": 1.0,
                "min_time": 5e-06,
                "warmup": false
            },
            "stats": {
                "min": 0.0339429690502584,
                "max": 0.2088861120864749,
                "mean": 0.06932564144954086,
                "stddev": 0.07802010621657557,
                "rounds": 5,
                "median": 0.03411779412999749,
                "iqr": 0.04502170137129724,
                "q1": 0.0339732839493081,
                "q3": 0.07899498532060534,
                "iqr_outliers": 1,
                "stddev_outliers": 1,
                "outliers": "1;1",
                "ld15iqr": 0.0339429690502584,
                "hd15iqr": 0.2088861120864749,
                "ops": 14.42467720587709,
                "total": 0.34662820724770427,
                "data": [
                    0.2088861120864749,
                    0.035697943065315485,
                    0.033983388915658,
                    0.03411779412999749,
                    0.0339429690502584
                ],
                "iterations": 1
            }
        },
        {
            "group": "searching",
            "name": "search",
            "fullname": "bench_operations.py::test_cost_optimal",
            "params": null,
            "param": null,
            "extra_info": {
                "key_count": 100000000,
                "search_missing": 1000000,
                "search_hitt\u00edng": 0,
                "thread_count": 8,
                "config": "{\"__llconfig__\": true, \"k\": 31, \"key_bits\": 38, \"value_bits\": 32, \"bucket_count\": 33333334, \"bucket_size\": 4, \"value_module\": {\"__llvaluefunctions__\": true, \"module\": \"gecocoo.valuemodules.default.counting\", \"parameters\": []}, \"hash_functions\": [{\"__llhashfunction__\": true, \"name\": \"gecocoo.hashing.xorlinear.xorlinear\", \"seed\": 7917581148088593104, \"parameters\": []}, {\"__llhashfunction__\": true, \"name\": \"gecocoo.hashing.xorlinear.xorlinear\", \"seed\": 11073655119187666774, \"parameters\": []}, {\"__llhashfunction__\": true, \"name\": \"gecocoo.hashing.xorlinear.xorlinear\", \"seed\": 17808957405587792678, \"parameters\": []}], \"storage\": {\"__llstorageconfig__\": true, \"mode\": \"BUCKETS\", \"concurrent\": true, \"disable_quotienting\": false}}"
            },
            "options": {
                "disable_gc": false,
                "timer": "perf_counter",
                "min_rounds": 5,
                "max_time": 1.0,
                "min_time": 5e-06,
                "warmup": false
            },
            "stats": {
                "min": 0.07725368905812502,
                "max": 0.2604860826395452,
                "mean": 0.11434371024370193,
                "stddev": 0.08169670106263106,
                "rounds": 5,
                "median": 0.07799378177151084,
                "iqr": 0.045863629900850356,
                "q1": 0.07778003066778183,
                "q3": 0.12364366056863219,
                "iqr_outliers": 1,
                "stddev_outliers": 1,
                "outliers": "1;1",
                "ld15iqr": 0.07725368905812502,
                "hd15iqr": 0.2604860826395452,
                "ops": 8.74556193662677,
                "total": 0.5717185512185097,
                "data": [
                    0.2604860826395452,
                    0.07725368905812502,
                    0.07795547787100077,
                    0.07802951987832785,
                    0.07799378177151084
                ],
                "iterations": 1
            }
        },
        {
            "group": "searching",
            "name": "search",
            "fullname": "bench_operations.py::test_cost_optimal",
            "params": null,
            "param": null,
            "extra_info": {
                "key_count": 100000000,
                "search_missing": 0,
                "search_hitt\u00edng": 10000000,
                "thread_count": 8,
                "config": "{\"__llconfig__\": true, \"k\": 31, \"key_bits\": 38, \"value_bits\": 32, \"bucket_count\": 33333334, \"bucket_size\": 4, \"value_module\": {\"__llvaluefunctions__\": true, \"module\": \"gecocoo.valuemodules.default.counting\", \"parameters\": []}, \"hash_functions\": [{\"__llhashfunction__\": true, \"name\": \"gecocoo.hashing.xorlinear.xorlinear\", \"seed\": 7917581148088593104, \"parameters\": []}, {\"__llhashfunction__\": true, \"name\": \"gecocoo.hashing.xorlinear.xorlinear\", \"seed\": 11073655119187666774, \"parameters\": []}, {\"__llhashfunction__\": true, \"name\": \"gecocoo.hashing.xorlinear.xorlinear\", \"seed\": 17808957405587792678, \"parameters\": []}], \"storage\": {\"__llstorageconfig__\": true, \"mode\": \"BUCKETS\", \"concurrent\": true, \"disable_quotienting\": false}}"
            },
            "options": {
                "disable_gc": false,
                "timer": "perf_counter",
                "min_rounds": 5,
                "max_time": 1.0,
                "min_time": 5e-06,
                "warmup": false
            },
            "stats": {
                "min": 0.3123826622031629,
                "max": 0.6225264929234982,
                "mean": 0.3752597332932055,
                "stddev": 0.13822904817097179,
                "rounds": 5,
                "median": 0.31391777424141765,
                "iqr": 0.07883271598257124,
                "q1": 0.3127491878112778,
                "q3": 0.39158190379384905,
                "iqr_outliers": 1,
                "stddev_outliers": 1,
                "outliers": "1;1",
                "ld15iqr": 0.3123826622031629,
                "hd15iqr": 0.6225264929234982,
                "ops": 2.66482095274171,
                "total": 1.8762986664660275,
                "data": [
                    0.6225264929234982,
                    0.3123826622031629,
                    0.3128713630139828,
                    0.31391777424141765,
                    0.314600374083966
                ],
                "iterations": 1
            }
        },
        {
            "group": "searching",
            "name": "search",
            "fullname": "bench_operations.py::test_cost_optimal",
            "params": null,
            "param": null,
            "extra_info": {
                "key_count": 100000000,
                "search_missing": 10000000,
                "search_hitt\u00edng": 0,
                "thread_count": 8,
                "config": "{\"__llconfig__\": true, \"k\": 31, \"key_bits\": 38, \"value_bits\": 32, \"bucket_count\": 33333334, \"bucket_size\": 4, \"value_module\": {\"__llvaluefunctions__\": true, \"module\": \"gecocoo.valuemodules.default.counting\", \"parameters\": []}, \"hash_functions\": [{\"__llhashfunction__\": true, \"name\": \"gecocoo.hashing.xorlinear.xorlinear\", \"seed\": 7917581148088593104, \"parameters\": []}, {\"__llhashfunction__\": true, \"name\": \"gecocoo.hashing.xorlinear.xorlinear\", \"seed\": 11073655119187666774, \"parameters\": []}, {\"__llhashfunction__\": true, \"name\": \"gecocoo.hashing.xorlinear.xorlinear\", \"seed\": 17808957405587792678, \"parameters\": []}], \"storage\": {\"__llstorageconfig__\": true, \"mode\": \"BUCKETS\", \"concurrent\": true, \"disable_quotienting\": false}}"
            },
            "options": {
                "disable_gc": false,
                "timer": "perf_counter",
                "min_rounds": 5,
                "max_time": 1.0,
                "min_time": 5e-06,
                "warmup": false
            },
            "stats": {
                "min": 0.758396620862186,
                "max": 0.94294936908409,
                "mean": 0.79561717370525,
                "stddev": 0.08236181403323437,
                "rounds": 5,
                "median": 0.7590263481251895,
                "iqr": 0.04659379553049803,
                "q1": 0.7585139248985797,
                "q3": 0.8051077204290777,
                "iqr_outliers": 1,
                "stddev_outliers": 1,
                "outliers": "1;1",
                "ld15iqr": 0.758396620862186,
                "hd15iqr": 0.94294936908409,
                "ops": 1.2568858906638773,
                "total": 3.97808586852625,
                "data": [
                    0.94294936908409,
                    0.7591605042107403,
                    0.7585530262440443,
                    0.758396620862186,
                    0.7590263481251895
                ],
                "iterations": 1
            }
        },
        {
            "group": "searching",
            "name": "search",
            "fullname": "bench_operations.py::test_cost_optimal",
            "params": null,
            "param": null,
            "extra_info": {
                "key_count": 100000000,
                "search_missing": 0,
                "search_hitt\u00edng": 100000000,
                "thread_count": 8,
                "config": "{\"__llconfig__\": true, \"k\": 31, \"key_bits\": 38, \"value_bits\": 32, \"bucket_count\": 33333334, \"bucket_size\": 4, \"value_module\": {\"__llvaluefunctions__\": true, \"module\": \"gecocoo.valuemodules.default.counting\", \"parameters\": []}, \"hash_functions\": [{\"__llhashfunction__\": true, \"name\": \"gecocoo.hashing.xorlinear.xorlinear\", \"seed\": 7917581148088593104, \"parameters\": []}, {\"__llhashfunction__\": true, \"name\": \"gecocoo.hashing.xorlinear.xorlinear\", \"seed\": 11073655119187666774, \"parameters\": []}, {\"__llhashfunction__\": true, \"name\": \"gecocoo.hashing.xorlinear.xorlinear\", \"seed\": 17808957405587792678, \"parameters\": []}], \"storage\": {\"__llstorageconfig__\": true, \"mode\": \"BUCKETS\", \"concurrent\": true, \"disable_quotienting\": false}}"
            },
            "options": {
                "disable_gc": false,
                "timer": "perf_counter",
                "min_rounds": 5,
                "max_time": 1.0,
                "min_time": 5e-06,
                "warmup": false
            },
            "stats": {
                "min": 3.0866551799699664,
                "max": 3.2826095786876976,
                "mean": 3.138215526007116,
                "stddev": 0.08127624794517344,
                "rounds": 5,
                "median": 3.106866762973368,
                "iqr": 0.055883551482111216,
                "q1": 3.0988211097428575,
                "q3": 3.1547046612249687,
                "iqr_outliers": 1,
                "stddev_outliers": 1,
                "outliers": "1;1",
                "ld15iqr": 3.0866551799699664,
                "hd15iqr": 3.2826095786876976,
                "ops": 0.31865242897206053,
                "total": 15.69107763003558,
                "data": [
                    3.2826095786876976,
                    3.0866551799699664,
                    3.1028764196671546,
                    3.106866762973368,
                    3.1120696887373924
                ],
                "iterations": 1
            }
        },
        {
            "group": "searching",
            "name": "search",
            "fullname": "bench_operations.py::test_cost_optimal",
            "params": null,
            "param": null,
            "extra_info": {
                "key_count": 100000000,
                "search_missing": 100000000,
                "search_hitt\u00edng": 0,
                "thread_count": 8,
                "config": "{\"__llconfig__\": true, \"k\": 31, \"key_bits\": 38, \"value_bits\": 32, \"bucket_count\": 33333334, \"bucket_size\": 4, \"value_module\": {\"__llvaluefunctions__\": true, \"module\": \"gecocoo.valuemodules.default.counting\", \"parameters\": []}, \"hash_functions\": [{\"__llhashfunction__\": true, \"name\": \"gecocoo.hashing.xorlinear.xorlinear\", \"seed\": 7917581148088593104, \"parameters\": []}, {\"__llhashfunction__\": true, \"name\": \"gecocoo.hashing.xorlinear.xorlinear\", \"seed\": 11073655119187666774, \"parameters\": []}, {\"__llhashfunction__\": true, \"name\": \"gecocoo.hashing.xorlinear.xorlinear\", \"seed\": 17808957405587792678, \"parameters\": []}], \"storage\": {\"__llstorageconfig__\": true, \"mode\": \"BUCKETS\", \"concurrent\": true, \"disable_quotienting\": false}}"
            },
            "options": {
                "disable_gc": false,
                "timer": "perf_counter",
                "min_rounds": 5,
                "max_time": 1.0,
                "min_time": 5e-06,
                "warmup": false
            },
            "stats": {
                "min": 7.546527246013284,
                "max": 7.728780115954578,
                "mean": 7.585742312017828,
                "stddev": 0.08000393540672839,
                "rounds": 5,
                "median": 7.551480961963534,
                "iqr": 0.049183553201146424,
                "q1": 7.548042857204564,
                "q3": 7.59722641040571,
                "iqr_outliers": 1,
                "stddev_outliers": 1,
                "outliers": "1;1",
                "ld15iqr": 7.546527246013284,
                "hd15iqr": 7.728780115954578,
                "ops": 0.13182625494880504,
                "total": 37.92871156008914,
                "data": [
                    7.728780115954578,
                    7.548548060934991,
                    7.5533751752227545,
                    7.546527246013284,
                    7.551480961963534
                ],
                "iterations": 1
            }
        },
        {
            "group": "searching",
            "name": "search",
            "fullname": "bench_operations.py::test_cost_optimal",
            "params": null,
            "param": null,
            "extra_info": {
                "key_count": 100000000,
                "search_missing": 0,
                "search_hitt\u00edng": 1000000,
                "thread_count": 16,
                "config": "{\"__llconfig__\": true, \"k\": 31, \"key_bits\": 38, \"value_bits\": 32, \"bucket_count\": 33333334, \"bucket_size\": 4, \"value_module\": {\"__llvaluefunctions__\": true, \"module\": \"gecocoo.valuemodules.default.counting\", \"parameters\": []}, \"hash_functions\": [{\"__llhashfunction__\": true, \"name\": \"gecocoo.hashing.xorlinear.xorlinear\", \"seed\": 7917581148088593104, \"parameters\": []}, {\"__llhashfunction__\": true, \"name\": \"gecocoo.hashing.xorlinear.xorlinear\", \"seed\": 11073655119187666774, \"parameters\": []}, {\"__llhashfunction__\": true, \"name\": \"gecocoo.hashing.xorlinear.xorlinear\", \"seed\": 17808957405587792678, \"parameters\": []}], \"storage\": {\"__llstorageconfig__\": true, \"mode\": \"BUCKETS\", \"concurrent\": true, \"disable_quotienting\": false}}"
            },
            "options": {
                "disable_gc": false,
                "timer": "perf_counter",
                "min_rounds": 5,
                "max_time": 1.0,
                "min_time": 5e-06,
                "warmup": false
            },
            "stats": {
                "min": 0.026197672355920076,
                "max": 0.2114790417253971,
                "mean": 0.06369959972798825,
                "stddev": 0.08261185663947058,
                "rounds": 5,
                "median": 0.026953948196023703,
                "iqr": 0.046409365138970315,
                "q1": 0.026705157826654613,
                "q3": 0.07311452296562493,
                "iqr_outliers": 1,
                "stddev_outliers": 1,
                "outliers": "1;1",
                "ld15iqr": 0.026197672355920076,
                "hd15iqr": 0.2114790417253971,
                "ops": 15.698685773069643,
                "total": 0.3184979986399412,
                "data": [
                    0.2114790417253971,
                    0.026874319650232792,
                    0.026993016712367535,
                    0.026197672355920076,
                    0.026953948196023703
                ],
                "iterations": 1
            }
        },
        {
            "group": "searching",
            "name": "search",
            "fullname": "bench_operations.py::test_cost_optimal",
            "params": null,
            "param": null,
            "extra_info": {
                "key_count": 100000000,
                "search_missing": 1000000,
                "search_hitt\u00edng": 0,
                "thread_count": 16,
                "config": "{\"__llconfig__\": true, \"k\": 31, \"key_bits\": 38, \"value_bits\": 32, \"bucket_count\": 33333334, \"bucket_size\": 4, \"value_module\": {\"__llvaluefunctions__\": true, \"module\": \"gecocoo.valuemodules.default.counting\", \"parameters\": []}, \"hash_functions\": [{\"__llhashfunction__\": true, \"name\": \"gecocoo.hashing.xorlinear.xorlinear\", \"seed\": 7917581148088593104, \"parameters\": []}, {\"__llhashfunction__\": true, \"name\": \"gecocoo.hashing.xorlinear.xorlinear\", \"seed\": 11073655119187666774, \"parameters\": []}, {\"__llhashfunction__\": true, \"name\": \"gecocoo.hashing.xorlinear.xorlinear\", \"seed\": 17808957405587792678, \"parameters\": []}], \"storage\": {\"__llstorageconfig__\": true, \"mode\": \"BUCKETS\", \"concurrent\": true, \"disable_quotienting\": false}}"
            },
            "options": {
                "disable_gc": false,
                "timer": "perf_counter",
                "min_rounds": 5,
                "max_time": 1.0,
                "min_time": 5e-06,
                "warmup": false
            },
            "stats": {
                "min": 0.056405282113701105,
                "max": 0.27183819096535444,
                "mean": 0.10606353292241692,
                "stddev": 0.09279587827479853,
                "rounds": 5,
                "median": 0.06773138279095292,
                "iqr": 0.055559228640049696,
                "q1": 0.06362937309313565,
                "q3": 0.11918860173318535,
                "iqr_outliers": 1,
                "stddev_outliers": 1,
                "outliers": "1;1",
                "ld15iqr": 0.056405282113701105,
                "hd15iqr": 0.27183819096535444,
                "ops": 9.428311243709723,
                "total": 0.5303176646120846,
                "data": [
                    0.27183819096535444,
                    0.06830540532246232,
                    0.06603740341961384,
                    0.06773138279095292,
                    0.056405282113701105
                ],
                "iterations": 1
            }
        },
        {
            "group": "searching",
            "name": "search",
            "fullname": "bench_operations.py::test_cost_optimal",
            "params": null,
            "param": null,
            "extra_info": {
                "key_count": 100000000,
                "search_missing": 0,
                "search_hitt\u00edng": 10000000,
                "thread_count": 16,
                "config": "{\"__llconfig__\": true, \"k\": 31, \"key_bits\": 38, \"value_bits\": 32, \"bucket_count\": 33333334, \"bucket_size\": 4, \"value_module\": {\"__llvaluefunctions__\": true, \"module\": \"gecocoo.valuemodules.default.counting\", \"parameters\": []}, \"hash_functions\": [{\"__llhashfunction__\": true, \"name\": \"gecocoo.hashing.xorlinear.xorlinear\", \"seed\": 7917581148088593104, \"parameters\": []}, {\"__llhashfunction__\": true, \"name\": \"gecocoo.hashing.xorlinear.xorlinear\", \"seed\": 11073655119187666774, \"parameters\": []}, {\"__llhashfunction__\": true, \"name\": \"gecocoo.hashing.xorlinear.xorlinear\", \"seed\": 17808957405587792678, \"parameters\": []}], \"storage\": {\"__llstorageconfig__\": true, \"mode\": \"BUCKETS\", \"concurrent\": true, \"disable_quotienting\": false}}"
            },
            "options": {
                "disable_gc": false,
                "timer": "perf_counter",
                "min_rounds": 5,
                "max_time": 1.0,
                "min_time": 5e-06,
                "warmup": false
            },
            "stats": {
                "min": 0.22431008191779256,
                "max": 0.40693736309185624,
                "mean": 0.26214877106249335,
                "stddev": 0.08094929974564469,
                "rounds": 5,
                "median": 0.22621384589001536,
                "iqr": 0.047422544681467116,
                "q1": 0.22517561994027346,
                "q3": 0.2725981646217406,
                "iqr_outliers": 1,
                "stddev_outliers": 1,
                "outliers": "1;1",
                "ld15iqr": 0.22431008191779256,
                "hd15iqr": 0.40693736309185624,
                "ops": 3.8146278387916275,
                "total": 1.3107438553124666,
                "data": [
                    0.40693736309185624,
                    0.2278184317983687,
                    0.22431008191779256,
                    0.22546413261443377,
                    0.22621384589001536
                ],
                "iterations": 1
            }
        },
        {
            "group": "searching",
            "name": "search",
            "fullname": "bench_operations.py::test_cost_optimal",
            "params": null,
            "param": null,
            "extra_info": {
                "key_count": 100000000,
                "search_missing": 10000000,
                "search_hitt\u00edng": 0,
                "thread_count": 16,
                "config": "{\"__llconfig__\": true, \"k\": 31, \"key_bits\": 38, \"value_bits\": 32, \"bucket_count\": 33333334, \"bucket_size\": 4, \"value_module\": {\"__llvaluefunctions__\": true, \"module\": \"gecocoo.valuemodules.default.counting\", \"parameters\": []}, \"hash_functions\": [{\"__llhashfunction__\": true, \"name\": \"gecocoo.hashing.xorlinear.xorlinear\", \"seed\": 7917581148088593104, \"parameters\": []}, {\"__llhashfunction__\": true, \"name\": \"gecocoo.hashing.xorlinear.xorlinear\", \"seed\": 11073655119187666774, \"parameters\": []}, {\"__llhashfunction__\": true, \"name\": \"gecocoo.hashing.xorlinear.xorlinear\", \"seed\": 17808957405587792678, \"parameters\": []}], \"storage\": {\"__llstorageconfig__\": true, \"mode\": \"BUCKETS\", \"concurrent\": true, \"disable_quotienting\": false}}"
            },
            "options": {
                "disable_gc": false,
                "timer": "perf_counter",
                "min_rounds": 5,
                "max_time": 1.0,
                "min_time": 5e-06,
                "warmup": false
            },
            "stats": {
                "min": 0.5112047730945051,
                "max": 0.7223325571976602,
                "mean": 0.5642042408697308,
                "stddev": 0.08899224520581084,
                "rounds": 5,
                "median": 0.523733866866678,
                "iqr": 0.06518579786643386,
                "q1": 0.5205055200494826,
                "q3": 0.5856913179159164,
                "iqr_outliers": 1,
                "stddev_outliers": 1,
                "outliers": "1;1",
                "ld15iqr": 0.5112047730945051,
                "hd15iqr": 0.7223325571976602,
                "ops": 1.7724078047667322,
                "total": 2.8210212043486536,
                "data": [
                    0.7223325571976602,
                    0.5401442381553352,
                    0.5112047730945051,
                    0.523733866866678,
                    0.5236057690344751
                ],
                "iterations": 1
            }
        },
        {
            "group": "searching",
            "name": "search",
            "fullname": "bench_operations.py::test_cost_optimal",
            "params": null,
            "param": null,
            "extra_info": {
                "key_count": 100000000,
                "search_missing": 0,
                "search_hitt\u00edng": 100000000,
                "thread_count": 16,
                "config": "{\"__llconfig__\": true, \"k\": 31, \"key_bits\": 38, \"value_bits\": 32, \"bucket_count\": 33333334, \"bucket_size\": 4, \"value_module\": {\"__llvaluefunctions__\": true, \"module\": \"gecocoo.valuemodules.default.counting\", \"parameters\": []}, \"hash_functions\": [{\"__llhashfunction__\": true, \"name\": \"gecocoo.hashing.xorlinear.xorlinear\", \"seed\": 7917581148088593104, \"parameters\": []}, {\"__llhashfunction__\": true, \"name\": \"gecocoo.hashing.xorlinear.xorlinear\", \"seed\": 11073655119187666774, \"parameters\": []}, {\"__llhashfunction__\": true, \"name\": \"gecocoo.hashing.xorlinear.xorlinear\", \"seed\": 17808957405587792678, \"parameters\": []}], \"storage\": {\"__llstorageconfig__\": true, \"mode\": \"BUCKETS\", \"concurrent\": true, \"disable_quotienting\": false}}"
            },
            "options": {
                "disable_gc": false,
                "timer": "perf_counter",
                "min_rounds": 5,
                "max_time": 1.0,
                "min_time": 5e-06,
                "warmup": false
            },
            "stats": {
                "min": 1.57132220081985,
                "max": 2.302533176727593,
                "mean": 1.9608482515439392,
                "stddev": 0.2896009878235564,
                "rounds": 5,
                "median": 2.078094294294715,
                "iqr": 0.421959012048319,
                "q1": 1.7178617608733475,
                "q3": 2.1398207729216665,
                "iqr_outliers": 0,
                "stddev_outliers": 2,
                "outliers": "2;0",
                "ld15iqr": 1.57132220081985,
                "hd15iqr": 2.302533176727593,
                "ops": 0.509983370315687,
                "total": 9.804241257719696,
                "data": [
                    2.302533176727593,
                    1.76670828089118,
                    2.0855833049863577,
                    2.078094294294715,
                    1.57132220081985
                ],
                "iterations": 1
            }
        },
        {
            "group": "searching",
            "name": "search",
            "fullname": "bench_operations.py::test_cost_optimal",
            "params": null,
            "param": null,
            "extra_info": {
                "key_count": 100000000,
                "search_missing": 100000000,
                "search_hitt\u00edng": 0,
                "thread_count": 16,
                "config": "{\"__llconfig__\": true, \"k\": 31, \"key_bits\": 38, \"value_bits\": 32, \"bucket_count\": 33333334, \"bucket_size\": 4, \"value_module\": {\"__llvaluefunctions__\": true, \"module\": \"gecocoo.valuemodules.default.counting\", \"parameters\": []}, \"hash_functions\": [{\"__llhashfunction__\": true, \"name\": \"gecocoo.hashing.xorlinear.xorlinear\", \"seed\": 7917581148088593104, \"parameters\": []}, {\"__llhashfunction__\": true, \"name\": \"gecocoo.hashing.xorlinear.xorlinear\", \"seed\": 11073655119187666774, \"parameters\": []}, {\"__llhashfunction__\": true, \"name\": \"gecocoo.hashing.xorlinear.xorlinear\", \"seed\": 17808957405587792678, \"parameters\": []}], \"storage\": {\"__llstorageconfig__\": true, \"mode\": \"BUCKETS\", \"concurrent\": true, \"disable_quotienting\": false}}"
            },
            "options": {
                "disable_gc": false,
                "timer": "perf_counter",
                "min_rounds": 5,
                "max_time": 1.0,
                "min_time": 5e-06,
                "warmup": false
            },
            "stats": {
                "min": 3.815070957876742,
                "max": 5.003768069203943,
                "mean": 4.531807424221188,
                "stddev": 0.4547734583324063,
                "rounds": 5,
                "median": 4.527860000729561,
                "iqr": 0.5567010956583545,
                "q1": 4.316131115541793,
                "q3": 4.872832211200148,
                "iqr_outliers": 0,
                "stddev_outliers": 2,
                "outliers": "2;0",
                "ld15iqr": 3.815070957876742,
                "hd15iqr": 5.003768069203943,
                "ops": 0.22066250976493218,
                "total": 22.65903712110594,
                "data": [
                    5.003768069203943,
                    3.815070957876742,
                    4.483151168096811,
                    4.829186925198883,
                    4.527860000729561
                ],
                "iterations": 1
            }
        }
    ],
    "datetime": "2021-03-06T19:27:53.633198",
    "version": "3.2.3"
}