{
    "machine_info": {
        "node": "cstd01-075",
        "processor": "x86_64",
        "machine": "x86_64",
        "python_compiler": "GCC 7.3.0",
        "python_implementation": "CPython",
        "python_implementation_version": "3.7.9",
        "python_version": "3.7.9",
        "python_build": [
            "default",
            "Aug 31 2020 12:42:55"
        ],
        "release": "3.10.0-1160.6.1.el7.x86_64",
        "system": "Linux",
        "cpu": {
            "vendor_id": "unknown",
            "hardware": "unknown",
            "brand": "unknown"
        }
    },
    "commit_info": {
        "id": "unversioned",
        "time": null,
        "author_time": null,
        "dirty": false,
        "project": "gecocoo-2021-03-06T20_04_12.073701-origin_develop",
        "branch": "(unknown)"
    },
    "benchmarks": [
        {
            "group": "inserting",
            "name": "insert",
            "fullname": "bench_operations.py::test_cost_optimal",
            "params": null,
            "param": null,
            "extra_info": {
                "key_count": 100000000,
                "thread_count": 1,
                "config": "{\"__llconfig__\": true, \"k\": 31, \"key_bits\": 39, \"value_bits\": 32, \"bucket_count\": 12886598, \"bucket_size\": 8, \"value_module\": {\"__llvaluefunctions__\": true, \"module\": \"gecocoo.valuemodules.default.counting\", \"parameters\": []}, \"hash_functions\": [{\"__llhashfunction__\": true, \"name\": \"gecocoo.hashing.xorlinear.xorlinear\", \"seed\": 8516705601423383816, \"parameters\": []}, {\"__llhashfunction__\": true, \"name\": \"gecocoo.hashing.xorlinear.xorlinear\", \"seed\": 13864199452335395664, \"parameters\": []}], \"storage\": {\"__llstorageconfig__\": true, \"mode\": \"BUCKETS\", \"concurrent\": true, \"disable_quotienting\": false}}"
            },
            "options": {
                "disable_gc": false,
                "timer": "perf_counter",
                "min_rounds": 5,
                "max_time": 1.0,
                "min_time": 5e-06,
                "warmup": false
            },
            "stats": {
                "min": 856.9455536301248,
                "max": 856.9455536301248,
                "mean": 856.9455536301248,
                "stddev": 0,
                "rounds": 1,
                "median": 856.9455536301248,
                "iqr": 0.0,
                "q1": 856.9455536301248,
                "q3": 856.9455536301248,
                "iqr_outliers": 0,
                "stddev_outliers": 0,
                "outliers": "0;0",
                "ld15iqr": 856.9455536301248,
                "hd15iqr": 856.9455536301248,
                "ops": 0.0011669352805016367,
                "total": 856.9455536301248,
                "data": [
                    856.9455536301248
                ],
                "iterations": 1
            }
        },
        {
            "group": "searching",
            "name": "search",
            "fullname": "bench_operations.py::test_cost_optimal",
            "params": null,
            "param": null,
            "extra_info": {
                "key_count": 100000000,
                "search_missing": 0,
                "search_hitt\u00edng": 1000000,
                "thread_count": 1,
                "config": "{\"__llconfig__\": true, \"k\": 31, \"key_bits\": 39, \"value_bits\": 32, \"bucket_count\": 12886598, \"bucket_size\": 8, \"value_module\": {\"__llvaluefunctions__\": true, \"module\": \"gecocoo.valuemodules.default.counting\", \"parameters\": []}, \"hash_functions\": [{\"__llhashfunction__\": true, \"name\": \"gecocoo.hashing.xorlinear.xorlinear\", \"seed\": 8516705601423383816, \"parameters\": []}, {\"__llhashfunction__\": true, \"name\": \"gecocoo.hashing.xorlinear.xorlinear\", \"seed\": 13864199452335395664, \"parameters\": []}], \"storage\": {\"__llstorageconfig__\": true, \"mode\": \"BUCKETS\", \"concurrent\": true, \"disable_quotienting\": false}}"
            },
            "options": {
                "disable_gc": false,
                "timer": "perf_counter",
                "min_rounds": 5,
                "max_time": 1.0,
                "min_time": 5e-06,
                "warmup": false
            },
            "stats": {
                "min": 0.175617597065866,
                "max": 0.3379654046148062,
                "mean": 0.2081831084564328,
                "stddev": 0.07255070341230378,
                "rounds": 5,
                "median": 0.17568998085334897,
                "iqr": 0.04089085350278765,
                "q1": 0.1756184083642438,
                "q3": 0.21650926186703146,
                "iqr_outliers": 1,
                "stddev_outliers": 1,
                "outliers": "1;1",
                "ld15iqr": 0.175617597065866,
                "hd15iqr": 0.3379654046148062,
                "ops": 4.803463678751215,
                "total": 1.040915542282164,
                "data": [
                    0.3379654046148062,
                    0.17602388095110655,
                    0.17568998085334897,
                    0.1756186787970364,
                    0.175617597065866
                ],
                "iterations": 1
            }
        },
        {
            "group": "searching",
            "name": "search",
            "fullname": "bench_operations.py::test_cost_optimal",
            "params": null,
            "param": null,
            "extra_info": {
                "key_count": 100000000,
                "search_missing": 1000000,
                "search_hitt\u00edng": 0,
                "thread_count": 1,
                "config": "{\"__llconfig__\": true, \"k\": 31, \"key_bits\": 39, \"value_bits\": 32, \"bucket_count\": 12886598, \"bucket_size\": 8, \"value_module\": {\"__llvaluefunctions__\": true, \"module\": \"gecocoo.valuemodules.default.counting\", \"parameters\": []}, \"hash_functions\": [{\"__llhashfunction__\": true, \"name\": \"gecocoo.hashing.xorlinear.xorlinear\", \"seed\": 8516705601423383816, \"parameters\": []}, {\"__llhashfunction__\": true, \"name\": \"gecocoo.hashing.xorlinear.xorlinear\", \"seed\": 13864199452335395664, \"parameters\": []}], \"storage\": {\"__llstorageconfig__\": true, \"mode\": \"BUCKETS\", \"concurrent\": true, \"disable_quotienting\": false}}"
            },
            "options": {
                "disable_gc": false,
                "timer": "perf_counter",
                "min_rounds": 5,
                "max_time": 1.0,
                "min_time": 5e-06,
                "warmup": false
            },
            "stats": {
                "min": 0.3015943802893162,
                "max": 0.4605679060332477,
                "mean": 0.33348808251321316,
                "stddev": 0.0710398749864507,
                "rounds": 5,
                "median": 0.3017683560028672,
                "iqr": 0.03993571363389492,
                "q1": 0.30161859281361103,
                "q3": 0.34155430644750595,
                "iqr_outliers": 1,
                "stddev_outliers": 1,
                "outliers": "1;1",
                "ld15iqr": 0.3015943802893162,
                "hd15iqr": 0.4605679060332477,
                "ops": 2.998607903658383,
                "total": 1.6674404125660658,
                "data": [
                    0.4605679060332477,
                    0.3017683560028672,
                    0.30162666365504265,
                    0.3015943802893162,
                    0.30188310658559203
                ],
                "iterations": 1
            }
        },
        {
            "group": "searching",
            "name": "search",
            "fullname": "bench_operations.py::test_cost_optimal",
            "params": null,
            "param": null,
            "extra_info": {
                "key_count": 100000000,
                "search_missing": 0,
                "search_hitt\u00edng": 10000000,
                "thread_count": 1,
                "config": "{\"__llconfig__\": true, \"k\": 31, \"key_bits\": 39, \"value_bits\": 32, \"bucket_count\": 12886598, \"bucket_size\": 8, \"value_module\": {\"__llvaluefunctions__\": true, \"module\": \"gecocoo.valuemodules.default.counting\", \"parameters\": []}, \"hash_functions\": [{\"__llhashfunction__\": true, \"name\": \"gecocoo.hashing.xorlinear.xorlinear\", \"seed\": 8516705601423383816, \"parameters\": []}, {\"__llhashfunction__\": true, \"name\": \"gecocoo.hashing.xorlinear.xorlinear\", \"seed\": 13864199452335395664, \"parameters\": []}], \"storage\": {\"__llstorageconfig__\": true, \"mode\": \"BUCKETS\", \"concurrent\": true, \"disable_quotienting\": false}}"
            },
            "options": {
                "disable_gc": false,
                "timer": "perf_counter",
                "min_rounds": 5,
                "max_time": 1.0,
                "min_time": 5e-06,
                "warmup": false
            },
            "stats": {
                "min": 1.7527180099859834,
                "max": 1.9125572317279875,
                "mean": 1.784835404716432,
                "stddev": 0.0713987645798025,
                "rounds": 5,
                "median": 1.7529930518940091,
                "iqr": 0.04003755212761462,
                "q1": 1.7528564028907567,
                "q3": 1.7928939550183713,
                "iqr_outliers": 1,
                "stddev_outliers": 1,
                "outliers": "1;1",
                "ld15iqr": 1.7527180099859834,
                "hd15iqr": 1.9125572317279875,
                "ops": 0.5602757527991082,
                "total": 8.92417702358216,
                "data": [
                    1.9125572317279875,
                    1.7529930518940091,
                    1.753006196115166,
                    1.7529025338590145,
                    1.7527180099859834
                ],
                "iterations": 1
            }
        },
        {
            "group": "searching",
            "name": "search",
            "fullname": "bench_operations.py::test_cost_optimal",
            "params": null,
            "param": null,
            "extra_info": {
                "key_count": 100000000,
                "search_missing": 10000000,
                "search_hitt\u00edng": 0,
                "thread_count": 1,
                "config": "{\"__llconfig__\": true, \"k\": 31, \"key_bits\": 39, \"value_bits\": 32, \"bucket_count\": 12886598, \"bucket_size\": 8, \"value_module\": {\"__llvaluefunctions__\": true, \"module\": \"gecocoo.valuemodules.default.counting\", \"parameters\": []}, \"hash_functions\": [{\"__llhashfunction__\": true, \"name\": \"gecocoo.hashing.xorlinear.xorlinear\", \"seed\": 8516705601423383816, \"parameters\": []}, {\"__llhashfunction__\": true, \"name\": \"gecocoo.hashing.xorlinear.xorlinear\", \"seed\": 13864199452335395664, \"parameters\": []}], \"storage\": {\"__llstorageconfig__\": true, \"mode\": \"BUCKETS\", \"concurrent\": true, \"disable_quotienting\": false}}"
            },
            "options": {
                "disable_gc": false,
                "timer": "perf_counter",
                "min_rounds": 5,
                "max_time": 1.0,
                "min_time": 5e-06,
                "warmup": false
            },
            "stats": {
                "min": 3.011818782892078,
                "max": 3.1710463822819293,
                "mean": 3.0439699702896177,
                "stddev": 0.07103958159417023,
                "rounds": 5,
                "median": 3.012056410778314,
                "iqr": 0.04067185986787081,
                "q1": 3.0118703190237284,
                "q3": 3.052542178891599,
                "iqr_outliers": 1,
                "stddev_outliers": 1,
                "outliers": "1;1",
                "ld15iqr": 3.011818782892078,
                "hd15iqr": 3.1710463822819293,
                "ops": 0.32851835259887774,
                "total": 15.219849851448089,
                "data": [
                    3.1710463822819293,
                    3.012056410778314,
                    3.0118874977342784,
                    3.011818782892078,
                    3.013040777761489
                ],
                "iterations": 1
            }
        },
        {
            "group": "searching",
            "name": "search",
            "fullname": "bench_operations.py::test_cost_optimal",
            "params": null,
            "param": null,
            "extra_info": {
                "key_count": 100000000,
                "search_missing": 0,
                "search_hitt\u00edng": 100000000,
                "thread_count": 1,
                "config": "{\"__llconfig__\": true, \"k\": 31, \"key_bits\": 39, \"value_bits\": 32, \"bucket_count\": 12886598, \"bucket_size\": 8, \"value_module\": {\"__llvaluefunctions__\": true, \"module\": \"gecocoo.valuemodules.default.counting\", \"parameters\": []}, \"hash_functions\": [{\"__llhashfunction__\": true, \"name\": \"gecocoo.hashing.xorlinear.xorlinear\", \"seed\": 8516705601423383816, \"parameters\": []}, {\"__llhashfunction__\": true, \"name\": \"gecocoo.hashing.xorlinear.xorlinear\", \"seed\": 13864199452335395664, \"parameters\": []}], \"storage\": {\"__llstorageconfig__\": true, \"mode\": \"BUCKETS\", \"concurrent\": true, \"disable_quotienting\": false}}"
            },
            "options": {
                "disable_gc": false,
                "timer": "perf_counter",
                "min_rounds": 5,
                "max_time": 1.0,
                "min_time": 5e-06,
                "warmup": false
            },
            "stats": {
                "min": 17.529491710010916,
                "max": 17.6921953917481,
                "mean": 17.566752970870585,
                "stddev": 0.0703997141932197,
                "rounds": 5,
                "median": 17.53814628534019,
                "iqr": 0.051666686427779496,
                "q1": 17.52960184472613,
                "q3": 17.58126853115391,
                "iqr_outliers": 1,
                "stddev_outliers": 1,
                "outliers": "1;1",
                "ld15iqr": 17.529491710010916,
                "hd15iqr": 17.6921953917481,
                "ops": 0.056925716531576034,
                "total": 87.83376485435292,
                "data": [
                    17.6921953917481,
                    17.53814628534019,
                    17.529491710010916,
                    17.52963855629787,
                    17.544292910955846
                ],
                "iterations": 1
            }
        },
        {
            "group": "searching",
            "name": "search",
            "fullname": "bench_operations.py::test_cost_optimal",
            "params": null,
            "param": null,
            "extra_info": {
                "key_count": 100000000,
                "search_missing": 100000000,
                "search_hitt\u00edng": 0,
                "thread_count": 1,
                "config": "{\"__llconfig__\": true, \"k\": 31, \"key_bits\": 39, \"value_bits\": 32, \"bucket_count\": 12886598, \"bucket_size\": 8, \"value_module\": {\"__llvaluefunctions__\": true, \"module\": \"gecocoo.valuemodules.default.counting\", \"parameters\": []}, \"hash_functions\": [{\"__llhashfunction__\": true, \"name\": \"gecocoo.hashing.xorlinear.xorlinear\", \"seed\": 8516705601423383816, \"parameters\": []}, {\"__llhashfunction__\": true, \"name\": \"gecocoo.hashing.xorlinear.xorlinear\", \"seed\": 13864199452335395664, \"parameters\": []}], \"storage\": {\"__llstorageconfig__\": true, \"mode\": \"BUCKETS\", \"concurrent\": true, \"disable_quotienting\": false}}"
            },
            "options": {
                "disable_gc": false,
                "timer": "perf_counter",
                "min_rounds": 5,
                "max_time": 1.0,
                "min_time": 5e-06,
                "warmup": false
            },
            "stats": {
                "min": 30.088414929807186,
                "max": 30.388743192888796,
                "mean": 30.16408300595358,
                "stddev": 0.12630831445522003,
                "rounds": 5,
                "median": 30.11820366187021,
                "iqr": 0.08994146878831089,
                "q1": 30.099068997893482,
                "q3": 30.189010466681793,
                "iqr_outliers": 1,
                "stddev_outliers": 1,
                "outliers": "1;1",
                "ld15iqr": 30.088414929807186,
                "hd15iqr": 30.388743192888796,
                "ops": 0.03315201061483045,
                "total": 150.8204150297679,
                "data": [
                    30.388743192888796,
                    30.12243289127946,
                    30.088414929807186,
                    30.11820366187021,
                    30.102620353922248
                ],
                "iterations": 1
            }
        },
        {
            "group": "searching",
            "name": "search",
            "fullname": "bench_operations.py::test_cost_optimal",
            "params": null,
            "param": null,
            "extra_info": {
                "key_count": 100000000,
                "search_missing": 0,
                "search_hitt\u00edng": 1000000,
                "thread_count": 4,
                "config": "{\"__llconfig__\": true, \"k\": 31, \"key_bits\": 39, \"value_bits\": 32, \"bucket_count\": 12886598, \"bucket_size\": 8, \"value_module\": {\"__llvaluefunctions__\": true, \"module\": \"gecocoo.valuemodules.default.counting\", \"parameters\": []}, \"hash_functions\": [{\"__llhashfunction__\": true, \"name\": \"gecocoo.hashing.xorlinear.xorlinear\", \"seed\": 8516705601423383816, \"parameters\": []}, {\"__llhashfunction__\": true, \"name\": \"gecocoo.hashing.xorlinear.xorlinear\", \"seed\": 13864199452335395664, \"parameters\": []}], \"storage\": {\"__llstorageconfig__\": true, \"mode\": \"BUCKETS\", \"concurrent\": true, \"disable_quotienting\": false}}"
            },
            "options": {
                "disable_gc": false,
                "timer": "perf_counter",
                "min_rounds": 5,
                "max_time": 1.0,
                "min_time": 5e-06,
                "warmup": false
            },
            "stats": {
                "min": 0.045940587762743235,
                "max": 0.20171518716961145,
                "mean": 0.07713299710303545,
                "stddev": 0.06964358420618,
                "rounds": 5,
                "median": 0.04596477700397372,
                "iqr": 0.03903583891224116,
                "q1": 0.04595571500249207,
                "q3": 0.08499155391473323,
                "iqr_outliers": 1,
                "stddev_outliers": 1,
                "outliers": "1;1",
                "ld15iqr": 0.045940587762743235,
                "hd15iqr": 0.20171518716961145,
                "ops": 12.96462004016497,
                "total": 0.38566498551517725,
                "data": [
                    0.20171518716961145,
                    0.04608367616310716,
                    0.04596075741574168,
                    0.045940587762743235,
                    0.04596477700397372
                ],
                "iterations": 1
            }
        },
        {
            "group": "searching",
            "name": "search",
            "fullname": "bench_operations.py::test_cost_optimal",
            "params": null,
            "param": null,
            "extra_info": {
                "key_count": 100000000,
                "search_missing": 1000000,
                "search_hitt\u00edng": 0,
                "thread_count": 4,
                "config": "{\"__llconfig__\": true, \"k\": 31, \"key_bits\": 39, \"value_bits\": 32, \"bucket_count\": 12886598, \"bucket_size\": 8, \"value_module\": {\"__llvaluefunctions__\": true, \"module\": \"gecocoo.valuemodules.default.counting\", \"parameters\": []}, \"hash_functions\": [{\"__llhashfunction__\": true, \"name\": \"gecocoo.hashing.xorlinear.xorlinear\", \"seed\": 8516705601423383816, \"parameters\": []}, {\"__llhashfunction__\": true, \"name\": \"gecocoo.hashing.xorlinear.xorlinear\", \"seed\": 13864199452335395664, \"parameters\": []}], \"storage\": {\"__llstorageconfig__\": true, \"mode\": \"BUCKETS\", \"concurrent\": true, \"disable_quotienting\": false}}"
            },
            "options": {
                "disable_gc": false,
                "timer": "perf_counter",
                "min_rounds": 5,
                "max_time": 1.0,
                "min_time": 5e-06,
                "warmup": false
            },
            "stats": {
                "min": 0.08043158007785678,
                "max": 0.23570216400548816,
                "mean": 0.12218990288674832,
                "stddev": 0.06611475150981226,
                "rounds": 5,
                "median": 0.08887982740998268,
                "iqr": 0.07248127041384578,
                "q1": 0.08050206140615046,
                "q3": 0.15298333181999624,
                "iqr_outliers": 0,
                "stddev_outliers": 1,
                "outliers": "1;0",
                "ld15iqr": 0.08043158007785678,
                "hd15iqr": 0.23570216400548816,
                "ops": 8.183982279835755,
                "total": 0.6109495144337416,
                "data": [
                    0.23570216400548816,
                    0.1254103877581656,
                    0.08887982740998268,
                    0.08052555518224835,
                    0.08043158007785678
                ],
                "iterations": 1
            }
        },
        {
            "group": "searching",
            "name": "search",
            "fullname": "bench_operations.py::test_cost_optimal",
            "params": null,
            "param": null,
            "extra_info": {
                "key_count": 100000000,
                "search_missing": 0,
                "search_hitt\u00edng": 10000000,
                "thread_count": 4,
                "config": "{\"__llconfig__\": true, \"k\": 31, \"key_bits\": 39, \"value_bits\": 32, \"bucket_count\": 12886598, \"bucket_size\": 8, \"value_module\": {\"__llvaluefunctions__\": true, \"module\": \"gecocoo.valuemodules.default.counting\", \"parameters\": []}, \"hash_functions\": [{\"__llhashfunction__\": true, \"name\": \"gecocoo.hashing.xorlinear.xorlinear\", \"seed\": 8516705601423383816, \"parameters\": []}, {\"__llhashfunction__\": true, \"name\": \"gecocoo.hashing.xorlinear.xorlinear\", \"seed\": 13864199452335395664, \"parameters\": []}], \"storage\": {\"__llstorageconfig__\": true, \"mode\": \"BUCKETS\", \"concurrent\": true, \"disable_quotienting\": false}}"
            },
            "options": {
                "disable_gc": false,
                "timer": "perf_counter",
                "min_rounds": 5,
                "max_time": 1.0,
                "min_time": 5e-06,
                "warmup": false
            },
            "stats": {
                "min": 0.44948109798133373,
                "max": 0.6470902850851417,
                "mean": 0.492008460033685,
                "stddev": 0.08677430886763725,
                "rounds": 5,
                "median": 0.4565106970258057,
                "iqr": 0.05532825062982738,
                "q1": 0.44951738009694964,
                "q3": 0.504845630726777,
                "iqr_outliers": 1,
                "stddev_outliers": 1,
                "outliers": "1;1",
                "ld15iqr": 0.44948109798133373,
                "hd15iqr": 0.6470902850851417,
                "ops": 2.0324853762301887,
                "total": 2.460042300168425,
                "data": [
                    0.6470902850851417,
                    0.45743074594065547,
                    0.4565106970258057,
                    0.44948109798133373,
                    0.44952947413548827
                ],
                "iterations": 1
            }
        },
        {
            "group": "searching",
            "name": "search",
            "fullname": "bench_operations.py::test_cost_optimal",
            "params": null,
            "param": null,
            "extra_info": {
                "key_count": 100000000,
                "search_missing": 10000000,
                "search_hitt\u00edng": 0,
                "thread_count": 4,
                "config": "{\"__llconfig__\": true, \"k\": 31, \"key_bits\": 39, \"value_bits\": 32, \"bucket_count\": 12886598, \"bucket_size\": 8, \"value_module\": {\"__llvaluefunctions__\": true, \"module\": \"gecocoo.valuemodules.default.counting\", \"parameters\": []}, \"hash_functions\": [{\"__llhashfunction__\": true, \"name\": \"gecocoo.hashing.xorlinear.xorlinear\", \"seed\": 8516705601423383816, \"parameters\": []}, {\"__llhashfunction__\": true, \"name\": \"gecocoo.hashing.xorlinear.xorlinear\", \"seed\": 13864199452335395664, \"parameters\": []}], \"storage\": {\"__llstorageconfig__\": true, \"mode\": \"BUCKETS\", \"concurrent\": true, \"disable_quotienting\": false}}"
            },
            "options": {
                "disable_gc": false,
                "timer": "perf_counter",
                "min_rounds": 5,
                "max_time": 1.0,
                "min_time": 5e-06,
                "warmup": false
            },
            "stats": {
                "min": 0.7829147893935442,
                "max": 0.9381044306792319,
                "mean": 0.8233323439024389,
                "stddev": 0.06725361130053079,
                "rounds": 5,
                "median": 0.783162044826895,
                "iqr": 0.07378390128724277,
                "q1": 0.7829156223451719,
                "q3": 0.8566995236324146,
                "iqr_outliers": 0,
                "stddev_outliers": 1,
                "outliers": "1;0",
                "ld15iqr": 0.7829147893935442,
                "hd15iqr": 0.9381044306792319,
                "ops": 1.2145763583879021,
                "total": 4.116661719512194,
                "data": [
                    0.9381044306792319,
                    0.8295645546168089,
                    0.7829158999957144,
                    0.7829147893935442,
                    0.783162044826895
                ],
                "iterations": 1
            }
        },
        {
            "group": "searching",
            "name": "search",
            "fullname": "bench_operations.py::test_cost_optimal",
            "params": null,
            "param": null,
            "extra_info": {
                "key_count": 100000000,
                "search_missing": 0,
                "search_hitt\u00edng": 100000000,
                "thread_count": 4,
                "config": "{\"__llconfig__\": true, \"k\": 31, \"key_bits\": 39, \"value_bits\": 32, \"bucket_count\": 12886598, \"bucket_size\": 8, \"value_module\": {\"__llvaluefunctions__\": true, \"module\": \"gecocoo.valuemodules.default.counting\", \"parameters\": []}, \"hash_functions\": [{\"__llhashfunction__\": true, \"name\": \"gecocoo.hashing.xorlinear.xorlinear\", \"seed\": 8516705601423383816, \"parameters\": []}, {\"__llhashfunction__\": true, \"name\": \"gecocoo.hashing.xorlinear.xorlinear\", \"seed\": 13864199452335395664, \"parameters\": []}], \"storage\": {\"__llstorageconfig__\": true, \"mode\": \"BUCKETS\", \"concurrent\": true, \"disable_quotienting\": false}}"
            },
            "options": {
                "disable_gc": false,
                "timer": "perf_counter",
                "min_rounds": 5,
                "max_time": 1.0,
                "min_time": 5e-06,
                "warmup": false
            },
            "stats": {
                "min": 4.48356962390244,
                "max": 4.641426905058324,
                "mean": 4.523383351135999,
                "stddev": 0.06819788601552286,
                "rounds": 5,
                "median": 4.48433680087328,
                "iqr": 0.06931574235204607,
                "q1": 4.483810479636304,
                "q3": 4.55312622198835,
                "iqr_outliers": 0,
                "stddev_outliers": 1,
                "outliers": "1;0",
                "ld15iqr": 4.48356962390244,
                "hd15iqr": 4.641426905058324,
                "ops": 0.22107345815579854,
                "total": 22.616916755679995,
                "data": [
                    4.641426905058324,
                    4.483890764880925,
                    4.48356962390244,
                    4.48433680087328,
                    4.523692660965025
                ],
                "iterations": 1
            }
        },
        {
            "group": "searching",
            "name": "search",
            "fullname": "bench_operations.py::test_cost_optimal",
            "params": null,
            "param": null,
            "extra_info": {
                "key_count": 100000000,
                "search_missing": 100000000,
                "search_hitt\u00edng": 0,
                "thread_count": 4,
                "config": "{\"__llconfig__\": true, \"k\": 31, \"key_bits\": 39, \"value_bits\": 32, \"bucket_count\": 12886598, \"bucket_size\": 8, \"value_module\": {\"__llvaluefunctions__\": true, \"module\": \"gecocoo.valuemodules.default.counting\", \"parameters\": []}, \"hash_functions\": [{\"__llhashfunction__\": true, \"name\": \"gecocoo.hashing.xorlinear.xorlinear\", \"seed\": 8516705601423383816, \"parameters\": []}, {\"__llhashfunction__\": true, \"name\": \"gecocoo.hashing.xorlinear.xorlinear\", \"seed\": 13864199452335395664, \"parameters\": []}], \"storage\": {\"__llstorageconfig__\": true, \"mode\": \"BUCKETS\", \"concurrent\": true, \"disable_quotienting\": false}}"
            },
            "options": {
                "disable_gc": false,
                "timer": "perf_counter",
                "min_rounds": 5,
                "max_time": 1.0,
                "min_time": 5e-06,
                "warmup": false
            },
            "stats": {
                "min": 7.800739739090204,
                "max": 8.07671485375613,
                "mean": 7.981478051561862,
                "stddev": 0.11063335774354699,
                "rounds": 5,
                "median": 8.014609639998525,
                "iqr": 0.1421221769414842,
                "q1": 7.919367994996719,
                "q3": 8.061490171938203,
                "iqr_outliers": 0,
                "stddev_outliers": 1,
                "outliers": "1;0",
                "ld15iqr": 7.800739739090204,
                "hd15iqr": 8.07671485375613,
                "ops": 0.1252900770433509,
                "total": 39.90739025780931,
                "data": [
                    7.958910746965557,
                    7.800739739090204,
                    8.014609639998525,
                    8.056415277998894,
                    8.07671485375613
                ],
                "iterations": 1
            }
        },
        {
            "group": "searching",
            "name": "search",
            "fullname": "bench_operations.py::test_cost_optimal",
            "params": null,
            "param": null,
            "extra_info": {
                "key_count": 100000000,
                "search_missing": 0,
                "search_hitt\u00edng": 1000000,
                "thread_count": 8,
                "config": "{\"__llconfig__\": true, \"k\": 31, \"key_bits\": 39, \"value_bits\": 32, \"bucket_count\": 12886598, \"bucket_size\": 8, \"value_module\": {\"__llvaluefunctions__\": true, \"module\": \"gecocoo.valuemodules.default.counting\", \"parameters\": []}, \"hash_functions\": [{\"__llhashfunction__\": true, \"name\": \"gecocoo.hashing.xorlinear.xorlinear\", \"seed\": 8516705601423383816, \"parameters\": []}, {\"__llhashfunction__\": true, \"name\": \"gecocoo.hashing.xorlinear.xorlinear\", \"seed\": 13864199452335395664, \"parameters\": []}], \"storage\": {\"__llstorageconfig__\": true, \"mode\": \"BUCKETS\", \"concurrent\": true, \"disable_quotienting\": false}}"
            },
            "options": {
                "disable_gc": false,
                "timer": "perf_counter",
                "min_rounds": 5,
                "max_time": 1.0,
                "min_time": 5e-06,
                "warmup": false
            },
            "stats": {
                "min": 0.02786655491217971,
                "max": 0.18273705197498202,
                "mean": 0.06490059616044164,
                "stddev": 0.06603086692001842,
                "rounds": 5,
                "median": 0.0369226741604507,
                "iqr": 0.04117629490792751,
                "q1": 0.03460356581490487,
                "q3": 0.07577986072283238,
                "iqr_outliers": 1,
                "stddev_outliers": 1,
                "outliers": "1;1",
                "ld15iqr": 0.02786655491217971,
                "hd15iqr": 0.18273705197498202,
                "ops": 15.408178956136036,
                "total": 0.3245029808022082,
                "data": [
                    0.18273705197498202,
                    0.0401274636387825,
                    0.02786655491217971,
                    0.036849236115813255,
                    0.0369226741604507
                ],
                "iterations": 1
            }
        },
        {
            "group": "searching",
            "name": "search",
            "fullname": "bench_operations.py::test_cost_optimal",
            "params": null,
            "param": null,
            "extra_info": {
                "key_count": 100000000,
                "search_missing": 1000000,
                "search_hitt\u00edng": 0,
                "thread_count": 8,
                "config": "{\"__llconfig__\": true, \"k\": 31, \"key_bits\": 39, \"value_bits\": 32, \"bucket_count\": 12886598, \"bucket_size\": 8, \"value_module\": {\"__llvaluefunctions__\": true, \"module\": \"gecocoo.valuemodules.default.counting\", \"parameters\": []}, \"hash_functions\": [{\"__llhashfunction__\": true, \"name\": \"gecocoo.hashing.xorlinear.xorlinear\", \"seed\": 8516705601423383816, \"parameters\": []}, {\"__llhashfunction__\": true, \"name\": \"gecocoo.hashing.xorlinear.xorlinear\", \"seed\": 13864199452335395664, \"parameters\": []}], \"storage\": {\"__llstorageconfig__\": true, \"mode\": \"BUCKETS\", \"concurrent\": true, \"disable_quotienting\": false}}"
            },
            "options": {
                "disable_gc": false,
                "timer": "perf_counter",
                "min_rounds": 5,
                "max_time": 1.0,
                "min_time": 5e-06,
                "warmup": false
            },
            "stats": {
                "min": 0.051318824756890535,
                "max": 0.2021268173120916,
                "mean": 0.08789335498586297,
                "stddev": 0.06435735740086064,
                "rounds": 5,
                "median": 0.06729581486433744,
                "iqr": 0.04971313721034676,
                "q1": 0.05134613090194762,
                "q3": 0.10105926811229438,
                "iqr_outliers": 1,
                "stddev_outliers": 1,
                "outliers": "1;1",
                "ld15iqr": 0.051318824756890535,
                "hd15iqr": 0.2021268173120916,
                "ops": 11.37742438163662,
                "total": 0.43946677492931485,
                "data": [
                    0.2021268173120916,
                    0.06729581486433744,
                    0.05135523295029998,
                    0.0673700850456953,
                    0.051318824756890535
                ],
                "iterations": 1
            }
        },
        {
            "group": "searching",
            "name": "search",
            "fullname": "bench_operations.py::test_cost_optimal",
            "params": null,
            "param": null,
            "extra_info": {
                "key_count": 100000000,
                "search_missing": 0,
                "search_hitt\u00edng": 10000000,
                "thread_count": 8,
                "config": "{\"__llconfig__\": true, \"k\": 31, \"key_bits\": 39, \"value_bits\": 32, \"bucket_count\": 12886598, \"bucket_size\": 8, \"value_module\": {\"__llvaluefunctions__\": true, \"module\": \"gecocoo.valuemodules.default.counting\", \"parameters\": []}, \"hash_functions\": [{\"__llhashfunction__\": true, \"name\": \"gecocoo.hashing.xorlinear.xorlinear\", \"seed\": 8516705601423383816, \"parameters\": []}, {\"__llhashfunction__\": true, \"name\": \"gecocoo.hashing.xorlinear.xorlinear\", \"seed\": 13864199452335395664, \"parameters\": []}], \"storage\": {\"__llstorageconfig__\": true, \"mode\": \"BUCKETS\", \"concurrent\": true, \"disable_quotienting\": false}}"
            },
            "options": {
                "disable_gc": false,
                "timer": "perf_counter",
                "min_rounds": 5,
                "max_time": 1.0,
                "min_time": 5e-06,
                "warmup": false
            },
            "stats": {
                "min": 0.23796418914571404,
                "max": 0.39700134098529816,
                "mean": 0.2879021563567221,
                "stddev": 0.06464189350583939,
                "rounds": 5,
                "median": 0.28075492987409234,
                "iqr": 0.07182658067904413,
                "q1": 0.23987877159379423,
                "q3": 0.31170535227283835,
                "iqr_outliers": 0,
                "stddev_outliers": 1,
                "outliers": "1;0",
                "ld15iqr": 0.23796418914571404,
                "hd15iqr": 0.39700134098529816,
                "ops": 3.473402258095492,
                "total": 1.4395107817836106,
                "data": [
                    0.39700134098529816,
                    0.23796418914571404,
                    0.28075492987409234,
                    0.28327335603535175,
                    0.2405169657431543
                ],
                "iterations": 1
            }
        },
        {
            "group": "searching",
            "name": "search",
            "fullname": "bench_operations.py::test_cost_optimal",
            "params": null,
            "param": null,
            "extra_info": {
                "key_count": 100000000,
                "search_missing": 10000000,
                "search_hitt\u00edng": 0,
                "thread_count": 8,
                "config": "{\"__llconfig__\": true, \"k\": 31, \"key_bits\": 39, \"value_bits\": 32, \"bucket_count\": 12886598, \"bucket_size\": 8, \"value_module\": {\"__llvaluefunctions__\": true, \"module\": \"gecocoo.valuemodules.default.counting\", \"parameters\": []}, \"hash_functions\": [{\"__llhashfunction__\": true, \"name\": \"gecocoo.hashing.xorlinear.xorlinear\", \"seed\": 8516705601423383816, \"parameters\": []}, {\"__llhashfunction__\": true, \"name\": \"gecocoo.hashing.xorlinear.xorlinear\", \"seed\": 13864199452335395664, \"parameters\": []}], \"storage\": {\"__llstorageconfig__\": true, \"mode\": \"BUCKETS\", \"concurrent\": true, \"disable_quotienting\": false}}"
            },
            "options": {
                "disable_gc": false,
                "timer": "perf_counter",
                "min_rounds": 5,
                "max_time": 1.0,
                "min_time": 5e-06,
                "warmup": false
            },
            "stats": {
                "min": 0.4225929523818195,
                "max": 0.5813637818209827,
                "mean": 0.4595776270143688,
                "stddev": 0.06857268983626118,
                "rounds": 5,
                "median": 0.428489756770432,
                "iqr": 0.05469607759732753,
                "q1": 0.42268716951366514,
                "q3": 0.47738324711099267,
                "iqr_outliers": 1,
                "stddev_outliers": 1,
                "outliers": "1;1",
                "ld15iqr": 0.4225929523818195,
                "hd15iqr": 0.5813637818209827,
                "ops": 2.1759109695928145,
                "total": 2.297888135071844,
                "data": [
                    0.5813637818209827,
                    0.4225929523818195,
                    0.44272306887432933,
                    0.428489756770432,
                    0.42271857522428036
                ],
                "iterations": 1
            }
        },
        {
            "group": "searching",
            "name": "search",
            "fullname": "bench_operations.py::test_cost_optimal",
            "params": null,
            "param": null,
            "extra_info": {
                "key_count": 100000000,
                "search_missing": 0,
                "search_hitt\u00edng": 100000000,
                "thread_count": 8,
                "config": "{\"__llconfig__\": true, \"k\": 31, \"key_bits\": 39, \"value_bits\": 32, \"bucket_count\": 12886598, \"bucket_size\": 8, \"value_module\": {\"__llvaluefunctions__\": true, \"module\": \"gecocoo.valuemodules.default.counting\", \"parameters\": []}, \"hash_functions\": [{\"__llhashfunction__\": true, \"name\": \"gecocoo.hashing.xorlinear.xorlinear\", \"seed\": 8516705601423383816, \"parameters\": []}, {\"__llhashfunction__\": true, \"name\": \"gecocoo.hashing.xorlinear.xorlinear\", \"seed\": 13864199452335395664, \"parameters\": []}], \"storage\": {\"__llstorageconfig__\": true, \"mode\": \"BUCKETS\", \"concurrent\": true, \"disable_quotienting\": false}}"
            },
            "options": {
                "disable_gc": false,
                "timer": "perf_counter",
                "min_rounds": 5,
                "max_time": 1.0,
                "min_time": 5e-06,
                "warmup": false
            },
            "stats": {
                "min": 2.375493444968015,
                "max": 2.6173495342954993,
                "mean": 2.4514231719076633,
                "stddev": 0.09496666439171936,
                "rounds": 5,
                "median": 2.4221662785857916,
                "iqr": 0.06978120026178658,
                "q1": 2.405004747910425,
                "q3": 2.4747859481722116,
                "iqr_outliers": 1,
                "stddev_outliers": 1,
                "outliers": "1;1",
                "ld15iqr": 2.375493444968015,
                "hd15iqr": 2.6173495342954993,
                "ops": 0.4079263064246121,
                "total": 12.257115859538317,
                "data": [
                    2.6173495342954993,
                    2.4148418488912284,
                    2.4272647527977824,
                    2.375493444968015,
                    2.4221662785857916
                ],
                "iterations": 1
            }
        },
        {
            "group": "searching",
            "name": "search",
            "fullname": "bench_operations.py::test_cost_optimal",
            "params": null,
            "param": null,
            "extra_info": {
                "key_count": 100000000,
                "search_missing": 100000000,
                "search_hitt\u00edng": 0,
                "thread_count": 8,
                "config": "{\"__llconfig__\": true, \"k\": 31, \"key_bits\": 39, \"value_bits\": 32, \"bucket_count\": 12886598, \"bucket_size\": 8, \"value_module\": {\"__llvaluefunctions__\": true, \"module\": \"gecocoo.valuemodules.default.counting\", \"parameters\": []}, \"hash_functions\": [{\"__llhashfunction__\": true, \"name\": \"gecocoo.hashing.xorlinear.xorlinear\", \"seed\": 8516705601423383816, \"parameters\": []}, {\"__llhashfunction__\": true, \"name\": \"gecocoo.hashing.xorlinear.xorlinear\", \"seed\": 13864199452335395664, \"parameters\": []}], \"storage\": {\"__llstorageconfig__\": true, \"mode\": \"BUCKETS\", \"concurrent\": true, \"disable_quotienting\": false}}"
            },
            "options": {
                "disable_gc": false,
                "timer": "perf_counter",
                "min_rounds": 5,
                "max_time": 1.0,
                "min_time": 5e-06,
                "warmup": false
            },
            "stats": {
                "min": 4.237514115869999,
                "max": 4.380818875040859,
                "mean": 4.2810581749305125,
                "stddev": 0.06141987607601976,
                "rounds": 5,
                "median": 4.248053723946214,
                "iqr": 0.08184742275625467,
                "q1": 4.23845697240904,
                "q3": 4.320304395165294,
                "iqr_outliers": 0,
                "stddev_outliers": 1,
                "outliers": "1;0",
                "ld15iqr": 4.237514115869999,
                "hd15iqr": 4.380818875040859,
                "ops": 0.2335871084060266,
                "total": 21.405290874652565,
                "data": [
                    4.380818875040859,
                    4.248053723946214,
                    4.238771257922053,
                    4.237514115869999,
                    4.3001329018734396
                ],
                "iterations": 1
            }
        },
        {
            "group": "searching",
            "name": "search",
            "fullname": "bench_operations.py::test_cost_optimal",
            "params": null,
            "param": null,
            "extra_info": {
                "key_count": 100000000,
                "search_missing": 0,
                "search_hitt\u00edng": 1000000,
                "thread_count": 16,
                "config": "{\"__llconfig__\": true, \"k\": 31, \"key_bits\": 39, \"value_bits\": 32, \"bucket_count\": 12886598, \"bucket_size\": 8, \"value_module\": {\"__llvaluefunctions__\": true, \"module\": \"gecocoo.valuemodules.default.counting\", \"parameters\": []}, \"hash_functions\": [{\"__llhashfunction__\": true, \"name\": \"gecocoo.hashing.xorlinear.xorlinear\", \"seed\": 8516705601423383816, \"parameters\": []}, {\"__llhashfunction__\": true, \"name\": \"gecocoo.hashing.xorlinear.xorlinear\", \"seed\": 13864199452335395664, \"parameters\": []}], \"storage\": {\"__llstorageconfig__\": true, \"mode\": \"BUCKETS\", \"concurrent\": true, \"disable_quotienting\": false}}"
            },
            "options": {
                "disable_gc": false,
                "timer": "perf_counter",
                "min_rounds": 5,
                "max_time": 1.0,
                "min_time": 5e-06,
                "warmup": false
            },
            "stats": {
                "min": 0.026072837878018618,
                "max": 0.18842232692986727,
                "mean": 0.05981688182801008,
                "stddev": 0.07193113408769859,
                "rounds": 5,
                "median": 0.026540101040154696,
                "iqr": 0.04464768141042441,
                "q1": 0.026256483630277216,
                "q3": 0.07090416504070163,
                "iqr_outliers": 1,
                "stddev_outliers": 1,
                "outliers": "1;1",
                "ld15iqr": 0.026072837878018618,
                "hd15iqr": 0.18842232692986727,
                "ops": 16.71768854276413,
                "total": 0.2990844091400504,
                "data": [
                    0.18842232692986727,
                    0.026317698881030083,
                    0.026072837878018618,
                    0.026540101040154696,
                    0.03173144441097975
                ],
                "iterations": 1
            }
        },
        {
            "group": "searching",
            "name": "search",
            "fullname": "bench_operations.py::test_cost_optimal",
            "params": null,
            "param": null,
            "extra_info": {
                "key_count": 100000000,
                "search_missing": 1000000,
                "search_hitt\u00edng": 0,
                "thread_count": 16,
                "config": "{\"__llconfig__\": true, \"k\": 31, \"key_bits\": 39, \"value_bits\": 32, \"bucket_count\": 12886598, \"bucket_size\": 8, \"value_module\": {\"__llvaluefunctions__\": true, \"module\": \"gecocoo.valuemodules.default.counting\", \"parameters\": []}, \"hash_functions\": [{\"__llhashfunction__\": true, \"name\": \"gecocoo.hashing.xorlinear.xorlinear\", \"seed\": 8516705601423383816, \"parameters\": []}, {\"__llhashfunction__\": true, \"name\": \"gecocoo.hashing.xorlinear.xorlinear\", \"seed\": 13864199452335395664, \"parameters\": []}], \"storage\": {\"__llstorageconfig__\": true, \"mode\": \"BUCKETS\", \"concurrent\": true, \"disable_quotienting\": false}}"
            },
            "options": {
                "disable_gc": false,
                "timer": "perf_counter",
                "min_rounds": 5,
                "max_time": 1.0,
                "min_time": 5e-06,
                "warmup": false
            },
            "stats": {
                "min": 0.044919046107679605,
                "max": 0.2058219308964908,
                "mean": 0.07949105268344284,
                "stddev": 0.070713837003083,
                "rounds": 5,
                "median": 0.04728356609120965,
                "iqr": 0.04663956956937909,
                "q1": 0.04530935746151954,
                "q3": 0.09194892703089863,
                "iqr_outliers": 1,
                "stddev_outliers": 1,
                "outliers": "1;1",
                "ld15iqr": 0.044919046107679605,
                "hd15iqr": 0.2058219308964908,
                "ops": 12.580032170190265,
                "total": 0.39745526341721416,
                "data": [
                    0.2058219308964908,
                    0.044919046107679605,
                    0.04543946124613285,
                    0.05399125907570124,
                    0.04728356609120965
                ],
                "iterations": 1
            }
        },
        {
            "group": "searching",
            "name": "search",
            "fullname": "bench_operations.py::test_cost_optimal",
            "params": null,
            "param": null,
            "extra_info": {
                "key_count": 100000000,
                "search_missing": 0,
                "search_hitt\u00edng": 10000000,
                "thread_count": 16,
                "config": "{\"__llconfig__\": true, \"k\": 31, \"key_bits\": 39, \"value_bits\": 32, \"bucket_count\": 12886598, \"bucket_size\": 8, \"value_module\": {\"__llvaluefunctions__\": true, \"module\": \"gecocoo.valuemodules.default.counting\", \"parameters\": []}, \"hash_functions\": [{\"__llhashfunction__\": true, \"name\": \"gecocoo.hashing.xorlinear.xorlinear\", \"seed\": 8516705601423383816, \"parameters\": []}, {\"__llhashfunction__\": true, \"name\": \"gecocoo.hashing.xorlinear.xorlinear\", \"seed\": 13864199452335395664, \"parameters\": []}], \"storage\": {\"__llstorageconfig__\": true, \"mode\": \"BUCKETS\", \"concurrent\": true, \"disable_quotienting\": false}}"
            },
            "options": {
                "disable_gc": false,
                "timer": "perf_counter",
                "min_rounds": 5,
                "max_time": 1.0,
                "min_time": 5e-06,
                "warmup": false
            },
            "stats": {
                "min": 0.20462874276563525,
                "max": 0.3992893658578396,
                "mean": 0.24853620752692224,
                "stddev": 0.08446849128265636,
                "rounds": 5,
                "median": 0.21238243719562888,
                "iqr": 0.058125552139244974,
                "q1": 0.20631967193912715,
                "q3": 0.2644452240783721,
                "iqr_outliers": 1,
                "stddev_outliers": 1,
                "outliers": "1;1",
                "ld15iqr": 0.20462874276563525,
                "hd15iqr": 0.3992893658578396,
                "ops": 4.023558619287601,
                "total": 1.2426810376346111,
                "data": [
                    0.3992893658578396,
                    0.20688331499695778,
                    0.20462874276563525,
                    0.21238243719562888,
                    0.21949717681854963
                ],
                "iterations": 1
            }
        },
        {
            "group": "searching",
            "name": "search",
            "fullname": "bench_operations.py::test_cost_optimal",
            "params": null,
            "param": null,
            "extra_info": {
                "key_count": 100000000,
                "search_missing": 10000000,
                "search_hitt\u00edng": 0,
                "thread_count": 16,
                "config": "{\"__llconfig__\": true, \"k\": 31, \"key_bits\": 39, \"value_bits\": 32, \"bucket_count\": 12886598, \"bucket_size\": 8, \"value_module\": {\"__llvaluefunctions__\": true, \"module\": \"gecocoo.valuemodules.default.counting\", \"parameters\": []}, \"hash_functions\": [{\"__llhashfunction__\": true, \"name\": \"gecocoo.hashing.xorlinear.xorlinear\", \"seed\": 8516705601423383816, \"parameters\": []}, {\"__llhashfunction__\": true, \"name\": \"gecocoo.hashing.xorlinear.xorlinear\", \"seed\": 13864199452335395664, \"parameters\": []}], \"storage\": {\"__llstorageconfig__\": true, \"mode\": \"BUCKETS\", \"concurrent\": true, \"disable_quotienting\": false}}"
            },
            "options": {
                "disable_gc": false,
                "timer": "perf_counter",
                "min_rounds": 5,
                "max_time": 1.0,
                "min_time": 5e-06,
                "warmup": false
            },
            "stats": {
                "min": 0.3620467809960246,
                "max": 0.5356944012455642,
                "mean": 0.4075206480920315,
                "stddev": 0.07283629740269291,
                "rounds": 5,
                "median": 0.3787724953144789,
                "iqr": 0.06571782403625548,
                "q1": 0.3647673218511045,
                "q3": 0.43048514588736,
                "iqr_outliers": 1,
                "stddev_outliers": 1,
                "outliers": "1;1",
                "ld15iqr": 0.3620467809960246,
                "hd15iqr": 0.5356944012455642,
                "ops": 2.45386339239961,
                "total": 2.0376032404601574,
                "data": [
                    0.5356944012455642,
                    0.3787724953144789,
                    0.3620467809960246,
                    0.3954153941012919,
                    0.3656741688027978
                ],
                "iterations": 1
            }
        },
        {
            "group": "searching",
            "name": "search",
            "fullname": "bench_operations.py::test_cost_optimal",
            "params": null,
            "param": null,
            "extra_info": {
                "key_count": 100000000,
                "search_missing": 0,
                "search_hitt\u00edng": 100000000,
                "thread_count": 16,
                "config": "{\"__llconfig__\": true, \"k\": 31, \"key_bits\": 39, \"value_bits\": 32, \"bucket_count\": 12886598, \"bucket_size\": 8, \"value_module\": {\"__llvaluefunctions__\": true, \"module\": \"gecocoo.valuemodules.default.counting\", \"parameters\": []}, \"hash_functions\": [{\"__llhashfunction__\": true, \"name\": \"gecocoo.hashing.xorlinear.xorlinear\", \"seed\": 8516705601423383816, \"parameters\": []}, {\"__llhashfunction__\": true, \"name\": \"gecocoo.hashing.xorlinear.xorlinear\", \"seed\": 13864199452335395664, \"parameters\": []}], \"storage\": {\"__llstorageconfig__\": true, \"mode\": \"BUCKETS\", \"concurrent\": true, \"disable_quotienting\": false}}"
            },
            "options": {
                "disable_gc": false,
                "timer": "perf_counter",
                "min_rounds": 5,
                "max_time": 1.0,
                "min_time": 5e-06,
                "warmup": false
            },
            "stats": {
                "min": 1.8939719828777015,
                "max": 2.0338001563213766,
                "mean": 1.9565021717920899,
                "stddev": 0.06076389293419883,
                "rounds": 5,
                "median": 1.9270136975683272,
                "iqr": 0.10124686581548303,
                "q1": 1.913244967814535,
                "q3": 2.014491833630018,
                "iqr_outliers": 0,
                "stddev_outliers": 2,
                "outliers": "2;0",
                "ld15iqr": 1.8939719828777015,
                "hd15iqr": 2.0338001563213766,
                "ops": 0.5111162228274113,
                "total": 9.78251085896045,
                "data": [
                    2.0080557260662317,
                    1.9196692961268127,
                    1.8939719828777015,
                    1.9270136975683272,
                    2.0338001563213766
                ],
                "iterations": 1
            }
        },
        {
            "group": "searching",
            "name": "search",
            "fullname": "bench_operations.py::test_cost_optimal",
            "params": null,
            "param": null,
            "extra_info": {
                "key_count": 100000000,
                "search_missing": 100000000,
                "search_hitt\u00edng": 0,
                "thread_count": 16,
                "config": "{\"__llconfig__\": true, \"k\": 31, \"key_bits\": 39, \"value_bits\": 32, \"bucket_count\": 12886598, \"bucket_size\": 8, \"value_module\": {\"__llvaluefunctions__\": true, \"module\": \"gecocoo.valuemodules.default.counting\", \"parameters\": []}, \"hash_functions\": [{\"__llhashfunction__\": true, \"name\": \"gecocoo.hashing.xorlinear.xorlinear\", \"seed\": 8516705601423383816, \"parameters\": []}, {\"__llhashfunction__\": true, \"name\": \"gecocoo.hashing.xorlinear.xorlinear\", \"seed\": 13864199452335395664, \"parameters\": []}], \"storage\": {\"__llstorageconfig__\": true, \"mode\": \"BUCKETS\", \"concurrent\": true, \"disable_quotienting\": false}}"
            },
            "options": {
                "disable_gc": false,
                "timer": "perf_counter",
                "min_rounds": 5,
                "max_time": 1.0,
                "min_time": 5e-06,
                "warmup": false
            },
            "stats": {
                "min": 3.230183850042522,
                "max": 3.371708177961409,
                "mean": 3.311674261558801,
                "stddev": 0.06354197224591253,
                "rounds": 5,
                "median": 3.3424619561992586,
                "iqr": 0.10973444092087448,
                "q1": 3.25062577938661,
                "q3": 3.3603602203074843,
                "iqr_outliers": 0,
                "stddev_outliers": 1,
                "outliers": "1;0",
                "ld15iqr": 3.230183850042522,
                "hd15iqr": 3.371708177961409,
                "ops": 0.30196206541439896,
                "total": 16.558371307794005,
                "data": [
                    3.257439755834639,
                    3.371708177961409,
                    3.356577567756176,
                    3.3424619561992586,
                    3.230183850042522
                ],
                "iterations": 1
            }
        }
    ],
    "datetime": "2021-03-06T19:29:03.199788",
    "version": "3.2.3"
}