{
    "machine_info": {
        "node": "cstd01-009",
        "processor": "x86_64",
        "machine": "x86_64",
        "python_compiler": "GCC 7.3.0",
        "python_implementation": "CPython",
        "python_implementation_version": "3.7.9",
        "python_version": "3.7.9",
        "python_build": [
            "default",
            "Aug 31 2020 12:42:55"
        ],
        "release": "3.10.0-1160.6.1.el7.x86_64",
        "system": "Linux",
        "cpu": {
            "vendor_id": "unknown",
            "hardware": "unknown",
            "brand": "unknown"
        }
    },
    "commit_info": {
        "id": "unversioned",
        "time": null,
        "author_time": null,
        "dirty": false,
        "project": "gecocoo-2021-03-06T20_04_12.073701-origin_develop",
        "branch": "(unknown)"
    },
    "benchmarks": [
        {
            "group": "inserting",
            "name": "insert",
            "fullname": "bench_operations.py::test_cost_optimal",
            "params": null,
            "param": null,
            "extra_info": {
                "key_count": 100000000,
                "thread_count": 1,
                "config": "{\"__llconfig__\": true, \"k\": 31, \"key_bits\": 37, \"value_bits\": 32, \"bucket_count\": 52631579, \"bucket_size\": 2, \"value_module\": {\"__llvaluefunctions__\": true, \"module\": \"gecocoo.valuemodules.default.counting\", \"parameters\": []}, \"hash_functions\": [{\"__llhashfunction__\": true, \"name\": \"gecocoo.hashing.xorlinear.xorlinear\", \"seed\": 16900535422167994890, \"parameters\": []}, {\"__llhashfunction__\": true, \"name\": \"gecocoo.hashing.xorlinear.xorlinear\", \"seed\": 10854177044587731684, \"parameters\": []}], \"storage\": {\"__llstorageconfig__\": true, \"mode\": \"BUCKETS\", \"concurrent\": true, \"disable_quotienting\": false}}"
            },
            "options": {
                "disable_gc": false,
                "timer": "perf_counter",
                "min_rounds": 5,
                "max_time": 1.0,
                "min_time": 5e-06,
                "warmup": false
            },
            "stats": {
                "min": 7776.92356690811,
                "max": 7776.92356690811,
                "mean": 7776.92356690811,
                "stddev": 0,
                "rounds": 1,
                "median": 7776.92356690811,
                "iqr": 0.0,
                "q1": 7776.92356690811,
                "q3": 7776.92356690811,
                "iqr_outliers": 0,
                "stddev_outliers": 0,
                "outliers": "0;0",
                "ld15iqr": 7776.92356690811,
                "hd15iqr": 7776.92356690811,
                "ops": 0.00012858555075108863,
                "total": 7776.92356690811,
                "data": [
                    7776.92356690811
                ],
                "iterations": 1
            }
        },
        {
            "group": "searching",
            "name": "search",
            "fullname": "bench_operations.py::test_cost_optimal",
            "params": null,
            "param": null,
            "extra_info": {
                "key_count": 100000000,
                "search_missing": 0,
                "search_hitt\u00edng": 1000000,
                "thread_count": 1,
                "config": "{\"__llconfig__\": true, \"k\": 31, \"key_bits\": 37, \"value_bits\": 32, \"bucket_count\": 52631579, \"bucket_size\": 2, \"value_module\": {\"__llvaluefunctions__\": true, \"module\": \"gecocoo.valuemodules.default.counting\", \"parameters\": []}, \"hash_functions\": [{\"__llhashfunction__\": true, \"name\": \"gecocoo.hashing.xorlinear.xorlinear\", \"seed\": 16900535422167994890, \"parameters\": []}, {\"__llhashfunction__\": true, \"name\": \"gecocoo.hashing.xorlinear.xorlinear\", \"seed\": 10854177044587731684, \"parameters\": []}], \"storage\": {\"__llstorageconfig__\": true, \"mode\": \"BUCKETS\", \"concurrent\": true, \"disable_quotienting\": false}}"
            },
            "options": {
                "disable_gc": false,
                "timer": "perf_counter",
                "min_rounds": 5,
                "max_time": 1.0,
                "min_time": 5e-06,
                "warmup": false
            },
            "stats": {
                "min": 0.054787708912044764,
                "max": 0.5984457088634372,
                "mean": 0.1635576168075204,
                "stddev": 0.24310984135296596,
                "rounds": 5,
                "median": 0.054815341252833605,
                "iqr": 0.13601546420250088,
                "q1": 0.054798691999167204,
                "q3": 0.19081415620166808,
                "iqr_outliers": 1,
                "stddev_outliers": 1,
                "outliers": "1;1",
                "ld15iqr": 0.054787708912044764,
                "hd15iqr": 0.5984457088634372,
                "ops": 6.114053380814607,
                "total": 0.817788084037602,
                "data": [
                    0.5984457088634372,
                    0.054936971981078386,
                    0.054815341252833605,
                    0.05480235302820802,
                    0.054787708912044764
                ],
                "iterations": 1
            }
        },
        {
            "group": "searching",
            "name": "search",
            "fullname": "bench_operations.py::test_cost_optimal",
            "params": null,
            "param": null,
            "extra_info": {
                "key_count": 100000000,
                "search_missing": 1000000,
                "search_hitt\u00edng": 0,
                "thread_count": 1,
                "config": "{\"__llconfig__\": true, \"k\": 31, \"key_bits\": 37, \"value_bits\": 32, \"bucket_count\": 52631579, \"bucket_size\": 2, \"value_module\": {\"__llvaluefunctions__\": true, \"module\": \"gecocoo.valuemodules.default.counting\", \"parameters\": []}, \"hash_functions\": [{\"__llhashfunction__\": true, \"name\": \"gecocoo.hashing.xorlinear.xorlinear\", \"seed\": 16900535422167994890, \"parameters\": []}, {\"__llhashfunction__\": true, \"name\": \"gecocoo.hashing.xorlinear.xorlinear\", \"seed\": 10854177044587731684, \"parameters\": []}], \"storage\": {\"__llstorageconfig__\": true, \"mode\": \"BUCKETS\", \"concurrent\": true, \"disable_quotienting\": false}}"
            },
            "options": {
                "disable_gc": false,
                "timer": "perf_counter",
                "min_rounds": 5,
                "max_time": 1.0,
                "min_time": 5e-06,
                "warmup": false
            },
            "stats": {
                "min": 0.05478872638195753,
                "max": 0.20381610980257392,
                "mean": 0.08462191857397557,
                "stddev": 0.06663159758269613,
                "rounds": 5,
                "median": 0.05479802377521992,
                "iqr": 0.037342458963394165,
                "q1": 0.05479439988266677,
                "q3": 0.09213685884606093,
                "iqr_outliers": 1,
                "stddev_outliers": 1,
                "outliers": "1;1",
                "ld15iqr": 0.05478872638195753,
                "hd15iqr": 0.20381610980257392,
                "ops": 11.817269294430034,
                "total": 0.4231095928698778,
                "data": [
                    0.20381610980257392,
                    0.0549104418605566,
                    0.05479802377521992,
                    0.054796291049569845,
                    0.05478872638195753
                ],
                "iterations": 1
            }
        },
        {
            "group": "searching",
            "name": "search",
            "fullname": "bench_operations.py::test_cost_optimal",
            "params": null,
            "param": null,
            "extra_info": {
                "key_count": 100000000,
                "search_missing": 0,
                "search_hitt\u00edng": 10000000,
                "thread_count": 1,
                "config": "{\"__llconfig__\": true, \"k\": 31, \"key_bits\": 37, \"value_bits\": 32, \"bucket_count\": 52631579, \"bucket_size\": 2, \"value_module\": {\"__llvaluefunctions__\": true, \"module\": \"gecocoo.valuemodules.default.counting\", \"parameters\": []}, \"hash_functions\": [{\"__llhashfunction__\": true, \"name\": \"gecocoo.hashing.xorlinear.xorlinear\", \"seed\": 16900535422167994890, \"parameters\": []}, {\"__llhashfunction__\": true, \"name\": \"gecocoo.hashing.xorlinear.xorlinear\", \"seed\": 10854177044587731684, \"parameters\": []}], \"storage\": {\"__llstorageconfig__\": true, \"mode\": \"BUCKETS\", \"concurrent\": true, \"disable_quotienting\": false}}"
            },
            "options": {
                "disable_gc": false,
                "timer": "perf_counter",
                "min_rounds": 5,
                "max_time": 1.0,
                "min_time": 5e-06,
                "warmup": false
            },
            "stats": {
                "min": 0.546788944862783,
                "max": 0.6934552337042987,
                "mean": 0.5761552019044757,
                "stddev": 0.06557271659591286,
                "rounds": 5,
                "median": 0.5468367822468281,
                "iqr": 0.036689717788249254,
                "q1": 0.5468213066924363,
                "q3": 0.5835110244806856,
                "iqr_outliers": 1,
                "stddev_outliers": 1,
                "outliers": "1;1",
                "ld15iqr": 0.546788944862783,
                "hd15iqr": 0.6934552337042987,
                "ops": 1.735643445888381,
                "total": 2.8807760095223784,
                "data": [
                    0.6934552337042987,
                    0.5468629547394812,
                    0.5468367822468281,
                    0.546788944862783,
                    0.5468320939689875
                ],
                "iterations": 1
            }
        },
        {
            "group": "searching",
            "name": "search",
            "fullname": "bench_operations.py::test_cost_optimal",
            "params": null,
            "param": null,
            "extra_info": {
                "key_count": 100000000,
                "search_missing": 10000000,
                "search_hitt\u00edng": 0,
                "thread_count": 1,
                "config": "{\"__llconfig__\": true, \"k\": 31, \"key_bits\": 37, \"value_bits\": 32, \"bucket_count\": 52631579, \"bucket_size\": 2, \"value_module\": {\"__llvaluefunctions__\": true, \"module\": \"gecocoo.valuemodules.default.counting\", \"parameters\": []}, \"hash_functions\": [{\"__llhashfunction__\": true, \"name\": \"gecocoo.hashing.xorlinear.xorlinear\", \"seed\": 16900535422167994890, \"parameters\": []}, {\"__llhashfunction__\": true, \"name\": \"gecocoo.hashing.xorlinear.xorlinear\", \"seed\": 10854177044587731684, \"parameters\": []}], \"storage\": {\"__llstorageconfig__\": true, \"mode\": \"BUCKETS\", \"concurrent\": true, \"disable_quotienting\": false}}"
            },
            "options": {
                "disable_gc": false,
                "timer": "perf_counter",
                "min_rounds": 5,
                "max_time": 1.0,
                "min_time": 5e-06,
                "warmup": false
            },
            "stats": {
                "min": 0.5468267151154578,
                "max": 0.6947551872581244,
                "mean": 0.5764237296767533,
                "stddev": 0.06614929643820126,
                "rounds": 5,
                "median": 0.546842488925904,
                "iqr": 0.036991550819948316,
                "q1": 0.5468373087933287,
                "q3": 0.583828859613277,
                "iqr_outliers": 1,
                "stddev_outliers": 1,
                "outliers": "1;1",
                "ld15iqr": 0.5468267151154578,
                "hd15iqr": 0.6947551872581244,
                "ops": 1.7348348940470921,
                "total": 2.8821186483837664,
                "data": [
                    0.6947551872581244,
                    0.5468534170649946,
                    0.546842488925904,
                    0.5468267151154578,
                    0.5468408400192857
                ],
                "iterations": 1
            }
        },
        {
            "group": "searching",
            "name": "search",
            "fullname": "bench_operations.py::test_cost_optimal",
            "params": null,
            "param": null,
            "extra_info": {
                "key_count": 100000000,
                "search_missing": 0,
                "search_hitt\u00edng": 100000000,
                "thread_count": 1,
                "config": "{\"__llconfig__\": true, \"k\": 31, \"key_bits\": 37, \"value_bits\": 32, \"bucket_count\": 52631579, \"bucket_size\": 2, \"value_module\": {\"__llvaluefunctions__\": true, \"module\": \"gecocoo.valuemodules.default.counting\", \"parameters\": []}, \"hash_functions\": [{\"__llhashfunction__\": true, \"name\": \"gecocoo.hashing.xorlinear.xorlinear\", \"seed\": 16900535422167994890, \"parameters\": []}, {\"__llhashfunction__\": true, \"name\": \"gecocoo.hashing.xorlinear.xorlinear\", \"seed\": 10854177044587731684, \"parameters\": []}], \"storage\": {\"__llstorageconfig__\": true, \"mode\": \"BUCKETS\", \"concurrent\": true, \"disable_quotienting\": false}}"
            },
            "options": {
                "disable_gc": false,
                "timer": "perf_counter",
                "min_rounds": 5,
                "max_time": 1.0,
                "min_time": 5e-06,
                "warmup": false
            },
            "stats": {
                "min": 5.4638734720647335,
                "max": 5.611473265569657,
                "mean": 5.493519379291683,
                "stddev": 0.06593834851790652,
                "rounds": 5,
                "median": 5.464108755346388,
                "iqr": 0.037083958741277456,
                "q1": 5.463929389137775,
                "q3": 5.501013347879052,
                "iqr_outliers": 1,
                "stddev_outliers": 1,
                "outliers": "1;1",
                "ld15iqr": 5.4638734720647335,
                "hd15iqr": 5.611473265569657,
                "ops": 0.18203266994371406,
                "total": 27.467596896458417,
                "data": [
                    5.611473265569657,
                    5.464193375315517,
                    5.464108755346388,
                    5.463948028162122,
                    5.4638734720647335
                ],
                "iterations": 1
            }
        },
        {
            "group": "searching",
            "name": "search",
            "fullname": "bench_operations.py::test_cost_optimal",
            "params": null,
            "param": null,
            "extra_info": {
                "key_count": 100000000,
                "search_missing": 100000000,
                "search_hitt\u00edng": 0,
                "thread_count": 1,
                "config": "{\"__llconfig__\": true, \"k\": 31, \"key_bits\": 37, \"value_bits\": 32, \"bucket_count\": 52631579, \"bucket_size\": 2, \"value_module\": {\"__llvaluefunctions__\": true, \"module\": \"gecocoo.valuemodules.default.counting\", \"parameters\": []}, \"hash_functions\": [{\"__llhashfunction__\": true, \"name\": \"gecocoo.hashing.xorlinear.xorlinear\", \"seed\": 16900535422167994890, \"parameters\": []}, {\"__llhashfunction__\": true, \"name\": \"gecocoo.hashing.xorlinear.xorlinear\", \"seed\": 10854177044587731684, \"parameters\": []}], \"storage\": {\"__llstorageconfig__\": true, \"mode\": \"BUCKETS\", \"concurrent\": true, \"disable_quotienting\": false}}"
            },
            "options": {
                "disable_gc": false,
                "timer": "perf_counter",
                "min_rounds": 5,
                "max_time": 1.0,
                "min_time": 5e-06,
                "warmup": false
            },
            "stats": {
                "min": 5.451983891427517,
                "max": 5.725522598717362,
                "mean": 5.513746507000178,
                "stddev": 0.11849591539673074,
                "rounds": 5,
                "median": 5.463810408953577,
                "iqr": 0.06859538774006069,
                "q1": 5.4606714808614925,
                "q3": 5.529266868601553,
                "iqr_outliers": 1,
                "stddev_outliers": 1,
                "outliers": "1;1",
                "ld15iqr": 5.451983891427517,
                "hd15iqr": 5.725522598717362,
                "ops": 0.18136488478939203,
                "total": 27.56873253500089,
                "data": [
                    5.725522598717362,
                    5.451983891427517,
                    5.463567344006151,
                    5.463810408953577,
                    5.463848291896284
                ],
                "iterations": 1
            }
        },
        {
            "group": "searching",
            "name": "search",
            "fullname": "bench_operations.py::test_cost_optimal",
            "params": null,
            "param": null,
            "extra_info": {
                "key_count": 100000000,
                "search_missing": 0,
                "search_hitt\u00edng": 1000000,
                "thread_count": 4,
                "config": "{\"__llconfig__\": true, \"k\": 31, \"key_bits\": 37, \"value_bits\": 32, \"bucket_count\": 52631579, \"bucket_size\": 2, \"value_module\": {\"__llvaluefunctions__\": true, \"module\": \"gecocoo.valuemodules.default.counting\", \"parameters\": []}, \"hash_functions\": [{\"__llhashfunction__\": true, \"name\": \"gecocoo.hashing.xorlinear.xorlinear\", \"seed\": 16900535422167994890, \"parameters\": []}, {\"__llhashfunction__\": true, \"name\": \"gecocoo.hashing.xorlinear.xorlinear\", \"seed\": 10854177044587731684, \"parameters\": []}], \"storage\": {\"__llstorageconfig__\": true, \"mode\": \"BUCKETS\", \"concurrent\": true, \"disable_quotienting\": false}}"
            },
            "options": {
                "disable_gc": false,
                "timer": "perf_counter",
                "min_rounds": 5,
                "max_time": 1.0,
                "min_time": 5e-06,
                "warmup": false
            },
            "stats": {
                "min": 0.014839931856840849,
                "max": 0.16264517791569233,
                "mean": 0.044772003311663866,
                "stddev": 0.065897691367637,
                "rounds": 5,
                "median": 0.014874127693474293,
                "iqr": 0.03830031945835799,
                "q1": 0.0148482711520046,
                "q3": 0.05314859061036259,
                "iqr_outliers": 1,
                "stddev_outliers": 1,
                "outliers": "1;1",
                "ld15iqr": 0.014839931856840849,
                "hd15iqr": 0.16264517791569233,
                "ops": 22.335386536958534,
                "total": 0.22386001655831933,
                "data": [
                    0.16264517791569233,
                    0.016649728175252676,
                    0.014874127693474293,
                    0.014851050917059183,
                    0.014839931856840849
                ],
                "iterations": 1
            }
        },
        {
            "group": "searching",
            "name": "search",
            "fullname": "bench_operations.py::test_cost_optimal",
            "params": null,
            "param": null,
            "extra_info": {
                "key_count": 100000000,
                "search_missing": 1000000,
                "search_hitt\u00edng": 0,
                "thread_count": 4,
                "config": "{\"__llconfig__\": true, \"k\": 31, \"key_bits\": 37, \"value_bits\": 32, \"bucket_count\": 52631579, \"bucket_size\": 2, \"value_module\": {\"__llvaluefunctions__\": true, \"module\": \"gecocoo.valuemodules.default.counting\", \"parameters\": []}, \"hash_functions\": [{\"__llhashfunction__\": true, \"name\": \"gecocoo.hashing.xorlinear.xorlinear\", \"seed\": 16900535422167994890, \"parameters\": []}, {\"__llhashfunction__\": true, \"name\": \"gecocoo.hashing.xorlinear.xorlinear\", \"seed\": 10854177044587731684, \"parameters\": []}], \"storage\": {\"__llstorageconfig__\": true, \"mode\": \"BUCKETS\", \"concurrent\": true, \"disable_quotienting\": false}}"
            },
            "options": {
                "disable_gc": false,
                "timer": "perf_counter",
                "min_rounds": 5,
                "max_time": 1.0,
                "min_time": 5e-06,
                "warmup": false
            },
            "stats": {
                "min": 0.014772911090403795,
                "max": 0.1612860970199108,
                "mean": 0.04415231291204691,
                "stddev": 0.0654798118854464,
                "rounds": 5,
                "median": 0.014874029904603958,
                "iqr": 0.036706800339743495,
                "q1": 0.014839673298411071,
                "q3": 0.051546473638154566,
                "iqr_outliers": 1,
                "stddev_outliers": 1,
                "outliers": "1;1",
                "ld15iqr": 0.014772911090403795,
                "hd15iqr": 0.1612860970199108,
                "ops": 22.64887010544698,
                "total": 0.22076156456023455,
                "data": [
                    0.1612860970199108,
                    0.014966599177569151,
                    0.014874029904603958,
                    0.014772911090403795,
                    0.01486192736774683
                ],
                "iterations": 1
            }
        },
        {
            "group": "searching",
            "name": "search",
            "fullname": "bench_operations.py::test_cost_optimal",
            "params": null,
            "param": null,
            "extra_info": {
                "key_count": 100000000,
                "search_missing": 0,
                "search_hitt\u00edng": 10000000,
                "thread_count": 4,
                "config": "{\"__llconfig__\": true, \"k\": 31, \"key_bits\": 37, \"value_bits\": 32, \"bucket_count\": 52631579, \"bucket_size\": 2, \"value_module\": {\"__llvaluefunctions__\": true, \"module\": \"gecocoo.valuemodules.default.counting\", \"parameters\": []}, \"hash_functions\": [{\"__llhashfunction__\": true, \"name\": \"gecocoo.hashing.xorlinear.xorlinear\", \"seed\": 16900535422167994890, \"parameters\": []}, {\"__llhashfunction__\": true, \"name\": \"gecocoo.hashing.xorlinear.xorlinear\", \"seed\": 10854177044587731684, \"parameters\": []}], \"storage\": {\"__llstorageconfig__\": true, \"mode\": \"BUCKETS\", \"concurrent\": true, \"disable_quotienting\": false}}"
            },
            "options": {
                "disable_gc": false,
                "timer": "perf_counter",
                "min_rounds": 5,
                "max_time": 1.0,
                "min_time": 5e-06,
                "warmup": false
            },
            "stats": {
                "min": 0.13774883095175028,
                "max": 0.2884741881862283,
                "mean": 0.1679863420315087,
                "stddev": 0.067354801226944,
                "rounds": 5,
                "median": 0.13789298804476857,
                "iqr": 0.0377744419965893,
                "q1": 0.13782154500950128,
                "q3": 0.17559598700609058,
                "iqr_outliers": 1,
                "stddev_outliers": 1,
                "outliers": "1;1",
                "ld15iqr": 0.13774883095175028,
                "hd15iqr": 0.2884741881862283,
                "ops": 5.952864905007772,
                "total": 0.8399317101575434,
                "data": [
                    0.2884741881862283,
                    0.1378457830287516,
                    0.13789298804476857,
                    0.13774883095175028,
                    0.13796991994604468
                ],
                "iterations": 1
            }
        },
        {
            "group": "searching",
            "name": "search",
            "fullname": "bench_operations.py::test_cost_optimal",
            "params": null,
            "param": null,
            "extra_info": {
                "key_count": 100000000,
                "search_missing": 10000000,
                "search_hitt\u00edng": 0,
                "thread_count": 4,
                "config": "{\"__llconfig__\": true, \"k\": 31, \"key_bits\": 37, \"value_bits\": 32, \"bucket_count\": 52631579, \"bucket_size\": 2, \"value_module\": {\"__llvaluefunctions__\": true, \"module\": \"gecocoo.valuemodules.default.counting\", \"parameters\": []}, \"hash_functions\": [{\"__llhashfunction__\": true, \"name\": \"gecocoo.hashing.xorlinear.xorlinear\", \"seed\": 16900535422167994890, \"parameters\": []}, {\"__llhashfunction__\": true, \"name\": \"gecocoo.hashing.xorlinear.xorlinear\", \"seed\": 10854177044587731684, \"parameters\": []}], \"storage\": {\"__llstorageconfig__\": true, \"mode\": \"BUCKETS\", \"concurrent\": true, \"disable_quotienting\": false}}"
            },
            "options": {
                "disable_gc": false,
                "timer": "perf_counter",
                "min_rounds": 5,
                "max_time": 1.0,
                "min_time": 5e-06,
                "warmup": false
            },
            "stats": {
                "min": 0.13768792804330587,
                "max": 0.29002839094027877,
                "mean": 0.16826082076877355,
                "stddev": 0.06807018387208179,
                "rounds": 5,
                "median": 0.13785764668136835,
                "iqr": 0.038105779560282826,
                "q1": 0.1378104519098997,
                "q3": 0.17591623147018254,
                "iqr_outliers": 1,
                "stddev_outliers": 1,
                "outliers": "1;1",
                "ld15iqr": 0.13768792804330587,
                "hd15iqr": 0.29002839094027877,
                "ops": 5.943154178323036,
                "total": 0.8413041038438678,
                "data": [
                    0.29002839094027877,
                    0.13787884498015046,
                    0.13785764668136835,
                    0.13785129319876432,
                    0.13768792804330587
                ],
                "iterations": 1
            }
        },
        {
            "group": "searching",
            "name": "search",
            "fullname": "bench_operations.py::test_cost_optimal",
            "params": null,
            "param": null,
            "extra_info": {
                "key_count": 100000000,
                "search_missing": 0,
                "search_hitt\u00edng": 100000000,
                "thread_count": 4,
                "config": "{\"__llconfig__\": true, \"k\": 31, \"key_bits\": 37, \"value_bits\": 32, \"bucket_count\": 52631579, \"bucket_size\": 2, \"value_module\": {\"__llvaluefunctions__\": true, \"module\": \"gecocoo.valuemodules.default.counting\", \"parameters\": []}, \"hash_functions\": [{\"__llhashfunction__\": true, \"name\": \"gecocoo.hashing.xorlinear.xorlinear\", \"seed\": 16900535422167994890, \"parameters\": []}, {\"__llhashfunction__\": true, \"name\": \"gecocoo.hashing.xorlinear.xorlinear\", \"seed\": 10854177044587731684, \"parameters\": []}], \"storage\": {\"__llstorageconfig__\": true, \"mode\": \"BUCKETS\", \"concurrent\": true, \"disable_quotienting\": false}}"
            },
            "options": {
                "disable_gc": false,
                "timer": "perf_counter",
                "min_rounds": 5,
                "max_time": 1.0,
                "min_time": 5e-06,
                "warmup": false
            },
            "stats": {
                "min": 1.3656913498416543,
                "max": 1.5180406533181667,
                "mean": 1.3962059567682445,
                "stddev": 0.06810769036303475,
                "rounds": 5,
                "median": 1.365782386623323,
                "iqr": 0.038186623132787645,
                "q1": 1.3656914616003633,
                "q3": 1.403878084733151,
                "iqr_outliers": 1,
                "stddev_outliers": 1,
                "outliers": "1;1",
                "ld15iqr": 1.3656913498416543,
                "hd15iqr": 1.5180406533181667,
                "ops": 0.716226710788908,
                "total": 6.9810297838412225,
                "data": [
                    1.5180406533181667,
                    1.3658238952048123,
                    1.3656913498416543,
                    1.365782386623323,
                    1.3656914988532662
                ],
                "iterations": 1
            }
        },
        {
            "group": "searching",
            "name": "search",
            "fullname": "bench_operations.py::test_cost_optimal",
            "params": null,
            "param": null,
            "extra_info": {
                "key_count": 100000000,
                "search_missing": 100000000,
                "search_hitt\u00edng": 0,
                "thread_count": 4,
                "config": "{\"__llconfig__\": true, \"k\": 31, \"key_bits\": 37, \"value_bits\": 32, \"bucket_count\": 52631579, \"bucket_size\": 2, \"value_module\": {\"__llvaluefunctions__\": true, \"module\": \"gecocoo.valuemodules.default.counting\", \"parameters\": []}, \"hash_functions\": [{\"__llhashfunction__\": true, \"name\": \"gecocoo.hashing.xorlinear.xorlinear\", \"seed\": 16900535422167994890, \"parameters\": []}, {\"__llhashfunction__\": true, \"name\": \"gecocoo.hashing.xorlinear.xorlinear\", \"seed\": 10854177044587731684, \"parameters\": []}], \"storage\": {\"__llstorageconfig__\": true, \"mode\": \"BUCKETS\", \"concurrent\": true, \"disable_quotienting\": false}}"
            },
            "options": {
                "disable_gc": false,
                "timer": "perf_counter",
                "min_rounds": 5,
                "max_time": 1.0,
                "min_time": 5e-06,
                "warmup": false
            },
            "stats": {
                "min": 1.3660006700083613,
                "max": 1.5155637860298157,
                "mean": 1.3961428049951792,
                "stddev": 0.06675873486532574,
                "rounds": 5,
                "median": 1.3664027298800647,
                "iqr": 0.037710775970481336,
                "q1": 1.3661202336661518,
                "q3": 1.403831009636633,
                "iqr_outliers": 1,
                "stddev_outliers": 1,
                "outliers": "1;1",
                "ld15iqr": 1.3660006700083613,
                "hd15iqr": 1.5155637860298157,
                "ops": 0.7162591078950932,
                "total": 6.980714024975896,
                "data": [
                    1.5155637860298157,
                    1.3660006700083613,
                    1.3665867508389056,
                    1.3664027298800647,
                    1.3661600882187486
                ],
                "iterations": 1
            }
        },
        {
            "group": "searching",
            "name": "search",
            "fullname": "bench_operations.py::test_cost_optimal",
            "params": null,
            "param": null,
            "extra_info": {
                "key_count": 100000000,
                "search_missing": 0,
                "search_hitt\u00edng": 1000000,
                "thread_count": 8,
                "config": "{\"__llconfig__\": true, \"k\": 31, \"key_bits\": 37, \"value_bits\": 32, \"bucket_count\": 52631579, \"bucket_size\": 2, \"value_module\": {\"__llvaluefunctions__\": true, \"module\": \"gecocoo.valuemodules.default.counting\", \"parameters\": []}, \"hash_functions\": [{\"__llhashfunction__\": true, \"name\": \"gecocoo.hashing.xorlinear.xorlinear\", \"seed\": 16900535422167994890, \"parameters\": []}, {\"__llhashfunction__\": true, \"name\": \"gecocoo.hashing.xorlinear.xorlinear\", \"seed\": 10854177044587731684, \"parameters\": []}], \"storage\": {\"__llstorageconfig__\": true, \"mode\": \"BUCKETS\", \"concurrent\": true, \"disable_quotienting\": false}}"
            },
            "options": {
                "disable_gc": false,
                "timer": "perf_counter",
                "min_rounds": 5,
                "max_time": 1.0,
                "min_time": 5e-06,
                "warmup": false
            },
            "stats": {
                "min": 0.009184822905808687,
                "max": 0.1618585428223014,
                "mean": 0.03982131127268076,
                "stddev": 0.06822100893577489,
                "rounds": 5,
                "median": 0.009319751989096403,
                "iqr": 0.03838969545904547,
                "q1": 0.009214362478815019,
                "q3": 0.04760405793786049,
                "iqr_outliers": 1,
                "stddev_outliers": 1,
                "outliers": "1;1",
                "ld15iqr": 0.009184822905808687,
                "hd15iqr": 0.1618585428223014,
                "ops": 25.112181594232073,
                "total": 0.1991065563634038,
                "data": [
                    0.1618585428223014,
                    0.009519229643046856,
                    0.009319751989096403,
                    0.009184822905808687,
                    0.009224209003150463
                ],
                "iterations": 1
            }
        },
        {
            "group": "searching",
            "name": "search",
            "fullname": "bench_operations.py::test_cost_optimal",
            "params": null,
            "param": null,
            "extra_info": {
                "key_count": 100000000,
                "search_missing": 1000000,
                "search_hitt\u00edng": 0,
                "thread_count": 8,
                "config": "{\"__llconfig__\": true, \"k\": 31, \"key_bits\": 37, \"value_bits\": 32, \"bucket_count\": 52631579, \"bucket_size\": 2, \"value_module\": {\"__llvaluefunctions__\": true, \"module\": \"gecocoo.valuemodules.default.counting\", \"parameters\": []}, \"hash_functions\": [{\"__llhashfunction__\": true, \"name\": \"gecocoo.hashing.xorlinear.xorlinear\", \"seed\": 16900535422167994890, \"parameters\": []}, {\"__llhashfunction__\": true, \"name\": \"gecocoo.hashing.xorlinear.xorlinear\", \"seed\": 10854177044587731684, \"parameters\": []}], \"storage\": {\"__llstorageconfig__\": true, \"mode\": \"BUCKETS\", \"concurrent\": true, \"disable_quotienting\": false}}"
            },
            "options": {
                "disable_gc": false,
                "timer": "perf_counter",
                "min_rounds": 5,
                "max_time": 1.0,
                "min_time": 5e-06,
                "warmup": false
            },
            "stats": {
                "min": 0.00924490811303258,
                "max": 0.15762790199369192,
                "mean": 0.038935018610209225,
                "stddev": 0.06635133966050041,
                "rounds": 5,
                "median": 0.00926811108365655,
                "iqr": 0.03709919657558203,
                "q1": 0.009259817423298955,
                "q3": 0.04635901399888098,
                "iqr_outliers": 1,
                "stddev_outliers": 1,
                "outliers": "1;1",
                "ld15iqr": 0.00924490811303258,
                "hd15iqr": 0.15762790199369192,
                "ops": 25.68381975134816,
                "total": 0.19467509305104613,
                "data": [
                    0.15762790199369192,
                    0.009269384667277336,
                    0.00926811108365655,
                    0.00924490811303258,
                    0.009264787193387747
                ],
                "iterations": 1
            }
        },
        {
            "group": "searching",
            "name": "search",
            "fullname": "bench_operations.py::test_cost_optimal",
            "params": null,
            "param": null,
            "extra_info": {
                "key_count": 100000000,
                "search_missing": 0,
                "search_hitt\u00edng": 10000000,
                "thread_count": 8,
                "config": "{\"__llconfig__\": true, \"k\": 31, \"key_bits\": 37, \"value_bits\": 32, \"bucket_count\": 52631579, \"bucket_size\": 2, \"value_module\": {\"__llvaluefunctions__\": true, \"module\": \"gecocoo.valuemodules.default.counting\", \"parameters\": []}, \"hash_functions\": [{\"__llhashfunction__\": true, \"name\": \"gecocoo.hashing.xorlinear.xorlinear\", \"seed\": 16900535422167994890, \"parameters\": []}, {\"__llhashfunction__\": true, \"name\": \"gecocoo.hashing.xorlinear.xorlinear\", \"seed\": 10854177044587731684, \"parameters\": []}], \"storage\": {\"__llstorageconfig__\": true, \"mode\": \"BUCKETS\", \"concurrent\": true, \"disable_quotienting\": false}}"
            },
            "options": {
                "disable_gc": false,
                "timer": "perf_counter",
                "min_rounds": 5,
                "max_time": 1.0,
                "min_time": 5e-06,
                "warmup": false
            },
            "stats": {
                "min": 0.07069087401032448,
                "max": 0.22122312802821398,
                "mean": 0.10085226958617569,
                "stddev": 0.06728938850205908,
                "rounds": 5,
                "median": 0.0707788928411901,
                "iqr": 0.037746603367850184,
                "q1": 0.0707041184650734,
                "q3": 0.10845072183292359,
                "iqr_outliers": 1,
                "stddev_outliers": 1,
                "outliers": "1;1",
                "ld15iqr": 0.07069087401032448,
                "hd15iqr": 0.22122312802821398,
                "ops": 9.91549326656973,
                "total": 0.5042613479308784,
                "data": [
                    0.22122312802821398,
                    0.0708599197678268,
                    0.07070853328332305,
                    0.0707788928411901,
                    0.07069087401032448
                ],
                "iterations": 1
            }
        },
        {
            "group": "searching",
            "name": "search",
            "fullname": "bench_operations.py::test_cost_optimal",
            "params": null,
            "param": null,
            "extra_info": {
                "key_count": 100000000,
                "search_missing": 10000000,
                "search_hitt\u00edng": 0,
                "thread_count": 8,
                "config": "{\"__llconfig__\": true, \"k\": 31, \"key_bits\": 37, \"value_bits\": 32, \"bucket_count\": 52631579, \"bucket_size\": 2, \"value_module\": {\"__llvaluefunctions__\": true, \"module\": \"gecocoo.valuemodules.default.counting\", \"parameters\": []}, \"hash_functions\": [{\"__llhashfunction__\": true, \"name\": \"gecocoo.hashing.xorlinear.xorlinear\", \"seed\": 16900535422167994890, \"parameters\": []}, {\"__llhashfunction__\": true, \"name\": \"gecocoo.hashing.xorlinear.xorlinear\", \"seed\": 10854177044587731684, \"parameters\": []}], \"storage\": {\"__llstorageconfig__\": true, \"mode\": \"BUCKETS\", \"concurrent\": true, \"disable_quotienting\": false}}"
            },
            "options": {
                "disable_gc": false,
                "timer": "perf_counter",
                "min_rounds": 5,
                "max_time": 1.0,
                "min_time": 5e-06,
                "warmup": false
            },
            "stats": {
                "min": 0.07067831931635737,
                "max": 0.22182729607447982,
                "mean": 0.10099203586578369,
                "stddev": 0.06754904299544923,
                "rounds": 5,
                "median": 0.07078855205327272,
                "iqr": 0.0379605945199728,
                "q1": 0.07070765912067145,
                "q3": 0.10866825364064425,
                "iqr_outliers": 1,
                "stddev_outliers": 1,
                "outliers": "1;1",
                "ld15iqr": 0.07067831931635737,
                "hd15iqr": 0.22182729607447982,
                "ops": 9.901770881507717,
                "total": 0.5049601793289185,
                "data": [
                    0.22182729607447982,
                    0.07094857282936573,
                    0.07071743905544281,
                    0.07078855205327272,
                    0.07067831931635737
                ],
                "iterations": 1
            }
        },
        {
            "group": "searching",
            "name": "search",
            "fullname": "bench_operations.py::test_cost_optimal",
            "params": null,
            "param": null,
            "extra_info": {
                "key_count": 100000000,
                "search_missing": 0,
                "search_hitt\u00edng": 100000000,
                "thread_count": 8,
                "config": "{\"__llconfig__\": true, \"k\": 31, \"key_bits\": 37, \"value_bits\": 32, \"bucket_count\": 52631579, \"bucket_size\": 2, \"value_module\": {\"__llvaluefunctions__\": true, \"module\": \"gecocoo.valuemodules.default.counting\", \"parameters\": []}, \"hash_functions\": [{\"__llhashfunction__\": true, \"name\": \"gecocoo.hashing.xorlinear.xorlinear\", \"seed\": 16900535422167994890, \"parameters\": []}, {\"__llhashfunction__\": true, \"name\": \"gecocoo.hashing.xorlinear.xorlinear\", \"seed\": 10854177044587731684, \"parameters\": []}], \"storage\": {\"__llstorageconfig__\": true, \"mode\": \"BUCKETS\", \"concurrent\": true, \"disable_quotienting\": false}}"
            },
            "options": {
                "disable_gc": false,
                "timer": "perf_counter",
                "min_rounds": 5,
                "max_time": 1.0,
                "min_time": 5e-06,
                "warmup": false
            },
            "stats": {
                "min": 0.6849568570032716,
                "max": 0.9512032857164741,
                "mean": 0.7382516397163272,
                "stddev": 0.11904360019063664,
                "rounds": 5,
                "median": 0.685045104008168,
                "iqr": 0.066643928992562,
                "q1": 0.6849679102888331,
                "q3": 0.7516118392813951,
                "iqr_outliers": 1,
                "stddev_outliers": 1,
                "outliers": "1;1",
                "ld15iqr": 0.6849568570032716,
                "hd15iqr": 0.9512032857164741,
                "ops": 1.354551681570595,
                "total": 3.691258198581636,
                "data": [
                    0.9512032857164741,
                    0.6849568570032716,
                    0.685045104008168,
                    0.6849715947173536,
                    0.6850813571363688
                ],
                "iterations": 1
            }
        },
        {
            "group": "searching",
            "name": "search",
            "fullname": "bench_operations.py::test_cost_optimal",
            "params": null,
            "param": null,
            "extra_info": {
                "key_count": 100000000,
                "search_missing": 100000000,
                "search_hitt\u00edng": 0,
                "thread_count": 8,
                "config": "{\"__llconfig__\": true, \"k\": 31, \"key_bits\": 37, \"value_bits\": 32, \"bucket_count\": 52631579, \"bucket_size\": 2, \"value_module\": {\"__llvaluefunctions__\": true, \"module\": \"gecocoo.valuemodules.default.counting\", \"parameters\": []}, \"hash_functions\": [{\"__llhashfunction__\": true, \"name\": \"gecocoo.hashing.xorlinear.xorlinear\", \"seed\": 16900535422167994890, \"parameters\": []}, {\"__llhashfunction__\": true, \"name\": \"gecocoo.hashing.xorlinear.xorlinear\", \"seed\": 10854177044587731684, \"parameters\": []}], \"storage\": {\"__llstorageconfig__\": true, \"mode\": \"BUCKETS\", \"concurrent\": true, \"disable_quotienting\": false}}"
            },
            "options": {
                "disable_gc": false,
                "timer": "perf_counter",
                "min_rounds": 5,
                "max_time": 1.0,
                "min_time": 5e-06,
                "warmup": false
            },
            "stats": {
                "min": 0.6849613301455975,
                "max": 0.836271604988724,
                "mean": 0.7153341409750282,
                "stddev": 0.06760630473977278,
                "rounds": 5,
                "median": 0.6850742627866566,
                "iqr": 0.03812521742656827,
                "q1": 0.6849778232863173,
                "q3": 0.7231030407128856,
                "iqr_outliers": 1,
                "stddev_outliers": 1,
                "outliers": "1;1",
                "ld15iqr": 0.6849613301455975,
                "hd15iqr": 0.836271604988724,
                "ops": 1.3979480954690084,
                "total": 3.5766707048751414,
                "data": [
                    0.836271604988724,
                    0.6849833209998906,
                    0.6853801859542727,
                    0.6849613301455975,
                    0.6850742627866566
                ],
                "iterations": 1
            }
        },
        {
            "group": "searching",
            "name": "search",
            "fullname": "bench_operations.py::test_cost_optimal",
            "params": null,
            "param": null,
            "extra_info": {
                "key_count": 100000000,
                "search_missing": 0,
                "search_hitt\u00edng": 1000000,
                "thread_count": 16,
                "config": "{\"__llconfig__\": true, \"k\": 31, \"key_bits\": 37, \"value_bits\": 32, \"bucket_count\": 52631579, \"bucket_size\": 2, \"value_module\": {\"__llvaluefunctions__\": true, \"module\": \"gecocoo.valuemodules.default.counting\", \"parameters\": []}, \"hash_functions\": [{\"__llhashfunction__\": true, \"name\": \"gecocoo.hashing.xorlinear.xorlinear\", \"seed\": 16900535422167994890, \"parameters\": []}, {\"__llhashfunction__\": true, \"name\": \"gecocoo.hashing.xorlinear.xorlinear\", \"seed\": 10854177044587731684, \"parameters\": []}], \"storage\": {\"__llstorageconfig__\": true, \"mode\": \"BUCKETS\", \"concurrent\": true, \"disable_quotienting\": false}}"
            },
            "options": {
                "disable_gc": false,
                "timer": "perf_counter",
                "min_rounds": 5,
                "max_time": 1.0,
                "min_time": 5e-06,
                "warmup": false
            },
            "stats": {
                "min": 0.008560230024158955,
                "max": 0.16509791417047381,
                "mean": 0.04019793597981334,
                "stddev": 0.06982236705780702,
                "rounds": 5,
                "median": 0.008901888970285654,
                "iqr": 0.03976520919241011,
                "q1": 0.00873578095342964,
                "q3": 0.04850099014583975,
                "iqr_outliers": 1,
                "stddev_outliers": 1,
                "outliers": "1;1",
                "ld15iqr": 0.008560230024158955,
                "hd15iqr": 0.16509791417047381,
                "ops": 24.8768991647278,
                "total": 0.2009896798990667,
                "data": [
                    0.16509791417047381,
                    0.008560230024158955,
                    0.008794297929853201,
                    0.009635348804295063,
                    0.008901888970285654
                ],
                "iterations": 1
            }
        },
        {
            "group": "searching",
            "name": "search",
            "fullname": "bench_operations.py::test_cost_optimal",
            "params": null,
            "param": null,
            "extra_info": {
                "key_count": 100000000,
                "search_missing": 1000000,
                "search_hitt\u00edng": 0,
                "thread_count": 16,
                "config": "{\"__llconfig__\": true, \"k\": 31, \"key_bits\": 37, \"value_bits\": 32, \"bucket_count\": 52631579, \"bucket_size\": 2, \"value_module\": {\"__llvaluefunctions__\": true, \"module\": \"gecocoo.valuemodules.default.counting\", \"parameters\": []}, \"hash_functions\": [{\"__llhashfunction__\": true, \"name\": \"gecocoo.hashing.xorlinear.xorlinear\", \"seed\": 16900535422167994890, \"parameters\": []}, {\"__llhashfunction__\": true, \"name\": \"gecocoo.hashing.xorlinear.xorlinear\", \"seed\": 10854177044587731684, \"parameters\": []}], \"storage\": {\"__llstorageconfig__\": true, \"mode\": \"BUCKETS\", \"concurrent\": true, \"disable_quotienting\": false}}"
            },
            "options": {
                "disable_gc": false,
                "timer": "perf_counter",
                "min_rounds": 5,
                "max_time": 1.0,
                "min_time": 5e-06,
                "warmup": false
            },
            "stats": {
                "min": 0.008262807969003916,
                "max": 0.162318654358387,
                "mean": 0.03915955265983939,
                "stddev": 0.06884808526005282,
                "rounds": 5,
                "median": 0.00839562201872468,
                "iqr": 0.038641950115561485,
                "q1": 0.008309462340548635,
                "q3": 0.04695141245611012,
                "iqr_outliers": 1,
                "stddev_outliers": 1,
                "outliers": "1;1",
                "ld15iqr": 0.008262807969003916,
                "hd15iqr": 0.162318654358387,
                "ops": 25.536553205459967,
                "total": 0.19579776329919696,
                "data": [
                    0.162318654358387,
                    0.00839562201872468,
                    0.008325013797730207,
                    0.008262807969003916,
                    0.008495665155351162
                ],
                "iterations": 1
            }
        },
        {
            "group": "searching",
            "name": "search",
            "fullname": "bench_operations.py::test_cost_optimal",
            "params": null,
            "param": null,
            "extra_info": {
                "key_count": 100000000,
                "search_missing": 0,
                "search_hitt\u00edng": 10000000,
                "thread_count": 16,
                "config": "{\"__llconfig__\": true, \"k\": 31, \"key_bits\": 37, \"value_bits\": 32, \"bucket_count\": 52631579, \"bucket_size\": 2, \"value_module\": {\"__llvaluefunctions__\": true, \"module\": \"gecocoo.valuemodules.default.counting\", \"parameters\": []}, \"hash_functions\": [{\"__llhashfunction__\": true, \"name\": \"gecocoo.hashing.xorlinear.xorlinear\", \"seed\": 16900535422167994890, \"parameters\": []}, {\"__llhashfunction__\": true, \"name\": \"gecocoo.hashing.xorlinear.xorlinear\", \"seed\": 10854177044587731684, \"parameters\": []}], \"storage\": {\"__llstorageconfig__\": true, \"mode\": \"BUCKETS\", \"concurrent\": true, \"disable_quotienting\": false}}"
            },
            "options": {
                "disable_gc": false,
                "timer": "perf_counter",
                "min_rounds": 5,
                "max_time": 1.0,
                "min_time": 5e-06,
                "warmup": false
            },
            "stats": {
                "min": 0.06388937728479505,
                "max": 0.18913155421614647,
                "mean": 0.08960240976884962,
                "stddev": 0.05565190800022769,
                "rounds": 5,
                "median": 0.06424817722290754,
                "iqr": 0.03348808654118329,
                "q1": 0.06391217571217567,
                "q3": 0.09740026225335896,
                "iqr_outliers": 1,
                "stddev_outliers": 1,
                "outliers": "1;1",
                "ld15iqr": 0.06388937728479505,
                "hd15iqr": 0.18913155421614647,
                "ops": 11.16041412925985,
                "total": 0.44801204884424806,
                "data": [
                    0.18913155421614647,
                    0.06424817722290754,
                    0.06682316493242979,
                    0.06391977518796921,
                    0.06388937728479505
                ],
                "iterations": 1
            }
        },
        {
            "group": "searching",
            "name": "search",
            "fullname": "bench_operations.py::test_cost_optimal",
            "params": null,
            "param": null,
            "extra_info": {
                "key_count": 100000000,
                "search_missing": 10000000,
                "search_hitt\u00edng": 0,
                "thread_count": 16,
                "config": "{\"__llconfig__\": true, \"k\": 31, \"key_bits\": 37, \"value_bits\": 32, \"bucket_count\": 52631579, \"bucket_size\": 2, \"value_module\": {\"__llvaluefunctions__\": true, \"module\": \"gecocoo.valuemodules.default.counting\", \"parameters\": []}, \"hash_functions\": [{\"__llhashfunction__\": true, \"name\": \"gecocoo.hashing.xorlinear.xorlinear\", \"seed\": 16900535422167994890, \"parameters\": []}, {\"__llhashfunction__\": true, \"name\": \"gecocoo.hashing.xorlinear.xorlinear\", \"seed\": 10854177044587731684, \"parameters\": []}], \"storage\": {\"__llstorageconfig__\": true, \"mode\": \"BUCKETS\", \"concurrent\": true, \"disable_quotienting\": false}}"
            },
            "options": {
                "disable_gc": false,
                "timer": "perf_counter",
                "min_rounds": 5,
                "max_time": 1.0,
                "min_time": 5e-06,
                "warmup": false
            },
            "stats": {
                "min": 0.056840136647224426,
                "max": 0.2241725418716669,
                "mean": 0.09334866208955646,
                "stddev": 0.0732084660724125,
                "rounds": 5,
                "median": 0.06386152701452374,
                "iqr": 0.04649493214674294,
                "q1": 0.057580033084377646,
                "q3": 0.10407496523112059,
                "iqr_outliers": 1,
                "stddev_outliers": 1,
                "outliers": "1;1",
                "ld15iqr": 0.056840136647224426,
                "hd15iqr": 0.2241725418716669,
                "ops": 10.712526324593963,
                "total": 0.4667433104477823,
                "data": [
                    0.2241725418716669,
                    0.06404243968427181,
                    0.056840136647224426,
                    0.057826665230095387,
                    0.06386152701452374
                ],
                "iterations": 1
            }
        },
        {
            "group": "searching",
            "name": "search",
            "fullname": "bench_operations.py::test_cost_optimal",
            "params": null,
            "param": null,
            "extra_info": {
                "key_count": 100000000,
                "search_missing": 0,
                "search_hitt\u00edng": 100000000,
                "thread_count": 16,
                "config": "{\"__llconfig__\": true, \"k\": 31, \"key_bits\": 37, \"value_bits\": 32, \"bucket_count\": 52631579, \"bucket_size\": 2, \"value_module\": {\"__llvaluefunctions__\": true, \"module\": \"gecocoo.valuemodules.default.counting\", \"parameters\": []}, \"hash_functions\": [{\"__llhashfunction__\": true, \"name\": \"gecocoo.hashing.xorlinear.xorlinear\", \"seed\": 16900535422167994890, \"parameters\": []}, {\"__llhashfunction__\": true, \"name\": \"gecocoo.hashing.xorlinear.xorlinear\", \"seed\": 10854177044587731684, \"parameters\": []}], \"storage\": {\"__llstorageconfig__\": true, \"mode\": \"BUCKETS\", \"concurrent\": true, \"disable_quotienting\": false}}"
            },
            "options": {
                "disable_gc": false,
                "timer": "perf_counter",
                "min_rounds": 5,
                "max_time": 1.0,
                "min_time": 5e-06,
                "warmup": false
            },
            "stats": {
                "min": 0.49759662291035056,
                "max": 0.535700571257621,
                "mean": 0.523343703430146,
                "stddev": 0.014794532572117545,
                "rounds": 5,
                "median": 0.5279587768018246,
                "iqr": 0.009874557261355221,
                "q1": 0.520023325458169,
                "q3": 0.5298978827195242,
                "iqr_outliers": 1,
                "stddev_outliers": 1,
                "outliers": "1;1",
                "ld15iqr": 0.5274988929741085,
                "hd15iqr": 0.535700571257621,
                "ops": 1.9107901622694814,
                "total": 2.61671851715073,
                "data": [
                    0.49759662291035056,
                    0.5279636532068253,
                    0.5279587768018246,
                    0.535700571257621,
                    0.5274988929741085
                ],
                "iterations": 1
            }
        },
        {
            "group": "searching",
            "name": "search",
            "fullname": "bench_operations.py::test_cost_optimal",
            "params": null,
            "param": null,
            "extra_info": {
                "key_count": 100000000,
                "search_missing": 100000000,
                "search_hitt\u00edng": 0,
                "thread_count": 16,
                "config": "{\"__llconfig__\": true, \"k\": 31, \"key_bits\": 37, \"value_bits\": 32, \"bucket_count\": 52631579, \"bucket_size\": 2, \"value_module\": {\"__llvaluefunctions__\": true, \"module\": \"gecocoo.valuemodules.default.counting\", \"parameters\": []}, \"hash_functions\": [{\"__llhashfunction__\": true, \"name\": \"gecocoo.hashing.xorlinear.xorlinear\", \"seed\": 16900535422167994890, \"parameters\": []}, {\"__llhashfunction__\": true, \"name\": \"gecocoo.hashing.xorlinear.xorlinear\", \"seed\": 10854177044587731684, \"parameters\": []}], \"storage\": {\"__llstorageconfig__\": true, \"mode\": \"BUCKETS\", \"concurrent\": true, \"disable_quotienting\": false}}"
            },
            "options": {
                "disable_gc": false,
                "timer": "perf_counter",
                "min_rounds": 5,
                "max_time": 1.0,
                "min_time": 5e-06,
                "warmup": false
            },
            "stats": {
                "min": 0.5220147520303726,
                "max": 0.5317238229326904,
                "mean": 0.5266496469266713,
                "stddev": 0.0038207458414962485,
                "rounds": 5,
                "median": 0.5277840662747622,
                "iqr": 0.005544545711018145,
                "q1": 0.523342146538198,
                "q3": 0.5288866922492161,
                "iqr_outliers": 0,
                "stddev_outliers": 2,
                "outliers": "2;0",
                "ld15iqr": 0.5220147520303726,
                "hd15iqr": 0.5317238229326904,
                "ops": 1.898795538619693,
                "total": 2.6332482346333563,
                "data": [
                    0.5317238229326904,
                    0.5279409820213914,
                    0.5277840662747622,
                    0.5237846113741398,
                    0.5220147520303726
                ],
                "iterations": 1
            }
        }
    ],
    "datetime": "2021-03-07T11:38:22.517641",
    "version": "3.2.3"
}