{
    "machine_info": {
        "node": "cstd01-012",
        "processor": "x86_64",
        "machine": "x86_64",
        "python_compiler": "GCC 7.3.0",
        "python_implementation": "CPython",
        "python_implementation_version": "3.7.9",
        "python_version": "3.7.9",
        "python_build": [
            "default",
            "Aug 31 2020 12:42:55"
        ],
        "release": "3.10.0-1160.6.1.el7.x86_64",
        "system": "Linux",
        "cpu": {
            "vendor_id": "unknown",
            "hardware": "unknown",
            "brand": "unknown"
        }
    },
    "commit_info": {
        "id": "unversioned",
        "time": null,
        "author_time": null,
        "dirty": false,
        "project": "gecocoo-2021-03-06T20_04_12.073701-origin_develop",
        "branch": "(unknown)"
    },
    "benchmarks": [
        {
            "group": "inserting",
            "name": "insert",
            "fullname": "bench_operations.py::test_cost_optimal",
            "params": null,
            "param": null,
            "extra_info": {
                "key_count": 100000000,
                "thread_count": 1,
                "config": "{\"__llconfig__\": true, \"k\": 31, \"key_bits\": 37, \"value_bits\": 32, \"bucket_count\": 52631579, \"bucket_size\": 2, \"value_module\": {\"__llvaluefunctions__\": true, \"module\": \"gecocoo.valuemodules.default.counting\", \"parameters\": []}, \"hash_functions\": [{\"__llhashfunction__\": true, \"name\": \"gecocoo.hashing.xorlinear.xorlinear\", \"seed\": 10766766704835148698, \"parameters\": []}, {\"__llhashfunction__\": true, \"name\": \"gecocoo.hashing.xorlinear.xorlinear\", \"seed\": 11649343804992614432, \"parameters\": []}, {\"__llhashfunction__\": true, \"name\": \"gecocoo.hashing.xorlinear.xorlinear\", \"seed\": 7640127926984367202, \"parameters\": []}], \"storage\": {\"__llstorageconfig__\": true, \"mode\": \"BUCKETS\", \"concurrent\": true, \"disable_quotienting\": false}}"
            },
            "options": {
                "disable_gc": false,
                "timer": "perf_counter",
                "min_rounds": 5,
                "max_time": 1.0,
                "min_time": 5e-06,
                "warmup": false
            },
            "stats": {
                "min": 2700.475971562788,
                "max": 2700.475971562788,
                "mean": 2700.475971562788,
                "stddev": 0,
                "rounds": 1,
                "median": 2700.475971562788,
                "iqr": 0.0,
                "q1": 2700.475971562788,
                "q3": 2700.475971562788,
                "iqr_outliers": 0,
                "stddev_outliers": 0,
                "outliers": "0;0",
                "ld15iqr": 2700.475971562788,
                "hd15iqr": 2700.475971562788,
                "ops": 0.0003703050908545177,
                "total": 2700.475971562788,
                "data": [
                    2700.475971562788
                ],
                "iterations": 1
            }
        },
        {
            "group": "searching",
            "name": "search",
            "fullname": "bench_operations.py::test_cost_optimal",
            "params": null,
            "param": null,
            "extra_info": {
                "key_count": 100000000,
                "search_missing": 0,
                "search_hitt\u00edng": 1000000,
                "thread_count": 1,
                "config": "{\"__llconfig__\": true, \"k\": 31, \"key_bits\": 37, \"value_bits\": 32, \"bucket_count\": 52631579, \"bucket_size\": 2, \"value_module\": {\"__llvaluefunctions__\": true, \"module\": \"gecocoo.valuemodules.default.counting\", \"parameters\": []}, \"hash_functions\": [{\"__llhashfunction__\": true, \"name\": \"gecocoo.hashing.xorlinear.xorlinear\", \"seed\": 10766766704835148698, \"parameters\": []}, {\"__llhashfunction__\": true, \"name\": \"gecocoo.hashing.xorlinear.xorlinear\", \"seed\": 11649343804992614432, \"parameters\": []}, {\"__llhashfunction__\": true, \"name\": \"gecocoo.hashing.xorlinear.xorlinear\", \"seed\": 7640127926984367202, \"parameters\": []}], \"storage\": {\"__llstorageconfig__\": true, \"mode\": \"BUCKETS\", \"concurrent\": true, \"disable_quotienting\": false}}"
            },
            "options": {
                "disable_gc": false,
                "timer": "perf_counter",
                "min_rounds": 5,
                "max_time": 1.0,
                "min_time": 5e-06,
                "warmup": false
            },
            "stats": {
                "min": 0.1640969840809703,
                "max": 0.3284288542345166,
                "mean": 0.21291535971686243,
                "stddev": 0.06886956643991032,
                "rounds": 5,
                "median": 0.18164365785196424,
                "iqr": 0.08403825014829636,
                "q1": 0.16594934312161058,
                "q3": 0.24998759326990694,
                "iqr_outliers": 0,
                "stddev_outliers": 1,
                "outliers": "1;0",
                "ld15iqr": 0.1640969840809703,
                "hd15iqr": 0.3284288542345166,
                "ops": 4.696702019665527,
                "total": 1.0645767985843122,
                "data": [
                    0.3284288542345166,
                    0.1640969840809703,
                    0.2238405062817037,
                    0.18164365785196424,
                    0.16656679613515735
                ],
                "iterations": 1
            }
        },
        {
            "group": "searching",
            "name": "search",
            "fullname": "bench_operations.py::test_cost_optimal",
            "params": null,
            "param": null,
            "extra_info": {
                "key_count": 100000000,
                "search_missing": 1000000,
                "search_hitt\u00edng": 0,
                "thread_count": 1,
                "config": "{\"__llconfig__\": true, \"k\": 31, \"key_bits\": 37, \"value_bits\": 32, \"bucket_count\": 52631579, \"bucket_size\": 2, \"value_module\": {\"__llvaluefunctions__\": true, \"module\": \"gecocoo.valuemodules.default.counting\", \"parameters\": []}, \"hash_functions\": [{\"__llhashfunction__\": true, \"name\": \"gecocoo.hashing.xorlinear.xorlinear\", \"seed\": 10766766704835148698, \"parameters\": []}, {\"__llhashfunction__\": true, \"name\": \"gecocoo.hashing.xorlinear.xorlinear\", \"seed\": 11649343804992614432, \"parameters\": []}, {\"__llhashfunction__\": true, \"name\": \"gecocoo.hashing.xorlinear.xorlinear\", \"seed\": 7640127926984367202, \"parameters\": []}], \"storage\": {\"__llstorageconfig__\": true, \"mode\": \"BUCKETS\", \"concurrent\": true, \"disable_quotienting\": false}}"
            },
            "options": {
                "disable_gc": false,
                "timer": "perf_counter",
                "min_rounds": 5,
                "max_time": 1.0,
                "min_time": 5e-06,
                "warmup": false
            },
            "stats": {
                "min": 0.25240470189601183,
                "max": 0.38466622307896614,
                "mean": 0.30629499033093455,
                "stddev": 0.05562669292197002,
                "rounds": 5,
                "median": 0.32044109981507063,
                "iqr": 0.08486389555037022,
                "q1": 0.25243801542092115,
                "q3": 0.33730191097129136,
                "iqr_outliers": 0,
                "stddev_outliers": 1,
                "outliers": "1;0",
                "ld15iqr": 0.25240470189601183,
                "hd15iqr": 0.38466622307896614,
                "ops": 3.2648264959200155,
                "total": 1.5314749516546726,
                "data": [
                    0.38466622307896614,
                    0.32151380693539977,
                    0.25240470189601183,
                    0.32044109981507063,
                    0.25244911992922425
                ],
                "iterations": 1
            }
        },
        {
            "group": "searching",
            "name": "search",
            "fullname": "bench_operations.py::test_cost_optimal",
            "params": null,
            "param": null,
            "extra_info": {
                "key_count": 100000000,
                "search_missing": 0,
                "search_hitt\u00edng": 10000000,
                "thread_count": 1,
                "config": "{\"__llconfig__\": true, \"k\": 31, \"key_bits\": 37, \"value_bits\": 32, \"bucket_count\": 52631579, \"bucket_size\": 2, \"value_module\": {\"__llvaluefunctions__\": true, \"module\": \"gecocoo.valuemodules.default.counting\", \"parameters\": []}, \"hash_functions\": [{\"__llhashfunction__\": true, \"name\": \"gecocoo.hashing.xorlinear.xorlinear\", \"seed\": 10766766704835148698, \"parameters\": []}, {\"__llhashfunction__\": true, \"name\": \"gecocoo.hashing.xorlinear.xorlinear\", \"seed\": 11649343804992614432, \"parameters\": []}, {\"__llhashfunction__\": true, \"name\": \"gecocoo.hashing.xorlinear.xorlinear\", \"seed\": 7640127926984367202, \"parameters\": []}], \"storage\": {\"__llstorageconfig__\": true, \"mode\": \"BUCKETS\", \"concurrent\": true, \"disable_quotienting\": false}}"
            },
            "options": {
                "disable_gc": false,
                "timer": "perf_counter",
                "min_rounds": 5,
                "max_time": 1.0,
                "min_time": 5e-06,
                "warmup": false
            },
            "stats": {
                "min": 1.6430489751510322,
                "max": 2.260367264971137,
                "mean": 1.9656087012030183,
                "stddev": 0.28261325123359615,
                "rounds": 5,
                "median": 1.929281051736325,
                "iqr": 0.5295959692448378,
                "q1": 1.7213838757015765,
                "q3": 2.2509798449464142,
                "iqr_outliers": 0,
                "stddev_outliers": 2,
                "outliers": "2;0",
                "ld15iqr": 1.6430489751510322,
                "hd15iqr": 2.260367264971137,
                "ops": 0.5087482566535071,
                "total": 9.828043506015092,
                "data": [
                    1.929281051736325,
                    1.6430489751510322,
                    2.2478507049381733,
                    1.7474955092184246,
                    2.260367264971137
                ],
                "iterations": 1
            }
        },
        {
            "group": "searching",
            "name": "search",
            "fullname": "bench_operations.py::test_cost_optimal",
            "params": null,
            "param": null,
            "extra_info": {
                "key_count": 100000000,
                "search_missing": 10000000,
                "search_hitt\u00edng": 0,
                "thread_count": 1,
                "config": "{\"__llconfig__\": true, \"k\": 31, \"key_bits\": 37, \"value_bits\": 32, \"bucket_count\": 52631579, \"bucket_size\": 2, \"value_module\": {\"__llvaluefunctions__\": true, \"module\": \"gecocoo.valuemodules.default.counting\", \"parameters\": []}, \"hash_functions\": [{\"__llhashfunction__\": true, \"name\": \"gecocoo.hashing.xorlinear.xorlinear\", \"seed\": 10766766704835148698, \"parameters\": []}, {\"__llhashfunction__\": true, \"name\": \"gecocoo.hashing.xorlinear.xorlinear\", \"seed\": 11649343804992614432, \"parameters\": []}, {\"__llhashfunction__\": true, \"name\": \"gecocoo.hashing.xorlinear.xorlinear\", \"seed\": 7640127926984367202, \"parameters\": []}], \"storage\": {\"__llstorageconfig__\": true, \"mode\": \"BUCKETS\", \"concurrent\": true, \"disable_quotienting\": false}}"
            },
            "options": {
                "disable_gc": false,
                "timer": "perf_counter",
                "min_rounds": 5,
                "max_time": 1.0,
                "min_time": 5e-06,
                "warmup": false
            },
            "stats": {
                "min": 2.2582325651310384,
                "max": 2.511382611002773,
                "mean": 2.3091593639925123,
                "stddev": 0.11304699343783647,
                "rounds": 5,
                "median": 2.258457839023322,
                "iqr": 0.06395539792720228,
                "q1": 2.2583706248551607,
                "q3": 2.322326022782363,
                "iqr_outliers": 1,
                "stddev_outliers": 1,
                "outliers": "1;1",
                "ld15iqr": 2.2582325651310384,
                "hd15iqr": 2.511382611002773,
                "ops": 0.43305802777986296,
                "total": 11.545796819962561,
                "data": [
                    2.511382611002773,
                    2.2593071600422263,
                    2.2582325651310384,
                    2.2584166447632015,
                    2.258457839023322
                ],
                "iterations": 1
            }
        },
        {
            "group": "searching",
            "name": "search",
            "fullname": "bench_operations.py::test_cost_optimal",
            "params": null,
            "param": null,
            "extra_info": {
                "key_count": 100000000,
                "search_missing": 0,
                "search_hitt\u00edng": 100000000,
                "thread_count": 1,
                "config": "{\"__llconfig__\": true, \"k\": 31, \"key_bits\": 37, \"value_bits\": 32, \"bucket_count\": 52631579, \"bucket_size\": 2, \"value_module\": {\"__llvaluefunctions__\": true, \"module\": \"gecocoo.valuemodules.default.counting\", \"parameters\": []}, \"hash_functions\": [{\"__llhashfunction__\": true, \"name\": \"gecocoo.hashing.xorlinear.xorlinear\", \"seed\": 10766766704835148698, \"parameters\": []}, {\"__llhashfunction__\": true, \"name\": \"gecocoo.hashing.xorlinear.xorlinear\", \"seed\": 11649343804992614432, \"parameters\": []}, {\"__llhashfunction__\": true, \"name\": \"gecocoo.hashing.xorlinear.xorlinear\", \"seed\": 7640127926984367202, \"parameters\": []}], \"storage\": {\"__llstorageconfig__\": true, \"mode\": \"BUCKETS\", \"concurrent\": true, \"disable_quotienting\": false}}"
            },
            "options": {
                "disable_gc": false,
                "timer": "perf_counter",
                "min_rounds": 5,
                "max_time": 1.0,
                "min_time": 5e-06,
                "warmup": false
            },
            "stats": {
                "min": 16.422993815969676,
                "max": 22.83149489481002,
                "mean": 17.789991128351538,
                "stddev": 2.819699731340797,
                "rounds": 5,
                "median": 16.612449276726693,
                "iqr": 1.7247382055502385,
                "q1": 16.450573606416583,
                "q3": 18.17531181196682,
                "iqr_outliers": 1,
                "stddev_outliers": 1,
                "outliers": "1;1",
                "ld15iqr": 16.422993815969676,
                "hd15iqr": 22.83149489481002,
                "ops": 0.0562113827255552,
                "total": 88.9499556417577,
                "data": [
                    16.62325078435242,
                    16.422993815969676,
                    16.459766869898885,
                    22.83149489481002,
                    16.612449276726693
                ],
                "iterations": 1
            }
        },
        {
            "group": "searching",
            "name": "search",
            "fullname": "bench_operations.py::test_cost_optimal",
            "params": null,
            "param": null,
            "extra_info": {
                "key_count": 100000000,
                "search_missing": 100000000,
                "search_hitt\u00edng": 0,
                "thread_count": 1,
                "config": "{\"__llconfig__\": true, \"k\": 31, \"key_bits\": 37, \"value_bits\": 32, \"bucket_count\": 52631579, \"bucket_size\": 2, \"value_module\": {\"__llvaluefunctions__\": true, \"module\": \"gecocoo.valuemodules.default.counting\", \"parameters\": []}, \"hash_functions\": [{\"__llhashfunction__\": true, \"name\": \"gecocoo.hashing.xorlinear.xorlinear\", \"seed\": 10766766704835148698, \"parameters\": []}, {\"__llhashfunction__\": true, \"name\": \"gecocoo.hashing.xorlinear.xorlinear\", \"seed\": 11649343804992614432, \"parameters\": []}, {\"__llhashfunction__\": true, \"name\": \"gecocoo.hashing.xorlinear.xorlinear\", \"seed\": 7640127926984367202, \"parameters\": []}], \"storage\": {\"__llstorageconfig__\": true, \"mode\": \"BUCKETS\", \"concurrent\": true, \"disable_quotienting\": false}}"
            },
            "options": {
                "disable_gc": false,
                "timer": "perf_counter",
                "min_rounds": 5,
                "max_time": 1.0,
                "min_time": 5e-06,
                "warmup": false
            },
            "stats": {
                "min": 22.620158155914396,
                "max": 22.77988370973617,
                "mean": 22.65278739705682,
                "stddev": 0.0710521857247821,
                "rounds": 5,
                "median": 22.621409663930535,
                "iqr": 0.040890605421736836,
                "q1": 22.620491976384073,
                "q3": 22.66138258180581,
                "iqr_outliers": 1,
                "stddev_outliers": 1,
                "outliers": "1;1",
                "ld15iqr": 22.620158155914396,
                "hd15iqr": 22.77988370973617,
                "ops": 0.04414467775960877,
                "total": 113.26393698528409,
                "data": [
                    22.77988370973617,
                    22.620603249873966,
                    22.621409663930535,
                    22.620158155914396,
                    22.621882205829024
                ],
                "iterations": 1
            }
        },
        {
            "group": "searching",
            "name": "search",
            "fullname": "bench_operations.py::test_cost_optimal",
            "params": null,
            "param": null,
            "extra_info": {
                "key_count": 100000000,
                "search_missing": 0,
                "search_hitt\u00edng": 1000000,
                "thread_count": 4,
                "config": "{\"__llconfig__\": true, \"k\": 31, \"key_bits\": 37, \"value_bits\": 32, \"bucket_count\": 52631579, \"bucket_size\": 2, \"value_module\": {\"__llvaluefunctions__\": true, \"module\": \"gecocoo.valuemodules.default.counting\", \"parameters\": []}, \"hash_functions\": [{\"__llhashfunction__\": true, \"name\": \"gecocoo.hashing.xorlinear.xorlinear\", \"seed\": 10766766704835148698, \"parameters\": []}, {\"__llhashfunction__\": true, \"name\": \"gecocoo.hashing.xorlinear.xorlinear\", \"seed\": 11649343804992614432, \"parameters\": []}, {\"__llhashfunction__\": true, \"name\": \"gecocoo.hashing.xorlinear.xorlinear\", \"seed\": 7640127926984367202, \"parameters\": []}], \"storage\": {\"__llstorageconfig__\": true, \"mode\": \"BUCKETS\", \"concurrent\": true, \"disable_quotienting\": false}}"
            },
            "options": {
                "disable_gc": false,
                "timer": "perf_counter",
                "min_rounds": 5,
                "max_time": 1.0,
                "min_time": 5e-06,
                "warmup": false
            },
            "stats": {
                "min": 0.05922029307112098,
                "max": 0.2047680076211691,
                "mean": 0.08880748711526394,
                "stddev": 0.0648275544346288,
                "rounds": 5,
                "median": 0.059569441713392735,
                "iqr": 0.037509134504944086,
                "q1": 0.05942385527305305,
                "q3": 0.09693298977799714,
                "iqr_outliers": 1,
                "stddev_outliers": 1,
                "outliers": "1;1",
                "ld15iqr": 0.05922029307112098,
                "hd15iqr": 0.2047680076211691,
                "ops": 11.26031185526162,
                "total": 0.4440374355763197,
                "data": [
                    0.2047680076211691,
                    0.06098798383027315,
                    0.05949170934036374,
                    0.059569441713392735,
                    0.05922029307112098
                ],
                "iterations": 1
            }
        },
        {
            "group": "searching",
            "name": "search",
            "fullname": "bench_operations.py::test_cost_optimal",
            "params": null,
            "param": null,
            "extra_info": {
                "key_count": 100000000,
                "search_missing": 1000000,
                "search_hitt\u00edng": 0,
                "thread_count": 4,
                "config": "{\"__llconfig__\": true, \"k\": 31, \"key_bits\": 37, \"value_bits\": 32, \"bucket_count\": 52631579, \"bucket_size\": 2, \"value_module\": {\"__llvaluefunctions__\": true, \"module\": \"gecocoo.valuemodules.default.counting\", \"parameters\": []}, \"hash_functions\": [{\"__llhashfunction__\": true, \"name\": \"gecocoo.hashing.xorlinear.xorlinear\", \"seed\": 10766766704835148698, \"parameters\": []}, {\"__llhashfunction__\": true, \"name\": \"gecocoo.hashing.xorlinear.xorlinear\", \"seed\": 11649343804992614432, \"parameters\": []}, {\"__llhashfunction__\": true, \"name\": \"gecocoo.hashing.xorlinear.xorlinear\", \"seed\": 7640127926984367202, \"parameters\": []}], \"storage\": {\"__llstorageconfig__\": true, \"mode\": \"BUCKETS\", \"concurrent\": true, \"disable_quotienting\": false}}"
            },
            "options": {
                "disable_gc": false,
                "timer": "perf_counter",
                "min_rounds": 5,
                "max_time": 1.0,
                "min_time": 5e-06,
                "warmup": false
            },
            "stats": {
                "min": 0.08433710504323244,
                "max": 0.22201555268839002,
                "mean": 0.11289888983592392,
                "stddev": 0.06100262923273703,
                "rounds": 5,
                "median": 0.08598034176975489,
                "iqr": 0.03458816360216588,
                "q1": 0.0855605440447107,
                "q3": 0.12014870764687657,
                "iqr_outliers": 1,
                "stddev_outliers": 1,
                "outliers": "1;1",
                "ld15iqr": 0.08433710504323244,
                "hd15iqr": 0.22201555268839002,
                "ops": 8.857483022670118,
                "total": 0.5644944491796196,
                "data": [
                    0.22201555268839002,
                    0.08433710504323244,
                    0.08598034176975489,
                    0.08596835704520345,
                    0.08619309263303876
                ],
                "iterations": 1
            }
        },
        {
            "group": "searching",
            "name": "search",
            "fullname": "bench_operations.py::test_cost_optimal",
            "params": null,
            "param": null,
            "extra_info": {
                "key_count": 100000000,
                "search_missing": 0,
                "search_hitt\u00edng": 10000000,
                "thread_count": 4,
                "config": "{\"__llconfig__\": true, \"k\": 31, \"key_bits\": 37, \"value_bits\": 32, \"bucket_count\": 52631579, \"bucket_size\": 2, \"value_module\": {\"__llvaluefunctions__\": true, \"module\": \"gecocoo.valuemodules.default.counting\", \"parameters\": []}, \"hash_functions\": [{\"__llhashfunction__\": true, \"name\": \"gecocoo.hashing.xorlinear.xorlinear\", \"seed\": 10766766704835148698, \"parameters\": []}, {\"__llhashfunction__\": true, \"name\": \"gecocoo.hashing.xorlinear.xorlinear\", \"seed\": 11649343804992614432, \"parameters\": []}, {\"__llhashfunction__\": true, \"name\": \"gecocoo.hashing.xorlinear.xorlinear\", \"seed\": 7640127926984367202, \"parameters\": []}], \"storage\": {\"__llstorageconfig__\": true, \"mode\": \"BUCKETS\", \"concurrent\": true, \"disable_quotienting\": false}}"
            },
            "options": {
                "disable_gc": false,
                "timer": "perf_counter",
                "min_rounds": 5,
                "max_time": 1.0,
                "min_time": 5e-06,
                "warmup": false
            },
            "stats": {
                "min": 0.5699552930891514,
                "max": 0.713672939222306,
                "mean": 0.6013748886995017,
                "stddev": 0.06283445170854822,
                "rounds": 5,
                "median": 0.5739889251999557,
                "iqr": 0.039886090671643615,
                "q1": 0.5714819659478962,
                "q3": 0.6113680566195399,
                "iqr_outliers": 1,
                "stddev_outliers": 1,
                "outliers": "1;1",
                "ld15iqr": 0.5699552930891514,
                "hd15iqr": 0.713672939222306,
                "ops": 1.6628562628588328,
                "total": 3.0068744434975088,
                "data": [
                    0.713672939222306,
                    0.5719908569008112,
                    0.5699552930891514,
                    0.5739889251999557,
                    0.5772664290852845
                ],
                "iterations": 1
            }
        },
        {
            "group": "searching",
            "name": "search",
            "fullname": "bench_operations.py::test_cost_optimal",
            "params": null,
            "param": null,
            "extra_info": {
                "key_count": 100000000,
                "search_missing": 10000000,
                "search_hitt\u00edng": 0,
                "thread_count": 4,
                "config": "{\"__llconfig__\": true, \"k\": 31, \"key_bits\": 37, \"value_bits\": 32, \"bucket_count\": 52631579, \"bucket_size\": 2, \"value_module\": {\"__llvaluefunctions__\": true, \"module\": \"gecocoo.valuemodules.default.counting\", \"parameters\": []}, \"hash_functions\": [{\"__llhashfunction__\": true, \"name\": \"gecocoo.hashing.xorlinear.xorlinear\", \"seed\": 10766766704835148698, \"parameters\": []}, {\"__llhashfunction__\": true, \"name\": \"gecocoo.hashing.xorlinear.xorlinear\", \"seed\": 11649343804992614432, \"parameters\": []}, {\"__llhashfunction__\": true, \"name\": \"gecocoo.hashing.xorlinear.xorlinear\", \"seed\": 7640127926984367202, \"parameters\": []}], \"storage\": {\"__llstorageconfig__\": true, \"mode\": \"BUCKETS\", \"concurrent\": true, \"disable_quotienting\": false}}"
            },
            "options": {
                "disable_gc": false,
                "timer": "perf_counter",
                "min_rounds": 5,
                "max_time": 1.0,
                "min_time": 5e-06,
                "warmup": false
            },
            "stats": {
                "min": 0.836335526779294,
                "max": 0.9501204108819366,
                "mean": 0.8620113289915026,
                "stddev": 0.049358980894584036,
                "rounds": 5,
                "median": 0.8411830561235547,
                "iqr": 0.03358507330995053,
                "q1": 0.8374210747424513,
                "q3": 0.8710061480524018,
                "iqr_outliers": 1,
                "stddev_outliers": 1,
                "outliers": "1;1",
                "ld15iqr": 0.836335526779294,
                "hd15iqr": 0.9501204108819366,
                "ops": 1.1600775608946292,
                "total": 4.310056644957513,
                "data": [
                    0.9501204108819366,
                    0.8377829240635037,
                    0.836335526779294,
                    0.8411830561235547,
                    0.8446347271092236
                ],
                "iterations": 1
            }
        },
        {
            "group": "searching",
            "name": "search",
            "fullname": "bench_operations.py::test_cost_optimal",
            "params": null,
            "param": null,
            "extra_info": {
                "key_count": 100000000,
                "search_missing": 0,
                "search_hitt\u00edng": 100000000,
                "thread_count": 4,
                "config": "{\"__llconfig__\": true, \"k\": 31, \"key_bits\": 37, \"value_bits\": 32, \"bucket_count\": 52631579, \"bucket_size\": 2, \"value_module\": {\"__llvaluefunctions__\": true, \"module\": \"gecocoo.valuemodules.default.counting\", \"parameters\": []}, \"hash_functions\": [{\"__llhashfunction__\": true, \"name\": \"gecocoo.hashing.xorlinear.xorlinear\", \"seed\": 10766766704835148698, \"parameters\": []}, {\"__llhashfunction__\": true, \"name\": \"gecocoo.hashing.xorlinear.xorlinear\", \"seed\": 11649343804992614432, \"parameters\": []}, {\"__llhashfunction__\": true, \"name\": \"gecocoo.hashing.xorlinear.xorlinear\", \"seed\": 7640127926984367202, \"parameters\": []}], \"storage\": {\"__llstorageconfig__\": true, \"mode\": \"BUCKETS\", \"concurrent\": true, \"disable_quotienting\": false}}"
            },
            "options": {
                "disable_gc": false,
                "timer": "perf_counter",
                "min_rounds": 5,
                "max_time": 1.0,
                "min_time": 5e-06,
                "warmup": false
            },
            "stats": {
                "min": 5.722025260794908,
                "max": 5.842493211850524,
                "mean": 5.762567293830216,
                "stddev": 0.046545066662611226,
                "rounds": 5,
                "median": 5.7483077282086015,
                "iqr": 0.041491952957585454,
                "q1": 5.737322683213279,
                "q3": 5.778814636170864,
                "iqr_outliers": 1,
                "stddev_outliers": 1,
                "outliers": "1;1",
                "ld15iqr": 5.722025260794908,
                "hd15iqr": 5.842493211850524,
                "ops": 0.17353376524915654,
                "total": 28.81283646915108,
                "data": [
                    5.842493211850524,
                    5.722025260794908,
                    5.7483077282086015,
                    5.742421824019402,
                    5.757588444277644
                ],
                "iterations": 1
            }
        },
        {
            "group": "searching",
            "name": "search",
            "fullname": "bench_operations.py::test_cost_optimal",
            "params": null,
            "param": null,
            "extra_info": {
                "key_count": 100000000,
                "search_missing": 100000000,
                "search_hitt\u00edng": 0,
                "thread_count": 4,
                "config": "{\"__llconfig__\": true, \"k\": 31, \"key_bits\": 37, \"value_bits\": 32, \"bucket_count\": 52631579, \"bucket_size\": 2, \"value_module\": {\"__llvaluefunctions__\": true, \"module\": \"gecocoo.valuemodules.default.counting\", \"parameters\": []}, \"hash_functions\": [{\"__llhashfunction__\": true, \"name\": \"gecocoo.hashing.xorlinear.xorlinear\", \"seed\": 10766766704835148698, \"parameters\": []}, {\"__llhashfunction__\": true, \"name\": \"gecocoo.hashing.xorlinear.xorlinear\", \"seed\": 11649343804992614432, \"parameters\": []}, {\"__llhashfunction__\": true, \"name\": \"gecocoo.hashing.xorlinear.xorlinear\", \"seed\": 7640127926984367202, \"parameters\": []}], \"storage\": {\"__llstorageconfig__\": true, \"mode\": \"BUCKETS\", \"concurrent\": true, \"disable_quotienting\": false}}"
            },
            "options": {
                "disable_gc": false,
                "timer": "perf_counter",
                "min_rounds": 5,
                "max_time": 1.0,
                "min_time": 5e-06,
                "warmup": false
            },
            "stats": {
                "min": 8.395701126661152,
                "max": 8.531420048791915,
                "mean": 8.430544371157884,
                "stddev": 0.0569581014204429,
                "rounds": 5,
                "median": 8.406956234015524,
                "iqr": 0.046013247687369585,
                "q1": 8.39987519045826,
                "q3": 8.44588843814563,
                "iqr_outliers": 1,
                "stddev_outliers": 1,
                "outliers": "1;1",
                "ld15iqr": 8.395701126661152,
                "hd15iqr": 8.531420048791915,
                "ops": 0.11861630233762188,
                "total": 42.15272185578942,
                "data": [
                    8.531420048791915,
                    8.395701126661152,
                    8.406956234015524,
                    8.417377901263535,
                    8.401266545057297
                ],
                "iterations": 1
            }
        },
        {
            "group": "searching",
            "name": "search",
            "fullname": "bench_operations.py::test_cost_optimal",
            "params": null,
            "param": null,
            "extra_info": {
                "key_count": 100000000,
                "search_missing": 0,
                "search_hitt\u00edng": 1000000,
                "thread_count": 8,
                "config": "{\"__llconfig__\": true, \"k\": 31, \"key_bits\": 37, \"value_bits\": 32, \"bucket_count\": 52631579, \"bucket_size\": 2, \"value_module\": {\"__llvaluefunctions__\": true, \"module\": \"gecocoo.valuemodules.default.counting\", \"parameters\": []}, \"hash_functions\": [{\"__llhashfunction__\": true, \"name\": \"gecocoo.hashing.xorlinear.xorlinear\", \"seed\": 10766766704835148698, \"parameters\": []}, {\"__llhashfunction__\": true, \"name\": \"gecocoo.hashing.xorlinear.xorlinear\", \"seed\": 11649343804992614432, \"parameters\": []}, {\"__llhashfunction__\": true, \"name\": \"gecocoo.hashing.xorlinear.xorlinear\", \"seed\": 7640127926984367202, \"parameters\": []}], \"storage\": {\"__llstorageconfig__\": true, \"mode\": \"BUCKETS\", \"concurrent\": true, \"disable_quotienting\": false}}"
            },
            "options": {
                "disable_gc": false,
                "timer": "perf_counter",
                "min_rounds": 5,
                "max_time": 1.0,
                "min_time": 5e-06,
                "warmup": false
            },
            "stats": {
                "min": 0.03103610035032034,
                "max": 0.19438052969053388,
                "mean": 0.06430471679195762,
                "stddev": 0.07271605604925231,
                "rounds": 5,
                "median": 0.03205661894753575,
                "iqr": 0.04117629141546786,
                "q1": 0.03160780866164714,
                "q3": 0.072784100077115,
                "iqr_outliers": 1,
                "stddev_outliers": 1,
                "outliers": "1;1",
                "ld15iqr": 0.03103610035032034,
                "hd15iqr": 0.19438052969053388,
                "ops": 15.550958777024997,
                "total": 0.3215235839597881,
                "data": [
                    0.19438052969053388,
                    0.03225195687264204,
                    0.03103610035032034,
                    0.031798378098756075,
                    0.03205661894753575
                ],
                "iterations": 1
            }
        },
        {
            "group": "searching",
            "name": "search",
            "fullname": "bench_operations.py::test_cost_optimal",
            "params": null,
            "param": null,
            "extra_info": {
                "key_count": 100000000,
                "search_missing": 1000000,
                "search_hitt\u00edng": 0,
                "thread_count": 8,
                "config": "{\"__llconfig__\": true, \"k\": 31, \"key_bits\": 37, \"value_bits\": 32, \"bucket_count\": 52631579, \"bucket_size\": 2, \"value_module\": {\"__llvaluefunctions__\": true, \"module\": \"gecocoo.valuemodules.default.counting\", \"parameters\": []}, \"hash_functions\": [{\"__llhashfunction__\": true, \"name\": \"gecocoo.hashing.xorlinear.xorlinear\", \"seed\": 10766766704835148698, \"parameters\": []}, {\"__llhashfunction__\": true, \"name\": \"gecocoo.hashing.xorlinear.xorlinear\", \"seed\": 11649343804992614432, \"parameters\": []}, {\"__llhashfunction__\": true, \"name\": \"gecocoo.hashing.xorlinear.xorlinear\", \"seed\": 7640127926984367202, \"parameters\": []}], \"storage\": {\"__llstorageconfig__\": true, \"mode\": \"BUCKETS\", \"concurrent\": true, \"disable_quotienting\": false}}"
            },
            "options": {
                "disable_gc": false,
                "timer": "perf_counter",
                "min_rounds": 5,
                "max_time": 1.0,
                "min_time": 5e-06,
                "warmup": false
            },
            "stats": {
                "min": 0.044621191918849945,
                "max": 0.20671592699363828,
                "mean": 0.07737826090306044,
                "stddev": 0.07230317183998129,
                "rounds": 5,
                "median": 0.0450380640104413,
                "iqr": 0.0412227138876915,
                "q1": 0.044749328517355025,
                "q3": 0.08597204240504652,
                "iqr_outliers": 1,
                "stddev_outliers": 1,
                "outliers": "1;1",
                "ld15iqr": 0.044621191918849945,
                "hd15iqr": 0.20671592699363828,
                "ops": 12.923526431445662,
                "total": 0.3868913045153022,
                "data": [
                    0.20671592699363828,
                    0.04572408087551594,
                    0.04479204071685672,
                    0.044621191918849945,
                    0.0450380640104413
                ],
                "iterations": 1
            }
        },
        {
            "group": "searching",
            "name": "search",
            "fullname": "bench_operations.py::test_cost_optimal",
            "params": null,
            "param": null,
            "extra_info": {
                "key_count": 100000000,
                "search_missing": 0,
                "search_hitt\u00edng": 10000000,
                "thread_count": 8,
                "config": "{\"__llconfig__\": true, \"k\": 31, \"key_bits\": 37, \"value_bits\": 32, \"bucket_count\": 52631579, \"bucket_size\": 2, \"value_module\": {\"__llvaluefunctions__\": true, \"module\": \"gecocoo.valuemodules.default.counting\", \"parameters\": []}, \"hash_functions\": [{\"__llhashfunction__\": true, \"name\": \"gecocoo.hashing.xorlinear.xorlinear\", \"seed\": 10766766704835148698, \"parameters\": []}, {\"__llhashfunction__\": true, \"name\": \"gecocoo.hashing.xorlinear.xorlinear\", \"seed\": 11649343804992614432, \"parameters\": []}, {\"__llhashfunction__\": true, \"name\": \"gecocoo.hashing.xorlinear.xorlinear\", \"seed\": 7640127926984367202, \"parameters\": []}], \"storage\": {\"__llstorageconfig__\": true, \"mode\": \"BUCKETS\", \"concurrent\": true, \"disable_quotienting\": false}}"
            },
            "options": {
                "disable_gc": false,
                "timer": "perf_counter",
                "min_rounds": 5,
                "max_time": 1.0,
                "min_time": 5e-06,
                "warmup": false
            },
            "stats": {
                "min": 0.29311227332800627,
                "max": 0.582278881687671,
                "mean": 0.3521911924704909,
                "stddev": 0.12862610357353296,
                "rounds": 5,
                "median": 0.2951255110092461,
                "iqr": 0.07247210049536079,
                "q1": 0.2946025802521035,
                "q3": 0.3670746807474643,
                "iqr_outliers": 1,
                "stddev_outliers": 1,
                "outliers": "1;1",
                "ld15iqr": 0.29311227332800627,
                "hd15iqr": 0.582278881687671,
                "ops": 2.8393668591919345,
                "total": 1.7609559623524547,
                "data": [
                    0.582278881687671,
                    0.2950993492268026,
                    0.2951255110092461,
                    0.29311227332800627,
                    0.29533994710072875
                ],
                "iterations": 1
            }
        },
        {
            "group": "searching",
            "name": "search",
            "fullname": "bench_operations.py::test_cost_optimal",
            "params": null,
            "param": null,
            "extra_info": {
                "key_count": 100000000,
                "search_missing": 10000000,
                "search_hitt\u00edng": 0,
                "thread_count": 8,
                "config": "{\"__llconfig__\": true, \"k\": 31, \"key_bits\": 37, \"value_bits\": 32, \"bucket_count\": 52631579, \"bucket_size\": 2, \"value_module\": {\"__llvaluefunctions__\": true, \"module\": \"gecocoo.valuemodules.default.counting\", \"parameters\": []}, \"hash_functions\": [{\"__llhashfunction__\": true, \"name\": \"gecocoo.hashing.xorlinear.xorlinear\", \"seed\": 10766766704835148698, \"parameters\": []}, {\"__llhashfunction__\": true, \"name\": \"gecocoo.hashing.xorlinear.xorlinear\", \"seed\": 11649343804992614432, \"parameters\": []}, {\"__llhashfunction__\": true, \"name\": \"gecocoo.hashing.xorlinear.xorlinear\", \"seed\": 7640127926984367202, \"parameters\": []}], \"storage\": {\"__llstorageconfig__\": true, \"mode\": \"BUCKETS\", \"concurrent\": true, \"disable_quotienting\": false}}"
            },
            "options": {
                "disable_gc": false,
                "timer": "perf_counter",
                "min_rounds": 5,
                "max_time": 1.0,
                "min_time": 5e-06,
                "warmup": false
            },
            "stats": {
                "min": 0.4292650921270251,
                "max": 0.5913973310962319,
                "mean": 0.46276275590062144,
                "stddev": 0.07191352791504314,
                "rounds": 5,
                "median": 0.43097726395353675,
                "iqr": 0.041069612954743207,
                "q1": 0.430363281047903,
                "q3": 0.4714328940026462,
                "iqr_outliers": 1,
                "stddev_outliers": 1,
                "outliers": "1;1",
                "ld15iqr": 0.4292650921270251,
                "hd15iqr": 0.5913973310962319,
                "ops": 2.1609344901877767,
                "total": 2.313813779503107,
                "data": [
                    0.5913973310962319,
                    0.4292650921270251,
                    0.43097726395353675,
                    0.43072934402152896,
                    0.4314447483047843
                ],
                "iterations": 1
            }
        },
        {
            "group": "searching",
            "name": "search",
            "fullname": "bench_operations.py::test_cost_optimal",
            "params": null,
            "param": null,
            "extra_info": {
                "key_count": 100000000,
                "search_missing": 0,
                "search_hitt\u00edng": 100000000,
                "thread_count": 8,
                "config": "{\"__llconfig__\": true, \"k\": 31, \"key_bits\": 37, \"value_bits\": 32, \"bucket_count\": 52631579, \"bucket_size\": 2, \"value_module\": {\"__llvaluefunctions__\": true, \"module\": \"gecocoo.valuemodules.default.counting\", \"parameters\": []}, \"hash_functions\": [{\"__llhashfunction__\": true, \"name\": \"gecocoo.hashing.xorlinear.xorlinear\", \"seed\": 10766766704835148698, \"parameters\": []}, {\"__llhashfunction__\": true, \"name\": \"gecocoo.hashing.xorlinear.xorlinear\", \"seed\": 11649343804992614432, \"parameters\": []}, {\"__llhashfunction__\": true, \"name\": \"gecocoo.hashing.xorlinear.xorlinear\", \"seed\": 7640127926984367202, \"parameters\": []}], \"storage\": {\"__llstorageconfig__\": true, \"mode\": \"BUCKETS\", \"concurrent\": true, \"disable_quotienting\": false}}"
            },
            "options": {
                "disable_gc": false,
                "timer": "perf_counter",
                "min_rounds": 5,
                "max_time": 1.0,
                "min_time": 5e-06,
                "warmup": false
            },
            "stats": {
                "min": 2.909110974986106,
                "max": 3.061634687706828,
                "mean": 2.944954836461693,
                "stddev": 0.065347917133193,
                "rounds": 5,
                "median": 2.917296689003706,
                "iqr": 0.04011989233549684,
                "q1": 2.9150576981483027,
                "q3": 2.9551775904837996,
                "iqr_outliers": 1,
                "stddev_outliers": 1,
                "outliers": "1;1",
                "ld15iqr": 2.909110974986106,
                "hd15iqr": 3.061634687706828,
                "ops": 0.3395637812909487,
                "total": 14.724774182308465,
                "data": [
                    3.061634687706828,
                    2.9170399392023683,
                    2.917296689003706,
                    2.909110974986106,
                    2.9196918914094567
                ],
                "iterations": 1
            }
        },
        {
            "group": "searching",
            "name": "search",
            "fullname": "bench_operations.py::test_cost_optimal",
            "params": null,
            "param": null,
            "extra_info": {
                "key_count": 100000000,
                "search_missing": 100000000,
                "search_hitt\u00edng": 0,
                "thread_count": 8,
                "config": "{\"__llconfig__\": true, \"k\": 31, \"key_bits\": 37, \"value_bits\": 32, \"bucket_count\": 52631579, \"bucket_size\": 2, \"value_module\": {\"__llvaluefunctions__\": true, \"module\": \"gecocoo.valuemodules.default.counting\", \"parameters\": []}, \"hash_functions\": [{\"__llhashfunction__\": true, \"name\": \"gecocoo.hashing.xorlinear.xorlinear\", \"seed\": 10766766704835148698, \"parameters\": []}, {\"__llhashfunction__\": true, \"name\": \"gecocoo.hashing.xorlinear.xorlinear\", \"seed\": 11649343804992614432, \"parameters\": []}, {\"__llhashfunction__\": true, \"name\": \"gecocoo.hashing.xorlinear.xorlinear\", \"seed\": 7640127926984367202, \"parameters\": []}], \"storage\": {\"__llstorageconfig__\": true, \"mode\": \"BUCKETS\", \"concurrent\": true, \"disable_quotienting\": false}}"
            },
            "options": {
                "disable_gc": false,
                "timer": "perf_counter",
                "min_rounds": 5,
                "max_time": 1.0,
                "min_time": 5e-06,
                "warmup": false
            },
            "stats": {
                "min": 4.256114800926298,
                "max": 4.413838820997626,
                "mean": 4.288026732113212,
                "stddev": 0.07033359282235993,
                "rounds": 5,
                "median": 4.256297791842371,
                "iqr": 0.04040788789279759,
                "q1": 4.256246101344004,
                "q3": 4.296653989236802,
                "iqr_outliers": 1,
                "stddev_outliers": 1,
                "outliers": "1;1",
                "ld15iqr": 4.256114800926298,
                "hd15iqr": 4.413838820997626,
                "ops": 0.23320750136909316,
                "total": 21.44013366056606,
                "data": [
                    4.413838820997626,
                    4.256297791842371,
                    4.256114800926298,
                    4.256289868149906,
                    4.257592378649861
                ],
                "iterations": 1
            }
        },
        {
            "group": "searching",
            "name": "search",
            "fullname": "bench_operations.py::test_cost_optimal",
            "params": null,
            "param": null,
            "extra_info": {
                "key_count": 100000000,
                "search_missing": 0,
                "search_hitt\u00edng": 1000000,
                "thread_count": 16,
                "config": "{\"__llconfig__\": true, \"k\": 31, \"key_bits\": 37, \"value_bits\": 32, \"bucket_count\": 52631579, \"bucket_size\": 2, \"value_module\": {\"__llvaluefunctions__\": true, \"module\": \"gecocoo.valuemodules.default.counting\", \"parameters\": []}, \"hash_functions\": [{\"__llhashfunction__\": true, \"name\": \"gecocoo.hashing.xorlinear.xorlinear\", \"seed\": 10766766704835148698, \"parameters\": []}, {\"__llhashfunction__\": true, \"name\": \"gecocoo.hashing.xorlinear.xorlinear\", \"seed\": 11649343804992614432, \"parameters\": []}, {\"__llhashfunction__\": true, \"name\": \"gecocoo.hashing.xorlinear.xorlinear\", \"seed\": 7640127926984367202, \"parameters\": []}], \"storage\": {\"__llstorageconfig__\": true, \"mode\": \"BUCKETS\", \"concurrent\": true, \"disable_quotienting\": false}}"
            },
            "options": {
                "disable_gc": false,
                "timer": "perf_counter",
                "min_rounds": 5,
                "max_time": 1.0,
                "min_time": 5e-06,
                "warmup": false
            },
            "stats": {
                "min": 0.025491958018392324,
                "max": 0.19897269178181887,
                "mean": 0.06034996593371034,
                "stddev": 0.07749263501848958,
                "rounds": 5,
                "median": 0.02569882059469819,
                "iqr": 0.0436031895224005,
                "q1": 0.025601371191442013,
                "q3": 0.06920456071384251,
                "iqr_outliers": 1,
                "stddev_outliers": 1,
                "outliers": "1;1",
                "ld15iqr": 0.025491958018392324,
                "hd15iqr": 0.19897269178181887,
                "ops": 16.57001763842619,
                "total": 0.3017498296685517,
                "data": [
                    0.19897269178181887,
                    0.025491958018392324,
                    0.02569882059469819,
                    0.02594851702451706,
                    0.025637842249125242
                ],
                "iterations": 1
            }
        },
        {
            "group": "searching",
            "name": "search",
            "fullname": "bench_operations.py::test_cost_optimal",
            "params": null,
            "param": null,
            "extra_info": {
                "key_count": 100000000,
                "search_missing": 1000000,
                "search_hitt\u00edng": 0,
                "thread_count": 16,
                "config": "{\"__llconfig__\": true, \"k\": 31, \"key_bits\": 37, \"value_bits\": 32, \"bucket_count\": 52631579, \"bucket_size\": 2, \"value_module\": {\"__llvaluefunctions__\": true, \"module\": \"gecocoo.valuemodules.default.counting\", \"parameters\": []}, \"hash_functions\": [{\"__llhashfunction__\": true, \"name\": \"gecocoo.hashing.xorlinear.xorlinear\", \"seed\": 10766766704835148698, \"parameters\": []}, {\"__llhashfunction__\": true, \"name\": \"gecocoo.hashing.xorlinear.xorlinear\", \"seed\": 11649343804992614432, \"parameters\": []}, {\"__llhashfunction__\": true, \"name\": \"gecocoo.hashing.xorlinear.xorlinear\", \"seed\": 7640127926984367202, \"parameters\": []}], \"storage\": {\"__llstorageconfig__\": true, \"mode\": \"BUCKETS\", \"concurrent\": true, \"disable_quotienting\": false}}"
            },
            "options": {
                "disable_gc": false,
                "timer": "perf_counter",
                "min_rounds": 5,
                "max_time": 1.0,
                "min_time": 5e-06,
                "warmup": false
            },
            "stats": {
                "min": 0.034724283032119274,
                "max": 0.20870623784139752,
                "mean": 0.071656384319067,
                "stddev": 0.07662937599079282,
                "rounds": 5,
                "median": 0.038092977833002806,
                "iqr": 0.04413177783135325,
                "q1": 0.03714733477681875,
                "q3": 0.081279112608172,
                "iqr_outliers": 1,
                "stddev_outliers": 1,
                "outliers": "1;1",
                "ld15iqr": 0.034724283032119274,
                "hd15iqr": 0.20870623784139752,
                "ops": 13.955490630775667,
                "total": 0.358281921595335,
                "data": [
                    0.20870623784139752,
                    0.038092977833002806,
                    0.038803404197096825,
                    0.034724283032119274,
                    0.03795501869171858
                ],
                "iterations": 1
            }
        },
        {
            "group": "searching",
            "name": "search",
            "fullname": "bench_operations.py::test_cost_optimal",
            "params": null,
            "param": null,
            "extra_info": {
                "key_count": 100000000,
                "search_missing": 0,
                "search_hitt\u00edng": 10000000,
                "thread_count": 16,
                "config": "{\"__llconfig__\": true, \"k\": 31, \"key_bits\": 37, \"value_bits\": 32, \"bucket_count\": 52631579, \"bucket_size\": 2, \"value_module\": {\"__llvaluefunctions__\": true, \"module\": \"gecocoo.valuemodules.default.counting\", \"parameters\": []}, \"hash_functions\": [{\"__llhashfunction__\": true, \"name\": \"gecocoo.hashing.xorlinear.xorlinear\", \"seed\": 10766766704835148698, \"parameters\": []}, {\"__llhashfunction__\": true, \"name\": \"gecocoo.hashing.xorlinear.xorlinear\", \"seed\": 11649343804992614432, \"parameters\": []}, {\"__llhashfunction__\": true, \"name\": \"gecocoo.hashing.xorlinear.xorlinear\", \"seed\": 7640127926984367202, \"parameters\": []}], \"storage\": {\"__llstorageconfig__\": true, \"mode\": \"BUCKETS\", \"concurrent\": true, \"disable_quotienting\": false}}"
            },
            "options": {
                "disable_gc": false,
                "timer": "perf_counter",
                "min_rounds": 5,
                "max_time": 1.0,
                "min_time": 5e-06,
                "warmup": false
            },
            "stats": {
                "min": 0.20068300515413284,
                "max": 0.34131259517744184,
                "mean": 0.22948193112388254,
                "stddev": 0.06252109904412462,
                "rounds": 5,
                "median": 0.20200213696807623,
                "iqr": 0.03662992815952748,
                "q1": 0.20071395533159375,
                "q3": 0.23734388349112123,
                "iqr_outliers": 1,
                "stddev_outliers": 1,
                "outliers": "1;1",
                "ld15iqr": 0.20068300515413284,
                "hd15iqr": 0.34131259517744184,
                "ops": 4.357641558542421,
                "total": 1.1474096556194127,
                "data": [
                    0.34131259517744184,
                    0.20200213696807623,
                    0.20068300515413284,
                    0.2026876462623477,
                    0.20072427205741405
                ],
                "iterations": 1
            }
        },
        {
            "group": "searching",
            "name": "search",
            "fullname": "bench_operations.py::test_cost_optimal",
            "params": null,
            "param": null,
            "extra_info": {
                "key_count": 100000000,
                "search_missing": 10000000,
                "search_hitt\u00edng": 0,
                "thread_count": 16,
                "config": "{\"__llconfig__\": true, \"k\": 31, \"key_bits\": 37, \"value_bits\": 32, \"bucket_count\": 52631579, \"bucket_size\": 2, \"value_module\": {\"__llvaluefunctions__\": true, \"module\": \"gecocoo.valuemodules.default.counting\", \"parameters\": []}, \"hash_functions\": [{\"__llhashfunction__\": true, \"name\": \"gecocoo.hashing.xorlinear.xorlinear\", \"seed\": 10766766704835148698, \"parameters\": []}, {\"__llhashfunction__\": true, \"name\": \"gecocoo.hashing.xorlinear.xorlinear\", \"seed\": 11649343804992614432, \"parameters\": []}, {\"__llhashfunction__\": true, \"name\": \"gecocoo.hashing.xorlinear.xorlinear\", \"seed\": 7640127926984367202, \"parameters\": []}], \"storage\": {\"__llstorageconfig__\": true, \"mode\": \"BUCKETS\", \"concurrent\": true, \"disable_quotienting\": false}}"
            },
            "options": {
                "disable_gc": false,
                "timer": "perf_counter",
                "min_rounds": 5,
                "max_time": 1.0,
                "min_time": 5e-06,
                "warmup": false
            },
            "stats": {
                "min": 0.2838933439925313,
                "max": 0.41122556012123823,
                "mean": 0.31572367902845144,
                "stddev": 0.053599070751771755,
                "rounds": 5,
                "median": 0.294467203784734,
                "iqr": 0.03449638106394559,
                "q1": 0.290528780198656,
                "q3": 0.3250251612626016,
                "iqr_outliers": 1,
                "stddev_outliers": 1,
                "outliers": "1;1",
                "ld15iqr": 0.2838933439925313,
                "hd15iqr": 0.41122556012123823,
                "ops": 3.167326578346013,
                "total": 1.5786183951422572,
                "data": [
                    0.41122556012123823,
                    0.29274059226736426,
                    0.2962916949763894,
                    0.2838933439925313,
                    0.294467203784734
                ],
                "iterations": 1
            }
        },
        {
            "group": "searching",
            "name": "search",
            "fullname": "bench_operations.py::test_cost_optimal",
            "params": null,
            "param": null,
            "extra_info": {
                "key_count": 100000000,
                "search_missing": 0,
                "search_hitt\u00edng": 100000000,
                "thread_count": 16,
                "config": "{\"__llconfig__\": true, \"k\": 31, \"key_bits\": 37, \"value_bits\": 32, \"bucket_count\": 52631579, \"bucket_size\": 2, \"value_module\": {\"__llvaluefunctions__\": true, \"module\": \"gecocoo.valuemodules.default.counting\", \"parameters\": []}, \"hash_functions\": [{\"__llhashfunction__\": true, \"name\": \"gecocoo.hashing.xorlinear.xorlinear\", \"seed\": 10766766704835148698, \"parameters\": []}, {\"__llhashfunction__\": true, \"name\": \"gecocoo.hashing.xorlinear.xorlinear\", \"seed\": 11649343804992614432, \"parameters\": []}, {\"__llhashfunction__\": true, \"name\": \"gecocoo.hashing.xorlinear.xorlinear\", \"seed\": 7640127926984367202, \"parameters\": []}], \"storage\": {\"__llstorageconfig__\": true, \"mode\": \"BUCKETS\", \"concurrent\": true, \"disable_quotienting\": false}}"
            },
            "options": {
                "disable_gc": false,
                "timer": "perf_counter",
                "min_rounds": 5,
                "max_time": 1.0,
                "min_time": 5e-06,
                "warmup": false
            },
            "stats": {
                "min": 1.6325798030011356,
                "max": 2.0305305528454483,
                "mean": 1.9067245309241116,
                "stddev": 0.16214798551386436,
                "rounds": 5,
                "median": 1.9239452108740807,
                "iqr": 0.17834730877075344,
                "q1": 1.8486777980579063,
                "q3": 2.0270251068286598,
                "iqr_outliers": 0,
                "stddev_outliers": 1,
                "outliers": "1;0",
                "ld15iqr": 1.6325798030011356,
                "hd15iqr": 2.0305305528454483,
                "ops": 0.5244596079724956,
                "total": 9.533622654620558,
                "data": [
                    1.6325798030011356,
                    1.92071046307683,
                    2.0258566248230636,
                    2.0305305528454483,
                    1.9239452108740807
                ],
                "iterations": 1
            }
        },
        {
            "group": "searching",
            "name": "search",
            "fullname": "bench_operations.py::test_cost_optimal",
            "params": null,
            "param": null,
            "extra_info": {
                "key_count": 100000000,
                "search_missing": 100000000,
                "search_hitt\u00edng": 0,
                "thread_count": 16,
                "config": "{\"__llconfig__\": true, \"k\": 31, \"key_bits\": 37, \"value_bits\": 32, \"bucket_count\": 52631579, \"bucket_size\": 2, \"value_module\": {\"__llvaluefunctions__\": true, \"module\": \"gecocoo.valuemodules.default.counting\", \"parameters\": []}, \"hash_functions\": [{\"__llhashfunction__\": true, \"name\": \"gecocoo.hashing.xorlinear.xorlinear\", \"seed\": 10766766704835148698, \"parameters\": []}, {\"__llhashfunction__\": true, \"name\": \"gecocoo.hashing.xorlinear.xorlinear\", \"seed\": 11649343804992614432, \"parameters\": []}, {\"__llhashfunction__\": true, \"name\": \"gecocoo.hashing.xorlinear.xorlinear\", \"seed\": 7640127926984367202, \"parameters\": []}], \"storage\": {\"__llstorageconfig__\": true, \"mode\": \"BUCKETS\", \"concurrent\": true, \"disable_quotienting\": false}}"
            },
            "options": {
                "disable_gc": false,
                "timer": "perf_counter",
                "min_rounds": 5,
                "max_time": 1.0,
                "min_time": 5e-06,
                "warmup": false
            },
            "stats": {
                "min": 2.3391330279409885,
                "max": 2.9649935588240623,
                "mean": 2.7882912582717836,
                "stddev": 0.2566094873871777,
                "rounds": 5,
                "median": 2.8549519148655236,
                "iqr": 0.2300064996816218,
                "q1": 2.7164042446529493,
                "q3": 2.946410744334571,
                "iqr_outliers": 1,
                "stddev_outliers": 1,
                "outliers": "1;1",
                "ld15iqr": 2.8421613168902695,
                "hd15iqr": 2.9649935588240623,
                "ops": 0.35864259052327696,
                "total": 13.941456291358918,
                "data": [
                    2.3391330279409885,
                    2.8421613168902695,
                    2.9649935588240623,
                    2.8549519148655236,
                    2.940216472838074
                ],
                "iterations": 1
            }
        }
    ],
    "datetime": "2021-03-06T20:51:09.880404",
    "version": "3.2.3"
}