{
    "machine_info": {
        "node": "cstd01-010",
        "processor": "x86_64",
        "machine": "x86_64",
        "python_compiler": "GCC 7.3.0",
        "python_implementation": "CPython",
        "python_implementation_version": "3.7.9",
        "python_version": "3.7.9",
        "python_build": [
            "default",
            "Aug 31 2020 12:42:55"
        ],
        "release": "3.10.0-1160.6.1.el7.x86_64",
        "system": "Linux",
        "cpu": {
            "vendor_id": "unknown",
            "hardware": "unknown",
            "brand": "unknown"
        }
    },
    "commit_info": {
        "id": "unversioned",
        "time": null,
        "author_time": null,
        "dirty": false,
        "project": "gecocoo-2021-03-06T20_04_12.073701-origin_develop",
        "branch": "(unknown)"
    },
    "benchmarks": [
        {
            "group": "table storage modes (insert)",
            "name": "mode = StorageMode.PACKED, concurrent = False",
            "fullname": "benchmarks/table/bench_storage.py::bench_storage_insert[storage0]",
            "params": {
                "storage": "UNSERIALIZABLE[StorageConfig(mode=<StorageMode.PACKED: 0>, concurrent=False, disable_quotienting=False, disable_occupied_flag=False)]"
            },
            "param": "storage0",
            "extra_info": {},
            "options": {
                "disable_gc": false,
                "timer": "perf_counter",
                "min_rounds": 5,
                "max_time": 1.0,
                "min_time": 5e-06,
                "warmup": false
            },
            "stats": {
                "min": 188.86680472968146,
                "max": 197.52394106425345,
                "mean": 191.4665743728634,
                "stddev": 3.696539884341206,
                "rounds": 10,
                "median": 188.98421241156757,
                "iqr": 5.955424943007529,
                "q1": 188.93091204715893,
                "q3": 194.88633699016646,
                "iqr_outliers": 0,
                "stddev_outliers": 2,
                "outliers": "2;0",
                "ld15iqr": 188.86680472968146,
                "hd15iqr": 197.52394106425345,
                "ops": 0.005222843743224824,
                "total": 1914.665743728634,
                "data": [
                    188.96321923099458,
                    188.86680472968146,
                    188.86731866002083,
                    188.93091204715893,
                    188.98044477310032,
                    188.98798005003482,
                    191.19361875625327,
                    194.88633699016646,
                    197.52394106425345,
                    197.46516742696986
                ],
                "iterations": 1
            }
        },
        {
            "group": "table storage modes (insert)",
            "name": "mode = StorageMode.PACKED, concurrent = True",
            "fullname": "benchmarks/table/bench_storage.py::bench_storage_insert[storage1]",
            "params": {
                "storage": "UNSERIALIZABLE[StorageConfig(mode=<StorageMode.PACKED: 0>, concurrent=True, disable_quotienting=False, disable_occupied_flag=False)]"
            },
            "param": "storage1",
            "extra_info": {},
            "options": {
                "disable_gc": false,
                "timer": "perf_counter",
                "min_rounds": 5,
                "max_time": 1.0,
                "min_time": 5e-06,
                "warmup": false
            },
            "stats": {
                "min": 255.33053973177448,
                "max": 264.9102818593383,
                "mean": 261.7042318520136,
                "stddev": 3.1461259027731217,
                "rounds": 10,
                "median": 262.14193477411754,
                "iqr": 4.592446117196232,
                "q1": 259.9391733747907,
                "q3": 264.53161949198693,
                "iqr_outliers": 0,
                "stddev_outliers": 2,
                "outliers": "2;0",
                "ld15iqr": 255.33053973177448,
                "hd15iqr": 264.9102818593383,
                "ops": 0.0038211074881107456,
                "total": 2617.042318520136,
                "data": [
                    263.1798048722558,
                    264.9102818593383,
                    264.53161949198693,
                    259.9391733747907,
                    260.75180182093754,
                    264.6013959720731,
                    264.0833330680616,
                    261.1040646759793,
                    258.61030365293846,
                    255.33053973177448
                ],
                "iterations": 1
            }
        },
        {
            "group": "table storage modes (insert)",
            "name": "mode = StorageMode.BUCKETS, concurrent = False",
            "fullname": "benchmarks/table/bench_storage.py::bench_storage_insert[storage2]",
            "params": {
                "storage": "UNSERIALIZABLE[StorageConfig(mode=<StorageMode.BUCKETS: 1>, concurrent=False, disable_quotienting=False, disable_occupied_flag=False)]"
            },
            "param": "storage2",
            "extra_info": {},
            "options": {
                "disable_gc": false,
                "timer": "perf_counter",
                "min_rounds": 5,
                "max_time": 1.0,
                "min_time": 5e-06,
                "warmup": false
            },
            "stats": {
                "min": 113.37558310525492,
                "max": 113.42757982481271,
                "mean": 113.40122508872301,
                "stddev": 0.015982707286169642,
                "rounds": 10,
                "median": 113.40624336409383,
                "iqr": 0.024055367801338434,
                "q1": 113.38544626813382,
                "q3": 113.40950163593516,
                "iqr_outliers": 0,
                "stddev_outliers": 3,
                "outliers": "3;0",
                "ld15iqr": 113.37558310525492,
                "hd15iqr": 113.42757982481271,
                "ops": 0.00881824688593636,
                "total": 1134.01225088723,
                "data": [
                    113.41462813224643,
                    113.38270802889019,
                    113.39698518905789,
                    113.40733197471127,
                    113.40705159818754,
                    113.38544626813382,
                    113.40950163593516,
                    113.37558310525492,
                    113.40543513000011,
                    113.42757982481271
                ],
                "iterations": 1
            }
        },
        {
            "group": "table storage modes (insert)",
            "name": "mode = StorageMode.BUCKETS, concurrent = True",
            "fullname": "benchmarks/table/bench_storage.py::bench_storage_insert[storage3]",
            "params": {
                "storage": "UNSERIALIZABLE[StorageConfig(mode=<StorageMode.BUCKETS: 1>, concurrent=True, disable_quotienting=False, disable_occupied_flag=False)]"
            },
            "param": "storage3",
            "extra_info": {},
            "options": {
                "disable_gc": false,
                "timer": "perf_counter",
                "min_rounds": 5,
                "max_time": 1.0,
                "min_time": 5e-06,
                "warmup": false
            },
            "stats": {
                "min": 86.64442230015993,
                "max": 86.71343784499913,
                "mean": 86.68671267637983,
                "stddev": 0.022505455766246546,
                "rounds": 10,
                "median": 86.6933295824565,
                "iqr": 0.0324459751136601,
                "q1": 86.67042235983536,
                "q3": 86.70286833494902,
                "iqr_outliers": 0,
                "stddev_outliers": 3,
                "outliers": "3;0",
                "ld15iqr": 86.64442230015993,
                "hd15iqr": 86.71343784499913,
                "ops": 0.011535793308176483,
                "total": 866.8671267637983,
                "data": [
                    86.71343784499913,
                    86.69195304205641,
                    86.67042235983536,
                    86.69971740525216,
                    86.65536010591313,
                    86.6912333178334,
                    86.69470612285659,
                    86.64442230015993,
                    86.70286833494902,
                    86.70300592994317
                ],
                "iterations": 1
            }
        },
        {
            "group": "table storage modes (insert)",
            "name": "mode = StorageMode.FAST, concurrent = True",
            "fullname": "benchmarks/table/bench_storage.py::bench_storage_insert[storage4]",
            "params": {
                "storage": "UNSERIALIZABLE[StorageConfig(mode=<StorageMode.FAST: 2>, concurrent=True, disable_quotienting=True, disable_occupied_flag=False)]"
            },
            "param": "storage4",
            "extra_info": {},
            "options": {
                "disable_gc": false,
                "timer": "perf_counter",
                "min_rounds": 5,
                "max_time": 1.0,
                "min_time": 5e-06,
                "warmup": false
            },
            "stats": {
                "min": 70.38383646681905,
                "max": 70.44857720285654,
                "mean": 70.42041426231154,
                "stddev": 0.019785027359056826,
                "rounds": 10,
                "median": 70.41496323049068,
                "iqr": 0.030470756348222494,
                "q1": 70.41248597670346,
                "q3": 70.44295673305169,
                "iqr_outliers": 0,
                "stddev_outliers": 4,
                "outliers": "4;0",
                "ld15iqr": 70.38383646681905,
                "hd15iqr": 70.44857720285654,
                "ops": 0.014200427681028175,
                "total": 704.2041426231153,
                "data": [
                    70.42061992781237,
                    70.41248597670346,
                    70.41472309688106,
                    70.38383646681905,
                    70.40722907613963,
                    70.41457285871729,
                    70.44393792003393,
                    70.41520336410031,
                    70.44857720285654,
                    70.44295673305169
                ],
                "iterations": 1
            }
        },
        {
            "group": "table storage modes (insert)",
            "name": "mode = StorageMode.FAST, concurrent = False",
            "fullname": "benchmarks/table/bench_storage.py::bench_storage_insert[storage5]",
            "params": {
                "storage": "UNSERIALIZABLE[StorageConfig(mode=<StorageMode.FAST: 2>, concurrent=False, disable_quotienting=True, disable_occupied_flag=False)]"
            },
            "param": "storage5",
            "extra_info": {},
            "options": {
                "disable_gc": false,
                "timer": "perf_counter",
                "min_rounds": 5,
                "max_time": 1.0,
                "min_time": 5e-06,
                "warmup": false
            },
            "stats": {
                "min": 66.16166246309876,
                "max": 69.63689185632393,
                "mean": 68.04972982062027,
                "stddev": 1.6933769393024136,
                "rounds": 10,
                "median": 68.6646025958471,
                "iqr": 3.3892676290124655,
                "q1": 66.20415757596493,
                "q3": 69.5934252049774,
                "iqr_outliers": 0,
                "stddev_outliers": 4,
                "outliers": "4;0",
                "ld15iqr": 66.16166246309876,
                "hd15iqr": 69.63689185632393,
                "ops": 0.01469513549335184,
                "total": 680.4972982062027,
                "data": [
                    66.21750457305461,
                    66.20415757596493,
                    66.16166246309876,
                    66.18272334430367,
                    67.76566703384742,
                    69.5965595501475,
                    69.57516844663769,
                    69.56353815784678,
                    69.63689185632393,
                    69.5934252049774
                ],
                "iterations": 1
            }
        },
        {
            "group": "table storage modes (search)",
            "name": "mode = StorageMode.PACKED concurrent = False",
            "fullname": "benchmarks/table/bench_storage.py::bench_storage_search[storage0]",
            "params": {
                "storage": "UNSERIALIZABLE[StorageConfig(mode=<StorageMode.PACKED: 0>, concurrent=False, disable_quotienting=False, disable_occupied_flag=False)]"
            },
            "param": "storage0",
            "extra_info": {},
            "options": {
                "disable_gc": false,
                "timer": "perf_counter",
                "min_rounds": 5,
                "max_time": 1.0,
                "min_time": 5e-06,
                "warmup": false
            },
            "stats": {
                "min": 24.279713860247284,
                "max": 24.307870801072568,
                "mean": 24.296262302435935,
                "stddev": 0.009720661730337726,
                "rounds": 10,
                "median": 24.29706784663722,
                "iqr": 0.01844458794221282,
                "q1": 24.2865675650537,
                "q3": 24.305012152995914,
                "iqr_outliers": 0,
                "stddev_outliers": 3,
                "outliers": "3;0",
                "ld15iqr": 24.279713860247284,
                "hd15iqr": 24.307870801072568,
                "ops": 0.04115859417190027,
                "total": 242.96262302435935,
                "data": [
                    24.307870801072568,
                    24.279713860247284,
                    24.3055589068681,
                    24.285579339135438,
                    24.30421145586297,
                    24.296365628950298,
                    24.29777006432414,
                    24.293973249848932,
                    24.2865675650537,
                    24.305012152995914
                ],
                "iterations": 1
            }
        },
        {
            "group": "table storage modes (search)",
            "name": "mode = StorageMode.PACKED concurrent = True",
            "fullname": "benchmarks/table/bench_storage.py::bench_storage_search[storage1]",
            "params": {
                "storage": "UNSERIALIZABLE[StorageConfig(mode=<StorageMode.PACKED: 0>, concurrent=True, disable_quotienting=False, disable_occupied_flag=False)]"
            },
            "param": "storage1",
            "extra_info": {},
            "options": {
                "disable_gc": false,
                "timer": "perf_counter",
                "min_rounds": 5,
                "max_time": 1.0,
                "min_time": 5e-06,
                "warmup": false
            },
            "stats": {
                "min": 29.166072863154113,
                "max": 29.184044343885034,
                "mean": 29.173804573435337,
                "stddev": 0.0056993113106426985,
                "rounds": 10,
                "median": 29.17306469893083,
                "iqr": 0.008968093898147345,
                "q1": 29.16976443026215,
                "q3": 29.178732524160296,
                "iqr_outliers": 0,
                "stddev_outliers": 4,
                "outliers": "4;0",
                "ld15iqr": 29.166072863154113,
                "hd15iqr": 29.184044343885034,
                "ops": 0.03427732565640635,
                "total": 291.73804573435336,
                "data": [
                    29.175920656416565,
                    29.178732524160296,
                    29.172949458938092,
                    29.168061947915703,
                    29.184044343885034,
                    29.166072863154113,
                    29.16976443026215,
                    29.17951055476442,
                    29.173179938923568,
                    29.169809015933424
                ],
                "iterations": 1
            }
        },
        {
            "group": "table storage modes (search)",
            "name": "mode = StorageMode.BUCKETS concurrent = False",
            "fullname": "benchmarks/table/bench_storage.py::bench_storage_search[storage2]",
            "params": {
                "storage": "UNSERIALIZABLE[StorageConfig(mode=<StorageMode.BUCKETS: 1>, concurrent=False, disable_quotienting=False, disable_occupied_flag=False)]"
            },
            "param": "storage2",
            "extra_info": {},
            "options": {
                "disable_gc": false,
                "timer": "perf_counter",
                "min_rounds": 5,
                "max_time": 1.0,
                "min_time": 5e-06,
                "warmup": false
            },
            "stats": {
                "min": 18.858187723904848,
                "max": 19.18320513004437,
                "mean": 19.137424117233603,
                "stddev": 0.0989333204994539,
                "rounds": 10,
                "median": 19.17159793456085,
                "iqr": 0.021117072086781263,
                "q1": 19.15444160113111,
                "q3": 19.175558673217893,
                "iqr_outliers": 1,
                "stddev_outliers": 1,
                "outliers": "1;1",
                "ld15iqr": 19.14313871320337,
                "hd15iqr": 19.18320513004437,
                "ops": 0.052253636323996266,
                "total": 191.37424117233604,
                "data": [
                    18.858187723904848,
                    19.14313871320337,
                    19.17062139697373,
                    19.182847185991704,
                    19.18320513004437,
                    19.175558673217893,
                    19.15927622281015,
                    19.17257447214797,
                    19.15444160113111,
                    19.174390052910894
                ],
                "iterations": 1
            }
        },
        {
            "group": "table storage modes (search)",
            "name": "mode = StorageMode.BUCKETS concurrent = True",
            "fullname": "benchmarks/table/bench_storage.py::bench_storage_search[storage3]",
            "params": {
                "storage": "UNSERIALIZABLE[StorageConfig(mode=<StorageMode.BUCKETS: 1>, concurrent=True, disable_quotienting=False, disable_occupied_flag=False)]"
            },
            "param": "storage3",
            "extra_info": {},
            "options": {
                "disable_gc": false,
                "timer": "perf_counter",
                "min_rounds": 5,
                "max_time": 1.0,
                "min_time": 5e-06,
                "warmup": false
            },
            "stats": {
                "min": 20.260119915008545,
                "max": 20.330278529785573,
                "mean": 20.29108506385237,
                "stddev": 0.02219233389527195,
                "rounds": 10,
                "median": 20.289374737534672,
                "iqr": 0.01848322618752718,
                "q1": 20.278777352999896,
                "q3": 20.297260579187423,
                "iqr_outliers": 1,
                "stddev_outliers": 4,
                "outliers": "4;1",
                "ld15iqr": 20.260119915008545,
                "hd15iqr": 20.330278529785573,
                "ops": 0.04928272671733331,
                "total": 202.9108506385237,
                "data": [
                    20.289694618899375,
                    20.28905485616997,
                    20.266983547247946,
                    20.260119915008545,
                    20.330278529785573,
                    20.282393760979176,
                    20.292278076987714,
                    20.297260579187423,
                    20.278777352999896,
                    20.32400940125808
                ],
                "iterations": 1
            }
        },
        {
            "group": "table storage modes (search)",
            "name": "mode = StorageMode.FAST concurrent = True",
            "fullname": "benchmarks/table/bench_storage.py::bench_storage_search[storage4]",
            "params": {
                "storage": "UNSERIALIZABLE[StorageConfig(mode=<StorageMode.FAST: 2>, concurrent=True, disable_quotienting=True, disable_occupied_flag=False)]"
            },
            "param": "storage4",
            "extra_info": {},
            "options": {
                "disable_gc": false,
                "timer": "perf_counter",
                "min_rounds": 5,
                "max_time": 1.0,
                "min_time": 5e-06,
                "warmup": false
            },
            "stats": {
                "min": 14.018051058985293,
                "max": 14.053530118893832,
                "mean": 14.029240236524492,
                "stddev": 0.013814338609063715,
                "rounds": 10,
                "median": 14.022841959260404,
                "iqr": 0.018687389325350523,
                "q1": 14.019654053729028,
                "q3": 14.038341443054378,
                "iqr_outliers": 0,
                "stddev_outliers": 2,
                "outliers": "2;0",
                "ld15iqr": 14.018051058985293,
                "hd15iqr": 14.053530118893832,
                "ops": 0.07127969748472517,
                "total": 140.29240236524493,
                "data": [
                    14.023794062435627,
                    14.052779665682465,
                    14.038341443054378,
                    14.02108233096078,
                    14.022483471781015,
                    14.053530118893832,
                    14.023200446739793,
                    14.019485712982714,
                    14.019654053729028,
                    14.018051058985293
                ],
                "iterations": 1
            }
        },
        {
            "group": "table storage modes (search)",
            "name": "mode = StorageMode.FAST concurrent = False",
            "fullname": "benchmarks/table/bench_storage.py::bench_storage_search[storage5]",
            "params": {
                "storage": "UNSERIALIZABLE[StorageConfig(mode=<StorageMode.FAST: 2>, concurrent=False, disable_quotienting=True, disable_occupied_flag=False)]"
            },
            "param": "storage5",
            "extra_info": {},
            "options": {
                "disable_gc": false,
                "timer": "perf_counter",
                "min_rounds": 5,
                "max_time": 1.0,
                "min_time": 5e-06,
                "warmup": false
            },
            "stats": {
                "min": 13.512346027884632,
                "max": 14.023846155032516,
                "mean": 13.72400082424283,
                "stddev": 0.24277865478791658,
                "rounds": 10,
                "median": 13.566746555501595,
                "iqr": 0.4922269261442125,
                "q1": 13.528498634696007,
                "q3": 14.02072556084022,
                "iqr_outliers": 0,
                "stddev_outliers": 3,
                "outliers": "3;0",
                "ld15iqr": 13.512346027884632,
                "hd15iqr": 14.023846155032516,
                "ops": 0.07286504954397445,
                "total": 137.2400082424283,
                "data": [
                    14.023846155032516,
                    14.02072556084022,
                    14.022851561196148,
                    13.9482667199336,
                    13.590480284765363,
                    13.512346027884632,
                    13.517924367915839,
                    13.543012826237828,
                    13.532056103926152,
                    13.528498634696007
                ],
                "iterations": 1
            }
        }
    ],
    "datetime": "2021-03-19T14:41:36.796657",
    "version": "3.2.3"
}