
Wrote benchmark data in: <_io.BufferedWriter name='results/config_42-results-random-walk.json'>
- Python 3.7.9, pytest-6.2.2, py-1.10.0, pluggy-0.13.1
benchmark: 3.2.3 (defaults: timer=time.perf_counter disable_gc=False min_rounds=5 min_time=0.000005 max_time=1.0 calibration_precision=10 warmup=False warmup_iterations=100000)
rootdir: /work/smjawol3/gecocoo-2021-03-06T20_04_12.073701-origin_develop
plugins: reraise-1.0.3, benchmark-3.2.3
collected 4 items

bench_operations.py benchmarking with 1 thread(s)
generating 11 tables
benchmarking insert 1/11
benchmarking insert 2/11
benchmarking insert 3/11
benchmarking insert 4/11
benchmarking insert 5/11
benchmarking insert 6/11
benchmarking insert 7/11
benchmarking insert 8/11
benchmarking insert 9/11
benchmarking insert 10/11
benchmarking insert 11/11
benchmarking search 1/11 (1000000 keys)
benchmarking search 2/11 (1000000 keys)
benchmarking search 3/11 (1000000 keys)
benchmarking search 4/11 (1000000 keys)
benchmarking search 5/11 (1000000 keys)
benchmarking search 6/11 (1000000 keys)
benchmarking search 7/11 (1000000 keys)
benchmarking search 8/11 (1000000 keys)
benchmarking search 9/11 (1000000 keys)
benchmarking search 10/11 (1000000 keys)
benchmarking search 11/11 (1000000 keys)
benchmarking search 1/11 (1000000 keys)
benchmarking search 2/11 (1000000 keys)
benchmarking search 3/11 (1000000 keys)
benchmarking search 4/11 (1000000 keys)
benchmarking search 5/11 (1000000 keys)
benchmarking search 6/11 (1000000 keys)
benchmarking search 7/11 (1000000 keys)
benchmarking search 8/11 (1000000 keys)
benchmarking search 9/11 (1000000 keys)
benchmarking search 10/11 (1000000 keys)
benchmarking search 11/11 (1000000 keys)
benchmarking search 1/11 (1000000 keys)
benchmarking search 2/11 (1000000 keys)
benchmarking search 3/11 (1000000 keys)
benchmarking search 4/11 (1000000 keys)
benchmarking search 5/11 (1000000 keys)
benchmarking search 6/11 (1000000 keys)
benchmarking search 7/11 (1000000 keys)
benchmarking search 8/11 (1000000 keys)
benchmarking search 9/11 (1000000 keys)
benchmarking search 10/11 (1000000 keys)
benchmarking search 11/11 (1000000 keys)
benchmarking search 1/11 (10000000 keys)
benchmarking search 2/11 (10000000 keys)
benchmarking search 3/11 (10000000 keys)
benchmarking search 4/11 (10000000 keys)
benchmarking search 5/11 (10000000 keys)
benchmarking search 6/11 (10000000 keys)
benchmarking search 7/11 (10000000 keys)
benchmarking search 8/11 (10000000 keys)
benchmarking search 9/11 (10000000 keys)
benchmarking search 10/11 (10000000 keys)
benchmarking search 11/11 (10000000 keys)
benchmarking search 1/11 (10000000 keys)
benchmarking search 2/11 (10000000 keys)
benchmarking search 3/11 (10000000 keys)
benchmarking search 4/11 (10000000 keys)
benchmarking search 5/11 (10000000 keys)
benchmarking search 6/11 (10000000 keys)
benchmarking search 7/11 (10000000 keys)
benchmarking search 8/11 (10000000 keys)
benchmarking search 9/11 (10000000 keys)
benchmarking search 10/11 (10000000 keys)
benchmarking search 11/11 (10000000 keys)
benchmarking search 1/11 (10000000 keys)
benchmarking search 2/11 (10000000 keys)
benchmarking search 3/11 (10000000 keys)
benchmarking search 4/11 (10000000 keys)
benchmarking search 5/11 (10000000 keys)
benchmarking search 6/11 (10000000 keys)
benchmarking search 7/11 (10000000 keys)
benchmarking search 8/11 (10000000 keys)
benchmarking search 9/11 (10000000 keys)
benchmarking search 10/11 (10000000 keys)
benchmarking search 11/11 (10000000 keys)
benchmarking search 1/11 (100000000 keys)
benchmarking search 2/11 (100000000 keys)
benchmarking search 3/11 (100000000 keys)
benchmarking search 4/11 (100000000 keys)
benchmarking search 5/11 (100000000 keys)
benchmarking search 6/11 (100000000 keys)
benchmarking search 7/11 (100000000 keys)
benchmarking search 8/11 (100000000 keys)
benchmarking search 9/11 (100000000 keys)
benchmarking search 10/11 (100000000 keys)
benchmarking search 11/11 (100000000 keys)
benchmarking search 1/11 (100000000 keys)
benchmarking search 2/11 (100000000 keys)
benchmarking search 3/11 (100000000 keys)
benchmarking search 4/11 (100000000 keys)
benchmarking search 5/11 (100000000 keys)
benchmarking search 6/11 (100000000 keys)
benchmarking search 7/11 (100000000 keys)
benchmarking search 8/11 (100000000 keys)
benchmarking search 9/11 (100000000 keys)
benchmarking search 10/11 (100000000 keys)
benchmarking search 11/11 (100000000 keys)
benchmarking search 1/11 (100000000 keys)
benchmarking search 2/11 (100000000 keys)
benchmarking search 3/11 (100000000 keys)
benchmarking search 4/11 (100000000 keys)
benchmarking search 5/11 (100000000 keys)
benchmarking search 6/11 (100000000 keys)
benchmarking search 7/11 (100000000 keys)
benchmarking search 8/11 (100000000 keys)
benchmarking search 9/11 (100000000 keys)
benchmarking search 10/11 (100000000 keys)
benchmarking search 11/11 (100000000 keys)
.benchmarking with 4 thread(s)
generating 11 tables
benchmarking insert 1/11
benchmarking insert 2/11
benchmarking insert 3/11
benchmarking insert 4/11
benchmarking insert 5/11
benchmarking insert 6/11
benchmarking insert 7/11
benchmarking insert 8/11
benchmarking insert 9/11
benchmarking insert 10/11
benchmarking insert 11/11
benchmarking search 1/11 (1000000 keys)
benchmarking search 2/11 (1000000 keys)
benchmarking search 3/11 (1000000 keys)
benchmarking search 4/11 (1000000 keys)
benchmarking search 5/11 (1000000 keys)
benchmarking search 6/11 (1000000 keys)
benchmarking search 7/11 (1000000 keys)
benchmarking search 8/11 (1000000 keys)
benchmarking search 9/11 (1000000 keys)
benchmarking search 10/11 (1000000 keys)
benchmarking search 11/11 (1000000 keys)
benchmarking search 1/11 (1000000 keys)
benchmarking search 2/11 (1000000 keys)
benchmarking search 3/11 (1000000 keys)
benchmarking search 4/11 (1000000 keys)
benchmarking search 5/11 (1000000 keys)
benchmarking search 6/11 (1000000 keys)
benchmarking search 7/11 (1000000 keys)
benchmarking search 8/11 (1000000 keys)
benchmarking search 9/11 (1000000 keys)
benchmarking search 10/11 (1000000 keys)
benchmarking search 11/11 (1000000 keys)
benchmarking search 1/11 (1000000 keys)
benchmarking search 2/11 (1000000 keys)
benchmarking search 3/11 (1000000 keys)
benchmarking search 4/11 (1000000 keys)
benchmarking search 5/11 (1000000 keys)
benchmarking search 6/11 (1000000 keys)
benchmarking search 7/11 (1000000 keys)
benchmarking search 8/11 (1000000 keys)
benchmarking search 9/11 (1000000 keys)
benchmarking search 10/11 (1000000 keys)
benchmarking search 11/11 (1000000 keys)
benchmarking search 1/11 (10000000 keys)
benchmarking search 2/11 (10000000 keys)
benchmarking search 3/11 (10000000 keys)
benchmarking search 4/11 (10000000 keys)
benchmarking search 5/11 (10000000 keys)
benchmarking search 6/11 (10000000 keys)
benchmarking search 7/11 (10000000 keys)
benchmarking search 8/11 (10000000 keys)
benchmarking search 9/11 (10000000 keys)
benchmarking search 10/11 (10000000 keys)
benchmarking search 11/11 (10000000 keys)
benchmarking search 1/11 (10000000 keys)
benchmarking search 2/11 (10000000 keys)
benchmarking search 3/11 (10000000 keys)
benchmarking search 4/11 (10000000 keys)
benchmarking search 5/11 (10000000 keys)
benchmarking search 6/11 (10000000 keys)
benchmarking search 7/11 (10000000 keys)
benchmarking search 8/11 (10000000 keys)
benchmarking search 9/11 (10000000 keys)
benchmarking search 10/11 (10000000 keys)
benchmarking search 11/11 (10000000 keys)
benchmarking search 1/11 (10000000 keys)
benchmarking search 2/11 (10000000 keys)
benchmarking search 3/11 (10000000 keys)
benchmarking search 4/11 (10000000 keys)
benchmarking search 5/11 (10000000 keys)
benchmarking search 6/11 (10000000 keys)
benchmarking search 7/11 (10000000 keys)
benchmarking search 8/11 (10000000 keys)
benchmarking search 9/11 (10000000 keys)
benchmarking search 10/11 (10000000 keys)
benchmarking search 11/11 (10000000 keys)
benchmarking search 1/11 (100000000 keys)
benchmarking search 2/11 (100000000 keys)
benchmarking search 3/11 (100000000 keys)
benchmarking search 4/11 (100000000 keys)
benchmarking search 5/11 (100000000 keys)
benchmarking search 6/11 (100000000 keys)
benchmarking search 7/11 (100000000 keys)
benchmarking search 8/11 (100000000 keys)
benchmarking search 9/11 (100000000 keys)
benchmarking search 10/11 (100000000 keys)
benchmarking search 11/11 (100000000 keys)
benchmarking search 1/11 (100000000 keys)
benchmarking search 2/11 (100000000 keys)
benchmarking search 3/11 (100000000 keys)
benchmarking search 4/11 (100000000 keys)
benchmarking search 5/11 (100000000 keys)
benchmarking search 6/11 (100000000 keys)
benchmarking search 7/11 (100000000 keys)
benchmarking search 8/11 (100000000 keys)
benchmarking search 9/11 (100000000 keys)
benchmarking search 10/11 (100000000 keys)
benchmarking search 11/11 (100000000 keys)
benchmarking search 1/11 (100000000 keys)
benchmarking search 2/11 (100000000 keys)
benchmarking search 3/11 (100000000 keys)
benchmarking search 4/11 (100000000 keys)
benchmarking search 5/11 (100000000 keys)
benchmarking search 6/11 (100000000 keys)
benchmarking search 7/11 (100000000 keys)
benchmarking search 8/11 (100000000 keys)
benchmarking search 9/11 (100000000 keys)
benchmarking search 10/11 (100000000 keys)
benchmarking search 11/11 (100000000 keys)
.benchmarking with 8 thread(s)
generating 11 tables
benchmarking insert 1/11
benchmarking insert 2/11
benchmarking insert 3/11
benchmarking insert 4/11
benchmarking insert 5/11
benchmarking insert 6/11
benchmarking insert 7/11
benchmarking insert 8/11
benchmarking insert 9/11
benchmarking insert 10/11
benchmarking insert 11/11
benchmarking search 1/11 (1000000 keys)
benchmarking search 2/11 (1000000 keys)
benchmarking search 3/11 (1000000 keys)
benchmarking search 4/11 (1000000 keys)
benchmarking search 5/11 (1000000 keys)
benchmarking search 6/11 (1000000 keys)
benchmarking search 7/11 (1000000 keys)
benchmarking search 8/11 (1000000 keys)
benchmarking search 9/11 (1000000 keys)
benchmarking search 10/11 (1000000 keys)
benchmarking search 11/11 (1000000 keys)
benchmarking search 1/11 (1000000 keys)
benchmarking search 2/11 (1000000 keys)
benchmarking search 3/11 (1000000 keys)
benchmarking search 4/11 (1000000 keys)
benchmarking search 5/11 (1000000 keys)
benchmarking search 6/11 (1000000 keys)
benchmarking search 7/11 (1000000 keys)
benchmarking search 8/11 (1000000 keys)
benchmarking search 9/11 (1000000 keys)
benchmarking search 10/11 (1000000 keys)
benchmarking search 11/11 (1000000 keys)
benchmarking search 1/11 (1000000 keys)
benchmarking search 2/11 (1000000 keys)
benchmarking search 3/11 (1000000 keys)
benchmarking search 4/11 (1000000 keys)
benchmarking search 5/11 (1000000 keys)
benchmarking search 6/11 (1000000 keys)
benchmarking search 7/11 (1000000 keys)
benchmarking search 8/11 (1000000 keys)
benchmarking search 9/11 (1000000 keys)
benchmarking search 10/11 (1000000 keys)
benchmarking search 11/11 (1000000 keys)
benchmarking search 1/11 (10000000 keys)
benchmarking search 2/11 (10000000 keys)
benchmarking search 3/11 (10000000 keys)
benchmarking search 4/11 (10000000 keys)
benchmarking search 5/11 (10000000 keys)
benchmarking search 6/11 (10000000 keys)
benchmarking search 7/11 (10000000 keys)
benchmarking search 8/11 (10000000 keys)
benchmarking search 9/11 (10000000 keys)
benchmarking search 10/11 (10000000 keys)
benchmarking search 11/11 (10000000 keys)
benchmarking search 1/11 (10000000 keys)
benchmarking search 2/11 (10000000 keys)
benchmarking search 3/11 (10000000 keys)
benchmarking search 4/11 (10000000 keys)
benchmarking search 5/11 (10000000 keys)
benchmarking search 6/11 (10000000 keys)
benchmarking search 7/11 (10000000 keys)
benchmarking search 8/11 (10000000 keys)
benchmarking search 9/11 (10000000 keys)
benchmarking search 10/11 (10000000 keys)
benchmarking search 11/11 (10000000 keys)
benchmarking search 1/11 (10000000 keys)
benchmarking search 2/11 (10000000 keys)
benchmarking search 3/11 (10000000 keys)
benchmarking search 4/11 (10000000 keys)
benchmarking search 5/11 (10000000 keys)
benchmarking search 6/11 (10000000 keys)
benchmarking search 7/11 (10000000 keys)
benchmarking search 8/11 (10000000 keys)
benchmarking search 9/11 (10000000 keys)
benchmarking search 10/11 (10000000 keys)
benchmarking search 11/11 (10000000 keys)
benchmarking search 1/11 (100000000 keys)
benchmarking search 2/11 (100000000 keys)
benchmarking search 3/11 (100000000 keys)
benchmarking search 4/11 (100000000 keys)
benchmarking search 5/11 (100000000 keys)
benchmarking search 6/11 (100000000 keys)
benchmarking search 7/11 (100000000 keys)
benchmarking search 8/11 (100000000 keys)
benchmarking search 9/11 (100000000 keys)
benchmarking search 10/11 (100000000 keys)
benchmarking search 11/11 (100000000 keys)
benchmarking search 1/11 (100000000 keys)
benchmarking search 2/11 (100000000 keys)
benchmarking search 3/11 (100000000 keys)
benchmarking search 4/11 (100000000 keys)
benchmarking search 5/11 (100000000 keys)
benchmarking search 6/11 (100000000 keys)
benchmarking search 7/11 (100000000 keys)
benchmarking search 8/11 (100000000 keys)
benchmarking search 9/11 (100000000 keys)
benchmarking search 10/11 (100000000 keys)
benchmarking search 11/11 (100000000 keys)
benchmarking search 1/11 (100000000 keys)
benchmarking search 2/11 (100000000 keys)
benchmarking search 3/11 (100000000 keys)
benchmarking search 4/11 (100000000 keys)
benchmarking search 5/11 (100000000 keys)
benchmarking search 6/11 (100000000 keys)
benchmarking search 7/11 (100000000 keys)
benchmarking search 8/11 (100000000 keys)
benchmarking search 9/11 (100000000 keys)
benchmarking search 10/11 (100000000 keys)
benchmarking search 11/11 (100000000 keys)
.benchmarking with 16 thread(s)
generating 11 tables
benchmarking insert 1/11
benchmarking insert 2/11
benchmarking insert 3/11
benchmarking insert 4/11
benchmarking insert 5/11
benchmarking insert 6/11
benchmarking insert 7/11
benchmarking insert 8/11
benchmarking insert 9/11
benchmarking insert 10/11
benchmarking insert 11/11
benchmarking search 1/11 (1000000 keys)
benchmarking search 2/11 (1000000 keys)
benchmarking search 3/11 (1000000 keys)
benchmarking search 4/11 (1000000 keys)
benchmarking search 5/11 (1000000 keys)
benchmarking search 6/11 (1000000 keys)
benchmarking search 7/11 (1000000 keys)
benchmarking search 8/11 (1000000 keys)
benchmarking search 9/11 (1000000 keys)
benchmarking search 10/11 (1000000 keys)
benchmarking search 11/11 (1000000 keys)
benchmarking search 1/11 (1000000 keys)
benchmarking search 2/11 (1000000 keys)
benchmarking search 3/11 (1000000 keys)
benchmarking search 4/11 (1000000 keys)
benchmarking search 5/11 (1000000 keys)
benchmarking search 6/11 (1000000 keys)
benchmarking search 7/11 (1000000 keys)
benchmarking search 8/11 (1000000 keys)
benchmarking search 9/11 (1000000 keys)
benchmarking search 10/11 (1000000 keys)
benchmarking search 11/11 (1000000 keys)
benchmarking search 1/11 (1000000 keys)
benchmarking search 2/11 (1000000 keys)
benchmarking search 3/11 (1000000 keys)
benchmarking search 4/11 (1000000 keys)
benchmarking search 5/11 (1000000 keys)
benchmarking search 6/11 (1000000 keys)
benchmarking search 7/11 (1000000 keys)
benchmarking search 8/11 (1000000 keys)
benchmarking search 9/11 (1000000 keys)
benchmarking search 10/11 (1000000 keys)
benchmarking search 11/11 (1000000 keys)
benchmarking search 1/11 (10000000 keys)
benchmarking search 2/11 (10000000 keys)
benchmarking search 3/11 (10000000 keys)
benchmarking search 4/11 (10000000 keys)
benchmarking search 5/11 (10000000 keys)
benchmarking search 6/11 (10000000 keys)
benchmarking search 7/11 (10000000 keys)
benchmarking search 8/11 (10000000 keys)
benchmarking search 9/11 (10000000 keys)
benchmarking search 10/11 (10000000 keys)
benchmarking search 11/11 (10000000 keys)
benchmarking search 1/11 (10000000 keys)
benchmarking search 2/11 (10000000 keys)
benchmarking search 3/11 (10000000 keys)
benchmarking search 4/11 (10000000 keys)
benchmarking search 5/11 (10000000 keys)
benchmarking search 6/11 (10000000 keys)
benchmarking search 7/11 (10000000 keys)
benchmarking search 8/11 (10000000 keys)
benchmarking search 9/11 (10000000 keys)
benchmarking search 10/11 (10000000 keys)
benchmarking search 11/11 (10000000 keys)
benchmarking search 1/11 (10000000 keys)
benchmarking search 2/11 (10000000 keys)
benchmarking search 3/11 (10000000 keys)
benchmarking search 4/11 (10000000 keys)
benchmarking search 5/11 (10000000 keys)
benchmarking search 6/11 (10000000 keys)
benchmarking search 7/11 (10000000 keys)
benchmarking search 8/11 (10000000 keys)
benchmarking search 9/11 (10000000 keys)
benchmarking search 10/11 (10000000 keys)
benchmarking search 11/11 (10000000 keys)
benchmarking search 1/11 (100000000 keys)
benchmarking search 2/11 (100000000 keys)
benchmarking search 3/11 (100000000 keys)
benchmarking search 4/11 (100000000 keys)
benchmarking search 5/11 (100000000 keys)
benchmarking search 6/11 (100000000 keys)
benchmarking search 7/11 (100000000 keys)
benchmarking search 8/11 (100000000 keys)
benchmarking search 9/11 (100000000 keys)
benchmarking search 10/11 (100000000 keys)
benchmarking search 11/11 (100000000 keys)
benchmarking search 1/11 (100000000 keys)
benchmarking search 2/11 (100000000 keys)
benchmarking search 3/11 (100000000 keys)
benchmarking search 4/11 (100000000 keys)
benchmarking search 5/11 (100000000 keys)
benchmarking search 6/11 (100000000 keys)
benchmarking search 7/11 (100000000 keys)
benchmarking search 8/11 (100000000 keys)
benchmarking search 9/11 (100000000 keys)
benchmarking search 10/11 (100000000 keys)
benchmarking search 11/11 (100000000 keys)
benchmarking search 1/11 (100000000 keys)
benchmarking search 2/11 (100000000 keys)
benchmarking search 3/11 (100000000 keys)
benchmarking search 4/11 (100000000 keys)
benchmarking search 5/11 (100000000 keys)
benchmarking search 6/11 (100000000 keys)
benchmarking search 7/11 (100000000 keys)
benchmarking search 8/11 (100000000 keys)
benchmarking search 9/11 (100000000 keys)
benchmarking search 10/11 (100000000 keys)
benchmarking search 11/11 (100000000 keys)
.


Computing stats ...Computing stats ... group 1/2Computing stats ... group 1/2: minComputing stats ... group 1/2: min (1/4)Computing stats ... group 1/2: min (2/4)Computing stats ... group 1/2: min (3/4)Computing stats ... group 1/2: min (4/4)Computing stats ... group 1/2: min (1/4)Computing stats ... group 1/2: min (2/4)Computing stats ... group 1/2: min (3/4)Computing stats ... group 1/2: min (4/4)Computing stats ... group 1/2: maxComputing stats ... group 1/2: max (1/4)Computing stats ... group 1/2: max (2/4)Computing stats ... group 1/2: max (3/4)Computing stats ... group 1/2: max (4/4)Computing stats ... group 1/2: max (1/4)Computing stats ... group 1/2: max (2/4)Computing stats ... group 1/2: max (3/4)Computing stats ... group 1/2: max (4/4)Computing stats ... group 1/2: meanComputing stats ... group 1/2: mean (1/4)Computing stats ... group 1/2: mean (2/4)Computing stats ... group 1/2: mean (3/4)Computing stats ... group 1/2: mean (4/4)Computing stats ... group 1/2: mean (1/4)Computing stats ... group 1/2: mean (2/4)Computing stats ... group 1/2: mean (3/4)Computing stats ... group 1/2: mean (4/4)Computing stats ... group 1/2: medianComputing stats ... group 1/2: median (1/4)Computing stats ... group 1/2: median (2/4)Computing stats ... group 1/2: median (3/4)Computing stats ... group 1/2: median (4/4)Computing stats ... group 1/2: median (1/4)Computing stats ... group 1/2: median (2/4)Computing stats ... group 1/2: median (3/4)Computing stats ... group 1/2: median (4/4)Computing stats ... group 1/2: iqrComputing stats ... group 1/2: iqr (1/4)Computing stats ... group 1/2: iqr (2/4)Computing stats ... group 1/2: iqr (3/4)Computing stats ... group 1/2: iqr (4/4)Computing stats ... group 1/2: iqr (1/4)Computing stats ... group 1/2: iqr (2/4)Computing stats ... group 1/2: iqr (3/4)Computing stats ... group 1/2: iqr (4/4)Computing stats ... group 1/2: stddevComputing stats ... group 1/2: stddev (1/4)Computing stats ... group 1/2: stddev (2/4)Computing stats ... group 1/2: stddev (3/4)Computing stats ... group 1/2: stddev (4/4)Computing stats ... group 1/2: stddev (1/4)Computing stats ... group 1/2: stddev (2/4)Computing stats ... group 1/2: stddev (3/4)Computing stats ... group 1/2: stddev (4/4)Computing stats ... group 1/2: opsComputing stats ... group 1/2: ops (1/4)Computing stats ... group 1/2: ops (2/4)Computing stats ... group 1/2: ops (3/4)Computing stats ... group 1/2: ops (4/4)Computing stats ... group 1/2: ops (1/4)Computing stats ... group 1/2: ops (2/4)Computing stats ... group 1/2: ops (3/4)Computing stats ... group 1/2: ops (4/4)Computing stats ... group 1/2: ops: outliersComputing stats ... group 1/2: ops: outliers (1/4)Computing stats ... group 1/2: ops: outliers (2/4)Computing stats ... group 1/2: ops: outliers (3/4)Computing stats ... group 1/2: ops: outliers (4/4)Computing stats ... group 1/2: ops: roundsComputing stats ... group 1/2: ops: rounds (1/4)Computing stats ... group 1/2: ops: rounds (2/4)Computing stats ... group 1/2: ops: rounds (3/4)Computing stats ... group 1/2: ops: rounds (4/4)Computing stats ... group 1/2: ops: iterationsComputing stats ... group 1/2: ops: iterations (1/4)Computing stats ... group 1/2: ops: iterations (2/4)Computing stats ... group 1/2: ops: iterations (3/4)Computing stats ... group 1/2: ops: iterations (4/4)--------------------------------------------------------------------------- benchmark 'inserting': 4 tests ---------------------------------------------------------------------------
Name (time in s)         Min                 Max               Mean             StdDev             Median                IQR            Outliers     OPS            Rounds  Iterations
--------------------------------------------------------------------------------------------------------------------------------------------------------------------------------------
insert               12.8080 (1.0)       19.1455 (1.35)     13.7899 (1.01)      1.8953 (6.56)     13.2044 (1.0)       0.3676 (1.33)          1;1  0.0725 (0.99)         10           1
insert               13.3803 (1.04)      14.1825 (1.0)      13.6690 (1.0)       0.2888 (1.0)      13.5594 (1.03)      0.4799 (1.74)          2;0  0.0732 (1.0)          10           1
insert               23.2586 (1.82)      45.6950 (3.22)     35.8270 (2.62)     10.8426 (37.54)    42.0700 (3.19)     21.6716 (78.41)         4;0  0.0279 (0.38)         10           1
insert               84.8705 (6.63)     100.5058 (7.09)     86.7785 (6.35)      4.8997 (16.96)    84.9302 (6.43)      0.2764 (1.0)           1;2  0.0115 (0.16)         10           1
--------------------------------------------------------------------------------------------------------------------------------------------------------------------------------------

Computing stats ... group 2/2Computing stats ... group 2/2: minComputing stats ... group 2/2: min (1/36)Computing stats ... group 2/2: min (2/36)Computing stats ... group 2/2: min (3/36)Computing stats ... group 2/2: min (4/36)Computing stats ... group 2/2: min (5/36)Computing stats ... group 2/2: min (6/36)Computing stats ... group 2/2: min (7/36)Computing stats ... group 2/2: min (8/36)Computing stats ... group 2/2: min (9/36)Computing stats ... group 2/2: min (10/36)Computing stats ... group 2/2: min (11/36)Computing stats ... group 2/2: min (12/36)Computing stats ... group 2/2: min (13/36)Computing stats ... group 2/2: min (14/36)Computing stats ... group 2/2: min (15/36)Computing stats ... group 2/2: min (16/36)Computing stats ... group 2/2: min (17/36)Computing stats ... group 2/2: min (18/36)Computing stats ... group 2/2: min (19/36)Computing stats ... group 2/2: min (20/36)Computing stats ... group 2/2: min (21/36)Computing stats ... group 2/2: min (22/36)Computing stats ... group 2/2: min (23/36)Computing stats ... group 2/2: min (24/36)Computing stats ... group 2/2: min (25/36)Computing stats ... group 2/2: min (26/36)Computing stats ... group 2/2: min (27/36)Computing stats ... group 2/2: min (28/36)Computing stats ... group 2/2: min (29/36)Computing stats ... group 2/2: min (30/36)Computing stats ... group 2/2: min (31/36)Computing stats ... group 2/2: min (32/36)Computing stats ... group 2/2: min (33/36)Computing stats ... group 2/2: min (34/36)Computing stats ... group 2/2: min (35/36)Computing stats ... group 2/2: min (36/36)Computing stats ... group 2/2: min (1/36)Computing stats ... group 2/2: min (2/36)Computing stats ... group 2/2: min (3/36)Computing stats ... group 2/2: min (4/36)Computing stats ... group 2/2: min (5/36)Computing stats ... group 2/2: min (6/36)Computing stats ... group 2/2: min (7/36)Computing stats ... group 2/2: min (8/36)Computing stats ... group 2/2: min (9/36)Computing stats ... group 2/2: min (10/36)Computing stats ... group 2/2: min (11/36)Computing stats ... group 2/2: min (12/36)Computing stats ... group 2/2: min (13/36)Computing stats ... group 2/2: min (14/36)Computing stats ... group 2/2: min (15/36)Computing stats ... group 2/2: min (16/36)Computing stats ... group 2/2: min (17/36)Computing stats ... group 2/2: min (18/36)Computing stats ... group 2/2: min (19/36)Computing stats ... group 2/2: min (20/36)Computing stats ... group 2/2: min (21/36)Computing stats ... group 2/2: min (22/36)Computing stats ... group 2/2: min (23/36)Computing stats ... group 2/2: min (24/36)Computing stats ... group 2/2: min (25/36)Computing stats ... group 2/2: min (26/36)Computing stats ... group 2/2: min (27/36)Computing stats ... group 2/2: min (28/36)Computing stats ... group 2/2: min (29/36)Computing stats ... group 2/2: min (30/36)Computing stats ... group 2/2: min (31/36)Computing stats ... group 2/2: min (32/36)Computing stats ... group 2/2: min (33/36)Computing stats ... group 2/2: min (34/36)Computing stats ... group 2/2: min (35/36)Computing stats ... group 2/2: min (36/36)Computing stats ... group 2/2: maxComputing stats ... group 2/2: max (1/36)Computing stats ... group 2/2: max (2/36)Computing stats ... group 2/2: max (3/36)Computing stats ... group 2/2: max (4/36)Computing stats ... group 2/2: max (5/36)Computing stats ... group 2/2: max (6/36)Computing stats ... group 2/2: max (7/36)Computing stats ... group 2/2: max (8/36)Computing stats ... group 2/2: max (9/36)Computing stats ... group 2/2: max (10/36)Computing stats ... group 2/2: max (11/36)Computing stats ... group 2/2: max (12/36)Computing stats ... group 2/2: max (13/36)Computing stats ... group 2/2: max (14/36)Computing stats ... group 2/2: max (15/36)Computing stats ... group 2/2: max (16/36)Computing stats ... group 2/2: max (17/36)Computing stats ... group 2/2: max (18/36)Computing stats ... group 2/2: max (19/36)Computing stats ... group 2/2: max (20/36)Computing stats ... group 2/2: max (21/36)Computing stats ... group 2/2: max (22/36)Computing stats ... group 2/2: max (23/36)Computing stats ... group 2/2: max (24/36)Computing stats ... group 2/2: max (25/36)Computing stats ... group 2/2: max (26/36)Computing stats ... group 2/2: max (27/36)Computing stats ... group 2/2: max (28/36)Computing stats ... group 2/2: max (29/36)Computing stats ... group 2/2: max (30/36)Computing stats ... group 2/2: max (31/36)Computing stats ... group 2/2: max (32/36)Computing stats ... group 2/2: max (33/36)Computing stats ... group 2/2: max (34/36)Computing stats ... group 2/2: max (35/36)Computing stats ... group 2/2: max (36/36)Computing stats ... group 2/2: max (1/36)Computing stats ... group 2/2: max (2/36)Computing stats ... group 2/2: max (3/36)Computing stats ... group 2/2: max (4/36)Computing stats ... group 2/2: max (5/36)Computing stats ... group 2/2: max (6/36)Computing stats ... group 2/2: max (7/36)Computing stats ... group 2/2: max (8/36)Computing stats ... group 2/2: max (9/36)Computing stats ... group 2/2: max (10/36)Computing stats ... group 2/2: max (11/36)Computing stats ... group 2/2: max (12/36)Computing stats ... group 2/2: max (13/36)Computing stats ... group 2/2: max (14/36)Computing stats ... group 2/2: max (15/36)Computing stats ... group 2/2: max (16/36)Computing stats ... group 2/2: max (17/36)Computing stats ... group 2/2: max (18/36)Computing stats ... group 2/2: max (19/36)Computing stats ... group 2/2: max (20/36)Computing stats ... group 2/2: max (21/36)Computing stats ... group 2/2: max (22/36)Computing stats ... group 2/2: max (23/36)Computing stats ... group 2/2: max (24/36)Computing stats ... group 2/2: max (25/36)Computing stats ... group 2/2: max (26/36)Computing stats ... group 2/2: max (27/36)Computing stats ... group 2/2: max (28/36)Computing stats ... group 2/2: max (29/36)Computing stats ... group 2/2: max (30/36)Computing stats ... group 2/2: max (31/36)Computing stats ... group 2/2: max (32/36)Computing stats ... group 2/2: max (33/36)Computing stats ... group 2/2: max (34/36)Computing stats ... group 2/2: max (35/36)Computing stats ... group 2/2: max (36/36)Computing stats ... group 2/2: meanComputing stats ... group 2/2: mean (1/36)Computing stats ... group 2/2: mean (2/36)Computing stats ... group 2/2: mean (3/36)Computing stats ... group 2/2: mean (4/36)Computing stats ... group 2/2: mean (5/36)Computing stats ... group 2/2: mean (6/36)Computing stats ... group 2/2: mean (7/36)Computing stats ... group 2/2: mean (8/36)Computing stats ... group 2/2: mean (9/36)Computing stats ... group 2/2: mean (10/36)Computing stats ... group 2/2: mean (11/36)Computing stats ... group 2/2: mean (12/36)Computing stats ... group 2/2: mean (13/36)Computing stats ... group 2/2: mean (14/36)Computing stats ... group 2/2: mean (15/36)Computing stats ... group 2/2: mean (16/36)Computing stats ... group 2/2: mean (17/36)Computing stats ... group 2/2: mean (18/36)Computing stats ... group 2/2: mean (19/36)Computing stats ... group 2/2: mean (20/36)Computing stats ... group 2/2: mean (21/36)Computing stats ... group 2/2: mean (22/36)Computing stats ... group 2/2: mean (23/36)Computing stats ... group 2/2: mean (24/36)Computing stats ... group 2/2: mean (25/36)Computing stats ... group 2/2: mean (26/36)Computing stats ... group 2/2: mean (27/36)Computing stats ... group 2/2: mean (28/36)Computing stats ... group 2/2: mean (29/36)Computing stats ... group 2/2: mean (30/36)Computing stats ... group 2/2: mean (31/36)Computing stats ... group 2/2: mean (32/36)Computing stats ... group 2/2: mean (33/36)Computing stats ... group 2/2: mean (34/36)Computing stats ... group 2/2: mean (35/36)Computing stats ... group 2/2: mean (36/36)Computing stats ... group 2/2: mean (1/36)Computing stats ... group 2/2: mean (2/36)Computing stats ... group 2/2: mean (3/36)Computing stats ... group 2/2: mean (4/36)Computing stats ... group 2/2: mean (5/36)Computing stats ... group 2/2: mean (6/36)Computing stats ... group 2/2: mean (7/36)Computing stats ... group 2/2: mean (8/36)Computing stats ... group 2/2: mean (9/36)Computing stats ... group 2/2: mean (10/36)Computing stats ... group 2/2: mean (11/36)Computing stats ... group 2/2: mean (12/36)Computing stats ... group 2/2: mean (13/36)Computing stats ... group 2/2: mean (14/36)Computing stats ... group 2/2: mean (15/36)Computing stats ... group 2/2: mean (16/36)Computing stats ... group 2/2: mean (17/36)Computing stats ... group 2/2: mean (18/36)Computing stats ... group 2/2: mean (19/36)Computing stats ... group 2/2: mean (20/36)Computing stats ... group 2/2: mean (21/36)Computing stats ... group 2/2: mean (22/36)Computing stats ... group 2/2: mean (23/36)Computing stats ... group 2/2: mean (24/36)Computing stats ... group 2/2: mean (25/36)Computing stats ... group 2/2: mean (26/36)Computing stats ... group 2/2: mean (27/36)Computing stats ... group 2/2: mean (28/36)Computing stats ... group 2/2: mean (29/36)Computing stats ... group 2/2: mean (30/36)Computing stats ... group 2/2: mean (31/36)Computing stats ... group 2/2: mean (32/36)Computing stats ... group 2/2: mean (33/36)Computing stats ... group 2/2: mean (34/36)Computing stats ... group 2/2: mean (35/36)Computing stats ... group 2/2: mean (36/36)Computing stats ... group 2/2: medianComputing stats ... group 2/2: median (1/36)Computing stats ... group 2/2: median (2/36)Computing stats ... group 2/2: median (3/36)Computing stats ... group 2/2: median (4/36)Computing stats ... group 2/2: median (5/36)Computing stats ... group 2/2: median (6/36)Computing stats ... group 2/2: median (7/36)Computing stats ... group 2/2: median (8/36)Computing stats ... group 2/2: median (9/36)Computing stats ... group 2/2: median (10/36)Computing stats ... group 2/2: median (11/36)Computing stats ... group 2/2: median (12/36)Computing stats ... group 2/2: median (13/36)Computing stats ... group 2/2: median (14/36)Computing stats ... group 2/2: median (15/36)Computing stats ... group 2/2: median (16/36)Computing stats ... group 2/2: median (17/36)Computing stats ... group 2/2: median (18/36)Computing stats ... group 2/2: median (19/36)Computing stats ... group 2/2: median (20/36)Computing stats ... group 2/2: median (21/36)Computing stats ... group 2/2: median (22/36)Computing stats ... group 2/2: median (23/36)Computing stats ... group 2/2: median (24/36)Computing stats ... group 2/2: median (25/36)Computing stats ... group 2/2: median (26/36)Computing stats ... group 2/2: median (27/36)Computing stats ... group 2/2: median (28/36)Computing stats ... group 2/2: median (29/36)Computing stats ... group 2/2: median (30/36)Computing stats ... group 2/2: median (31/36)Computing stats ... group 2/2: median (32/36)Computing stats ... group 2/2: median (33/36)Computing stats ... group 2/2: median (34/36)Computing stats ... group 2/2: median (35/36)Computing stats ... group 2/2: median (36/36)Computing stats ... group 2/2: median (1/36)Computing stats ... group 2/2: median (2/36)Computing stats ... group 2/2: median (3/36)Computing stats ... group 2/2: median (4/36)Computing stats ... group 2/2: median (5/36)Computing stats ... group 2/2: median (6/36)Computing stats ... group 2/2: median (7/36)Computing stats ... group 2/2: median (8/36)Computing stats ... group 2/2: median (9/36)Computing stats ... group 2/2: median (10/36)Computing stats ... group 2/2: median (11/36)Computing stats ... group 2/2: median (12/36)Computing stats ... group 2/2: median (13/36)Computing stats ... group 2/2: median (14/36)Computing stats ... group 2/2: median (15/36)Computing stats ... group 2/2: median (16/36)Computing stats ... group 2/2: median (17/36)Computing stats ... group 2/2: median (18/36)Computing stats ... group 2/2: median (19/36)Computing stats ... group 2/2: median (20/36)Computing stats ... group 2/2: median (21/36)Computing stats ... group 2/2: median (22/36)Computing stats ... group 2/2: median (23/36)Computing stats ... group 2/2: median (24/36)Computing stats ... group 2/2: median (25/36)Computing stats ... group 2/2: median (26/36)Computing stats ... group 2/2: median (27/36)Computing stats ... group 2/2: median (28/36)Computing stats ... group 2/2: median (29/36)Computing stats ... group 2/2: median (30/36)Computing stats ... group 2/2: median (31/36)Computing stats ... group 2/2: median (32/36)Computing stats ... group 2/2: median (33/36)Computing stats ... group 2/2: median (34/36)Computing stats ... group 2/2: median (35/36)Computing stats ... group 2/2: median (36/36)Computing stats ... group 2/2: iqrComputing stats ... group 2/2: iqr (1/36)Computing stats ... group 2/2: iqr (2/36)Computing stats ... group 2/2: iqr (3/36)Computing stats ... group 2/2: iqr (4/36)Computing stats ... group 2/2: iqr (5/36)Computing stats ... group 2/2: iqr (6/36)Computing stats ... group 2/2: iqr (7/36)Computing stats ... group 2/2: iqr (8/36)Computing stats ... group 2/2: iqr (9/36)Computing stats ... group 2/2: iqr (10/36)Computing stats ... group 2/2: iqr (11/36)Computing stats ... group 2/2: iqr (12/36)Computing stats ... group 2/2: iqr (13/36)Computing stats ... group 2/2: iqr (14/36)Computing stats ... group 2/2: iqr (15/36)Computing stats ... group 2/2: iqr (16/36)Computing stats ... group 2/2: iqr (17/36)Computing stats ... group 2/2: iqr (18/36)Computing stats ... group 2/2: iqr (19/36)Computing stats ... group 2/2: iqr (20/36)Computing stats ... group 2/2: iqr (21/36)Computing stats ... group 2/2: iqr (22/36)Computing stats ... group 2/2: iqr (23/36)Computing stats ... group 2/2: iqr (24/36)Computing stats ... group 2/2: iqr (25/36)Computing stats ... group 2/2: iqr (26/36)Computing stats ... group 2/2: iqr (27/36)Computing stats ... group 2/2: iqr (28/36)Computing stats ... group 2/2: iqr (29/36)Computing stats ... group 2/2: iqr (30/36)Computing stats ... group 2/2: iqr (31/36)Computing stats ... group 2/2: iqr (32/36)Computing stats ... group 2/2: iqr (33/36)Computing stats ... group 2/2: iqr (34/36)Computing stats ... group 2/2: iqr (35/36)Computing stats ... group 2/2: iqr (36/36)Computing stats ... group 2/2: iqr (1/36)Computing stats ... group 2/2: iqr (2/36)Computing stats ... group 2/2: iqr (3/36)Computing stats ... group 2/2: iqr (4/36)Computing stats ... group 2/2: iqr (5/36)Computing stats ... group 2/2: iqr (6/36)Computing stats ... group 2/2: iqr (7/36)Computing stats ... group 2/2: iqr (8/36)Computing stats ... group 2/2: iqr (9/36)Computing stats ... group 2/2: iqr (10/36)Computing stats ... group 2/2: iqr (11/36)Computing stats ... group 2/2: iqr (12/36)Computing stats ... group 2/2: iqr (13/36)Computing stats ... group 2/2: iqr (14/36)Computing stats ... group 2/2: iqr (15/36)Computing stats ... group 2/2: iqr (16/36)Computing stats ... group 2/2: iqr (17/36)Computing stats ... group 2/2: iqr (18/36)Computing stats ... group 2/2: iqr (19/36)Computing stats ... group 2/2: iqr (20/36)Computing stats ... group 2/2: iqr (21/36)Computing stats ... group 2/2: iqr (22/36)Computing stats ... group 2/2: iqr (23/36)Computing stats ... group 2/2: iqr (24/36)Computing stats ... group 2/2: iqr (25/36)Computing stats ... group 2/2: iqr (26/36)Computing stats ... group 2/2: iqr (27/36)Computing stats ... group 2/2: iqr (28/36)Computing stats ... group 2/2: iqr (29/36)Computing stats ... group 2/2: iqr (30/36)Computing stats ... group 2/2: iqr (31/36)Computing stats ... group 2/2: iqr (32/36)Computing stats ... group 2/2: iqr (33/36)Computing stats ... group 2/2: iqr (34/36)Computing stats ... group 2/2: iqr (35/36)Computing stats ... group 2/2: iqr (36/36)Computing stats ... group 2/2: stddevComputing stats ... group 2/2: stddev (1/36)Computing stats ... group 2/2: stddev (2/36)Computing stats ... group 2/2: stddev (3/36)Computing stats ... group 2/2: stddev (4/36)Computing stats ... group 2/2: stddev (5/36)Computing stats ... group 2/2: stddev (6/36)Computing stats ... group 2/2: stddev (7/36)Computing stats ... group 2/2: stddev (8/36)Computing stats ... group 2/2: stddev (9/36)Computing stats ... group 2/2: stddev (10/36)Computing stats ... group 2/2: stddev (11/36)Computing stats ... group 2/2: stddev (12/36)Computing stats ... group 2/2: stddev (13/36)Computing stats ... group 2/2: stddev (14/36)Computing stats ... group 2/2: stddev (15/36)Computing stats ... group 2/2: stddev (16/36)Computing stats ... group 2/2: stddev (17/36)Computing stats ... group 2/2: stddev (18/36)Computing stats ... group 2/2: stddev (19/36)Computing stats ... group 2/2: stddev (20/36)Computing stats ... group 2/2: stddev (21/36)Computing stats ... group 2/2: stddev (22/36)Computing stats ... group 2/2: stddev (23/36)Computing stats ... group 2/2: stddev (24/36)Computing stats ... group 2/2: stddev (25/36)Computing stats ... group 2/2: stddev (26/36)Computing stats ... group 2/2: stddev (27/36)Computing stats ... group 2/2: stddev (28/36)Computing stats ... group 2/2: stddev (29/36)Computing stats ... group 2/2: stddev (30/36)Computing stats ... group 2/2: stddev (31/36)Computing stats ... group 2/2: stddev (32/36)Computing stats ... group 2/2: stddev (33/36)Computing stats ... group 2/2: stddev (34/36)Computing stats ... group 2/2: stddev (35/36)Computing stats ... group 2/2: stddev (36/36)Computing stats ... group 2/2: stddev (1/36)Computing stats ... group 2/2: stddev (2/36)Computing stats ... group 2/2: stddev (3/36)Computing stats ... group 2/2: stddev (4/36)Computing stats ... group 2/2: stddev (5/36)Computing stats ... group 2/2: stddev (6/36)Computing stats ... group 2/2: stddev (7/36)Computing stats ... group 2/2: stddev (8/36)Computing stats ... group 2/2: stddev (9/36)Computing stats ... group 2/2: stddev (10/36)Computing stats ... group 2/2: stddev (11/36)Computing stats ... group 2/2: stddev (12/36)Computing stats ... group 2/2: stddev (13/36)Computing stats ... group 2/2: stddev (14/36)Computing stats ... group 2/2: stddev (15/36)Computing stats ... group 2/2: stddev (16/36)Computing stats ... group 2/2: stddev (17/36)Computing stats ... group 2/2: stddev (18/36)Computing stats ... group 2/2: stddev (19/36)Computing stats ... group 2/2: stddev (20/36)Computing stats ... group 2/2: stddev (21/36)Computing stats ... group 2/2: stddev (22/36)Computing stats ... group 2/2: stddev (23/36)Computing stats ... group 2/2: stddev (24/36)Computing stats ... group 2/2: stddev (25/36)Computing stats ... group 2/2: stddev (26/36)Computing stats ... group 2/2: stddev (27/36)Computing stats ... group 2/2: stddev (28/36)Computing stats ... group 2/2: stddev (29/36)Computing stats ... group 2/2: stddev (30/36)Computing stats ... group 2/2: stddev (31/36)Computing stats ... group 2/2: stddev (32/36)Computing stats ... group 2/2: stddev (33/36)Computing stats ... group 2/2: stddev (34/36)Computing stats ... group 2/2: stddev (35/36)Computing stats ... group 2/2: stddev (36/36)Computing stats ... group 2/2: opsComputing stats ... group 2/2: ops (1/36)Computing stats ... group 2/2: ops (2/36)Computing stats ... group 2/2: ops (3/36)Computing stats ... group 2/2: ops (4/36)Computing stats ... group 2/2: ops (5/36)Computing stats ... group 2/2: ops (6/36)Computing stats ... group 2/2: ops (7/36)Computing stats ... group 2/2: ops (8/36)Computing stats ... group 2/2: ops (9/36)Computing stats ... group 2/2: ops (10/36)Computing stats ... group 2/2: ops (11/36)Computing stats ... group 2/2: ops (12/36)Computing stats ... group 2/2: ops (13/36)Computing stats ... group 2/2: ops (14/36)Computing stats ... group 2/2: ops (15/36)Computing stats ... group 2/2: ops (16/36)Computing stats ... group 2/2: ops (17/36)Computing stats ... group 2/2: ops (18/36)Computing stats ... group 2/2: ops (19/36)Computing stats ... group 2/2: ops (20/36)Computing stats ... group 2/2: ops (21/36)Computing stats ... group 2/2: ops (22/36)Computing stats ... group 2/2: ops (23/36)Computing stats ... group 2/2: ops (24/36)Computing stats ... group 2/2: ops (25/36)Computing stats ... group 2/2: ops (26/36)Computing stats ... group 2/2: ops (27/36)Computing stats ... group 2/2: ops (28/36)Computing stats ... group 2/2: ops (29/36)Computing stats ... group 2/2: ops (30/36)Computing stats ... group 2/2: ops (31/36)Computing stats ... group 2/2: ops (32/36)Computing stats ... group 2/2: ops (33/36)Computing stats ... group 2/2: ops (34/36)Computing stats ... group 2/2: ops (35/36)Computing stats ... group 2/2: ops (36/36)Computing stats ... group 2/2: ops (1/36)Computing stats ... group 2/2: ops (2/36)Computing stats ... group 2/2: ops (3/36)Computing stats ... group 2/2: ops (4/36)Computing stats ... group 2/2: ops (5/36)Computing stats ... group 2/2: ops (6/36)Computing stats ... group 2/2: ops (7/36)Computing stats ... group 2/2: ops (8/36)Computing stats ... group 2/2: ops (9/36)Computing stats ... group 2/2: ops (10/36)Computing stats ... group 2/2: ops (11/36)Computing stats ... group 2/2: ops (12/36)Computing stats ... group 2/2: ops (13/36)Computing stats ... group 2/2: ops (14/36)Computing stats ... group 2/2: ops (15/36)Computing stats ... group 2/2: ops (16/36)Computing stats ... group 2/2: ops (17/36)Computing stats ... group 2/2: ops (18/36)Computing stats ... group 2/2: ops (19/36)Computing stats ... group 2/2: ops (20/36)Computing stats ... group 2/2: ops (21/36)Computing stats ... group 2/2: ops (22/36)Computing stats ... group 2/2: ops (23/36)Computing stats ... group 2/2: ops (24/36)Computing stats ... group 2/2: ops (25/36)Computing stats ... group 2/2: ops (26/36)Computing stats ... group 2/2: ops (27/36)Computing stats ... group 2/2: ops (28/36)Computing stats ... group 2/2: ops (29/36)Computing stats ... group 2/2: ops (30/36)Computing stats ... group 2/2: ops (31/36)Computing stats ... group 2/2: ops (32/36)Computing stats ... group 2/2: ops (33/36)Computing stats ... group 2/2: ops (34/36)Computing stats ... group 2/2: ops (35/36)Computing stats ... group 2/2: ops (36/36)Computing stats ... group 2/2: ops: outliersComputing stats ... group 2/2: ops: outliers (1/36)Computing stats ... group 2/2: ops: outliers (2/36)Computing stats ... group 2/2: ops: outliers (3/36)Computing stats ... group 2/2: ops: outliers (4/36)Computing stats ... group 2/2: ops: outliers (5/36)Computing stats ... group 2/2: ops: outliers (6/36)Computing stats ... group 2/2: ops: outliers (7/36)Computing stats ... group 2/2: ops: outliers (8/36)Computing stats ... group 2/2: ops: outliers (9/36)Computing stats ... group 2/2: ops: outliers (10/36)Computing stats ... group 2/2: ops: outliers (11/36)Computing stats ... group 2/2: ops: outliers (12/36)Computing stats ... group 2/2: ops: outliers (13/36)Computing stats ... group 2/2: ops: outliers (14/36)Computing stats ... group 2/2: ops: outliers (15/36)Computing stats ... group 2/2: ops: outliers (16/36)Computing stats ... group 2/2: ops: outliers (17/36)Computing stats ... group 2/2: ops: outliers (18/36)Computing stats ... group 2/2: ops: outliers (19/36)Computing stats ... group 2/2: ops: outliers (20/36)Computing stats ... group 2/2: ops: outliers (21/36)Computing stats ... group 2/2: ops: outliers (22/36)Computing stats ... group 2/2: ops: outliers (23/36)Computing stats ... group 2/2: ops: outliers (24/36)Computing stats ... group 2/2: ops: outliers (25/36)Computing stats ... group 2/2: ops: outliers (26/36)Computing stats ... group 2/2: ops: outliers (27/36)Computing stats ... group 2/2: ops: outliers (28/36)Computing stats ... group 2/2: ops: outliers (29/36)Computing stats ... group 2/2: ops: outliers (30/36)Computing stats ... group 2/2: ops: outliers (31/36)Computing stats ... group 2/2: ops: outliers (32/36)Computing stats ... group 2/2: ops: outliers (33/36)Computing stats ... group 2/2: ops: outliers (34/36)Computing stats ... group 2/2: ops: outliers (35/36)Computing stats ... group 2/2: ops: outliers (36/36)Computing stats ... group 2/2: ops: roundsComputing stats ... group 2/2: ops: rounds (1/36)Computing stats ... group 2/2: ops: rounds (2/36)Computing stats ... group 2/2: ops: rounds (3/36)Computing stats ... group 2/2: ops: rounds (4/36)Computing stats ... group 2/2: ops: rounds (5/36)Computing stats ... group 2/2: ops: rounds (6/36)Computing stats ... group 2/2: ops: rounds (7/36)Computing stats ... group 2/2: ops: rounds (8/36)Computing stats ... group 2/2: ops: rounds (9/36)Computing stats ... group 2/2: ops: rounds (10/36)Computing stats ... group 2/2: ops: rounds (11/36)Computing stats ... group 2/2: ops: rounds (12/36)Computing stats ... group 2/2: ops: rounds (13/36)Computing stats ... group 2/2: ops: rounds (14/36)Computing stats ... group 2/2: ops: rounds (15/36)Computing stats ... group 2/2: ops: rounds (16/36)Computing stats ... group 2/2: ops: rounds (17/36)Computing stats ... group 2/2: ops: rounds (18/36)Computing stats ... group 2/2: ops: rounds (19/36)Computing stats ... group 2/2: ops: rounds (20/36)Computing stats ... group 2/2: ops: rounds (21/36)Computing stats ... group 2/2: ops: rounds (22/36)Computing stats ... group 2/2: ops: rounds (23/36)Computing stats ... group 2/2: ops: rounds (24/36)Computing stats ... group 2/2: ops: rounds (25/36)Computing stats ... group 2/2: ops: rounds (26/36)Computing stats ... group 2/2: ops: rounds (27/36)Computing stats ... group 2/2: ops: rounds (28/36)Computing stats ... group 2/2: ops: rounds (29/36)Computing stats ... group 2/2: ops: rounds (30/36)Computing stats ... group 2/2: ops: rounds (31/36)Computing stats ... group 2/2: ops: rounds (32/36)Computing stats ... group 2/2: ops: rounds (33/36)Computing stats ... group 2/2: ops: rounds (34/36)Computing stats ... group 2/2: ops: rounds (35/36)Computing stats ... group 2/2: ops: rounds (36/36)Computing stats ... group 2/2: ops: iterationsComputing stats ... group 2/2: ops: iterations (1/36)Computing stats ... group 2/2: ops: iterations (2/36)Computing stats ... group 2/2: ops: iterations (3/36)Computing stats ... group 2/2: ops: iterations (4/36)Computing stats ... group 2/2: ops: iterations (5/36)Computing stats ... group 2/2: ops: iterations (6/36)Computing stats ... group 2/2: ops: iterations (7/36)Computing stats ... group 2/2: ops: iterations (8/36)Computing stats ... group 2/2: ops: iterations (9/36)Computing stats ... group 2/2: ops: iterations (10/36)Computing stats ... group 2/2: ops: iterations (11/36)Computing stats ... group 2/2: ops: iterations (12/36)Computing stats ... group 2/2: ops: iterations (13/36)Computing stats ... group 2/2: ops: iterations (14/36)Computing stats ... group 2/2: ops: iterations (15/36)Computing stats ... group 2/2: ops: iterations (16/36)Computing stats ... group 2/2: ops: iterations (17/36)Computing stats ... group 2/2: ops: iterations (18/36)Computing stats ... group 2/2: ops: iterations (19/36)Computing stats ... group 2/2: ops: iterations (20/36)Computing stats ... group 2/2: ops: iterations (21/36)Computing stats ... group 2/2: ops: iterations (22/36)Computing stats ... group 2/2: ops: iterations (23/36)Computing stats ... group 2/2: ops: iterations (24/36)Computing stats ... group 2/2: ops: iterations (25/36)Computing stats ... group 2/2: ops: iterations (26/36)Computing stats ... group 2/2: ops: iterations (27/36)Computing stats ... group 2/2: ops: iterations (28/36)Computing stats ... group 2/2: ops: iterations (29/36)Computing stats ... group 2/2: ops: iterations (30/36)Computing stats ... group 2/2: ops: iterations (31/36)Computing stats ... group 2/2: ops: iterations (32/36)Computing stats ... group 2/2: ops: iterations (33/36)Computing stats ... group 2/2: ops: iterations (34/36)Computing stats ... group 2/2: ops: iterations (35/36)Computing stats ... group 2/2: ops: iterations (36/36)-------------------------------------------------------------------------------------- benchmark 'searching': 36 tests ---------------------------------------------------------------------------------------
Name (time in ms)             Min                    Max                   Mean                 StdDev                 Median                   IQR            Outliers      OPS            Rounds  Iterations
--------------------------------------------------------------------------------------------------------------------------------------------------------------------------------------------------------------
search                    30.8935 (1.0)          46.9173 (1.33)         39.1974 (1.15)          7.9026 (9.52)         40.4831 (1.18)        15.4791 (203.74)        4;0  25.5119 (0.87)         10           1
search                    32.2995 (1.05)         35.1529 (1.0)          34.1294 (1.0)           0.8298 (1.0)          34.2427 (1.0)          1.0115 (13.31)         2;0  29.3002 (1.0)          10           1
search                    41.6764 (1.35)         67.6463 (1.92)         56.2744 (1.65)         11.4322 (13.78)        62.6358 (1.83)        22.0116 (289.73)        4;0  17.7701 (0.61)         10           1
search                    45.5881 (1.48)         48.3498 (1.38)         46.7418 (1.37)          0.9321 (1.12)         46.3329 (1.35)         1.1332 (14.92)         3;0  21.3941 (0.73)         10           1
search                    53.3290 (1.73)         84.8907 (2.41)         72.5075 (2.12)         13.0276 (15.70)        78.8837 (2.30)        26.8060 (352.83)        3;0  13.7917 (0.47)         10           1
search                    56.5999 (1.83)         93.4078 (2.66)         67.2286 (1.97)         14.0082 (16.88)        64.3981 (1.88)         8.3486 (109.89)        2;2  14.8746 (0.51)         10           1
search                    56.7810 (1.84)         70.9033 (2.02)         59.9864 (1.76)          4.2719 (5.15)         58.3330 (1.70)         4.0876 (53.80)         1;1  16.6704 (0.57)         10           1
search                    75.7419 (2.45)        127.6692 (3.63)         96.7735 (2.84)         20.8446 (25.12)        85.9897 (2.51)        39.6381 (521.74)        4;0  10.3334 (0.35)         10           1
search                    95.5686 (3.09)        147.6999 (4.20)        120.2514 (3.52)         20.0035 (24.11)       110.6257 (3.23)        31.0317 (408.45)        5;0   8.3159 (0.28)         10           1
search                   215.7008 (6.98)        235.8027 (6.71)        219.7168 (6.44)          8.3276 (10.04)       215.7897 (6.30)         0.0760 (1.0)           2;2   4.5513 (0.16)         10           1
search                   233.5547 (7.56)        298.6955 (8.50)        265.7976 (7.79)         16.2775 (19.62)       266.7413 (7.79)        10.4741 (137.87)        2;2   3.7623 (0.13)         10           1
search                   285.0257 (9.23)        430.0737 (12.23)       334.3919 (9.80)         45.2406 (54.52)       333.4686 (9.74)        54.6383 (719.18)        2;1   2.9905 (0.10)         10           1
search                   290.7375 (9.41)        306.6121 (8.72)        294.1426 (8.62)          6.4546 (7.78)        291.0541 (8.50)         0.4528 (5.96)          2;2   3.3997 (0.12)         10           1
search                   304.6935 (9.86)        408.5804 (11.62)       364.6980 (10.69)        30.0103 (36.17)       368.3421 (10.76)       16.1066 (212.00)        4;4   2.7420 (0.09)         10           1
search                   367.4028 (11.89)       396.4708 (11.28)       373.6183 (10.95)        11.9322 (14.38)       368.0537 (10.75)        0.4051 (5.33)          2;2   2.6765 (0.09)         10           1
search                   369.0236 (11.95)       483.6181 (13.76)       435.0870 (12.75)        36.9289 (44.51)       446.4479 (13.04)       52.1000 (685.76)        3;0   2.2984 (0.08)         10           1
search                   413.1194 (13.37)       617.8015 (17.57)       468.2566 (13.72)        78.9527 (95.15)       437.8942 (12.79)       14.7107 (193.63)        2;2   2.1356 (0.07)         10           1
search                   489.1580 (15.83)       751.5827 (21.38)       557.1621 (16.32)        76.0427 (91.64)       557.9404 (16.29)       67.2374 (885.01)        1;1   1.7948 (0.06)         10           1
search                   544.2145 (17.62)       906.1244 (25.78)       698.4238 (20.46)       170.9126 (205.98)      602.5087 (17.60)      340.6716 (>1000.0)       4;0   1.4318 (0.05)         10           1
search                   736.4411 (23.84)     1,317.0896 (37.47)       946.2601 (27.73)       237.0943 (285.74)      823.4042 (24.05)      444.0386 (>1000.0)       3;0   1.0568 (0.04)         10           1
search                   935.1300 (30.27)     1,674.9821 (47.65)     1,181.5126 (34.62)       300.4421 (362.09)    1,042.7015 (30.45)      638.1003 (>1000.0)       3;0   0.8464 (0.03)         10           1
search                 1,988.3217 (64.36)     2,236.1195 (63.61)     2,122.5664 (62.19)        84.2680 (101.56)    2,134.8166 (62.34)      102.3413 (>1000.0)       4;0   0.4711 (0.02)         10           1
search                 2,121.8539 (68.68)     2,162.8215 (61.53)     2,131.3630 (62.45)        16.1710 (19.49)     2,124.2231 (62.03)        3.3153 (43.64)         2;2   0.4692 (0.02)         10           1
search                 2,714.6383 (87.87)     2,957.0971 (84.12)     2,852.5973 (83.58)        76.3063 (91.96)     2,852.5998 (83.31)       88.1094 (>1000.0)       4;0   0.3506 (0.01)         10           1
search                 2,804.4664 (90.78)     3,177.3145 (90.39)     2,977.6490 (87.25)       120.9297 (145.74)    2,996.9175 (87.52)      183.5055 (>1000.0)       3;0   0.3358 (0.01)         10           1
search                 2,868.0529 (92.84)     2,890.0061 (82.21)     2,874.4118 (84.22)         6.2193 (7.50)      2,872.6125 (83.89)        4.5460 (59.84)         2;1   0.3479 (0.01)         10           1
search                 3,550.7682 (114.94)    4,115.3644 (117.07)    3,720.1109 (109.00)      167.1763 (201.48)    3,684.4223 (107.60)     131.4492 (>1000.0)       2;1   0.2688 (0.01)         10           1
search                 3,634.6788 (117.65)    3,680.6143 (104.70)    3,646.2193 (106.84)       14.8240 (17.87)     3,640.3016 (106.31)       5.5981 (73.68)         2;2   0.2743 (0.01)         10           1
search                 3,846.4653 (124.51)    5,590.3456 (159.03)    4,225.6011 (123.81)      505.9110 (609.71)    4,106.0789 (119.91)     249.1866 (>1000.0)       1;1   0.2367 (0.01)         10           1
search                 4,898.9840 (158.58)    7,229.3174 (205.65)    5,445.2081 (159.55)      664.3232 (800.63)    5,295.3217 (154.64)     350.8218 (>1000.0)       1;1   0.1836 (0.01)         10           1
search                 5,419.5092 (175.43)    9,290.5167 (264.29)    7,329.5766 (214.76)    1,770.4514 (>1000.0)   7,413.0851 (216.49)   3,348.3366 (>1000.0)       3;0   0.1364 (0.00)         10           1
search                 7,704.5429 (249.39)   13,222.9065 (376.15)    9,581.5632 (280.74)    2,149.0345 (>1000.0)   8,495.4321 (248.10)   3,417.1954 (>1000.0)       2;0   0.1044 (0.00)         10           1
search                 9,321.5572 (301.73)   16,951.5720 (482.22)   13,420.2256 (393.22)    3,241.9216 (>1000.0)  13,557.3782 (395.92)   6,086.3636 (>1000.0)       2;0   0.0745 (0.00)         10           1
search                21,194.5537 (686.05)   34,400.0150 (978.58)   22,530.5827 (660.15)    4,170.5211 (>1000.0)  21,207.9459 (619.34)      23.8997 (314.58)        1;1   0.0444 (0.00)         10           1
search                28,638.1052 (926.99)   28,839.2962 (820.40)   28,721.5942 (841.55)       62.3202 (75.11)    28,712.3872 (838.50)      61.5803 (810.55)        3;1   0.0348 (0.00)         10           1
search                36,333.7031 (>1000.0)  66,473.7417 (>1000.0)  42,408.3156 (>1000.0)  12,655.4617 (>1000.0)  36,395.5243 (>1000.0)    224.7556 (>1000.0)       2;2   0.0236 (0.00)         10           1
--------------------------------------------------------------------------------------------------------------------------------------------------------------------------------------------------------------

Legend:
  Outliers: 1 Standard Deviation from Mean; 1.5 IQR (InterQuartile Range) from 1st Quartile and 3rd Quartile.
  OPS: Operations Per Second, computed as 1 / Mean
======================== 4 passed in 3667.30s (1:01:07) ========================
