
Wrote benchmark data in: <_io.BufferedWriter name='results/config_33-results-random-walk.json'>
- Python 3.7.9, pytest-6.2.2, py-1.10.0, pluggy-0.13.1
benchmark: 3.2.3 (defaults: timer=time.perf_counter disable_gc=False min_rounds=5 min_time=0.000005 max_time=1.0 calibration_precision=10 warmup=False warmup_iterations=100000)
rootdir: /work/smjawol3/gecocoo-2021-03-06T20_04_12.073701-origin_develop
plugins: reraise-1.0.3, benchmark-3.2.3
collected 4 items

bench_operations.py benchmarking with 1 thread(s)
generating 11 tables
benchmarking insert 1/11
benchmarking insert 2/11
benchmarking insert 3/11
benchmarking insert 4/11
benchmarking insert 5/11
benchmarking insert 6/11
benchmarking insert 7/11
benchmarking insert 8/11
benchmarking insert 9/11
benchmarking insert 10/11
benchmarking insert 11/11
benchmarking search 1/11 (1000000 keys)
benchmarking search 2/11 (1000000 keys)
benchmarking search 3/11 (1000000 keys)
benchmarking search 4/11 (1000000 keys)
benchmarking search 5/11 (1000000 keys)
benchmarking search 6/11 (1000000 keys)
benchmarking search 7/11 (1000000 keys)
benchmarking search 8/11 (1000000 keys)
benchmarking search 9/11 (1000000 keys)
benchmarking search 10/11 (1000000 keys)
benchmarking search 11/11 (1000000 keys)
benchmarking search 1/11 (1000000 keys)
benchmarking search 2/11 (1000000 keys)
benchmarking search 3/11 (1000000 keys)
benchmarking search 4/11 (1000000 keys)
benchmarking search 5/11 (1000000 keys)
benchmarking search 6/11 (1000000 keys)
benchmarking search 7/11 (1000000 keys)
benchmarking search 8/11 (1000000 keys)
benchmarking search 9/11 (1000000 keys)
benchmarking search 10/11 (1000000 keys)
benchmarking search 11/11 (1000000 keys)
benchmarking search 1/11 (1000000 keys)
benchmarking search 2/11 (1000000 keys)
benchmarking search 3/11 (1000000 keys)
benchmarking search 4/11 (1000000 keys)
benchmarking search 5/11 (1000000 keys)
benchmarking search 6/11 (1000000 keys)
benchmarking search 7/11 (1000000 keys)
benchmarking search 8/11 (1000000 keys)
benchmarking search 9/11 (1000000 keys)
benchmarking search 10/11 (1000000 keys)
benchmarking search 11/11 (1000000 keys)
benchmarking search 1/11 (10000000 keys)
benchmarking search 2/11 (10000000 keys)
benchmarking search 3/11 (10000000 keys)
benchmarking search 4/11 (10000000 keys)
benchmarking search 5/11 (10000000 keys)
benchmarking search 6/11 (10000000 keys)
benchmarking search 7/11 (10000000 keys)
benchmarking search 8/11 (10000000 keys)
benchmarking search 9/11 (10000000 keys)
benchmarking search 10/11 (10000000 keys)
benchmarking search 11/11 (10000000 keys)
benchmarking search 1/11 (10000000 keys)
benchmarking search 2/11 (10000000 keys)
benchmarking search 3/11 (10000000 keys)
benchmarking search 4/11 (10000000 keys)
benchmarking search 5/11 (10000000 keys)
benchmarking search 6/11 (10000000 keys)
benchmarking search 7/11 (10000000 keys)
benchmarking search 8/11 (10000000 keys)
benchmarking search 9/11 (10000000 keys)
benchmarking search 10/11 (10000000 keys)
benchmarking search 11/11 (10000000 keys)
benchmarking search 1/11 (10000000 keys)
benchmarking search 2/11 (10000000 keys)
benchmarking search 3/11 (10000000 keys)
benchmarking search 4/11 (10000000 keys)
benchmarking search 5/11 (10000000 keys)
benchmarking search 6/11 (10000000 keys)
benchmarking search 7/11 (10000000 keys)
benchmarking search 8/11 (10000000 keys)
benchmarking search 9/11 (10000000 keys)
benchmarking search 10/11 (10000000 keys)
benchmarking search 11/11 (10000000 keys)
benchmarking search 1/11 (100000000 keys)
benchmarking search 2/11 (100000000 keys)
benchmarking search 3/11 (100000000 keys)
benchmarking search 4/11 (100000000 keys)
benchmarking search 5/11 (100000000 keys)
benchmarking search 6/11 (100000000 keys)
benchmarking search 7/11 (100000000 keys)
benchmarking search 8/11 (100000000 keys)
benchmarking search 9/11 (100000000 keys)
benchmarking search 10/11 (100000000 keys)
benchmarking search 11/11 (100000000 keys)
benchmarking search 1/11 (100000000 keys)
benchmarking search 2/11 (100000000 keys)
benchmarking search 3/11 (100000000 keys)
benchmarking search 4/11 (100000000 keys)
benchmarking search 5/11 (100000000 keys)
benchmarking search 6/11 (100000000 keys)
benchmarking search 7/11 (100000000 keys)
benchmarking search 8/11 (100000000 keys)
benchmarking search 9/11 (100000000 keys)
benchmarking search 10/11 (100000000 keys)
benchmarking search 11/11 (100000000 keys)
benchmarking search 1/11 (100000000 keys)
benchmarking search 2/11 (100000000 keys)
benchmarking search 3/11 (100000000 keys)
benchmarking search 4/11 (100000000 keys)
benchmarking search 5/11 (100000000 keys)
benchmarking search 6/11 (100000000 keys)
benchmarking search 7/11 (100000000 keys)
benchmarking search 8/11 (100000000 keys)
benchmarking search 9/11 (100000000 keys)
benchmarking search 10/11 (100000000 keys)
benchmarking search 11/11 (100000000 keys)
.benchmarking with 4 thread(s)
generating 11 tables
benchmarking insert 1/11
benchmarking insert 2/11
benchmarking insert 3/11
benchmarking insert 4/11
benchmarking insert 5/11
benchmarking insert 6/11
benchmarking insert 7/11
benchmarking insert 8/11
benchmarking insert 9/11
benchmarking insert 10/11
benchmarking insert 11/11
benchmarking search 1/11 (1000000 keys)
benchmarking search 2/11 (1000000 keys)
benchmarking search 3/11 (1000000 keys)
benchmarking search 4/11 (1000000 keys)
benchmarking search 5/11 (1000000 keys)
benchmarking search 6/11 (1000000 keys)
benchmarking search 7/11 (1000000 keys)
benchmarking search 8/11 (1000000 keys)
benchmarking search 9/11 (1000000 keys)
benchmarking search 10/11 (1000000 keys)
benchmarking search 11/11 (1000000 keys)
benchmarking search 1/11 (1000000 keys)
benchmarking search 2/11 (1000000 keys)
benchmarking search 3/11 (1000000 keys)
benchmarking search 4/11 (1000000 keys)
benchmarking search 5/11 (1000000 keys)
benchmarking search 6/11 (1000000 keys)
benchmarking search 7/11 (1000000 keys)
benchmarking search 8/11 (1000000 keys)
benchmarking search 9/11 (1000000 keys)
benchmarking search 10/11 (1000000 keys)
benchmarking search 11/11 (1000000 keys)
benchmarking search 1/11 (1000000 keys)
benchmarking search 2/11 (1000000 keys)
benchmarking search 3/11 (1000000 keys)
benchmarking search 4/11 (1000000 keys)
benchmarking search 5/11 (1000000 keys)
benchmarking search 6/11 (1000000 keys)
benchmarking search 7/11 (1000000 keys)
benchmarking search 8/11 (1000000 keys)
benchmarking search 9/11 (1000000 keys)
benchmarking search 10/11 (1000000 keys)
benchmarking search 11/11 (1000000 keys)
benchmarking search 1/11 (10000000 keys)
benchmarking search 2/11 (10000000 keys)
benchmarking search 3/11 (10000000 keys)
benchmarking search 4/11 (10000000 keys)
benchmarking search 5/11 (10000000 keys)
benchmarking search 6/11 (10000000 keys)
benchmarking search 7/11 (10000000 keys)
benchmarking search 8/11 (10000000 keys)
benchmarking search 9/11 (10000000 keys)
benchmarking search 10/11 (10000000 keys)
benchmarking search 11/11 (10000000 keys)
benchmarking search 1/11 (10000000 keys)
benchmarking search 2/11 (10000000 keys)
benchmarking search 3/11 (10000000 keys)
benchmarking search 4/11 (10000000 keys)
benchmarking search 5/11 (10000000 keys)
benchmarking search 6/11 (10000000 keys)
benchmarking search 7/11 (10000000 keys)
benchmarking search 8/11 (10000000 keys)
benchmarking search 9/11 (10000000 keys)
benchmarking search 10/11 (10000000 keys)
benchmarking search 11/11 (10000000 keys)
benchmarking search 1/11 (10000000 keys)
benchmarking search 2/11 (10000000 keys)
benchmarking search 3/11 (10000000 keys)
benchmarking search 4/11 (10000000 keys)
benchmarking search 5/11 (10000000 keys)
benchmarking search 6/11 (10000000 keys)
benchmarking search 7/11 (10000000 keys)
benchmarking search 8/11 (10000000 keys)
benchmarking search 9/11 (10000000 keys)
benchmarking search 10/11 (10000000 keys)
benchmarking search 11/11 (10000000 keys)
benchmarking search 1/11 (100000000 keys)
benchmarking search 2/11 (100000000 keys)
benchmarking search 3/11 (100000000 keys)
benchmarking search 4/11 (100000000 keys)
benchmarking search 5/11 (100000000 keys)
benchmarking search 6/11 (100000000 keys)
benchmarking search 7/11 (100000000 keys)
benchmarking search 8/11 (100000000 keys)
benchmarking search 9/11 (100000000 keys)
benchmarking search 10/11 (100000000 keys)
benchmarking search 11/11 (100000000 keys)
benchmarking search 1/11 (100000000 keys)
benchmarking search 2/11 (100000000 keys)
benchmarking search 3/11 (100000000 keys)
benchmarking search 4/11 (100000000 keys)
benchmarking search 5/11 (100000000 keys)
benchmarking search 6/11 (100000000 keys)
benchmarking search 7/11 (100000000 keys)
benchmarking search 8/11 (100000000 keys)
benchmarking search 9/11 (100000000 keys)
benchmarking search 10/11 (100000000 keys)
benchmarking search 11/11 (100000000 keys)
benchmarking search 1/11 (100000000 keys)
benchmarking search 2/11 (100000000 keys)
benchmarking search 3/11 (100000000 keys)
benchmarking search 4/11 (100000000 keys)
benchmarking search 5/11 (100000000 keys)
benchmarking search 6/11 (100000000 keys)
benchmarking search 7/11 (100000000 keys)
benchmarking search 8/11 (100000000 keys)
benchmarking search 9/11 (100000000 keys)
benchmarking search 10/11 (100000000 keys)
benchmarking search 11/11 (100000000 keys)
.benchmarking with 8 thread(s)
generating 11 tables
benchmarking insert 1/11
benchmarking insert 2/11
benchmarking insert 3/11
benchmarking insert 4/11
benchmarking insert 5/11
benchmarking insert 6/11
benchmarking insert 7/11
benchmarking insert 8/11
benchmarking insert 9/11
benchmarking insert 10/11
benchmarking insert 11/11
benchmarking search 1/11 (1000000 keys)
benchmarking search 2/11 (1000000 keys)
benchmarking search 3/11 (1000000 keys)
benchmarking search 4/11 (1000000 keys)
benchmarking search 5/11 (1000000 keys)
benchmarking search 6/11 (1000000 keys)
benchmarking search 7/11 (1000000 keys)
benchmarking search 8/11 (1000000 keys)
benchmarking search 9/11 (1000000 keys)
benchmarking search 10/11 (1000000 keys)
benchmarking search 11/11 (1000000 keys)
benchmarking search 1/11 (1000000 keys)
benchmarking search 2/11 (1000000 keys)
benchmarking search 3/11 (1000000 keys)
benchmarking search 4/11 (1000000 keys)
benchmarking search 5/11 (1000000 keys)
benchmarking search 6/11 (1000000 keys)
benchmarking search 7/11 (1000000 keys)
benchmarking search 8/11 (1000000 keys)
benchmarking search 9/11 (1000000 keys)
benchmarking search 10/11 (1000000 keys)
benchmarking search 11/11 (1000000 keys)
benchmarking search 1/11 (1000000 keys)
benchmarking search 2/11 (1000000 keys)
benchmarking search 3/11 (1000000 keys)
benchmarking search 4/11 (1000000 keys)
benchmarking search 5/11 (1000000 keys)
benchmarking search 6/11 (1000000 keys)
benchmarking search 7/11 (1000000 keys)
benchmarking search 8/11 (1000000 keys)
benchmarking search 9/11 (1000000 keys)
benchmarking search 10/11 (1000000 keys)
benchmarking search 11/11 (1000000 keys)
benchmarking search 1/11 (10000000 keys)
benchmarking search 2/11 (10000000 keys)
benchmarking search 3/11 (10000000 keys)
benchmarking search 4/11 (10000000 keys)
benchmarking search 5/11 (10000000 keys)
benchmarking search 6/11 (10000000 keys)
benchmarking search 7/11 (10000000 keys)
benchmarking search 8/11 (10000000 keys)
benchmarking search 9/11 (10000000 keys)
benchmarking search 10/11 (10000000 keys)
benchmarking search 11/11 (10000000 keys)
benchmarking search 1/11 (10000000 keys)
benchmarking search 2/11 (10000000 keys)
benchmarking search 3/11 (10000000 keys)
benchmarking search 4/11 (10000000 keys)
benchmarking search 5/11 (10000000 keys)
benchmarking search 6/11 (10000000 keys)
benchmarking search 7/11 (10000000 keys)
benchmarking search 8/11 (10000000 keys)
benchmarking search 9/11 (10000000 keys)
benchmarking search 10/11 (10000000 keys)
benchmarking search 11/11 (10000000 keys)
benchmarking search 1/11 (10000000 keys)
benchmarking search 2/11 (10000000 keys)
benchmarking search 3/11 (10000000 keys)
benchmarking search 4/11 (10000000 keys)
benchmarking search 5/11 (10000000 keys)
benchmarking search 6/11 (10000000 keys)
benchmarking search 7/11 (10000000 keys)
benchmarking search 8/11 (10000000 keys)
benchmarking search 9/11 (10000000 keys)
benchmarking search 10/11 (10000000 keys)
benchmarking search 11/11 (10000000 keys)
benchmarking search 1/11 (100000000 keys)
benchmarking search 2/11 (100000000 keys)
benchmarking search 3/11 (100000000 keys)
benchmarking search 4/11 (100000000 keys)
benchmarking search 5/11 (100000000 keys)
benchmarking search 6/11 (100000000 keys)
benchmarking search 7/11 (100000000 keys)
benchmarking search 8/11 (100000000 keys)
benchmarking search 9/11 (100000000 keys)
benchmarking search 10/11 (100000000 keys)
benchmarking search 11/11 (100000000 keys)
benchmarking search 1/11 (100000000 keys)
benchmarking search 2/11 (100000000 keys)
benchmarking search 3/11 (100000000 keys)
benchmarking search 4/11 (100000000 keys)
benchmarking search 5/11 (100000000 keys)
benchmarking search 6/11 (100000000 keys)
benchmarking search 7/11 (100000000 keys)
benchmarking search 8/11 (100000000 keys)
benchmarking search 9/11 (100000000 keys)
benchmarking search 10/11 (100000000 keys)
benchmarking search 11/11 (100000000 keys)
benchmarking search 1/11 (100000000 keys)
benchmarking search 2/11 (100000000 keys)
benchmarking search 3/11 (100000000 keys)
benchmarking search 4/11 (100000000 keys)
benchmarking search 5/11 (100000000 keys)
benchmarking search 6/11 (100000000 keys)
benchmarking search 7/11 (100000000 keys)
benchmarking search 8/11 (100000000 keys)
benchmarking search 9/11 (100000000 keys)
benchmarking search 10/11 (100000000 keys)
benchmarking search 11/11 (100000000 keys)
.benchmarking with 16 thread(s)
generating 11 tables
benchmarking insert 1/11
benchmarking insert 2/11
benchmarking insert 3/11
benchmarking insert 4/11
benchmarking insert 5/11
benchmarking insert 6/11
benchmarking insert 7/11
benchmarking insert 8/11
benchmarking insert 9/11
benchmarking insert 10/11
benchmarking insert 11/11
benchmarking search 1/11 (1000000 keys)
benchmarking search 2/11 (1000000 keys)
benchmarking search 3/11 (1000000 keys)
benchmarking search 4/11 (1000000 keys)
benchmarking search 5/11 (1000000 keys)
benchmarking search 6/11 (1000000 keys)
benchmarking search 7/11 (1000000 keys)
benchmarking search 8/11 (1000000 keys)
benchmarking search 9/11 (1000000 keys)
benchmarking search 10/11 (1000000 keys)
benchmarking search 11/11 (1000000 keys)
benchmarking search 1/11 (1000000 keys)
benchmarking search 2/11 (1000000 keys)
benchmarking search 3/11 (1000000 keys)
benchmarking search 4/11 (1000000 keys)
benchmarking search 5/11 (1000000 keys)
benchmarking search 6/11 (1000000 keys)
benchmarking search 7/11 (1000000 keys)
benchmarking search 8/11 (1000000 keys)
benchmarking search 9/11 (1000000 keys)
benchmarking search 10/11 (1000000 keys)
benchmarking search 11/11 (1000000 keys)
benchmarking search 1/11 (1000000 keys)
benchmarking search 2/11 (1000000 keys)
benchmarking search 3/11 (1000000 keys)
benchmarking search 4/11 (1000000 keys)
benchmarking search 5/11 (1000000 keys)
benchmarking search 6/11 (1000000 keys)
benchmarking search 7/11 (1000000 keys)
benchmarking search 8/11 (1000000 keys)
benchmarking search 9/11 (1000000 keys)
benchmarking search 10/11 (1000000 keys)
benchmarking search 11/11 (1000000 keys)
benchmarking search 1/11 (10000000 keys)
benchmarking search 2/11 (10000000 keys)
benchmarking search 3/11 (10000000 keys)
benchmarking search 4/11 (10000000 keys)
benchmarking search 5/11 (10000000 keys)
benchmarking search 6/11 (10000000 keys)
benchmarking search 7/11 (10000000 keys)
benchmarking search 8/11 (10000000 keys)
benchmarking search 9/11 (10000000 keys)
benchmarking search 10/11 (10000000 keys)
benchmarking search 11/11 (10000000 keys)
benchmarking search 1/11 (10000000 keys)
benchmarking search 2/11 (10000000 keys)
benchmarking search 3/11 (10000000 keys)
benchmarking search 4/11 (10000000 keys)
benchmarking search 5/11 (10000000 keys)
benchmarking search 6/11 (10000000 keys)
benchmarking search 7/11 (10000000 keys)
benchmarking search 8/11 (10000000 keys)
benchmarking search 9/11 (10000000 keys)
benchmarking search 10/11 (10000000 keys)
benchmarking search 11/11 (10000000 keys)
benchmarking search 1/11 (10000000 keys)
benchmarking search 2/11 (10000000 keys)
benchmarking search 3/11 (10000000 keys)
benchmarking search 4/11 (10000000 keys)
benchmarking search 5/11 (10000000 keys)
benchmarking search 6/11 (10000000 keys)
benchmarking search 7/11 (10000000 keys)
benchmarking search 8/11 (10000000 keys)
benchmarking search 9/11 (10000000 keys)
benchmarking search 10/11 (10000000 keys)
benchmarking search 11/11 (10000000 keys)
benchmarking search 1/11 (100000000 keys)
benchmarking search 2/11 (100000000 keys)
benchmarking search 3/11 (100000000 keys)
benchmarking search 4/11 (100000000 keys)
benchmarking search 5/11 (100000000 keys)
benchmarking search 6/11 (100000000 keys)
benchmarking search 7/11 (100000000 keys)
benchmarking search 8/11 (100000000 keys)
benchmarking search 9/11 (100000000 keys)
benchmarking search 10/11 (100000000 keys)
benchmarking search 11/11 (100000000 keys)
benchmarking search 1/11 (100000000 keys)
benchmarking search 2/11 (100000000 keys)
benchmarking search 3/11 (100000000 keys)
benchmarking search 4/11 (100000000 keys)
benchmarking search 5/11 (100000000 keys)
benchmarking search 6/11 (100000000 keys)
benchmarking search 7/11 (100000000 keys)
benchmarking search 8/11 (100000000 keys)
benchmarking search 9/11 (100000000 keys)
benchmarking search 10/11 (100000000 keys)
benchmarking search 11/11 (100000000 keys)
benchmarking search 1/11 (100000000 keys)
benchmarking search 2/11 (100000000 keys)
benchmarking search 3/11 (100000000 keys)
benchmarking search 4/11 (100000000 keys)
benchmarking search 5/11 (100000000 keys)
benchmarking search 6/11 (100000000 keys)
benchmarking search 7/11 (100000000 keys)
benchmarking search 8/11 (100000000 keys)
benchmarking search 9/11 (100000000 keys)
benchmarking search 10/11 (100000000 keys)
benchmarking search 11/11 (100000000 keys)
.


Computing stats ...Computing stats ... group 1/2Computing stats ... group 1/2: minComputing stats ... group 1/2: min (1/4)Computing stats ... group 1/2: min (2/4)Computing stats ... group 1/2: min (3/4)Computing stats ... group 1/2: min (4/4)Computing stats ... group 1/2: min (1/4)Computing stats ... group 1/2: min (2/4)Computing stats ... group 1/2: min (3/4)Computing stats ... group 1/2: min (4/4)Computing stats ... group 1/2: maxComputing stats ... group 1/2: max (1/4)Computing stats ... group 1/2: max (2/4)Computing stats ... group 1/2: max (3/4)Computing stats ... group 1/2: max (4/4)Computing stats ... group 1/2: max (1/4)Computing stats ... group 1/2: max (2/4)Computing stats ... group 1/2: max (3/4)Computing stats ... group 1/2: max (4/4)Computing stats ... group 1/2: meanComputing stats ... group 1/2: mean (1/4)Computing stats ... group 1/2: mean (2/4)Computing stats ... group 1/2: mean (3/4)Computing stats ... group 1/2: mean (4/4)Computing stats ... group 1/2: mean (1/4)Computing stats ... group 1/2: mean (2/4)Computing stats ... group 1/2: mean (3/4)Computing stats ... group 1/2: mean (4/4)Computing stats ... group 1/2: medianComputing stats ... group 1/2: median (1/4)Computing stats ... group 1/2: median (2/4)Computing stats ... group 1/2: median (3/4)Computing stats ... group 1/2: median (4/4)Computing stats ... group 1/2: median (1/4)Computing stats ... group 1/2: median (2/4)Computing stats ... group 1/2: median (3/4)Computing stats ... group 1/2: median (4/4)Computing stats ... group 1/2: iqrComputing stats ... group 1/2: iqr (1/4)Computing stats ... group 1/2: iqr (2/4)Computing stats ... group 1/2: iqr (3/4)Computing stats ... group 1/2: iqr (4/4)Computing stats ... group 1/2: iqr (1/4)Computing stats ... group 1/2: iqr (2/4)Computing stats ... group 1/2: iqr (3/4)Computing stats ... group 1/2: iqr (4/4)Computing stats ... group 1/2: stddevComputing stats ... group 1/2: stddev (1/4)Computing stats ... group 1/2: stddev (2/4)Computing stats ... group 1/2: stddev (3/4)Computing stats ... group 1/2: stddev (4/4)Computing stats ... group 1/2: stddev (1/4)Computing stats ... group 1/2: stddev (2/4)Computing stats ... group 1/2: stddev (3/4)Computing stats ... group 1/2: stddev (4/4)Computing stats ... group 1/2: opsComputing stats ... group 1/2: ops (1/4)Computing stats ... group 1/2: ops (2/4)Computing stats ... group 1/2: ops (3/4)Computing stats ... group 1/2: ops (4/4)Computing stats ... group 1/2: ops (1/4)Computing stats ... group 1/2: ops (2/4)Computing stats ... group 1/2: ops (3/4)Computing stats ... group 1/2: ops (4/4)Computing stats ... group 1/2: ops: outliersComputing stats ... group 1/2: ops: outliers (1/4)Computing stats ... group 1/2: ops: outliers (2/4)Computing stats ... group 1/2: ops: outliers (3/4)Computing stats ... group 1/2: ops: outliers (4/4)Computing stats ... group 1/2: ops: roundsComputing stats ... group 1/2: ops: rounds (1/4)Computing stats ... group 1/2: ops: rounds (2/4)Computing stats ... group 1/2: ops: rounds (3/4)Computing stats ... group 1/2: ops: rounds (4/4)Computing stats ... group 1/2: ops: iterationsComputing stats ... group 1/2: ops: iterations (1/4)Computing stats ... group 1/2: ops: iterations (2/4)Computing stats ... group 1/2: ops: iterations (3/4)Computing stats ... group 1/2: ops: iterations (4/4)--------------------------------------------------------------------------- benchmark 'inserting': 4 tests --------------------------------------------------------------------------
Name (time in s)         Min                 Max               Mean            StdDev             Median                IQR            Outliers     OPS            Rounds  Iterations
-------------------------------------------------------------------------------------------------------------------------------------------------------------------------------------
insert               12.2041 (1.0)       21.0532 (1.35)     14.4762 (1.0)      2.9330 (5.82)     13.1961 (1.0)       0.4522 (1.0)           2;3  0.0691 (1.0)          10           1
insert               14.1605 (1.16)      15.6362 (1.0)      14.8544 (1.03)     0.5037 (1.0)      14.8229 (1.12)      0.8356 (1.85)          4;0  0.0673 (0.97)         10           1
insert               22.9230 (1.88)      42.1194 (2.69)     30.0074 (2.07)     8.5892 (17.05)    24.6349 (1.87)     17.6405 (39.01)         3;0  0.0333 (0.48)         10           1
insert               83.0285 (6.80)     100.3573 (6.42)     86.1900 (5.95)     6.3351 (12.58)    83.1181 (6.30)      0.8736 (1.93)          2;2  0.0116 (0.17)         10           1
-------------------------------------------------------------------------------------------------------------------------------------------------------------------------------------

Computing stats ... group 2/2Computing stats ... group 2/2: minComputing stats ... group 2/2: min (1/36)Computing stats ... group 2/2: min (2/36)Computing stats ... group 2/2: min (3/36)Computing stats ... group 2/2: min (4/36)Computing stats ... group 2/2: min (5/36)Computing stats ... group 2/2: min (6/36)Computing stats ... group 2/2: min (7/36)Computing stats ... group 2/2: min (8/36)Computing stats ... group 2/2: min (9/36)Computing stats ... group 2/2: min (10/36)Computing stats ... group 2/2: min (11/36)Computing stats ... group 2/2: min (12/36)Computing stats ... group 2/2: min (13/36)Computing stats ... group 2/2: min (14/36)Computing stats ... group 2/2: min (15/36)Computing stats ... group 2/2: min (16/36)Computing stats ... group 2/2: min (17/36)Computing stats ... group 2/2: min (18/36)Computing stats ... group 2/2: min (19/36)Computing stats ... group 2/2: min (20/36)Computing stats ... group 2/2: min (21/36)Computing stats ... group 2/2: min (22/36)Computing stats ... group 2/2: min (23/36)Computing stats ... group 2/2: min (24/36)Computing stats ... group 2/2: min (25/36)Computing stats ... group 2/2: min (26/36)Computing stats ... group 2/2: min (27/36)Computing stats ... group 2/2: min (28/36)Computing stats ... group 2/2: min (29/36)Computing stats ... group 2/2: min (30/36)Computing stats ... group 2/2: min (31/36)Computing stats ... group 2/2: min (32/36)Computing stats ... group 2/2: min (33/36)Computing stats ... group 2/2: min (34/36)Computing stats ... group 2/2: min (35/36)Computing stats ... group 2/2: min (36/36)Computing stats ... group 2/2: min (1/36)Computing stats ... group 2/2: min (2/36)Computing stats ... group 2/2: min (3/36)Computing stats ... group 2/2: min (4/36)Computing stats ... group 2/2: min (5/36)Computing stats ... group 2/2: min (6/36)Computing stats ... group 2/2: min (7/36)Computing stats ... group 2/2: min (8/36)Computing stats ... group 2/2: min (9/36)Computing stats ... group 2/2: min (10/36)Computing stats ... group 2/2: min (11/36)Computing stats ... group 2/2: min (12/36)Computing stats ... group 2/2: min (13/36)Computing stats ... group 2/2: min (14/36)Computing stats ... group 2/2: min (15/36)Computing stats ... group 2/2: min (16/36)Computing stats ... group 2/2: min (17/36)Computing stats ... group 2/2: min (18/36)Computing stats ... group 2/2: min (19/36)Computing stats ... group 2/2: min (20/36)Computing stats ... group 2/2: min (21/36)Computing stats ... group 2/2: min (22/36)Computing stats ... group 2/2: min (23/36)Computing stats ... group 2/2: min (24/36)Computing stats ... group 2/2: min (25/36)Computing stats ... group 2/2: min (26/36)Computing stats ... group 2/2: min (27/36)Computing stats ... group 2/2: min (28/36)Computing stats ... group 2/2: min (29/36)Computing stats ... group 2/2: min (30/36)Computing stats ... group 2/2: min (31/36)Computing stats ... group 2/2: min (32/36)Computing stats ... group 2/2: min (33/36)Computing stats ... group 2/2: min (34/36)Computing stats ... group 2/2: min (35/36)Computing stats ... group 2/2: min (36/36)Computing stats ... group 2/2: maxComputing stats ... group 2/2: max (1/36)Computing stats ... group 2/2: max (2/36)Computing stats ... group 2/2: max (3/36)Computing stats ... group 2/2: max (4/36)Computing stats ... group 2/2: max (5/36)Computing stats ... group 2/2: max (6/36)Computing stats ... group 2/2: max (7/36)Computing stats ... group 2/2: max (8/36)Computing stats ... group 2/2: max (9/36)Computing stats ... group 2/2: max (10/36)Computing stats ... group 2/2: max (11/36)Computing stats ... group 2/2: max (12/36)Computing stats ... group 2/2: max (13/36)Computing stats ... group 2/2: max (14/36)Computing stats ... group 2/2: max (15/36)Computing stats ... group 2/2: max (16/36)Computing stats ... group 2/2: max (17/36)Computing stats ... group 2/2: max (18/36)Computing stats ... group 2/2: max (19/36)Computing stats ... group 2/2: max (20/36)Computing stats ... group 2/2: max (21/36)Computing stats ... group 2/2: max (22/36)Computing stats ... group 2/2: max (23/36)Computing stats ... group 2/2: max (24/36)Computing stats ... group 2/2: max (25/36)Computing stats ... group 2/2: max (26/36)Computing stats ... group 2/2: max (27/36)Computing stats ... group 2/2: max (28/36)Computing stats ... group 2/2: max (29/36)Computing stats ... group 2/2: max (30/36)Computing stats ... group 2/2: max (31/36)Computing stats ... group 2/2: max (32/36)Computing stats ... group 2/2: max (33/36)Computing stats ... group 2/2: max (34/36)Computing stats ... group 2/2: max (35/36)Computing stats ... group 2/2: max (36/36)Computing stats ... group 2/2: max (1/36)Computing stats ... group 2/2: max (2/36)Computing stats ... group 2/2: max (3/36)Computing stats ... group 2/2: max (4/36)Computing stats ... group 2/2: max (5/36)Computing stats ... group 2/2: max (6/36)Computing stats ... group 2/2: max (7/36)Computing stats ... group 2/2: max (8/36)Computing stats ... group 2/2: max (9/36)Computing stats ... group 2/2: max (10/36)Computing stats ... group 2/2: max (11/36)Computing stats ... group 2/2: max (12/36)Computing stats ... group 2/2: max (13/36)Computing stats ... group 2/2: max (14/36)Computing stats ... group 2/2: max (15/36)Computing stats ... group 2/2: max (16/36)Computing stats ... group 2/2: max (17/36)Computing stats ... group 2/2: max (18/36)Computing stats ... group 2/2: max (19/36)Computing stats ... group 2/2: max (20/36)Computing stats ... group 2/2: max (21/36)Computing stats ... group 2/2: max (22/36)Computing stats ... group 2/2: max (23/36)Computing stats ... group 2/2: max (24/36)Computing stats ... group 2/2: max (25/36)Computing stats ... group 2/2: max (26/36)Computing stats ... group 2/2: max (27/36)Computing stats ... group 2/2: max (28/36)Computing stats ... group 2/2: max (29/36)Computing stats ... group 2/2: max (30/36)Computing stats ... group 2/2: max (31/36)Computing stats ... group 2/2: max (32/36)Computing stats ... group 2/2: max (33/36)Computing stats ... group 2/2: max (34/36)Computing stats ... group 2/2: max (35/36)Computing stats ... group 2/2: max (36/36)Computing stats ... group 2/2: meanComputing stats ... group 2/2: mean (1/36)Computing stats ... group 2/2: mean (2/36)Computing stats ... group 2/2: mean (3/36)Computing stats ... group 2/2: mean (4/36)Computing stats ... group 2/2: mean (5/36)Computing stats ... group 2/2: mean (6/36)Computing stats ... group 2/2: mean (7/36)Computing stats ... group 2/2: mean (8/36)Computing stats ... group 2/2: mean (9/36)Computing stats ... group 2/2: mean (10/36)Computing stats ... group 2/2: mean (11/36)Computing stats ... group 2/2: mean (12/36)Computing stats ... group 2/2: mean (13/36)Computing stats ... group 2/2: mean (14/36)Computing stats ... group 2/2: mean (15/36)Computing stats ... group 2/2: mean (16/36)Computing stats ... group 2/2: mean (17/36)Computing stats ... group 2/2: mean (18/36)Computing stats ... group 2/2: mean (19/36)Computing stats ... group 2/2: mean (20/36)Computing stats ... group 2/2: mean (21/36)Computing stats ... group 2/2: mean (22/36)Computing stats ... group 2/2: mean (23/36)Computing stats ... group 2/2: mean (24/36)Computing stats ... group 2/2: mean (25/36)Computing stats ... group 2/2: mean (26/36)Computing stats ... group 2/2: mean (27/36)Computing stats ... group 2/2: mean (28/36)Computing stats ... group 2/2: mean (29/36)Computing stats ... group 2/2: mean (30/36)Computing stats ... group 2/2: mean (31/36)Computing stats ... group 2/2: mean (32/36)Computing stats ... group 2/2: mean (33/36)Computing stats ... group 2/2: mean (34/36)Computing stats ... group 2/2: mean (35/36)Computing stats ... group 2/2: mean (36/36)Computing stats ... group 2/2: mean (1/36)Computing stats ... group 2/2: mean (2/36)Computing stats ... group 2/2: mean (3/36)Computing stats ... group 2/2: mean (4/36)Computing stats ... group 2/2: mean (5/36)Computing stats ... group 2/2: mean (6/36)Computing stats ... group 2/2: mean (7/36)Computing stats ... group 2/2: mean (8/36)Computing stats ... group 2/2: mean (9/36)Computing stats ... group 2/2: mean (10/36)Computing stats ... group 2/2: mean (11/36)Computing stats ... group 2/2: mean (12/36)Computing stats ... group 2/2: mean (13/36)Computing stats ... group 2/2: mean (14/36)Computing stats ... group 2/2: mean (15/36)Computing stats ... group 2/2: mean (16/36)Computing stats ... group 2/2: mean (17/36)Computing stats ... group 2/2: mean (18/36)Computing stats ... group 2/2: mean (19/36)Computing stats ... group 2/2: mean (20/36)Computing stats ... group 2/2: mean (21/36)Computing stats ... group 2/2: mean (22/36)Computing stats ... group 2/2: mean (23/36)Computing stats ... group 2/2: mean (24/36)Computing stats ... group 2/2: mean (25/36)Computing stats ... group 2/2: mean (26/36)Computing stats ... group 2/2: mean (27/36)Computing stats ... group 2/2: mean (28/36)Computing stats ... group 2/2: mean (29/36)Computing stats ... group 2/2: mean (30/36)Computing stats ... group 2/2: mean (31/36)Computing stats ... group 2/2: mean (32/36)Computing stats ... group 2/2: mean (33/36)Computing stats ... group 2/2: mean (34/36)Computing stats ... group 2/2: mean (35/36)Computing stats ... group 2/2: mean (36/36)Computing stats ... group 2/2: medianComputing stats ... group 2/2: median (1/36)Computing stats ... group 2/2: median (2/36)Computing stats ... group 2/2: median (3/36)Computing stats ... group 2/2: median (4/36)Computing stats ... group 2/2: median (5/36)Computing stats ... group 2/2: median (6/36)Computing stats ... group 2/2: median (7/36)Computing stats ... group 2/2: median (8/36)Computing stats ... group 2/2: median (9/36)Computing stats ... group 2/2: median (10/36)Computing stats ... group 2/2: median (11/36)Computing stats ... group 2/2: median (12/36)Computing stats ... group 2/2: median (13/36)Computing stats ... group 2/2: median (14/36)Computing stats ... group 2/2: median (15/36)Computing stats ... group 2/2: median (16/36)Computing stats ... group 2/2: median (17/36)Computing stats ... group 2/2: median (18/36)Computing stats ... group 2/2: median (19/36)Computing stats ... group 2/2: median (20/36)Computing stats ... group 2/2: median (21/36)Computing stats ... group 2/2: median (22/36)Computing stats ... group 2/2: median (23/36)Computing stats ... group 2/2: median (24/36)Computing stats ... group 2/2: median (25/36)Computing stats ... group 2/2: median (26/36)Computing stats ... group 2/2: median (27/36)Computing stats ... group 2/2: median (28/36)Computing stats ... group 2/2: median (29/36)Computing stats ... group 2/2: median (30/36)Computing stats ... group 2/2: median (31/36)Computing stats ... group 2/2: median (32/36)Computing stats ... group 2/2: median (33/36)Computing stats ... group 2/2: median (34/36)Computing stats ... group 2/2: median (35/36)Computing stats ... group 2/2: median (36/36)Computing stats ... group 2/2: median (1/36)Computing stats ... group 2/2: median (2/36)Computing stats ... group 2/2: median (3/36)Computing stats ... group 2/2: median (4/36)Computing stats ... group 2/2: median (5/36)Computing stats ... group 2/2: median (6/36)Computing stats ... group 2/2: median (7/36)Computing stats ... group 2/2: median (8/36)Computing stats ... group 2/2: median (9/36)Computing stats ... group 2/2: median (10/36)Computing stats ... group 2/2: median (11/36)Computing stats ... group 2/2: median (12/36)Computing stats ... group 2/2: median (13/36)Computing stats ... group 2/2: median (14/36)Computing stats ... group 2/2: median (15/36)Computing stats ... group 2/2: median (16/36)Computing stats ... group 2/2: median (17/36)Computing stats ... group 2/2: median (18/36)Computing stats ... group 2/2: median (19/36)Computing stats ... group 2/2: median (20/36)Computing stats ... group 2/2: median (21/36)Computing stats ... group 2/2: median (22/36)Computing stats ... group 2/2: median (23/36)Computing stats ... group 2/2: median (24/36)Computing stats ... group 2/2: median (25/36)Computing stats ... group 2/2: median (26/36)Computing stats ... group 2/2: median (27/36)Computing stats ... group 2/2: median (28/36)Computing stats ... group 2/2: median (29/36)Computing stats ... group 2/2: median (30/36)Computing stats ... group 2/2: median (31/36)Computing stats ... group 2/2: median (32/36)Computing stats ... group 2/2: median (33/36)Computing stats ... group 2/2: median (34/36)Computing stats ... group 2/2: median (35/36)Computing stats ... group 2/2: median (36/36)Computing stats ... group 2/2: iqrComputing stats ... group 2/2: iqr (1/36)Computing stats ... group 2/2: iqr (2/36)Computing stats ... group 2/2: iqr (3/36)Computing stats ... group 2/2: iqr (4/36)Computing stats ... group 2/2: iqr (5/36)Computing stats ... group 2/2: iqr (6/36)Computing stats ... group 2/2: iqr (7/36)Computing stats ... group 2/2: iqr (8/36)Computing stats ... group 2/2: iqr (9/36)Computing stats ... group 2/2: iqr (10/36)Computing stats ... group 2/2: iqr (11/36)Computing stats ... group 2/2: iqr (12/36)Computing stats ... group 2/2: iqr (13/36)Computing stats ... group 2/2: iqr (14/36)Computing stats ... group 2/2: iqr (15/36)Computing stats ... group 2/2: iqr (16/36)Computing stats ... group 2/2: iqr (17/36)Computing stats ... group 2/2: iqr (18/36)Computing stats ... group 2/2: iqr (19/36)Computing stats ... group 2/2: iqr (20/36)Computing stats ... group 2/2: iqr (21/36)Computing stats ... group 2/2: iqr (22/36)Computing stats ... group 2/2: iqr (23/36)Computing stats ... group 2/2: iqr (24/36)Computing stats ... group 2/2: iqr (25/36)Computing stats ... group 2/2: iqr (26/36)Computing stats ... group 2/2: iqr (27/36)Computing stats ... group 2/2: iqr (28/36)Computing stats ... group 2/2: iqr (29/36)Computing stats ... group 2/2: iqr (30/36)Computing stats ... group 2/2: iqr (31/36)Computing stats ... group 2/2: iqr (32/36)Computing stats ... group 2/2: iqr (33/36)Computing stats ... group 2/2: iqr (34/36)Computing stats ... group 2/2: iqr (35/36)Computing stats ... group 2/2: iqr (36/36)Computing stats ... group 2/2: iqr (1/36)Computing stats ... group 2/2: iqr (2/36)Computing stats ... group 2/2: iqr (3/36)Computing stats ... group 2/2: iqr (4/36)Computing stats ... group 2/2: iqr (5/36)Computing stats ... group 2/2: iqr (6/36)Computing stats ... group 2/2: iqr (7/36)Computing stats ... group 2/2: iqr (8/36)Computing stats ... group 2/2: iqr (9/36)Computing stats ... group 2/2: iqr (10/36)Computing stats ... group 2/2: iqr (11/36)Computing stats ... group 2/2: iqr (12/36)Computing stats ... group 2/2: iqr (13/36)Computing stats ... group 2/2: iqr (14/36)Computing stats ... group 2/2: iqr (15/36)Computing stats ... group 2/2: iqr (16/36)Computing stats ... group 2/2: iqr (17/36)Computing stats ... group 2/2: iqr (18/36)Computing stats ... group 2/2: iqr (19/36)Computing stats ... group 2/2: iqr (20/36)Computing stats ... group 2/2: iqr (21/36)Computing stats ... group 2/2: iqr (22/36)Computing stats ... group 2/2: iqr (23/36)Computing stats ... group 2/2: iqr (24/36)Computing stats ... group 2/2: iqr (25/36)Computing stats ... group 2/2: iqr (26/36)Computing stats ... group 2/2: iqr (27/36)Computing stats ... group 2/2: iqr (28/36)Computing stats ... group 2/2: iqr (29/36)Computing stats ... group 2/2: iqr (30/36)Computing stats ... group 2/2: iqr (31/36)Computing stats ... group 2/2: iqr (32/36)Computing stats ... group 2/2: iqr (33/36)Computing stats ... group 2/2: iqr (34/36)Computing stats ... group 2/2: iqr (35/36)Computing stats ... group 2/2: iqr (36/36)Computing stats ... group 2/2: stddevComputing stats ... group 2/2: stddev (1/36)Computing stats ... group 2/2: stddev (2/36)Computing stats ... group 2/2: stddev (3/36)Computing stats ... group 2/2: stddev (4/36)Computing stats ... group 2/2: stddev (5/36)Computing stats ... group 2/2: stddev (6/36)Computing stats ... group 2/2: stddev (7/36)Computing stats ... group 2/2: stddev (8/36)Computing stats ... group 2/2: stddev (9/36)Computing stats ... group 2/2: stddev (10/36)Computing stats ... group 2/2: stddev (11/36)Computing stats ... group 2/2: stddev (12/36)Computing stats ... group 2/2: stddev (13/36)Computing stats ... group 2/2: stddev (14/36)Computing stats ... group 2/2: stddev (15/36)Computing stats ... group 2/2: stddev (16/36)Computing stats ... group 2/2: stddev (17/36)Computing stats ... group 2/2: stddev (18/36)Computing stats ... group 2/2: stddev (19/36)Computing stats ... group 2/2: stddev (20/36)Computing stats ... group 2/2: stddev (21/36)Computing stats ... group 2/2: stddev (22/36)Computing stats ... group 2/2: stddev (23/36)Computing stats ... group 2/2: stddev (24/36)Computing stats ... group 2/2: stddev (25/36)Computing stats ... group 2/2: stddev (26/36)Computing stats ... group 2/2: stddev (27/36)Computing stats ... group 2/2: stddev (28/36)Computing stats ... group 2/2: stddev (29/36)Computing stats ... group 2/2: stddev (30/36)Computing stats ... group 2/2: stddev (31/36)Computing stats ... group 2/2: stddev (32/36)Computing stats ... group 2/2: stddev (33/36)Computing stats ... group 2/2: stddev (34/36)Computing stats ... group 2/2: stddev (35/36)Computing stats ... group 2/2: stddev (36/36)Computing stats ... group 2/2: stddev (1/36)Computing stats ... group 2/2: stddev (2/36)Computing stats ... group 2/2: stddev (3/36)Computing stats ... group 2/2: stddev (4/36)Computing stats ... group 2/2: stddev (5/36)Computing stats ... group 2/2: stddev (6/36)Computing stats ... group 2/2: stddev (7/36)Computing stats ... group 2/2: stddev (8/36)Computing stats ... group 2/2: stddev (9/36)Computing stats ... group 2/2: stddev (10/36)Computing stats ... group 2/2: stddev (11/36)Computing stats ... group 2/2: stddev (12/36)Computing stats ... group 2/2: stddev (13/36)Computing stats ... group 2/2: stddev (14/36)Computing stats ... group 2/2: stddev (15/36)Computing stats ... group 2/2: stddev (16/36)Computing stats ... group 2/2: stddev (17/36)Computing stats ... group 2/2: stddev (18/36)Computing stats ... group 2/2: stddev (19/36)Computing stats ... group 2/2: stddev (20/36)Computing stats ... group 2/2: stddev (21/36)Computing stats ... group 2/2: stddev (22/36)Computing stats ... group 2/2: stddev (23/36)Computing stats ... group 2/2: stddev (24/36)Computing stats ... group 2/2: stddev (25/36)Computing stats ... group 2/2: stddev (26/36)Computing stats ... group 2/2: stddev (27/36)Computing stats ... group 2/2: stddev (28/36)Computing stats ... group 2/2: stddev (29/36)Computing stats ... group 2/2: stddev (30/36)Computing stats ... group 2/2: stddev (31/36)Computing stats ... group 2/2: stddev (32/36)Computing stats ... group 2/2: stddev (33/36)Computing stats ... group 2/2: stddev (34/36)Computing stats ... group 2/2: stddev (35/36)Computing stats ... group 2/2: stddev (36/36)Computing stats ... group 2/2: opsComputing stats ... group 2/2: ops (1/36)Computing stats ... group 2/2: ops (2/36)Computing stats ... group 2/2: ops (3/36)Computing stats ... group 2/2: ops (4/36)Computing stats ... group 2/2: ops (5/36)Computing stats ... group 2/2: ops (6/36)Computing stats ... group 2/2: ops (7/36)Computing stats ... group 2/2: ops (8/36)Computing stats ... group 2/2: ops (9/36)Computing stats ... group 2/2: ops (10/36)Computing stats ... group 2/2: ops (11/36)Computing stats ... group 2/2: ops (12/36)Computing stats ... group 2/2: ops (13/36)Computing stats ... group 2/2: ops (14/36)Computing stats ... group 2/2: ops (15/36)Computing stats ... group 2/2: ops (16/36)Computing stats ... group 2/2: ops (17/36)Computing stats ... group 2/2: ops (18/36)Computing stats ... group 2/2: ops (19/36)Computing stats ... group 2/2: ops (20/36)Computing stats ... group 2/2: ops (21/36)Computing stats ... group 2/2: ops (22/36)Computing stats ... group 2/2: ops (23/36)Computing stats ... group 2/2: ops (24/36)Computing stats ... group 2/2: ops (25/36)Computing stats ... group 2/2: ops (26/36)Computing stats ... group 2/2: ops (27/36)Computing stats ... group 2/2: ops (28/36)Computing stats ... group 2/2: ops (29/36)Computing stats ... group 2/2: ops (30/36)Computing stats ... group 2/2: ops (31/36)Computing stats ... group 2/2: ops (32/36)Computing stats ... group 2/2: ops (33/36)Computing stats ... group 2/2: ops (34/36)Computing stats ... group 2/2: ops (35/36)Computing stats ... group 2/2: ops (36/36)Computing stats ... group 2/2: ops (1/36)Computing stats ... group 2/2: ops (2/36)Computing stats ... group 2/2: ops (3/36)Computing stats ... group 2/2: ops (4/36)Computing stats ... group 2/2: ops (5/36)Computing stats ... group 2/2: ops (6/36)Computing stats ... group 2/2: ops (7/36)Computing stats ... group 2/2: ops (8/36)Computing stats ... group 2/2: ops (9/36)Computing stats ... group 2/2: ops (10/36)Computing stats ... group 2/2: ops (11/36)Computing stats ... group 2/2: ops (12/36)Computing stats ... group 2/2: ops (13/36)Computing stats ... group 2/2: ops (14/36)Computing stats ... group 2/2: ops (15/36)Computing stats ... group 2/2: ops (16/36)Computing stats ... group 2/2: ops (17/36)Computing stats ... group 2/2: ops (18/36)Computing stats ... group 2/2: ops (19/36)Computing stats ... group 2/2: ops (20/36)Computing stats ... group 2/2: ops (21/36)Computing stats ... group 2/2: ops (22/36)Computing stats ... group 2/2: ops (23/36)Computing stats ... group 2/2: ops (24/36)Computing stats ... group 2/2: ops (25/36)Computing stats ... group 2/2: ops (26/36)Computing stats ... group 2/2: ops (27/36)Computing stats ... group 2/2: ops (28/36)Computing stats ... group 2/2: ops (29/36)Computing stats ... group 2/2: ops (30/36)Computing stats ... group 2/2: ops (31/36)Computing stats ... group 2/2: ops (32/36)Computing stats ... group 2/2: ops (33/36)Computing stats ... group 2/2: ops (34/36)Computing stats ... group 2/2: ops (35/36)Computing stats ... group 2/2: ops (36/36)Computing stats ... group 2/2: ops: outliersComputing stats ... group 2/2: ops: outliers (1/36)Computing stats ... group 2/2: ops: outliers (2/36)Computing stats ... group 2/2: ops: outliers (3/36)Computing stats ... group 2/2: ops: outliers (4/36)Computing stats ... group 2/2: ops: outliers (5/36)Computing stats ... group 2/2: ops: outliers (6/36)Computing stats ... group 2/2: ops: outliers (7/36)Computing stats ... group 2/2: ops: outliers (8/36)Computing stats ... group 2/2: ops: outliers (9/36)Computing stats ... group 2/2: ops: outliers (10/36)Computing stats ... group 2/2: ops: outliers (11/36)Computing stats ... group 2/2: ops: outliers (12/36)Computing stats ... group 2/2: ops: outliers (13/36)Computing stats ... group 2/2: ops: outliers (14/36)Computing stats ... group 2/2: ops: outliers (15/36)Computing stats ... group 2/2: ops: outliers (16/36)Computing stats ... group 2/2: ops: outliers (17/36)Computing stats ... group 2/2: ops: outliers (18/36)Computing stats ... group 2/2: ops: outliers (19/36)Computing stats ... group 2/2: ops: outliers (20/36)Computing stats ... group 2/2: ops: outliers (21/36)Computing stats ... group 2/2: ops: outliers (22/36)Computing stats ... group 2/2: ops: outliers (23/36)Computing stats ... group 2/2: ops: outliers (24/36)Computing stats ... group 2/2: ops: outliers (25/36)Computing stats ... group 2/2: ops: outliers (26/36)Computing stats ... group 2/2: ops: outliers (27/36)Computing stats ... group 2/2: ops: outliers (28/36)Computing stats ... group 2/2: ops: outliers (29/36)Computing stats ... group 2/2: ops: outliers (30/36)Computing stats ... group 2/2: ops: outliers (31/36)Computing stats ... group 2/2: ops: outliers (32/36)Computing stats ... group 2/2: ops: outliers (33/36)Computing stats ... group 2/2: ops: outliers (34/36)Computing stats ... group 2/2: ops: outliers (35/36)Computing stats ... group 2/2: ops: outliers (36/36)Computing stats ... group 2/2: ops: roundsComputing stats ... group 2/2: ops: rounds (1/36)Computing stats ... group 2/2: ops: rounds (2/36)Computing stats ... group 2/2: ops: rounds (3/36)Computing stats ... group 2/2: ops: rounds (4/36)Computing stats ... group 2/2: ops: rounds (5/36)Computing stats ... group 2/2: ops: rounds (6/36)Computing stats ... group 2/2: ops: rounds (7/36)Computing stats ... group 2/2: ops: rounds (8/36)Computing stats ... group 2/2: ops: rounds (9/36)Computing stats ... group 2/2: ops: rounds (10/36)Computing stats ... group 2/2: ops: rounds (11/36)Computing stats ... group 2/2: ops: rounds (12/36)Computing stats ... group 2/2: ops: rounds (13/36)Computing stats ... group 2/2: ops: rounds (14/36)Computing stats ... group 2/2: ops: rounds (15/36)Computing stats ... group 2/2: ops: rounds (16/36)Computing stats ... group 2/2: ops: rounds (17/36)Computing stats ... group 2/2: ops: rounds (18/36)Computing stats ... group 2/2: ops: rounds (19/36)Computing stats ... group 2/2: ops: rounds (20/36)Computing stats ... group 2/2: ops: rounds (21/36)Computing stats ... group 2/2: ops: rounds (22/36)Computing stats ... group 2/2: ops: rounds (23/36)Computing stats ... group 2/2: ops: rounds (24/36)Computing stats ... group 2/2: ops: rounds (25/36)Computing stats ... group 2/2: ops: rounds (26/36)Computing stats ... group 2/2: ops: rounds (27/36)Computing stats ... group 2/2: ops: rounds (28/36)Computing stats ... group 2/2: ops: rounds (29/36)Computing stats ... group 2/2: ops: rounds (30/36)Computing stats ... group 2/2: ops: rounds (31/36)Computing stats ... group 2/2: ops: rounds (32/36)Computing stats ... group 2/2: ops: rounds (33/36)Computing stats ... group 2/2: ops: rounds (34/36)Computing stats ... group 2/2: ops: rounds (35/36)Computing stats ... group 2/2: ops: rounds (36/36)Computing stats ... group 2/2: ops: iterationsComputing stats ... group 2/2: ops: iterations (1/36)Computing stats ... group 2/2: ops: iterations (2/36)Computing stats ... group 2/2: ops: iterations (3/36)Computing stats ... group 2/2: ops: iterations (4/36)Computing stats ... group 2/2: ops: iterations (5/36)Computing stats ... group 2/2: ops: iterations (6/36)Computing stats ... group 2/2: ops: iterations (7/36)Computing stats ... group 2/2: ops: iterations (8/36)Computing stats ... group 2/2: ops: iterations (9/36)Computing stats ... group 2/2: ops: iterations (10/36)Computing stats ... group 2/2: ops: iterations (11/36)Computing stats ... group 2/2: ops: iterations (12/36)Computing stats ... group 2/2: ops: iterations (13/36)Computing stats ... group 2/2: ops: iterations (14/36)Computing stats ... group 2/2: ops: iterations (15/36)Computing stats ... group 2/2: ops: iterations (16/36)Computing stats ... group 2/2: ops: iterations (17/36)Computing stats ... group 2/2: ops: iterations (18/36)Computing stats ... group 2/2: ops: iterations (19/36)Computing stats ... group 2/2: ops: iterations (20/36)Computing stats ... group 2/2: ops: iterations (21/36)Computing stats ... group 2/2: ops: iterations (22/36)Computing stats ... group 2/2: ops: iterations (23/36)Computing stats ... group 2/2: ops: iterations (24/36)Computing stats ... group 2/2: ops: iterations (25/36)Computing stats ... group 2/2: ops: iterations (26/36)Computing stats ... group 2/2: ops: iterations (27/36)Computing stats ... group 2/2: ops: iterations (28/36)Computing stats ... group 2/2: ops: iterations (29/36)Computing stats ... group 2/2: ops: iterations (30/36)Computing stats ... group 2/2: ops: iterations (31/36)Computing stats ... group 2/2: ops: iterations (32/36)Computing stats ... group 2/2: ops: iterations (33/36)Computing stats ... group 2/2: ops: iterations (34/36)Computing stats ... group 2/2: ops: iterations (35/36)Computing stats ... group 2/2: ops: iterations (36/36)-------------------------------------------------------------------------------------- benchmark 'searching': 36 tests --------------------------------------------------------------------------------------
Name (time in ms)             Min                    Max                   Mean                StdDev                 Median                   IQR            Outliers      OPS            Rounds  Iterations
-------------------------------------------------------------------------------------------------------------------------------------------------------------------------------------------------------------
search                    29.7591 (1.0)          46.7842 (1.23)         36.0599 (1.10)         7.6444 (3.21)         30.6838 (1.0)         14.2999 (66.13)         4;0  27.7316 (0.91)         10           1
search                    30.4754 (1.02)         38.1463 (1.0)          32.7043 (1.0)          2.3850 (1.0)          31.8684 (1.04)         0.9147 (4.23)          2;2  30.5770 (1.0)          10           1
search                    36.3593 (1.22)         61.7706 (1.62)         49.8888 (1.53)        10.9031 (4.57)         57.1790 (1.86)        20.0022 (92.50)         5;0  20.0446 (0.66)         10           1
search                    40.4356 (1.36)         48.7892 (1.28)         42.2441 (1.29)         2.4546 (1.03)         41.4557 (1.35)         1.7280 (7.99)          1;1  23.6719 (0.77)         10           1
search                    43.7632 (1.47)         73.7116 (1.93)         52.8730 (1.62)        12.5304 (5.25)         45.9954 (1.50)        23.6410 (109.33)        3;0  18.9133 (0.62)         10           1
search                    48.3841 (1.63)         61.4900 (1.61)         52.4075 (1.60)         4.3981 (1.84)         50.7312 (1.65)         4.1088 (19.00)         2;1  19.0813 (0.62)         10           1
search                    52.6575 (1.77)         87.5982 (2.30)         64.8073 (1.98)        15.6262 (6.55)         56.7516 (1.85)        33.8191 (156.40)        3;0  15.4304 (0.50)         10           1
search                    66.4086 (2.23)        118.9897 (3.12)         84.2237 (2.58)        20.5517 (8.62)         73.7669 (2.40)        34.6858 (160.41)        2;0  11.8731 (0.39)         10           1
search                    80.1580 (2.69)        141.0293 (3.70)        107.8889 (3.30)        26.5606 (11.14)        94.3773 (3.08)        50.0483 (231.46)        5;0   9.2688 (0.30)         10           1
search                   199.7350 (6.71)        288.6700 (7.57)        209.7335 (6.41)        27.7794 (11.65)       200.0513 (6.52)         3.1707 (14.66)         1;1   4.7680 (0.16)         10           1
search                   219.7586 (7.38)        265.2541 (6.95)        250.6106 (7.66)        14.6082 (6.13)        256.2968 (8.35)        18.1611 (83.99)         3;0   3.9903 (0.13)         10           1
search                   245.5306 (8.25)        378.1846 (9.91)        314.2941 (9.61)        36.9114 (15.48)       320.0370 (10.43)       37.2545 (172.29)        3;0   3.1817 (0.10)         10           1
search                   251.6626 (8.46)        372.7167 (9.77)        263.9698 (8.07)        38.2106 (16.02)       251.8351 (8.21)         0.2162 (1.0)           1;2   3.7883 (0.12)         10           1
search                   264.3808 (8.88)        423.4325 (11.10)       329.9123 (10.09)       67.5632 (28.33)       300.9410 (9.81)       117.5699 (543.72)        2;0   3.0311 (0.10)         10           1
search                   302.8233 (10.18)       458.8611 (12.03)       318.7546 (9.75)        49.2293 (20.64)       303.1589 (9.88)         0.5276 (2.44)          1;1   3.1372 (0.10)         10           1
search                   330.1471 (11.09)       415.8480 (10.90)       381.9907 (11.68)       27.2322 (11.42)       387.2200 (12.62)       31.7800 (146.97)        4;0   2.6179 (0.09)         10           1
search                   338.4406 (11.37)       409.2004 (10.73)       365.8405 (11.19)       26.8326 (11.25)       357.6472 (11.66)       52.6915 (243.68)        4;0   2.7334 (0.09)         10           1
search                   415.2136 (13.95)       608.5125 (15.95)       463.1300 (14.16)       56.1824 (23.56)       442.4284 (14.42)       44.6595 (206.54)        1;1   2.1592 (0.07)         10           1
search                   517.9545 (17.40)       886.4720 (23.24)       679.0318 (20.76)      169.1773 (70.93)       577.9514 (18.84)      327.3438 (>1000.0)       4;0   1.4727 (0.05)         10           1
search                   645.3401 (21.69)     1,137.2418 (29.81)       815.0020 (24.92)      204.4002 (85.70)       702.3363 (22.89)      409.5926 (>1000.0)       3;0   1.2270 (0.04)         10           1
search                   784.4575 (26.36)     1,391.0121 (36.47)     1,009.2805 (30.86)      252.7819 (105.99)      869.7026 (28.34)      502.9040 (>1000.0)       3;0   0.9908 (0.03)         10           1
search                 1,818.7604 (61.12)     2,036.0136 (53.37)     1,902.0181 (58.16)       70.1360 (29.41)     1,870.0507 (60.95)      105.0275 (485.72)        3;0   0.5258 (0.02)         10           1
search                 1,960.5110 (65.88)     2,817.6175 (73.86)     2,048.8770 (62.65)      270.1414 (113.27)    1,962.4559 (63.96)        1.1298 (5.23)          1;2   0.4881 (0.02)         10           1
search                 2,367.3250 (79.55)     2,618.3583 (68.64)     2,477.7505 (75.76)       89.4260 (37.50)     2,472.3416 (80.57)      174.6559 (807.72)        5;0   0.4036 (0.01)         10           1
search                 2,480.1022 (83.34)     3,697.2853 (96.92)     2,604.1918 (79.63)      384.0927 (161.05)    2,481.7294 (80.88)        2.5825 (11.94)         1;2   0.3840 (0.01)         10           1
search                 2,621.8822 (88.10)     3,901.2732 (102.27)    2,941.2560 (89.93)      493.7960 (207.04)    2,750.3263 (89.63)      125.6569 (581.12)        2;2   0.3400 (0.01)         10           1
search                 2,958.4610 (99.41)     3,228.9697 (84.65)     3,089.1677 (94.46)       86.4090 (36.23)     3,095.8939 (100.90)     109.5471 (506.62)        4;0   0.3237 (0.01)         10           1
search                 2,993.5994 (100.59)    4,605.4300 (120.73)    3,157.6240 (96.55)      508.7104 (213.30)    2,996.7684 (97.67)        2.0422 (9.44)          1;1   0.3167 (0.01)         10           1
search                 3,414.6536 (114.74)    4,798.5257 (125.79)    3,799.5622 (116.18)     500.6180 (209.90)    3,596.4838 (117.21)     367.8373 (>1000.0)       2;2   0.2632 (0.01)         10           1
search                 4,122.8276 (138.54)    5,866.4670 (153.79)    4,785.2018 (146.32)     579.6385 (243.04)    4,660.1770 (151.88)   1,079.2927 (>1000.0)       3;0   0.2090 (0.01)         10           1
search                 5,045.9401 (169.56)    8,518.8589 (223.32)    5,954.3932 (182.07)   1,365.1906 (572.41)    5,312.1326 (173.12)     901.8779 (>1000.0)       2;2   0.1679 (0.01)         10           1
search                 6,454.2624 (216.88)   10,959.9463 (287.31)    7,861.0320 (240.37)   1,679.7374 (704.30)    7,102.9482 (231.49)   2,724.3836 (>1000.0)       2;0   0.1272 (0.00)         10           1
search                 7,908.6182 (265.75)   14,002.9693 (367.09)    9,788.5622 (299.31)   2,437.8383 (>1000.0)   8,570.9889 (279.33)   4,373.9123 (>1000.0)       3;0   0.1022 (0.00)         10           1
search                19,581.8252 (658.01)   28,205.9292 (739.41)   20,456.3242 (625.49)   2,722.9547 (>1000.0)  19,594.9939 (638.61)      19.9344 (92.19)         1;1   0.0489 (0.00)         10           1
search                24,778.0795 (832.62)   32,389.1019 (849.08)   25,588.0163 (782.41)   2,390.0174 (>1000.0)  24,862.9237 (810.29)      84.3745 (390.20)        1;1   0.0391 (0.00)         10           1
search                29,897.0326 (>1000.0)  46,032.3752 (>1000.0)  31,537.8912 (964.34)   5,092.8807 (>1000.0)  29,935.7603 (975.62)      31.7525 (146.84)        1;1   0.0317 (0.00)         10           1
-------------------------------------------------------------------------------------------------------------------------------------------------------------------------------------------------------------

Legend:
  Outliers: 1 Standard Deviation from Mean; 1.5 IQR (InterQuartile Range) from 1st Quartile and 3rd Quartile.
  OPS: Operations Per Second, computed as 1 / Mean
======================== 4 passed in 3340.13s (0:55:40) ========================
